npes	numPts	option	tol	1_sf_min	1_sf_mean	1_sf_max	1_split_min	1_split_mean	1_split_max	1_a2a1_min	1_a2a1_mean	1_a2a1_max	1_a2a2_min	1_a2a2_mean	1_a2a2_max	1_ls_min	1_ls_mean	1_ls_max	1_sq::rd_min	1_sq::rd_mean	1_sq::rd_max	1_auxBal_min	1_auxBal_mean	1_auxBal_max	1_par::rd_min	1_par::rd_mean	1_par::rd_max	1_totRD_min	1_totRD_mean	1_totRD_max	2_sf_min	2_sf_mean	2_sf_max	2_split_min	2_split_mean	2_split_max	2_a2a1_min	2_a2a1_mean	2_a2a1_max	2_a2a2_min	2_a2a2_mean	2_a2a2_max	2_ls_min	2_ls_mean	2_ls_max	2_sq::rd_min	2_sq::rd_mean	2_sq::rd_max	2_auxBal_min	2_auxBal_mean	2_auxBal_max	2_par::rd_min	2_par::rd_mean	2_par::rd_max	2_totRD_min	2_totRD_mean	2_totRD_max	2_tot_min	2_tot_mean	2_tot_max
2	8000000	4	0.1	0	0	0	302	302.5	303	0	0	0	101	101	101	159724	167430	175137	0	0	0	148324	155434	162544	0	0	0	160128	167835	175542	0	0	0	1870	1872.5	1875	0	0	0	537	537	537	7925	8438	8951	1255	1313	1371	0	0	0	80	593	1106	11439	11442	11445	13046	20752.5	28459
4	8000000	4	0.1	521	529.75	536	256	313.75	371	120	120	120	100	106	112	142332	168791	193212	0	0	0	131900	156372	179067	0	0	0	143224	169742	194232	3100	3114.5	3148	1540	1918.5	2295	542	589	636	498	560.5	623	7278	8963.5	10422	1113	1340.75	1548	0	0	0	86	1984.25	4101	16529	16543.5	16567	18316	37421.2	69305
8	8000000	4	0.1	518	522.5	527	295	355.125	415	115	119.75	123	97	102.75	107	154653	175333	191850	0	0	0	143259	162594	178091	0	0	0	155571	176315	192900	2962	2981.88	3003	1993	2267.88	2543	537	559.75	603	519	534.625	552	8171	9058	9862	1222	1323.12	1411	0	0	0	88	1162.25	2332	15990	16006.5	16021	17659	19605.6	20255
16	8000000	4	0.1	505	516.25	524	360	418.75	454	120	122.312	124	95	104.438	110	153909	170542	186440	0	0	0	142460	157808	172681	0	0	0	154890	171583	187487	3437	3456.19	3470	2159	2602.06	3101	528	561.562	662	511	548.25	598	7738	9148	10605	1140	1311.44	1489	0	0	0	94	2089.5	3705	17831	17846.3	17857	19513	23359.6	36421
32	8000000	4	0.1	507	524.688	535	427	480.219	524	116	119.969	126	105	114.25	123	149213	174425	186688	0	0	0	137888	161186	172435	0	0	0	150273	175546	187824	4080	4135.81	4196	2753	3187.88	3470	555	587.375	799	506	575.375	657	8034	9711.28	10971	1168	1361.31	1524	0	0	0	96	1709.34	3858	19271	19321.9	19370	21064	22365.2	29694
64	8000000	4	0.1	607	626	641	435	517.688	572	123	135.875	151	94	114.438	124	137943	177131	204424	0	0	0	127259	163650	189294	0	0	0	139094	178391	205736	4040	4130.16	4199	2878	3432.88	4553	548	593.844	778	511	586.938	692	8242	9746.39	11117	1121	1329.42	1503	0	0	0	87	2678.98	4802	20491	20577.3	20630	22363	23372.6	31387
128	8000000	4	0.1	621	638.875	651	469	568.555	638	132	143.086	151	106	122.625	132	147841	171384	201274	0	0	0	136268	157957	185867	0	0	0	149060	172716	202688	4150	4262.59	4364	3295	3939.26	5148	539	582.508	878	481	617.445	714	8160	9845.89	11387	1132	1316.43	1492	0	0	0	94	2867.52	5313	21428	21534.8	21623	23308	23808	33188
256	8000000	4	0.1	699	717.773	731	503	611.797	670	148	156.324	163	113	122.242	132	150362	175116	203006	0	0	0	138583	161183	187932	0	0	0	151733	176570	204447	5118	5216.52	5417	3546	4387.89	5811	571	630.352	1018	483	639.27	793	8073	10421.8	12235	1135	1361.88	1589	0	0	0	101	3144.98	6422	23704	23812.4	24001	25733	27773.5	50311
512	8000000	4	0.1	701	726.859	738	558	647.98	698	140	151.344	170	120	129.984	142	145629	177888	208718	0	0	0	133640	163706	192539	0	0	0	147054	179394	210293	5307	5441.95	5595	3568	5013.71	7486	556	607.6	1132	487	641.465	830	8122	10434.6	12189	1145	1332.58	1518	0	0	0	97	4390.81	8182	25784	25924.5	26058	27798	30425.1	50822
