\relax 
\providecommand\hyper@newdestlabel[2]{}
\providecommand\HyperFirstAtBeginDocument{\AtBeginDocument}
\HyperFirstAtBeginDocument{\ifx\hyper@anchor\@undefined
\global\let\oldcontentsline\contentsline
\gdef\contentsline#1#2#3#4{\oldcontentsline{#1}{#2}{#3}}
\global\let\oldnewlabel\newlabel
\gdef\newlabel#1#2{\newlabelxx{#1}#2}
\gdef\newlabelxx#1#2#3#4#5#6{\oldnewlabel{#1}{{#2}{#3}}}
\AtEndDocument{\ifx\hyper@anchor\@undefined
\let\contentsline\oldcontentsline
\let\newlabel\oldnewlabel
\fi}
\fi}
\global\let\hyper@last\relax 
\gdef\HyperFirstAtBeginDocument#1{#1}
\providecommand\HyField@AuxAddToFields[1]{}
\providecommand\HyField@AuxAddToCoFields[2]{}
\@writefile{lof}{\contentsline {figure}{\numberline {1}{\ignorespaces total time for remove duplicates with varying splitter fix parameter $k$\relax }}{1}{figure.caption.1}}
\gdef\exam@lastpage{1}
\gdef\exam@lastcoverpage{0}
\gdef\exam@totalpages{1}
\gdef\exam@numpoints{0}
\gdef\exam@numbonuspoints{0}
\gdef\exam@numquestions{0}
\gdef\exam@numparts{0}
\gdef\exam@numsubparts{0}
\gdef\exam@numsubsubparts{0}
\gdef\lastpage@withpoints{0}
\gdef\lastpage@withbonuspoints{0}
