npes	numPts	option	tol	1_sf_min	1_sf_mean	1_sf_max	1_split_min	1_split_mean	1_split_max	1_a2a1_min	1_a2a1_mean	1_a2a1_max	1_a2a2_min	1_a2a2_mean	1_a2a2_max	1_ls_min	1_ls_mean	1_ls_max	1_sq::rd_min	1_sq::rd_mean	1_sq::rd_max	1_auxBal_min	1_auxBal_mean	1_auxBal_max	1_par::rd_min	1_par::rd_mean	1_par::rd_max	1_totRD_min	1_totRD_mean	1_totRD_max	sf1_full_min	sf1_full_mean	sf1_full_max	sf1_all2all_min	sf1_all2all_mean	sf1_all2all_max	sf1_split_min	sf1_split_mean	sf1_split_max	sf2_full_min	sf2_full_mean	sf2_full_max	sf2_all2all_min	sf2_all2all_mean	sf2_all2all_max	sf2_split_min	sf2_split_mean	sf2_split_max
16	1000000	1	0.1	0	0	0	57	58.4375	62	0	0	0	20	22.625	24	193	218.688	237	16	24.625	31	0	0	0	3	20.75	45	321	321.688	325	0	0	0	0	0	0	0	0	0	0	0	0	0	0	0	0	0	0
256	1000000	1	0.1	149	150.617	153	65	77.9883	87	69	81.9062	86	18	20.6797	22	193	236.98	267	16	23.3516	31	0	0	0	3	41.9727	96	529	530.297	533	149	150.617	153	69	81.9062	86	63	68.7109	81	0	0	0	0	0	0	0	0	0
4096	1000000	1	0.001	493	537.337	614	74	100.609	186	56	73.9407	112	19	21.6702	41	204	264.78	429	18	29.926	42	0	0	0	9	323.152	445	1143	1249.57	1263	241	348.463	362	71	88.6506	100	159	259.812	290	151	188.357	254	56	73.9407	112	82	114.416	177
