npes	ts_spliter_min	ts_spliter_mean	ts_spliter_max	ss_spliter_min	ss_spliter_mean	ss_spliter_max	ts_all2all_min	ts_all2all_mean	ts_all2all_max	ss_all2all_min	ss_all2all_mean	ss_all2all_max	ts_local_min	ts_local_mean	ts_local_max	ss_local_min	ss_local_mean	ss_local_max	ts_send_min	ts_send_mean	ts_send_max	ts_recv_min	ts_recv_mean	ts_recv_max	ss_send_min	ss_send_mean	ss_send_max	ss_recv_min	ss_recv_mean	ss_recv_max	ts_lb_min	ts_lb_max	ss_lb_min	ss_lb_max	ts_min	ts_mean	ts_max	ss_min	ss_mean	ss_max zz_min	zz_mean	zz_max
2	0.024	0.024	0.024	1.378	1.378	1.378	0.014	0.0145	0.015	0.03	0.03	0.03	0.138	0.147	0.156	2.409	2.431	2.453	477935	500424	522914	477935	500424	522914	500001	500433	500865	500001	500433	500865	955021	1.04498e+06	999136	1.00086e+06	0.178	0.187	0.196	3.866	3.879	3.892	0.752	0.752	0.752
4	0.024	0.024	0.024	1.458	1.45875	1.459	0.021	0.02275	0.027	0.044	0.044	0.044	0.138	0.15025	0.16	1.722	1.87325	1.967	736768	750150	769233	693404	750150	790897	749828	750125	750421	748589	750125	751993	924171	1.05413e+06	998336	1.00216e+06	0.184	0.19825	0.21	3.258	3.40875	3.503	1.657	1.659	1.665
8	0.041	0.041	0.041	1.399	1.3995	1.4	0.024	0.02725	0.031	0.057	0.057	0.057	0.14	0.15525	0.172	1.506	1.6465	1.846	863395	875174	887829	788154	875174	957032	874712	875146	875570	871230	875146	878359	900325	1.09364e+06	995874	1.00365e+06	0.207	0.224	0.244	3.006	3.15275	3.345	3.04	3.04625	3.063
16	0.051	0.051	0.051	1.418	1.418	1.418	0.031	0.0329375	0.038	0.065	0.065875	0.066	0.15	0.159625	0.175	1.532	1.6155	1.716	932368	937484	941023	888766	937484	1.01224e+06	937023	937515	938010	934485	937515	945501	947743	1.07987e+06	996798	1.008e+06	0.233	0.243938	0.264	3.077	3.14756	3.243 5.692	5.6955	5.733
32	0.06	0.0605	0.061	1.44	1.44131	1.445	0.049	0.0515313	0.057	0.089	0.0896562	0.09	0.145	0.164594	0.18	1.53	1.60122	1.741	966041	968735	971354	885957	968735	1.05127e+06	968182	968722	969156	959425	968722	981068	914603	1.08523e+06	990452	1.01281e+06	0.258	0.278281	0.299	3.108	3.18503	3.327	9.78	9.78434	9.87
64	0.066	0.066	0.066	1.433	1.43692	1.447	0.067	0.0739219	0.081	0.112	0.112781	0.113	0.155	0.169266	0.187	1.545	1.60637	1.672	983009	984358	985633	912862	984358	1.07038e+06	984024	984350	984679	978901	984350	1.00035e+06	927229	1.08728e+06	994666	1.01625e+06	0.294	0.310437	0.335	3.156	3.22109	3.313	23.787	23.8347	24.018
128	0.076	0.07675	0.077	1.477	1.47779	1.48	0.086	0.0926094	0.1	0.135	0.149695	0.155	0.156	0.173805	0.193	1.522	1.6137	1.708	991452	992195	992878	913092	992195	1.07976e+06	991933	992193	992433	981756	992193	1.01903e+06	920214	1.08831e+06	989645	1.02689e+06	0.325	0.344461	0.368	3.205	3.29506	3.384	36.184	36.1885	36.496
256	0.085	0.085	0.085	1.442	1.44303	1.444	0.11	0.120906	0.134	0.168	0.177105	0.186	0.156	0.178461	0.203	1.547	1.6238	1.734	995728	996092	996524	902094	996092	1.08894e+06	995895	996093	996324	984044	996093	1.03629e+06	905664	1.09316e+06	987808	1.0404e+06	0.363	0.385746	0.414	3.224	3.29833	3.404	54.932	54.9359	55.286
