Labels	P00	P01	P02	P03	P04	P05	P06	P07	P08	P09	P10	P11	P12	P13	P14	P15	P16	P17	P18	P19	P20	P21	P22	P23	P24	P25	P26	P27	P28	P29	P30	P31	P32	P33	P34	P35	P36	P37	P38	P39	P40	P41	P42	P43	P44	P45	P46	P47	P48	P49	P50	P51	P52	P53	P54	P55	P56	P57	P58	P59	P60	P61	P62	P63
P00	0	2813	1882	2004	0	0	0	1173	0	0	0	0	0	0	0	0	0	0	0	0	0	0	0	0	0	0	0	115	167	6	2978	559	41	95	0	0	7	0	0	0	0	0	0	0	0	0	0	0	0	0	0	0	0	0	0	0	101	0	0	0	0	168	38	2508
P01	1669	0	2598	2630	811	0	2239	3195	1	0	0	0	76	132	0	1897	135	0	0	0	0	0	4	0	0	0	0	0	1	94	1511	0	0	0	0	0	0	0	0	0	0	0	0	0	0	0	0	0	0	0	0	0	0	0	0	0	19	149	0	5	0	566	1312	19
P02	536	1472	0	788	2503	814	35	1	0	0	0	0	0	0	0	0	0	0	0	0	0	0	0	0	143	0	0	2591	31	1	24	0	0	1	0	0	130	0	0	6	0	0	0	0	0	0	0	0	0	0	0	0	0	0	0	0	0	1	0	131	0	2457	17	26
P03	686	846	1972	0	2659	1648	2	242	0	0	0	73	0	1260	0	12	1	0	0	0	0	0	131	0	171	0	0	131	1492	2679	72	0	0	0	0	0	0	0	0	0	0	0	0	0	0	0	0	0	0	0	0	0	0	0	0	0	0	0	0	0	0	0	0	0
P04	0	194	905	2586	0	4200	542	581	0	0	0	95	30	1200	0	21	0	0	0	0	0	0	0	0	961	0	0	16	0	0	0	0	0	0	0	0	1	0	0	63	12	0	0	0	0	0	0	0	0	0	0	0	0	0	0	0	0	19	173	1670	0	33	1	0
P05	0	0	265	614	2258	0	619	16	0	0	2232	1921	33	37	0	0	0	0	0	0	0	0	113	99	2762	0	0	16	1	40	0	0	0	0	0	0	0	0	0	2	76	0	0	0	0	0	0	0	0	0	0	1	0	197	0	0	0	16	1781	39	0	0	0	0
P06	0	811	35	1	1322	1846	0	1257	27	0	76	65	2429	1	0	0	0	0	0	0	0	0	0	0	0	0	0	0	0	0	0	0	0	0	0	0	0	0	0	0	0	0	0	0	0	0	0	0	0	0	0	154	0	6	0	1	30	2579	81	94	0	1	29	0
P07	407	3073	1	623	1558	76	3672	0	3258	0	0	7	1950	125	78	1155	0	0	0	0	0	0	0	0	0	0	0	0	0	0	0	0	0	0	0	0	0	0	0	0	0	0	0	0	0	0	0	0	0	0	0	9	0	0	0	155	2258	132	0	0	0	0	111	46
P08	0	0	0	0	0	0	0	1108	0	1188	0	423	2222	0	1555	39	0	0	0	0	0	0	0	0	0	0	0	0	0	0	0	0	0	0	0	0	0	0	0	0	0	0	0	0	0	0	0	0	0	89	0	110	0	0	0	2572	31	1	0	0	0	0	0	97
P09	0	0	0	0	0	0	0	0	351	0	565	1257	162	32	2422	1958	0	1	2478	38	0	0	20	19	0	0	0	0	0	0	0	0	0	0	0	0	0	0	0	0	1	0	0	0	0	164	7	0	0	193	0	16	18	33	2554	1559	0	0	0	0	0	0	0	0
P10	0	0	0	0	0	691	16	0	0	1594	0	1466	349	0	0	0	0	0	75	0	0	0	45	1909	19	0	0	0	0	0	0	0	0	0	0	0	0	0	0	0	151	0	0	0	0	7	0	0	0	0	0	18	17	3529	115	1	0	1	42	0	0	0	0	0
P11	0	0	0	18	18	639	16	1	117	3161	4263	0	1593	1174	48	0	0	0	84	1	0	0	1874	197	19	0	0	0	0	1	0	0	0	0	0	0	0	0	0	0	0	0	0	0	0	0	0	0	0	0	0	565	715	78	13	122	0	0	0	0	0	0	0	0
P12	0	18	0	0	1	0	970	642	779	464	996	4221	0	2170	1203	330	0	0	0	0	0	0	0	0	0	0	0	0	0	0	0	0	0	0	0	0	0	0	0	0	0	0	0	0	0	0	0	0	0	0	0	1422	98	75	0	14	1	33	1	0	0	0	0	0
P13	0	22	0	498	455	40	0	27	0	141	0	3115	838	0	2612	597	34	0	6	112	0	0	2590	0	1	0	0	0	0	31	1	0	0	0	0	0	0	0	0	0	0	0	0	0	0	0	0	0	0	0	0	0	0	0	0	0	0	0	0	0	0	0	0	0
P14	0	0	0	0	0	0	0	19	541	3861	0	0	411	1189	0	3219	18	92	141	1600	0	0	29	0	0	0	0	0	0	0	0	0	0	0	0	0	0	0	0	0	0	0	0	0	0	0	0	0	45	845	0	0	0	0	2	40	0	0	0	0	0	0	0	140
P15	0	670	0	10	17	0	0	416	39	617	0	0	937	1869	2630	0	3325	1175	1165	120	0	0	122	0	0	0	0	0	0	1	168	0	0	0	0	0	0	0	0	0	0	0	0	0	0	2	112	0	347	1106	0	0	0	0	29	1	0	0	0	0	0	0	0	270
P16	0	20	0	1	0	0	0	0	0	0	0	0	0	1	0	1204	0	3332	0	1856	0	2062	899	0	0	0	0	0	18	1	608	541	1	0	0	0	0	0	0	0	0	0	0	0	0	0	55	508	0	0	0	0	0	0	0	0	0	0	0	0	0	0	0	585
P17	0	0	0	0	0	0	0	0	0	0	0	0	0	0	19	399	2164	0	1156	1057	1090	37	0	0	0	20	0	0	1	0	0	323	28	0	0	0	0	0	1	0	0	0	0	54	27	1	3260	137	12	1	0	0	0	0	0	0	0	0	0	0	0	0	0	507
P18	0	0	0	0	0	0	0	0	0	996	16	19	0	1	31	410	0	1670	0	2864	0	16	601	555	0	0	0	0	0	0	0	0	0	0	0	0	0	0	0	0	33	0	0	1	141	2851	1168	0	1	17	0	0	0	1	40	0	0	0	0	0	0	0	0	0
P19	0	0	0	0	0	0	0	0	0	0	0	0	0	23	559	41	600	2862	2633	0	2464	1111	410	17	0	0	0	0	0	0	0	0	0	0	0	0	0	0	0	0	1	0	0	65	874	33	44	0	0	0	0	0	0	0	0	0	0	0	0	0	0	0	0	0
P20	0	0	0	0	0	0	0	0	0	0	0	0	0	0	0	0	0	2982	0	1361	0	1663	17	830	0	743	285	0	27	1	0	23	1	0	0	0	0	0	31	0	36	0	0	2968	603	1	238	0	0	0	0	0	0	0	0	0	0	0	0	0	0	0	0	0
P21	0	0	0	0	0	0	0	0	0	0	0	0	0	0	0	0	1404	137	59	2994	2883	0	1899	902	0	0	0	0	570	484	25	28	0	0	0	0	0	0	0	0	0	0	0	0	0	0	0	0	0	0	0	0	0	0	0	0	0	0	0	0	0	0	0	0
P22	0	1	0	31	0	19	0	0	0	0	1	648	0	978	27	24	298	0	1448	997	62	3294	0	3656	358	24	0	0	0	552	9	0	0	0	0	0	0	0	0	0	0	0	0	0	0	0	0	0	0	0	0	0	0	0	0	0	0	0	0	0	0	0	0	0
P23	0	0	0	0	0	17	0	0	0	0	658	38	0	0	0	0	0	0	1309	76	2184	350	1961	0	396	614	21	0	0	16	0	0	0	0	0	0	0	0	24	0	3631	0	0	157	7	161	0	0	0	0	0	0	0	38	1	0	0	0	1	0	0	0	0	0
P24	0	0	32	34	346	1003	0	0	0	0	20	24	0	1	0	0	0	0	0	0	0	0	1046	1223	0	3465	0	568	16	630	0	0	0	0	0	0	16	0	93	966	1072	0	0	0	0	0	0	0	0	0	0	0	0	1	0	0	0	0	17	17	0	1	0	0
P25	0	0	0	0	0	0	0	0	0	0	0	0	0	0	0	0	0	112	0	0	1909	0	0	1584	1319	0	3283	555	148	522	0	897	54	0	0	0	20	115	2167	809	118	0	0	160	0	0	7	0	0	0	0	0	0	0	0	0	0	0	0	0	0	0	0	0
P26	0	0	0	0	0	0	0	0	0	0	0	0	0	0	0	0	0	0	0	0	668	0	0	0	0	3768	0	868	1002	33	34	2068	155	1	0	0	35	2672	124	20	0	0	0	0	0	0	0	0	0	0	0	0	0	0	0	0	0	0	0	0	0	0	0	0
P27	17	0	981	29	18	17	0	0	0	0	0	0	0	0	0	0	0	0	0	0	0	0	0	0	1454	1441	2134	0	728	38	511	23	1	33	0	0	2490	137	0	155	0	0	0	0	0	0	0	0	0	0	0	0	0	0	0	0	0	0	0	1	0	38	0	1
P28	31	1	1	542	0	1	0	0	0	0	0	0	0	0	0	0	100	4	0	0	121	1544	0	0	86	550	2705	1887	0	2648	1401	1682	0	0	0	0	0	0	0	0	0	0	0	0	0	0	0	0	0	0	0	0	0	0	0	0	0	0	0	0	0	0	0	0
P29	1	21	0	971	0	39	0	0	0	0	0	1	0	32	0	1	1	0	0	0	7	1281	1373	81	1708	1423	136	1	2753	0	521	0	0	0	0	0	0	0	0	0	0	0	0	0	0	0	0	0	0	0	0	0	0	0	0	0	0	0	0	0	0	0	0	0
P30	1050	548	23	63	0	0	0	0	0	0	0	0	0	1	0	358	1685	0	0	0	0	104	51	0	0	0	143	1616	4218	1639	0	3263	75	1164	0	0	143	2	0	0	0	0	0	0	0	0	0	0	0	0	0	0	0	0	0	0	0	0	0	0	0	1	0	22
P31	171	0	0	0	0	0	0	0	0	0	0	0	0	0	0	0	1476	931	0	0	0	0	0	0	0	294	1464	0	579	0	2006	0	3843	74	0	0	1	120	15	0	0	0	0	1	0	0	100	256	0	0	0	0	0	0	0	0	0	0	0	0	0	0	0	810
P32	11	0	0	0	0	0	0	0	0	0	0	0	0	0	0	0	0	0	0	0	0	0	0	0	0	12	29	0	0	0	16	1977	0	2454	0	647	26	1552	368	0	0	0	18	27	0	0	983	1459	0	0	0	0	0	0	0	0	0	0	0	0	0	0	0	582
P33	19	0	1	0	0	0	0	0	0	0	0	0	0	0	0	0	0	0	0	0	0	0	0	0	0	0	0	1	0	0	414	27	2763	0	1434	1489	2713	106	0	0	0	0	16	0	0	0	0	1041	0	0	0	0	0	0	0	0	0	0	0	0	18	1	155	1370
P34	0	0	0	0	0	0	0	0	0	0	0	0	0	0	0	0	0	0	0	0	0	0	0	0	0	0	0	0	0	0	0	0	0	1581	0	2834	17	16	521	618	0	1284	1402	1	0	0	0	1226	0	0	0	0	0	0	0	0	0	0	16	17	958	1	0	384
P35	0	0	0	0	0	0	0	0	0	0	0	0	0	0	0	0	0	0	0	0	0	0	0	0	0	0	0	0	0	0	0	0	1486	2515	2737	0	966	1032	518	17	0	1	1726	31	0	0	1	131	0	0	0	0	0	0	0	0	0	0	0	0	366	14	0	13
P36	1	0	30	0	1	0	0	0	0	0	0	0	0	0	0	0	0	0	0	0	0	0	0	0	1	0	0	912	0	0	24	1	1	1229	70	2663	0	3387	141	2485	0	0	0	0	0	0	0	0	0	0	0	0	0	0	0	0	0	0	0	1	214	983	0	46
P37	0	0	0	0	0	0	0	0	0	0	0	0	0	0	0	0	0	0	0	0	0	0	0	0	0	18	1000	30	0	0	1	52	1922	36	67	2826	1245	0	3480	389	0	0	0	0	0	0	0	0	0	0	0	0	0	0	0	0	0	0	0	0	0	0	0	0
P38	0	0	0	0	0	0	0	0	0	0	0	0	0	0	0	0	0	0	0	0	0	0	0	0	18	795	29	0	0	0	0	13	878	0	1303	1302	31	1961	0	1273	1379	951	211	2984	0	0	114	5	0	0	0	0	0	0	0	0	0	0	0	0	0	0	0	0
P39	0	0	1	0	16	1	0	0	0	0	0	0	0	0	0	0	0	0	0	0	0	0	0	0	329	325	19	32	0	0	0	0	0	0	1613	0	858	913	3475	0	1502	968	4	0	0	0	0	0	0	0	0	0	0	0	0	0	0	0	305	589	32	35	0	0
P40	0	0	0	0	1	17	0	0	0	0	33	0	0	0	0	0	0	0	1	0	0	0	0	1273	363	43	0	0	0	0	0	0	0	0	0	0	0	0	1286	1490	0	3524	0	1477	78	1606	0	0	0	0	0	0	0	631	16	0	0	0	304	17	0	0	0	0
P41	0	0	0	0	0	0	0	0	0	0	0	0	0	0	0	0	0	0	0	0	0	0	0	0	0	0	0	0	0	0	0	0	0	0	492	0	0	0	340	361	1180	0	5105	1433	765	1479	0	954	0	0	682	0	603	32	16	0	0	0	17	0	30	0	0	1
P42	0	0	0	0	0	0	0	0	0	0	0	0	0	0	0	0	0	0	0	0	0	0	0	0	0	0	0	0	0	0	0	0	0	0	500	654	0	0	46	1	0	2480	0	711	2754	33	68	2617	0	0	259	0	16	0	1	0	0	0	0	0	0	0	0	0
P43	0	0	0	0	0	0	0	0	0	0	0	0	0	0	0	0	0	0	0	11	1089	0	0	32	0	31	0	0	0	0	0	1	1	0	0	0	0	0	1094	0	610	612	1860	0	2607	33	2472	106	0	0	0	0	0	0	0	0	0	0	0	0	0	0	0	0
P44	0	0	0	0	0	0	0	0	0	0	0	0	0	0	0	0	0	0	27	343	191	0	0	1	0	0	0	0	0	0	0	0	0	0	0	0	0	0	0	0	17	256	1066	2631	0	2003	2631	1361	0	453	30	0	1	0	14	0	0	0	0	0	0	0	0	0
P45	0	0	0	0	0	0	0	0	0	36	1	0	0	0	0	1	0	0	1018	35	0	0	0	32	0	0	0	0	0	0	0	0	0	0	0	0	0	0	0	0	613	630	33	37	4279	0	2067	0	0	167	0	0	16	17	957	0	0	0	0	0	0	0	0	0
P46	0	0	0	0	0	0	0	0	0	1	0	0	0	0	0	26	5	1192	401	11	53	0	0	0	0	1	0	0	0	0	0	20	350	0	0	0	0	0	21	0	0	0	16	885	1068	710	0	3584	422	385	0	0	0	0	26	0	0	0	0	0	0	0	0	606
P47	0	0	0	0	0	0	0	0	0	0	0	0	0	0	0	0	175	33	0	0	0	0	0	0	0	0	0	0	0	0	0	95	527	437	439	34	0	0	1	0	0	371	965	21	614	0	1965	0	970	18	28	0	0	0	0	0	0	0	0	0	1	0	9	1070
P48	0	0	0	0	0	0	0	0	0	0	0	0	0	0	8	102	0	15	1	0	0	0	0	0	0	0	0	0	0	0	0	0	0	0	0	0	0	0	0	0	0	0	0	0	0	0	1194	2655	0	1710	706	383	0	0	18	362	17	17	0	11	13	0	457	1028
P49	0	0	0	0	0	0	0	0	17	39	0	0	0	0	311	384	0	1	19	0	0	0	0	0	0	0	0	0	0	0	0	0	0	0	0	0	0	0	0	0	0	0	0	0	1255	545	953	97	4862	0	1934	292	45	0	1311	1374	0	0	0	0	0	0	0	184
P50	0	0	0	0	0	0	0	0	0	0	0	0	0	0	0	0	0	0	0	0	0	0	0	0	0	0	0	0	0	0	0	0	0	0	0	0	0	0	0	0	0	1827	732	0	145	0	0	134	2035	3117	0	1351	1338	0	32	20	0	24	34	465	540	0	1	30
P51	0	0	0	0	0	0	32	1	19	1	1	203	544	0	0	0	0	0	0	0	0	0	0	0	0	0	0	0	0	0	0	0	0	0	0	0	0	0	0	0	0	0	0	0	0	0	0	0	976	846	2630	0	3489	915	0	1694	38	1304	339	33	0	0	16	1
P52	0	0	0	0	0	0	0	0	0	0	0	266	16	0	0	0	0	0	0	0	0	0	0	0	0	0	0	0	0	0	0	0	0	0	0	0	0	0	0	0	0	1704	67	0	6	59	0	0	0	212	3462	1246	0	1932	1472	1149	0	1	630	22	21	0	0	0
P53	0	0	0	0	0	34	1	0	0	0	1284	16	17	0	0	0	0	0	1	0	0	0	0	33	1	0	0	0	0	0	0	0	0	0	0	0	0	0	0	0	1783	156	0	0	0	55	0	0	0	0	0	310	3459	0	1700	16	0	18	626	0	0	0	0	0
P54	0	0	0	0	0	0	0	0	0	956	32	1	0	0	1	22	0	0	40	0	0	0	0	1	0	0	0	0	0	0	0	0	0	0	0	0	0	0	0	0	1	0	0	0	61	2407	115	0	100	3485	0	0	577	628	0	763	0	0	0	0	0	0	0	0
P55	0	0	0	0	0	0	0	26	912	590	0	38	17	0	40	1	0	0	0	0	0	0	0	0	0	0	0	0	0	0	0	0	0	0	0	0	0	0	0	0	0	0	0	0	0	0	0	0	1095	3930	0	2678	471	17	1947	0	997	47	0	0	0	0	19	226
P56	20	1	0	0	0	0	0	764	34	0	0	0	1	0	0	0	0	0	0	0	0	0	0	0	0	0	0	0	0	0	0	0	0	0	0	0	0	0	0	0	0	0	0	0	0	0	0	0	107	0	0	228	0	0	0	2848	0	2292	0	0	0	0	2605	460
P57	0	28	1	0	1	0	1013	24	1	0	1	0	32	0	0	0	0	0	0	0	0	0	0	0	0	0	0	0	0	0	0	0	0	0	0	0	0	0	0	0	0	0	0	0	0	0	0	0	73	0	129	3441	7	69	0	1	799	0	3343	3201	568	1	1940	88
P58	0	0	0	0	36	592	16	0	0	0	46	0	1	0	0	0	0	0	0	0	0	0	0	1	17	0	0	0	0	0	0	0	0	0	81	0	0	0	0	952	847	105	0	0	0	0	0	0	0	0	162	663	1971	1961	0	0	0	1563	0	2090	890	0	0	0
P59	0	1	32	0	595	42	18	0	0	0	0	0	0	0	0	0	0	0	0	0	0	0	0	0	18	0	0	1	0	0	0	0	0	0	68	0	1	0	0	1530	70	0	0	0	0	0	0	0	48	0	1150	0	0	0	0	0	0	1143	3774	0	3342	1147	50	537
P60	0	0	0	0	0	0	0	0	0	0	0	0	0	0	0	0	0	0	0	0	0	0	0	0	0	0	0	0	0	0	0	0	0	66	2511	1065	609	0	0	0	0	124	0	0	0	0	0	4	63	0	1303	0	0	0	0	0	0	176	304	2217	0	787	434	2379
P61	29	162	903	0	32	0	1	0	0	0	0	0	0	0	0	0	0	0	0	0	0	0	0	0	1	0	0	35	0	0	1	0	0	1	6	65	2521	0	0	153	0	0	0	0	0	0	0	0	0	0	0	0	0	0	0	0	0	1	0	2828	2113	0	1771	706
P62	8	466	16	0	1	0	31	16	0	0	0	0	0	0	0	0	0	0	0	0	0	0	0	0	0	0	0	0	0	0	0	0	0	412	0	0	0	0	0	0	0	0	0	0	0	0	0	46	1208	0	0	0	0	0	0	0	910	3521	0	181	1288	2029	0	2448
P63	897	20	24	0	0	0	0	50	66	0	0	0	0	0	89	175	337	320	0	0	0	0	0	0	0	0	0	1	0	0	22	408	755	3026	1179	0	199	0	0	0	0	0	0	0	0	0	360	723	1355	109	0	0	0	0	0	160	1095	16	0	190	1764	2162	3135	0
