[15]PETSC ERROR: ------------------------------------------------------------------------
[15]PETSC ERROR: Caught signal number 11 SEGV: Segmentation Violation, probably memory access out of range
[15]PETSC ERROR: Try option -start_in_debugger or -on_error_attach_debugger
[15]PETSC ERROR: or see http://www.mcs.anl.gov/petsc/documentation/faq.html#valgrind
[15]PETSC ERROR: or try http://valgrind.org on GNU/linux and Apple Mac OS X to find memory corruption errors
[15]PETSC ERROR: configure using --with-debugging=yes, recompile, link, and run 
[15]PETSC ERROR: to get more information on the crash.
[15]PETSC ERROR: --------------------- Error Message --------------------------------------------------------------
[15]PETSC ERROR: Signal received
[15]PETSC ERROR: See http://www.mcs.anl.gov/petsc/documentation/faq.html for trouble shooting.
[15]PETSC ERROR: Petsc Release Version 3.6.1, Jul, 22, 2015 
[15]PETSC ERROR: /home1/03727/tg830270/dendro/build_m/testPartition on a sandybridge named c558-504.stampede.tacc.utexas.edu by tg830270 Fri Nov 13 14:22:21 2015
[15]PETSC ERROR: Configure options --with-x=0 -with-pic --with-external-packages-dir=/home1/apps/intel15/mvapich2_2_1/petsc/3.6/externalpackages --with-mpi-compilers=1 --with-mpi-dir=/opt/apps/intel15/mvapich2/2.1 --with-scalar-type=real --with-shared-libraries=1 --with-precision=double --with-chaco=1 --download-chaco --with-hypre=1 --download-hypre --with-ml=1 --download-ml --with-ml=1 --download-ml --with-spai=1 --download-spai --with-superlu_dist=1 --download-superlu_dist --with-superlu=1 --download-superlu --with-parmetis=1 --download-parmetis --with-metis=1 --download-metis --with-mumps=1 --download-mumps --with-parmetis=1 --download-parmetis --with-metis=1 --download-metis --with-scalapack=1 --download-scalapack --with-blacs=1 --download-blacs --with-spooles=1 --download-spooles --with-debugging=no --with-blas-lapack-dir=/opt/apps/intel/15/composer_xe_2015.2.164/mkl --with-mpiexec=mpirun_rsh --CFLAGS="-xhost -O2" --FFLAGS="-xhost -O2" --CXXFLAGS="-xhost -O2"
[15]PETSC ERROR: #1 User provided function() line 0 in  unknown file
[cli_15]: aborting job:
application called MPI_Abort(MPI_COMM_WORLD, 59) - process 15
[c558-504.stampede.tacc.utexas.edu:mpispawn_0][readline] Unexpected End-Of-File on file descriptor 12. MPI process died?
[c558-504.stampede.tacc.utexas.edu:mpispawn_0][mtpmi_processops] Error while reading PMI socket. MPI process died?
[135]PETSC ERROR: ------------------------------------------------------------------------
[135]PETSC ERROR: Caught signal number 11 SEGV: Segmentation Violation, probably memory access out of range
[135]PETSC ERROR: Try option -start_in_debugger or -on_error_attach_debugger
[135]PETSC ERROR: or see http://www.mcs.anl.gov/petsc/documentation/faq.html#valgrind
[135]PETSC ERROR: or try http://valgrind.org on GNU/linux and Apple Mac OS X to find memory corruption errors
[135]PETSC ERROR: configure using --with-debugging=yes, recompile, link, and run 
[135]PETSC ERROR: to get more information on the crash.
[135]PETSC ERROR: --------------------- Error Message --------------------------------------------------------------
[135]PETSC ERROR: Signal received
[135]PETSC ERROR: See http://www.mcs.anl.gov/petsc/documentation/faq.html for trouble shooting.
[135]PETSC ERROR: Petsc Release Version 3.6.1, Jul, 22, 2015 
[135]PETSC ERROR: /home1/03727/tg830270/dendro/build_m/testPartition on a sandybridge named c560-303.stampede.tacc.utexas.edu by tg830270 Fri Nov 13 14:22:21 2015
[135]PETSC ERROR: Configure options --with-x=0 -with-pic --with-external-packages-dir=/home1/apps/intel15/mvapich2_2_1/petsc/3.6/externalpackages --with-mpi-compilers=1 --with-mpi-dir=/opt/apps/intel15/mvapich2/2.1 --with-scalar-type=real --with-shared-libraries=1 --with-precision=double --with-chaco=1 --download-chaco --with-hypre=1 --download-hypre --with-ml=1 --download-ml --with-ml=1 --download-ml --with-spai=1 --download-spai --with-superlu_dist=1 --download-superlu_dist --with-superlu=1 --download-superlu --with-parmetis=1 --download-parmetis --with-metis=1 --download-metis --with-mumps=1 --download-mumps --with-parmetis=1 --download-parmetis --with-metis=1 --download-metis --with-scalapack=1 --download-scalapack --with-blacs=1 --download-blacs --with-spooles=1 --download-spooles --with-debugging=no --with-blas-lapack-dir=/opt/apps/intel/15/composer_xe_2015.2.164/mkl --with-mpiexec=mpirun_rsh --CFLAGS="-xhost -O2" --FFLAGS="-xhost -O2" --CXXFLAGS="-xhost -O2"
[135]PETSC ERROR: #1 User provided function() line 0 in  unknown file
[cli_135]: aborting job:
application called MPI_Abort(MPI_COMM_WORLD, 59) - process 135
[119]PETSC ERROR: ------------------------------------------------------------------------
[119]PETSC ERROR: Caught signal number 11 SEGV: Segmentation Violation, probably memory access out of range
[119]PETSC ERROR: Try option -start_in_debugger or -on_error_attach_debugger
[119]PETSC ERROR: or see http://www.mcs.anl.gov/petsc/documentation/faq.html#valgrind
[119]PETSC ERROR: or try http://valgrind.org on GNU/linux and Apple Mac OS X to find memory corruption errors
[119]PETSC ERROR: configure using --with-debugging=yes, recompile, link, and run 
[119]PETSC ERROR: to get more information on the crash.
[119]PETSC ERROR: --------------------- Error Message --------------------------------------------------------------
[119]PETSC ERROR: Signal received
[119]PETSC ERROR: See http://www.mcs.anl.gov/petsc/documentation/faq.html for trouble shooting.
[119]PETSC ERROR: Petsc Release Version 3.6.1, Jul, 22, 2015 
[119]PETSC ERROR: /home1/03727/tg830270/dendro/build_m/testPartition on a sandybridge named c560-302.stampede.tacc.utexas.edu by tg830270 Fri Nov 13 14:22:21 2015
[119]PETSC ERROR: Configure options --with-x=0 -with-pic --with-external-packages-dir=/home1/apps/intel15/mvapich2_2_1/petsc/3.6/externalpackages --with-mpi-compilers=1 --with-mpi-dir=/opt/apps/intel15/mvapich2/2.1 --with-scalar-type=real --with-shared-libraries=1 --with-precision=double --with-chaco=1 --download-chaco --with-hypre=1 --download-hypre --with-ml=1 --download-ml --with-ml=1 --download-ml --with-spai=1 --download-spai --with-superlu_dist=1 --download-superlu_dist --with-superlu=1 --download-superlu --with-parmetis=1 --download-parmetis --with-metis=1 --download-metis --with-mumps=1 --download-mumps --with-parmetis=1 --download-parmetis --with-metis=1 --download-metis --with-scalapack=1 --download-scalapack --with-blacs=1 --download-blacs --with-spooles=1 --download-spooles --with-debugging=no --with-blas-lapack-dir=/opt/apps/intel/15/composer_xe_2015.2.164/mkl --with-mpiexec=mpirun_rsh --CFLAGS="-xhost -O2" --FFLAGS="-xhost -O2" --CXXFLAGS="-xhost -O2"
[119]PETSC ERROR: #1 User provided function() line 0 in  unknown file
[cli_119]: aborting job:
application called MPI_Abort(MPI_COMM_WORLD, 59) - process 119
[c558-504.stampede.tacc.utexas.edu:mpispawn_0][child_handler] MPI process (rank: 15, pid: 96302) exited with status 59
[c560-303.stampede.tacc.utexas.edu:mpispawn_8][readline] Unexpected End-Of-File on file descriptor 19. MPI process died?
[c560-303.stampede.tacc.utexas.edu:mpispawn_8][mtpmi_processops] Error while reading PMI socket. MPI process died?
[c560-302.stampede.tacc.utexas.edu:mpispawn_7][readline] Unexpected End-Of-File on file descriptor 17. MPI process died?
[c560-302.stampede.tacc.utexas.edu:mpispawn_7][mtpmi_processops] Error while reading PMI socket. MPI process died?
[172]PETSC ERROR: ------------------------------------------------------------------------
[172]PETSC ERROR: Caught signal number 11 SEGV: Segmentation Violation, probably memory access out of range
[172]PETSC ERROR: Try option -start_in_debugger or -on_error_attach_debugger
[172]PETSC ERROR: or see http://www.mcs.anl.gov/petsc/documentation/faq.html#valgrind
[172]PETSC ERROR: or try http://valgrind.org on GNU/linux and Apple Mac OS X to find memory corruption errors
[172]PETSC ERROR: configure using --with-debugging=yes, recompile, link, and run 
[172]PETSC ERROR: to get more information on the crash.
[172]PETSC ERROR: --------------------- Error Message --------------------------------------------------------------
[172]PETSC ERROR: Signal received
[172]PETSC ERROR: See http://www.mcs.anl.gov/petsc/documentation/faq.html for trouble shooting.
[172]PETSC ERROR: Petsc Release Version 3.6.1, Jul, 22, 2015 
[172]PETSC ERROR: /home1/03727/tg830270/dendro/build_m/testPartition on a sandybridge named c560-702.stampede.tacc.utexas.edu by tg830270 Fri Nov 13 14:22:21 2015
[172]PETSC ERROR: Configure options --with-x=0 -with-pic --with-external-packages-dir=/home1/apps/intel15/mvapich2_2_1/petsc/3.6/externalpackages --with-mpi-compilers=1 --with-mpi-dir=/opt/apps/intel15/mvapich2/2.1 --with-scalar-type=real --with-shared-libraries=1 --with-precision=double --with-chaco=1 --download-chaco --with-hypre=1 --download-hypre --with-ml=1 --download-ml --with-ml=1 --download-ml --with-spai=1 --download-spai --with-superlu_dist=1 --download-superlu_dist --with-superlu=1 --download-superlu --with-parmetis=1 --download-parmetis --with-metis=1 --download-metis --with-mumps=1 --download-mumps --with-parmetis=1 --download-parmetis --with-metis=1 --download-metis --with-scalapack=1 --download-scalapack --with-blacs=1 --download-blacs --with-spooles=1 --download-spooles --with-debugging=no --with-blas-lapack-dir=/opt/apps/intel/15/composer_xe_2015.2.164/mkl --with-mpiexec=mpirun_rsh --CFLAGS="-xhost -O2" --FFLAGS="-xhost -O2" --CXXFLAGS="-xhost -O2"
[172]PETSC ERROR: #1 User provided function() line 0 in  unknown file
[145]PETSC ERROR: ------------------------------------------------------------------------
[145]PETSC ERROR: Caught signal number 11 SEGV: Segmentation Violation, probably memory access out of range
[cli_172]: aborting job:
application called MPI_Abort(MPI_COMM_WORLD, 59) - process 172
[145]PETSC ERROR: Try option -start_in_debugger or -on_error_attach_debugger
[145]PETSC ERROR: or see http://www.mcs.anl.gov/petsc/documentation/faq.html#valgrind
[145]PETSC ERROR: or try http://valgrind.org on GNU/linux and Apple Mac OS X to find memory corruption errors
[145]PETSC ERROR: configure using --with-debugging=yes, recompile, link, and run 
[145]PETSC ERROR: to get more information on the crash.
[145]PETSC ERROR: --------------------- Error Message --------------------------------------------------------------
[145]PETSC ERROR: Signal received
[145]PETSC ERROR: See http://www.mcs.anl.gov/petsc/documentation/faq.html for trouble shooting.
[145]PETSC ERROR: Petsc Release Version 3.6.1, Jul, 22, 2015 
[145]PETSC ERROR: /home1/03727/tg830270/dendro/build_m/testPartition on a sandybridge named c560-304.stampede.tacc.utexas.edu by tg830270 Fri Nov 13 14:22:21 2015
[145]PETSC ERROR: Configure options --with-x=0 -with-pic --with-external-packages-dir=/home1/apps/intel15/mvapich2_2_1/petsc/3.6/externalpackages --with-mpi-compilers=1 --with-mpi-dir=/opt/apps/intel15/mvapich2/2.1 --with-scalar-type=real --with-shared-libraries=1 --with-precision=double --with-chaco=1 --download-chaco --with-hypre=1 --download-hypre --with-ml=1 --download-ml --with-ml=1 --download-ml --with-spai=1 --download-spai --with-superlu_dist=1 --download-superlu_dist --with-superlu=1 --download-superlu --with-parmetis=1 --download-parmetis --with-metis=1 --download-metis --with-mumps=1 --download-mumps --with-parmetis=1 --download-parmetis --with-metis=1 --download-metis --with-scalapack=1 --download-scalapack --with-blacs=1 --download-blacs --with-spooles=1 --download-spooles --with-debugging=no --with-blas-lapack-dir=/opt/apps/intel/15/composer_xe_2015.2.164/mkl --with-mpiexec=mpirun_rsh --CFLAGS="-xhost -O2" --FFLAGS="-xhost -O2" --CXXFLAGS="-xhost -O2"
[145]PETSC ERROR: #1 User provided function() line 0 in  unknown file
[cli_145]: aborting job:
application called MPI_Abort(MPI_COMM_WORLD, 59) - process 145
[c560-303.stampede.tacc.utexas.edu:mpispawn_8][child_handler] MPI process (rank: 135, pid: 42407) exited with status 59
[23]PETSC ERROR: ------------------------------------------------------------------------
[23]PETSC ERROR: Caught signal number 11 SEGV: Segmentation Violation, probably memory access out of range
[23]PETSC ERROR: Try option -start_in_debugger or -on_error_attach_debugger
[23]PETSC ERROR: or see http://www.mcs.anl.gov/petsc/documentation/faq.html#valgrind
[23]PETSC ERROR: or try http://valgrind.org on GNU/linux and Apple Mac OS X to find memory corruption errors
[23]PETSC ERROR: configure using --with-debugging=yes, recompile, link, and run 
[23]PETSC ERROR: to get more information on the crash.
[23]PETSC ERROR: --------------------- Error Message --------------------------------------------------------------
[23]PETSC ERROR: Signal received
[23]PETSC ERROR: See http://www.mcs.anl.gov/petsc/documentation/faq.html for trouble shooting.
[23]PETSC ERROR: Petsc Release Version 3.6.1, Jul, 22, 2015 
[23]PETSC ERROR: /home1/03727/tg830270/dendro/build_m/testPartition on a sandybridge named c558-904.stampede.tacc.utexas.edu by tg830270 Fri Nov 13 14:22:21 2015
[23]PETSC ERROR: Configure options --with-x=0 -with-pic --with-external-packages-dir=/home1/apps/intel15/mvapich2_2_1/petsc/3.6/externalpackages --with-mpi-compilers=1 --with-mpi-dir=/opt/apps/intel15/mvapich2/2.1 --with-scalar-type=real --with-shared-libraries=1 --with-precision=double --with-chaco=1 --download-chaco --with-hypre=1 --download-hypre --with-ml=1 --download-ml --with-ml=1 --download-ml --with-spai=1 --download-spai --with-superlu_dist=1 --download-superlu_dist --with-superlu=1 --download-superlu --with-parmetis=1 --download-parmetis --with-metis=1 --download-metis --with-mumps=1 --download-mumps --with-parmetis=1 --download-parmetis --with-metis=1 --download-metis --with-scalapack=1 --download-scalapack --with-blacs=1 --download-blacs --with-spooles=1 --download-spooles --with-debugging=no --with-blas-lapack-dir=/opt/apps/intel/15/composer_xe_2015.2.164/mkl --with-mpiexec=mpirun_rsh --CFLAGS="-xhost -O2" --FFLAGS="-xhost -O2" --CXXFLAGS="-xhost -O2"
[23]PETSC ERROR: #1 User provided function() line 0 in  unknown file
[cli_23]: aborting job:
application called MPI_Abort(MPI_COMM_WORLD, 59) - process 23
[c560-302.stampede.tacc.utexas.edu:mpispawn_7][child_handler] MPI process (rank: 119, pid: 47138) exited with status 59
[c560-304.stampede.tacc.utexas.edu:mpispawn_9][readline] Unexpected End-Of-File on file descriptor 15. MPI process died?
[c560-304.stampede.tacc.utexas.edu:mpispawn_9][mtpmi_processops] Error while reading PMI socket. MPI process died?
[c560-702.stampede.tacc.utexas.edu:mpispawn_10][readline] Unexpected End-Of-File on file descriptor 7. MPI process died?
[c560-702.stampede.tacc.utexas.edu:mpispawn_10][mtpmi_processops] Error while reading PMI socket. MPI process died?
[c558-904.stampede.tacc.utexas.edu:mpispawn_1][readline] Unexpected End-Of-File on file descriptor 11. MPI process died?
[c558-904.stampede.tacc.utexas.edu:mpispawn_1][mtpmi_processops] Error while reading PMI socket. MPI process died?
[c560-304.stampede.tacc.utexas.edu:mpispawn_9][child_handler] MPI process (rank: 145, pid: 38974) exited with status 59
[c560-702.stampede.tacc.utexas.edu:mpispawn_10][child_handler] MPI process (rank: 172, pid: 13456) exited with status 59
[c558-904.stampede.tacc.utexas.edu:mpispawn_1][child_handler] MPI process (rank: 23, pid: 46896) exited with status 59
[c559-001.stampede.tacc.utexas.edu:mpispawn_2][read_size] Unexpected End-Of-File on file descriptor 21. MPI process died?
[c559-001.stampede.tacc.utexas.edu:mpispawn_2][read_size] Unexpected End-Of-File on file descriptor 21. MPI process died?
[c559-001.stampede.tacc.utexas.edu:mpispawn_2][handle_mt_peer] Error while reading PMI socket. MPI process died?
[c560-704.stampede.tacc.utexas.edu:mpispawn_12][read_size] Unexpected End-Of-File on file descriptor 21. MPI process died?
[c560-704.stampede.tacc.utexas.edu:mpispawn_12][read_size] Unexpected End-Of-File on file descriptor 21. MPI process died?
[c560-704.stampede.tacc.utexas.edu:mpispawn_12][handle_mt_peer] Error while reading PMI socket. MPI process died?
[c560-801.stampede.tacc.utexas.edu:mpispawn_13][read_size] Unexpected End-Of-File on file descriptor 21. MPI process died?
[c560-801.stampede.tacc.utexas.edu:mpispawn_13][read_size] Unexpected End-Of-File on file descriptor 21. MPI process died?
[c560-801.stampede.tacc.utexas.edu:mpispawn_13][handle_mt_peer] Error while reading PMI socket. MPI process died?
[c560-703.stampede.tacc.utexas.edu:mpispawn_11][read_size] Unexpected End-Of-File on file descriptor 21. MPI process died?
[c560-703.stampede.tacc.utexas.edu:mpispawn_11][read_size] Unexpected End-Of-File on file descriptor 21. MPI process died?
[c560-703.stampede.tacc.utexas.edu:mpispawn_11][handle_mt_peer] Error while reading PMI socket. MPI process died?
[c559-002.stampede.tacc.utexas.edu:mpispawn_3][read_size] Unexpected End-Of-File on file descriptor 21. MPI process died?
[c559-002.stampede.tacc.utexas.edu:mpispawn_3][read_size] Unexpected End-Of-File on file descriptor 21. MPI process died?
[c559-002.stampede.tacc.utexas.edu:mpispawn_3][handle_mt_peer] Error while reading PMI socket. MPI process died?
[c559-003.stampede.tacc.utexas.edu:mpispawn_4][read_size] Unexpected End-Of-File on file descriptor 21. MPI process died?
[c559-003.stampede.tacc.utexas.edu:mpispawn_4][read_size] Unexpected End-Of-File on file descriptor 21. MPI process died?
[c559-003.stampede.tacc.utexas.edu:mpispawn_4][handle_mt_peer] Error while reading PMI socket. MPI process died?
[c560-804.stampede.tacc.utexas.edu:mpispawn_15][read_size] Unexpected End-Of-File on file descriptor 21. MPI process died?
[c560-804.stampede.tacc.utexas.edu:mpispawn_15][read_size] Unexpected End-Of-File on file descriptor 21. MPI process died?
[c560-804.stampede.tacc.utexas.edu:mpispawn_15][handle_mt_peer] Error while reading PMI socket. MPI process died?
[c560-803.stampede.tacc.utexas.edu:mpispawn_14][read_size] Unexpected End-Of-File on file descriptor 21. MPI process died?
[c560-803.stampede.tacc.utexas.edu:mpispawn_14][read_size] Unexpected End-Of-File on file descriptor 21. MPI process died?
[c560-803.stampede.tacc.utexas.edu:mpispawn_14][handle_mt_peer] Error while reading PMI socket. MPI process died?
[c560-301.stampede.tacc.utexas.edu:mpispawn_6][read_size] Unexpected End-Of-File on file descriptor 21. MPI process died?
[c560-301.stampede.tacc.utexas.edu:mpispawn_6][read_size] Unexpected End-Of-File on file descriptor 21. MPI process died?
[c560-301.stampede.tacc.utexas.edu:mpispawn_6][handle_mt_peer] Error while reading PMI socket. MPI process died?
[c559-103.stampede.tacc.utexas.edu:mpispawn_5][read_size] Unexpected End-Of-File on file descriptor 21. MPI process died?
[c559-103.stampede.tacc.utexas.edu:mpispawn_5][read_size] Unexpected End-Of-File on file descriptor 21. MPI process died?
[c559-103.stampede.tacc.utexas.edu:mpispawn_5][handle_mt_peer] Error while reading PMI socket. MPI process died?
[c560-803.stampede.tacc.utexas.edu:mpispawn_14][report_error] connect() failed: Connection refused (111)
[c560-801.stampede.tacc.utexas.edu:mpispawn_13][report_error] connect() failed: Connection refused (111)
[c559-003.stampede.tacc.utexas.edu:mpispawn_4][report_error] connect() failed: Connection refused (111)
[c560-704.stampede.tacc.utexas.edu:mpispawn_12][report_error] connect() failed: Connection refused (111)
[c559-001.stampede.tacc.utexas.edu:mpispawn_2][report_error] connect() failed: Connection refused (111)
[c560-804.stampede.tacc.utexas.edu:mpispawn_15][report_error] connect() failed: Connection refused (111)
[c559-103.stampede.tacc.utexas.edu:mpispawn_5][report_error] connect() failed: Connection refused (111)
[c560-703.stampede.tacc.utexas.edu:mpispawn_11][report_error] connect() failed: Connection refused (111)
[c560-301.stampede.tacc.utexas.edu:mpispawn_6][report_error] connect() failed: Connection refused (111)
[c559-002.stampede.tacc.utexas.edu:mpispawn_3][report_error] connect() failed: Connection refused (111)
