npes	numPts	option	tol	1_sf_min	1_sf_mean	1_sf_max	1_split_min	1_split_mean	1_split_max	1_a2a1_min	1_a2a1_mean	1_a2a1_max	1_a2a2_min	1_a2a2_mean	1_a2a2_max	1_ls_min	1_ls_mean	1_ls_max	1_sq::rd_min	1_sq::rd_mean	1_sq::rd_max	1_auxBal_min	1_auxBal_mean	1_auxBal_max	1_par::rd_min	1_par::rd_mean	1_par::rd_max	1_totRD_min	1_totRD_mean	1_totRD_max
2	1000000	1	0.1	0	0	0	39	39.5	40	0	0	0	14	14	14	183	201.5	220	17	22	27	0	0	0	2	20	38	276	276.5	277
4	1000000	1	0.1	0	0	0	43	44.25	45	0	0	0	14	14	14	194	204.75	210	21	21.25	22	0	0	0	2	7.5	18	271	272.25	273
8	1000000	1	0.1	0	0	0	48	48.75	49	0	0	0	16	16.625	17	209	238.25	272	17	20.875	28	0	0	0	2	35.625	65	340	341.125	342
16	1000000	1	0.1	0	0	0	57	57.625	58	0	0	0	21	22.25	23	200	220.188	237	16	23.5	33	0	0	0	3	19.125	39	320	320.5	321
32	1000000	1	0.1	0	0	0	62	62.7188	63	0	0	0	40	41.8125	42	206	224.594	260	16	23.1875	30	0	0	0	3	38.6562	57	368	369.25	370
64	1000000	1	0.1	0	0	0	68	68.8906	71	0	0	0	59	61.4688	62	199	229.391	263	16	23.1875	33	0	0	0	3	37.2344	68	398	398.688	401
128	1000000	1	0.1	0	0	0	75	79.0156	81	0	0	0	350	354.805	358	196	233.727	262	19	25.7656	33	0	0	0	3	30.1875	66	695	699.125	701
256	1000000	1	0.1	228	229.758	232	61	82.0195	101	149	154.738	157	15	16.4297	18	193	238.434	280	15	25.1094	34	0	0	0	3	50.2422	114	617	618.902	621
512	1000000	1	0.1	242	243.438	246	71	82.459	92	132	163.238	170	18	22.5312	26	187	243.367	297	15	24.7129	33	0	0	0	3	69.2832	133	661	663.062	665
1024	1000000	1	0.1	248	250.77	253	77	89.5439	102	138	166.453	176	37	42.1191	55	186	247.154	303	15	24.3047	34	0	0	0	4	78.876	137	708	710.408	713
2048	1000000	1	0.1	353	356.85	360	78	94.0142	104	218	256.247	265	37	41.2808	50	187	253.245	299	15	25.1958	34	0	0	0	4	61.1113	143	805	808.49	813
4096	1000000	1	0.1	231	242.478	255	83	99.3157	111	99	118.392	136	54	62.5964	112	181	257.519	303	14	23.9619	33	0	0	0	4	97.5125	193	750	761.388	773
