npes	numPts	option	tol	1_sf_min	1_sf_mean	1_sf_max	1_split_min	1_split_mean	1_split_max	1_a2a1_min	1_a2a1_mean	1_a2a1_max	1_a2a2_min	1_a2a2_mean	1_a2a2_max	1_ls_min	1_ls_mean	1_ls_max	1_sq::rd_min	1_sq::rd_mean	1_sq::rd_max	1_auxBal_min	1_auxBal_mean	1_auxBal_max	1_par::rd_min	1_par::rd_mean	1_par::rd_max	1_totRD_min	1_totRD_mean	1_totRD_max
2	1000000	1	0.1	0	0	0	39	39	39	0	0	0	13	13	13	188	203.5	219	22	25	28	0	0	0	2	17.5	33	274	274.5	275
4	1000000	1	0.1	0	0	0	43	43.75	44	0	0	0	14	14	14	196	209.75	215	23	25.25	26	0	0	0	2	7.25	21	276	276.5	277
8	1000000	1	0.1	0	0	0	48	48	48	0	0	0	21	22.625	24	185	220	234	15	24.125	27	0	0	0	2	16	52	308	308	308
16	1000000	1	0.1	65	66.0625	71	45	52.5	57	20	20	20	13	14.375	16	185	216.75	234	15	23.375	30	0	0	0	3	26	66	376	377.812	383
32	1000000	1	0.1	95	95.75	96	44	55.875	67	42	44.5312	45	12	13.4688	16	174	219.344	256	14	20.5312	27	0	0	0	2	51	109	437	437.688	438
64	1000000	1	0.1	107	112.391	124	61	69.1406	80	52	55.6719	57	14	16.375	18	172	228	259	13	23.8125	32	0	0	0	3	38.5312	102	461	466.531	478
128	1000000	1	0.1	219	236.828	254	37	64.1328	75	17	19.9688	22	8	13.1406	17	169	230.75	284	13	22.2969	32	0	0	0	3	76.0156	171	617	622.906	636
256	1000000	1	0.1	249	267.25	292	54	72.8125	87	35	44.2656	50	10	14.2383	19	160	236.879	284	13	23.3516	33	0	0	0	3	72.8164	187	661	665.926	680
512	1000000	1	0.1	251	274.205	301	59	80.127	92	45	57.6074	71	13	17.3965	20	159	244.527	308	13	25.7148	40	0	0	0	14	105.082	230	715	723.309	737
1024	1000000	1	0.1	432	596.714	1027	12	79.0312	147	16	20.9863	29	7	13.0801	45	138	248.263	365	12	23.6006	61	0	0	0	13	508.21	852	1440	1447.3	1462
2048	1000000	1	0.1	1169	1243.94	1343	38	89.0762	170	33	47.3589	65	9	14.3574	34	152	254.367	396	11	24.0723	67	0	0	0	8	182.673	416	1780	1786.44	1803
4096	1000000	1	0.1	469	526.198	570	47	95.728	117	42	56.3521	72	12	17.0955	23	151	258.415	330	11	24.8328	37	0	0	0	4	122.192	333	987	1021.62	1034
