\relax 
\providecommand\hyper@newdestlabel[2]{}
\providecommand\HyperFirstAtBeginDocument{\AtBeginDocument}
\HyperFirstAtBeginDocument{\ifx\hyper@anchor\@undefined
\global\let\oldcontentsline\contentsline
\gdef\contentsline#1#2#3#4{\oldcontentsline{#1}{#2}{#3}}
\global\let\oldnewlabel\newlabel
\gdef\newlabel#1#2{\newlabelxx{#1}#2}
\gdef\newlabelxx#1#2#3#4#5#6{\oldnewlabel{#1}{{#2}{#3}}}
\AtEndDocument{\ifx\hyper@anchor\@undefined
\let\contentsline\oldcontentsline
\let\newlabel\oldnewlabel
\fi}
\fi}
\global\let\hyper@last\relax 
\gdef\HyperFirstAtBeginDocument#1{#1}
\providecommand\HyField@AuxAddToFields[1]{}
\providecommand\HyField@AuxAddToCoFields[2]{}
\@writefile{lof}{\contentsline {figure}{\numberline {1}{\ignorespaces splitter fix staged version (number of stages performed = $\frac  {log_2(npes)}{log_2(k)}-1$) with varying splitter fix parameter $k$\relax }}{1}{figure.caption.1}}
\@writefile{lof}{\contentsline {figure}{\numberline {2}{\ignorespaces Final optimal splitter selection time (according to the specified tolerance) (this is timed without all to all communication) varying splitter fix parameter $k$\relax }}{1}{figure.caption.2}}
\@writefile{lof}{\contentsline {figure}{\numberline {3}{\ignorespaces all to all communication time in the final stage of splitter selection with varying splitter fix parameter $k$\relax }}{2}{figure.caption.3}}
\@writefile{lof}{\contentsline {figure}{\numberline {4}{\ignorespaces local sort with remove duplicates (local and global) varying splitter fix parameter $k$\relax }}{2}{figure.caption.4}}
\@writefile{lof}{\contentsline {figure}{\numberline {5}{\ignorespaces total time for remove duplicates with varying splitter fix parameter $k$\relax }}{3}{figure.caption.5}}
\gdef\exam@lastpage{3}
\gdef\exam@lastcoverpage{0}
\gdef\exam@totalpages{3}
\gdef\exam@numpoints{0}
\gdef\exam@numbonuspoints{0}
\gdef\exam@numquestions{0}
\gdef\exam@numparts{0}
\gdef\exam@numsubparts{0}
\gdef\exam@numsubsubparts{0}
\gdef\lastpage@withpoints{0}
\gdef\lastpage@withbonuspoints{0}
