\begin{thebibliography}{1}

\bibitem{bader2012}
M.~Bader.
\newblock {\em Space-filling curves: an introduction with applications in
  scientific computing}, volume~9.
\newblock Springer Science \& Business Media, 2012.

\bibitem{p4est}
C.~Burstedde, L.~C. Wilcox, and O.~Ghattas.
\newblock {\texttt{p4est}}: Scalable algorithms for parallel adaptive mesh
  refinement on forests of octrees.
\newblock {\em SIAM Journal on Scientific Computing}, 33(3):1103--1133, 2011.

\bibitem{cloudlab}
CloudLab.
\newblock Cloudlab cluster.
\newblock \url{https://cloudlab.us/}.
\newblock Accessed: 2015-11-19.

\bibitem{DuplyakinRicci:CNERT16}
D.~Duplyakin and R.~Ricci.
\newblock Introducing configuration management capabilities into {CloudLab}
  experiments.
\newblock In {\em Proceedings of the International Workshop on Computer and
  Networking Experimental Research Using Testbeds ({CNERT})}, Apr. 2016.

\bibitem{sundar2007low}
H.~Sundar, R.~S. Sampath, S.~S. Adavani, C.~Davatzikos, and G.~Biros.
\newblock Low-constant parallel algorithms for finite element simulations using
  linear octrees.
\newblock In {\em Proceedings of the 2007 ACM/IEEE conference on
  Supercomputing}, page~25. ACM, 2007.

\end{thebibliography}
