\relax 
\providecommand\hyper@newdestlabel[2]{}
\providecommand\HyperFirstAtBeginDocument{\AtBeginDocument}
\HyperFirstAtBeginDocument{\ifx\hyper@anchor\@undefined
\global\let\oldcontentsline\contentsline
\gdef\contentsline#1#2#3#4{\oldcontentsline{#1}{#2}{#3}}
\global\let\oldnewlabel\newlabel
\gdef\newlabel#1#2{\newlabelxx{#1}#2}
\gdef\newlabelxx#1#2#3#4#5#6{\oldnewlabel{#1}{{#2}{#3}}}
\AtEndDocument{\ifx\hyper@anchor\@undefined
\let\contentsline\oldcontentsline
\let\newlabel\oldnewlabel
\fi}
\fi}
\global\let\hyper@last\relax 
\gdef\HyperFirstAtBeginDocument#1{#1}
\providecommand\HyField@AuxAddToFields[1]{}
\providecommand\HyField@AuxAddToCoFields[2]{}
\citation{bader2012}
\citation{sundar2007low}
\citation{p4est}
\citation{cloudlab}
\citation{DuplyakinRicci:CNERT16}
\@writefile{toc}{\contentsline {section}{\numberline {I}Introduction}{1}{section.1}}
\@writefile{toc}{\contentsline {subsection}{\numberline {\unhbox \voidb@x \hbox {I-A}}Flexibility in SFC based partitioning schemes}{1}{subsection.1.1}}
\@writefile{lof}{\contentsline {figure}{\numberline {1}{\ignorespaces  \relax \fontsize  {9}{10pt}\selectfont  \em  Illustration of the increase in communication costs with low tolerance (ideal load balancing). Partitions for the case of $p=3$ are drawn with the boundary of the partition ($s$) and the load-imbalance ($\lambda $) given along with the level ($l$) at which the partition is defined. At each level, the orange partition (\leavevmode {\color  {orange!50}$\blacksquare $}) gets the extra load that is progressively reduced. The green partition (\leavevmode {\color  {green!40}$\blacksquare $}) gets the largest boundary that progressively increases. \relax }}{1}{figure.caption.1}}
\providecommand*\caption@xref[2]{\@setref\relax\@undefined{#1}}
\newlabel{fig:flex}{{1}{1}{\small \em Illustration of the increase in communication costs with low tolerance (ideal load balancing). Partitions for the case of $p=3$ are drawn with the boundary of the partition ($s$) and the load-imbalance ($\lambda $) given along with the level ($l$) at which the partition is defined. At each level, the orange partition (\textcolor {orange!50}{$\blacksquare $}) gets the extra load that is progressively reduced. The green partition (\textcolor {green!40}{$\blacksquare $}) gets the largest boundary that progressively increases. \relax }{figure.caption.1}{}}
\@writefile{lof}{\contentsline {subfigure}{\numberline{(a)}{\ignorespaces {$\scriptstyle l=1,\nobreakspace {}\lambda =2,\nobreakspace {}s=16$}}}{1}{subfigure.1.1}}
\@writefile{lof}{\contentsline {subfigure}{\numberline{(b)}{\ignorespaces {$\scriptstyle l=2,\nobreakspace {}\lambda =1.2,\nobreakspace {}s=24$}}}{1}{subfigure.1.2}}
\@writefile{lof}{\contentsline {subfigure}{\numberline{(c)}{\ignorespaces {$\scriptstyle l=3,\nobreakspace {}\lambda =1.05,\nobreakspace {}s=28$}}}{1}{subfigure.1.3}}
\@writefile{lof}{\contentsline {subfigure}{\numberline{(d)}{\ignorespaces {$\scriptstyle l=4,\nobreakspace {}\lambda =1.01,\nobreakspace {}s=30$}}}{1}{subfigure.1.4}}
\@writefile{toc}{\contentsline {section}{\numberline {II}Evaluation Methodology}{1}{section.2}}
\@writefile{toc}{\contentsline {subsection}{\numberline {\unhbox \voidb@x \hbox {II-A}}Finite element computations \& \textsc  {matvec }}{1}{subsection.2.1}}
\@writefile{toc}{\contentsline {subsection}{\numberline {\unhbox \voidb@x \hbox {II-B}}Energy \& \textsc  {matvec }}{1}{subsection.2.2}}
\bibstyle{abbrv}
\bibdata{../hari.bib}
\bibcite{bader2012}{1}
\bibcite{p4est}{2}
\bibcite{cloudlab}{3}
\bibcite{DuplyakinRicci:CNERT16}{4}
\bibcite{sundar2007low}{5}
\@writefile{toc}{\contentsline {section}{\numberline {III}Results}{2}{section.3}}
\newlabel{eq::comm_matrix}{{III}{2}{Results}{section.3}{}}
\@writefile{toc}{\contentsline {section}{References}{2}{section*.5}}
\@writefile{lof}{\contentsline {figure}{\numberline {2}{\ignorespaces  \em  \relax \fontsize  {9}{10pt}\selectfont  Comparison for number of non-zeros (nnz) elements in the communication matrix corresponding to perform \textsc  {matvec }operation based on \textsc  {Hilbert }and \textsc  {Morton }based partitioning schemes for a mesh size of 1B nodes with 4096 mpi tasks with varying tolerance values in TACC's \href  {https://www.tacc.utexas.edu/stampede/}{Stampede}. Note that the scale difference between the axes in the plots, and for both partitioning schemes we can reduce the nnz (overall communication cost) by increasing the tolerance value. \relax }}{2}{figure.caption.2}}
\newlabel{fig:matvec_nnz}{{2}{2}{\em \small Comparison for number of non-zeros (nnz) elements in the communication matrix corresponding to perform \mvec operation based on \hilbertcurve and \mortoncurve based partitioning schemes for a mesh size of 1B nodes with 4096 mpi tasks with varying tolerance values in TACC's \Stampede . Note that the scale difference between the axes in the plots, and for both partitioning schemes we can reduce the nnz (overall communication cost) by increasing the tolerance value. \relax }{figure.caption.2}{}}
\@writefile{lof}{\contentsline {subfigure}{\numberline{(a)}{\ignorespaces {Hilbert curve}}}{2}{subfigure.2.1}}
\@writefile{lof}{\contentsline {subfigure}{\numberline{(b)}{\ignorespaces {Morton curve}}}{2}{subfigure.2.2}}
\@writefile{lof}{\contentsline {figure}{\numberline {3}{\ignorespaces  \em  \relax \fontsize  {9}{10pt}\selectfont  Comparison for \textsc  {matvec }energy consumption based on \textsc  {Hilbert }and \textsc  {Morton }based partitioning schemes for a mesh size of 95M \& 2M nodes with 256 mpi tasks (left) \& 8 mpi tasks (right) with varying tolerance values in \href  {https://cloudlab.us/}{CloudLab}. Note that the two scenarios depicts the effect of running 32 tasks in a single node Vs. 1 task in a single node. \relax }}{2}{figure.caption.3}}
\newlabel{fig:energy}{{3}{2}{\em \small Comparison for \mvec energy consumption based on \hilbertcurve and \mortoncurve based partitioning schemes for a mesh size of 95M \& 2M nodes with 256 mpi tasks (left) \& 8 mpi tasks (right) with varying tolerance values in \Cloudlab . Note that the two scenarios depicts the effect of running 32 tasks in a single node Vs. 1 task in a single node. \relax }{figure.caption.3}{}}
\@writefile{lof}{\contentsline {figure}{\numberline {4}{\ignorespaces  \em  \relax \fontsize  {9}{10pt}\selectfont  Energy consumed by each node while performing \textsc  {matvec }operation , with ideal load balancing (for both \textsc  {Hilbert }and \textsc  {Morton }) Vs. flexible load balancing with a tolerance of $0.3$ for 95M mesh nodes with 256 mpi tasks in \href  {https://cloudlab.us/}{CloudLab}8 node cluster.\relax }}{2}{figure.caption.4}}
\newlabel{fig::energy_per_node}{{4}{2}{\em \small Energy consumed by each node while performing \mvec operation , with ideal load balancing (for both \hilbertcurve and \mortoncurve ) Vs. flexible load balancing with a tolerance of $0.3$ for 95M mesh nodes with 256 mpi tasks in \Cloudlab 8 node cluster.\relax }{figure.caption.4}{}}
