npes	numPts	option	tol	1_sf_min	1_sf_mean	1_sf_max	1_split_min	1_split_mean	1_split_max	1_a2a1_min	1_a2a1_mean	1_a2a1_max	1_a2a2_min	1_a2a2_mean	1_a2a2_max	1_ls_min	1_ls_mean	1_ls_max	1_sq::rd_min	1_sq::rd_mean	1_sq::rd_max	1_auxBal_min	1_auxBal_mean	1_auxBal_max	1_par::rd_min	1_par::rd_mean	1_par::rd_max	1_totRD_min	1_totRD_mean	1_totRD_max	sf1_full_min	sf1_full_mean	sf1_full_max	sf1_all2all_min	sf1_all2all_mean	sf1_all2all_max	sf1_ls_min	sf1_ls_mean	sf1_ls_max	sf2_full_min	sf2_full_mean	sf2_full_max	sf2_all2all_min	sf2_all2all_mean	sf2_all2all_max	sf2_ls_min	sf2_ls_mean	sf2_ls_max
2	1000000	1	0.1	0	0	0	102	106.5	111	0	0	0	29	29	29	433	470.5	508	49	57.5	66	0	0	0	3	41	79	644	649	654	0	0	0	0	0	0	0	0	0	0	0	0	0	0	0	0	0	0
4	1000000	1	0.1	0	0	0	114	114.25	115	0	0	0	36	36.75	37	452	487.75	503	55	67	75	0	0	0	4	19	54	658	658.75	660	0	0	0	0	0	0	0	0	0	0	0	0	0	0	0	0	0	0
8	1000000	1	0.1	0	0	0	119	140.75	154	0	0	0	48	49.125	50	424	506.625	549	35	68.5	83	0	0	0	4	48.125	130	725	746.375	760	0	0	0	0	0	0	0	0	0	0	0	0	0	0	0	0	0	0
16	1000000	1	0.1	0	0	0	144	160.688	201	0	0	0	54	56.25	59	444	514.562	541	36	70.9375	84	0	0	0	7	36.6875	108	753	769.812	810	0	0	0	0	0	0	0	0	0	0	0	0	0	0	0	0	0	0
32	1000000	1	0.1	0	0	0	153	179.594	205	0	0	0	96	97.0312	99	472	524.969	570	39	69.7812	85	0	0	0	8	52.2188	106	829	855.125	880	0	0	0	0	0	0	0	0	0	0	0	0	0	0	0	0	0	0
64	1000000	1	0.1	0	0	0	167	190.719	233	0	0	0	131	132.547	133	470	535.078	605	41	66.7812	89	0	0	0	8	76.9844	143	913	936.703	979	0	0	0	0	0	0	0	0	0	0	0	0	0	0	0	0	0	0
128	1000000	1	0.1	307	333.734	372	100	158.031	184	126	132.906	138	20	28.3125	37	436	530.414	606	33	53.1641	84	0	0	0	8	104.562	235	1130	1157.24	1195	307	333.734	372	126	132.906	138	169	200.828	243	0	0	0	0	0	0	0	0	0
256	1000000	1	0.1	349	376.395	414	118	183.035	210	166	174.078	180	30	38.6367	47	453	543.641	617	33	55.9336	77	0	0	0	8	110.355	256	1225	1254.07	1292	349	376.395	414	166	174.078	180	169	202.316	244	0	0	0	0	0	0	0	0	0
512	1000000	1	0.1	465	498.807	540	165	198.797	222	186	209.018	245	40	48.5176	55	431	561.531	652	33	61.1895	92	0	0	0	9	123.605	278	1399	1433.26	1474	465	498.803	540	186	209.018	245	227	289.785	339	0	0	0	0	0	0	0	0	0
1024	1000000	1	0.1	514	542.75	584	184	220.085	246	167	261.024	315	48	55.5488	66	431	572.116	658	33	63.8945	92	0	0	0	9	116.353	298	1480	1508.87	1550	514	542.748	584	167	261.024	315	201	281.724	396	0	0	0	0	0	0	0	0	0
2048	1000000	1	0.1	589	628.471	669	198	231.792	254	201	328.081	376	63	69.2822	81	447	585.913	685	33	66.6797	95	0	0	0	9	126.319	300	1604	1643.73	1684	589	628.466	669	201	328.081	376	225	300.385	433	0	0	0	0	0	0	0	0	0
4096	1000000	1	0.1	757	801.586	843	210	243.011	267	392	459.271	490	82	89.8884	99	415	596.763	701	33	65.2893	97	0	0	0	10	132.853	352	1822	1866.16	1908	757	801.582	843	392	459.271	490	273	342.312	444	0	0	0	0	0	0	0	0	0
8192	1000000	1	0.1	1341	1435.22	1576	75	223.651	281	97	118.764	212	18	29.7104	44	416	601.538	766	30	58.8419	93	0	0	0	13	284.129	633	2524	2576.26	2620	1016	1067.93	1111	544	623.041	672	370	444.894	539	322	366.799	474	97	118.764	212	209	248.036	307
16384	1000000	1	0.1	1651	1722.08	1858	117	246.751	300	130	176.075	295	26	39.7245	55	407	615.581	791	30	62.4321	102	0	0	0	25	296.984	654	2875	2923.11	2965	1237	1285.19	1327	797	885.062	979	280	400.133	521	390	436.366	532	130	176.075	295	210	260.291	310
32768	1000000	1	0.1	2625	2746.7	3057	142	264.824	315	118	203.369	473	37	48.8385	62	415	631.298	793	30	66.0128	108	0	0	0	31	501.664	881	4165	4195.33	4237	2257	2286.92	2329	1967	2034.11	2081	181	252.809	343	365	459.293	732	118	203.369	473	211	255.924	313
