chr - P9 P9 0 5147 colorp9
chr - P8 P8 0 6655 colorp8
chr - P7 P7 0 5406 colorp7
chr - P6 P6 0 7014 colorp6
chr - P5 P5 0 4990 colorp5
chr - P4 P4 0 4309 colorp4
chr - P31 P31 0 6906 colorp31
chr - P30 P30 0 6541 colorp30
chr - P3 P3 0 6308 colorp3
chr - P29 P29 0 5662 colorp29
chr - P28 P28 0 4842 colorp28
chr - P27 P27 0 6180 colorp27
chr - P26 P26 0 6636 colorp26
chr - P25 P25 0 6854 colorp25
chr - P24 P24 0 7815 colorp24
chr - P23 P23 0 6013 colorp23
chr - P22 P22 0 6979 colorp22
chr - P21 P21 0 6216 colorp21
chr - P20 P20 0 7024 colorp20
chr - P2 P2 0 6063 colorp2
chr - P19 P19 0 6173 colorp19
chr - P18 P18 0 5910 colorp18
chr - P17 P17 0 6165 colorp17
chr - P16 P16 0 8778 colorp16
chr - P15 P15 0 4940 colorp15
chr - P14 P14 0 6086 colorp14
chr - P13 P13 0 5879 colorp13
chr - P12 P12 0 6641 colorp12
chr - P11 P11 0 7577 colorp11
chr - P10 P10 0 5222 colorp10
chr - P1 P1 0 5537 colorp1
chr - P0 P0 0 4912 colorp0
