P9 0 5147 P9
P8 0 6655 P8
P7 0 5406 P7
P6 0 7014 P6
P5 0 4990 P5
P4 0 4309 P4
P31 0 6906 P31
P30 0 6541 P30
P3 0 6308 P3
P29 0 5662 P29
P28 0 4842 P28
P27 0 6180 P27
P26 0 6636 P26
P25 0 6854 P25
P24 0 7815 P24
P23 0 6013 P23
P22 0 6979 P22
P21 0 6216 P21
P20 0 7024 P20
P2 0 6063 P2
P19 0 6173 P19
P18 0 5910 P18
P17 0 6165 P17
P16 0 8778 P16
P15 0 4940 P15
P14 0 6086 P14
P13 0 5879 P13
P12 0 6641 P12
P11 0 7577 P11
P10 0 5222 P10
P1 0 5537 P1
P0 0 4912 P0
