NumProcessors	SendPCnt_H	SendPCnt_M	min_H	max_H	min_M	max_M
16	12	11	8	14	9	14
32	14	17	10	20	11	26
64	17	21	11	25	13	29
128	18	24	11	34	15	35
256	19	27	11	49	17	48
512	20	28	12	62	12	58
1024	20	30	10	64	15	70
2048	20	30	10	82	17	90
4096	20	31	10	111	17	126
