npes	numPts	option	tol	1_sf_min	1_sf_mean	1_sf_max	1_split_min	1_split_mean	1_split_max	1_a2a1_min	1_a2a1_mean	1_a2a1_max	1_a2a2_min	1_a2a2_mean	1_a2a2_max	1_ls_min	1_ls_mean	1_ls_max	1_sq::rd_min	1_sq::rd_mean	1_sq::rd_max	1_auxBal_min	1_auxBal_mean	1_auxBal_max	1_par::rd_min	1_par::rd_mean	1_par::rd_max	1_totRD_min	1_totRD_mean	1_totRD_max	2_sf_min	2_sf_mean	2_sf_max	2_split_min	2_split_mean	2_split_max	2_a2a1_min	2_a2a1_mean	2_a2a1_max	2_a2a2_min	2_a2a2_mean	2_a2a2_max	2_ls_min	2_ls_mean	2_ls_max	2_sq::rd_min	2_sq::rd_mean	2_sq::rd_max	2_auxBal_min	2_auxBal_mean	2_auxBal_max	2_par::rd_min	2_par::rd_mean	2_par::rd_max	2_totRD_min	2_totRD_mean	2_totRD_max	2_tot_min	2_tot_mean	2_tot_max
2	1000000	4	0.1	0	0	0	39	46	53	0	0	0	16	16	16	17757	18723	19689	0	0	0	16417	17304	18191	0	0	0	17827	18786	19745	0	0	0	238	238.5	239	0	0	0	68	68	68	931	998	1065	160	168.5	177	0	0	0	11	78	145	1384	1384	1384	1592	2558	3524
4	1000000	4	0.1	62	73.25	78	31	39	47	16	16	16	9	9.5	10	16040	19271.2	22105	0	0	0	14816	17799.8	20431	0	0	0	16157	19394.5	22241	397	399.75	405	195	238	281	80	80.5	81	70	74.5	79	860	1059	1226	146	172	194	0	0	0	11	225	470	1995	1998.25	2002	2239	4158	5131
8	1000000	4	0.1	70	76.25	88	31	50.75	71	15	15.875	16	11	12.25	14	17503	19876.5	22566	0	0	0	16129	18349.6	20891	0	0	0	17633	20017.5	22741	456	457.75	459	166	243.375	322	94	96.125	98	71	75.75	82	937	1085.62	1209	153	172.625	187	0	0	0	15	222.5	410	2085	2086.75	2088	2364	2836.75	6145
16	1000000	4	0.1	76	82.1875	92	48	54.75	58	21	21.1875	22	12	14.5	16	17542	19316.1	21082	0	0	0	16176	17782.5	19450	0	0	0	17679	19469.3	21233	494	497.25	500	268	330.375	404	100	103.688	113	76	81.9375	92	929	1105.12	1283	151	173.5	197	0	0	0	15	277.375	483	2292	2294	2297	2565	3097.06	4235
32	1000000	4	0.1	101	108.156	118	49	60.2812	77	38	38.7188	39	12	13.875	16	15474	19699.5	22358	0	0	0	14223	18119.8	20572	0	0	0	15654	19883.4	22557	549	553.25	563	325	372.688	478	106	108.469	115	75	85.4375	95	1048	1175.16	1363	157	181.75	205	0	0	0	15	319.344	466	2503	2507.94	2517	2801	3602.06	5864
64	1000000	4	0.1	114	122.859	133	62	76.25	100	51	53.7188	57	15	16.4531	18	15624	20148.3	22919	0	0	0	14361	18523.5	21101	0	0	0	15840	20365.4	23126	568	575.234	589	361	436.078	577	116	120.484	133	82	95.5	108	979	1184.05	1347	148	181.906	207	0	0	0	15	332.344	617	2618	2625.05	2639	2919	3005.38	3409
128	1000000	4	0.1	171	184.25	193	64	77.5	94	87	94.6562	98	15	16.7422	21	16645	19550.1	22511	0	0	0	15254	17930.6	20735	0	0	0	16930	19830.1	22780	660	670.633	681	378	478.195	640	125	130.078	151	77	95.7266	109	980	1198.09	1447	146	178.992	208	0	0	0	18	439.562	760	2878	2884.31	2894	3172	3742.61	6383
256	1000000	4	0.1	187	200.469	209	74	94.3438	116	98	106.93	113	19	22.7266	27	17196	19975.7	22849	0	0	0	15785	18288.7	20962	0	0	0	17489	20294.8	23190	705	735.664	761	448	561.465	777	133	141.266	171	83	105.73	128	982	1269.57	1482	151	186.852	211	0	0	0	18	455.926	860	3099	3130.39	3154	3431	3618.02	6273
512	1000000	4	0.1	245	257.531	268	71	82.3789	94	142	153.412	162	19	22.5586	28	16557	20316.8	24393	0	0	0	15077	18595.7	22431	0	0	0	16915	20680.8	24763	688	711.543	733	465	548.57	815	129	136.174	173	85	100.277	129	983	1272.59	1494	151	181.785	208	0	0	0	18	496.207	867	3112	3131.19	3154	3440	3672.1	6566
1024	1000000	4	0.1	245	255.759	269	77	89.6572	103	123	149.457	156	36	42.2969	54	16170	19717.8	23147	0	0	0	14705	18004.3	21240	0	0	0	16546	20106.9	23530	713	770.449	797	485	598.106	918	137	143.861	179	90	102.171	133	994	1284.67	1464	148	179.654	204	0	0	0	17	468.385	861	3169	3225.79	3252	3524	3630.16	5758
2048	1000000	4	0.1	342	360.744	373	78	94.4727	105	196	224.462	236	37	43.2363	47	16230	20085.1	23938	0	0	0	14784	18303.3	21859	0	0	0	16728	20585.1	24460	830	999.33	1196	503	693.451	1065	145	155.008	199	80	107.812	156	947	1357.88	1592	151	186.895	216	0	0	0	18	610.87	1177	3602	3771.33	3968	4249	4625.25	8118
4096	1000000	4	0.1	230	242.791	261	83	100.136	112	91	103.557	109	52	63.7585	77	16324	20442.9	24273	0	0	0	14841	18629.2	22205	0	0	0	16730	20851	24707	4017	4253.48	4415	532	802.19	1189	465	943.397	3077	103	194.756	3719	972	1359.66	1605	151	183.065	210	0	0	0	89	3914.35	4609	10285	10526.4	10694	11378	11813.1	16557
