npes	numPts	option	tol	1_sf_min	1_sf_mean	1_sf_max	1_split_min	1_split_mean	1_split_max	1_a2a1_min	1_a2a1_mean	1_a2a1_max	1_a2a2_min	1_a2a2_mean	1_a2a2_max	1_ls_min	1_ls_mean	1_ls_max	1_sq::rd_min	1_sq::rd_mean	1_sq::rd_max	1_auxBal_min	1_auxBal_mean	1_auxBal_max	1_par::rd_min	1_par::rd_mean	1_par::rd_max	1_totRD_min	1_totRD_mean	1_totRD_max	2_sf_min	2_sf_mean	2_sf_max	2_split_min	2_split_mean	2_split_max	2_a2a1_min	2_a2a1_mean	2_a2a1_max	2_a2a2_min	2_a2a2_mean	2_a2a2_max	2_ls_min	2_ls_mean	2_ls_max	2_sq::rd_min	2_sq::rd_mean	2_sq::rd_max	2_auxBal_min	2_auxBal_mean	2_auxBal_max	2_par::rd_min	2_par::rd_mean	2_par::rd_max	2_totRD_min	2_totRD_mean	2_totRD_max	2_tot_min	2_tot_mean	2_tot_max
2	1000000	2	0.1	0	0	0	39	41	43	0	0	0	15	15	15	251	269.5	288	0	0	0	0	0	0	0	0	0	306	326.5	347	0	0	0	150	151.5	153	0	0	0	46	46	46	562	601.5	641	100	105	110	0	0	0	6	46	86	845	846.5	848	972	990.5	1009
4	1000000	2	0.1	65	67	68	32	39.5	47	15	15	15	9	9.5	10	230	269.75	303	0	0	0	0	0	0	0	0	0	337	386.75	428	238	240.5	244	114	138.5	161	50	50	50	37	41.25	46	510	610.5	698	90	102.75	115	0	0	0	6	121	248	1151	1154	1156	1301	1325.75	1334
8	1000000	2	0.1	70	71.25	72	29	49	63	16	16	16	10	11.625	13	269	301.375	332	0	0	0	0	0	0	0	0	0	409	435	473	270	273.75	278	99	145.75	183	54	54.25	55	30	42.25	48	556	638.75	709	92	105.125	114	0	0	0	9	123.25	249	1223	1225.62	1229	1386	1391.25	1428
16	1000000	2	0.1	76	76.75	78	46	55	61	20	21	22	11	14.375	16	256	285.688	305	0	0	0	0	0	0	0	0	0	392	433.375	461	294	298.312	301	162	198.5	235	56	59.25	66	43	47.6875	54	544	646.938	741	91	105.688	120	0	0	0	9	129	252	1319	1322.44	1324	1481	1488.38	1503
32	1000000	2	0.1	100	101.938	103	51	60.5312	75	37	37.7812	38	12	15.2812	17	238	289.219	331	0	0	0	0	0	0	0	0	0	410	468.344	520	322	326.844	332	181	221.969	281	62	63.9375	70	38	47.9688	55	530	663.531	767	84	104.719	120	0	0	0	9	163.656	342	1422	1426.22	1430	1590	1610.22	1637
64	1000000	2	0.1	184	284.297	289	61	74.1875	129	61	63.2969	64	14	18.7656	36	238	298.641	379	0	0	0	0	0	0	0	0	0	601	677.234	824	499	510.875	520	214	290.406	422	85	89.9844	116	52	57.8438	73	566	696.25	805	93	110.078	161	0	0	0	10	257.031	469	1807	1814.45	1821	2045	2067.72	2167
128	1000000	2	0.1	172	175.531	178	65	77.5703	94	91	95.3594	97	15	17.4531	20	260	299.383	331	0	0	0	0	0	0	0	0	0	523	571.445	608	391	402.039	410	215	271.086	391	70	74.1406	92	47	55.9609	63	565	697.57	816	90	108.148	125	0	0	0	11	251.789	419	1674	1680.33	1687	1845	1850.56	1882
256	1000000	2	0.1	187	192.387	195	75	93.2773	115	102	110.332	115	20	23.7148	27	263	304.66	338	0	0	0	0	0	0	0	0	0	559	615.539	658	392	403.25	411	247	299.73	432	67	72.6172	81	52	57.5469	69	567	716.625	818	92	109.629	121	0	0	0	11	243.352	441	1713	1722.45	1729	1886	1887.8	1903
512	1000000	2	0.1	246	256.963	268	71	82.6504	93	133	152.949	162	20	23.7832	28	246	310.975	355	0	0	0	0	0	0	0	0	0	598	675.846	735	406	424.775	443	269	328.902	443	75	79.3652	92	45	59.1211	73	611	741.35	850	91	109.949	126	0	0	0	11	227.9	417	1768	1784.02	1799	1957	1962.12	2001
1024	1000000	2	0.1	249	261.584	273	77	90.0234	104	140	158.175	165	37	43.1582	52	254	314.179	369	0	0	0	0	0	0	0	0	0	638	710.44	780	421	453.954	471	296	372.838	589	77	82.1992	106	46	59.3457	79	562	746.36	871	88	107.9	125	0	0	0	11	353.616	612	1954	1988.13	2005	2161	2166.34	2215
2048	1000000	2	0.1	351	363.143	376	78	94.6616	110	214	239.374	253	36	43.3457	47	258	320.414	366	0	0	0	0	0	0	0	0	0	745	823.075	883	492	519.238	536	303	392.262	615	76	85.8521	113	40	59.8184	88	565	765.48	898	88	109.067	126	0	0	0	11	368.624	658	2078	2107.42	2122	2281	2289.57	2320
4096	1000000	2	0.1	284	317.306	337	83	101.474	186	102	113.628	123	56	63.7324	78	251	324.826	415	0	0	0	0	0	0	0	0	0	706	808.865	972	654	758.95	875	317	464.108	711	82	96.0815	143	40	72.8323	120	552	790.647	1006	88	109.631	131	0	0	0	12	408.262	797	2392	2496.8	2610	2829	2838.95	3029
