npes	numPts	option	tol	1_sf_min	1_sf_mean	1_sf_max	1_split_min	1_split_mean	1_split_max	1_a2a1_min	1_a2a1_mean	1_a2a1_max	1_a2a2_min	1_a2a2_mean	1_a2a2_max	1_ls_min	1_ls_mean	1_ls_max	1_sq::rd_min	1_sq::rd_mean	1_sq::rd_max	1_auxBal_min	1_auxBal_mean	1_auxBal_max	1_par::rd_min	1_par::rd_mean	1_par::rd_max	1_totRD_min	1_totRD_mean	1_totRD_max
2	1000000	1	0.1	0	0	0	39	46.5	54	0	0	0	16	16	16	186	201.5	217	17	20	23	0	0	0	2	17.5	33	275	282.5	290
4	1000000	1	0.1	62	66	77	31	38.5	46	16	16	16	8	8.5	9	169	204.75	239	15	21.25	29	0	0	0	2	43.75	87	360	363.5	374
8	1000000	1	0.1	70	74.625	86	37	49.25	61	16	16	16	12	17.75	31	197	230.875	264	16	22.375	27	0	0	0	3	48.375	72	418	422.5	434
16	1000000	1	0.1	76	82.8125	91	47	56.25	65	20	20.875	22	11	14.5	16	190	218.812	238	16	24.3125	33	0	0	0	3	28.75	71	396	403.062	411
32	1000000	1	0.1	99	106.75	117	51	60.2188	70	37	37.75	38	12	14.875	18	177	222	263	14	23.125	32	0	0	0	2	49.6875	105	448	455.594	466
64	1000000	1	0.1	170	227.172	241	56	72.6562	126	60	63.0938	65	14	18.3125	33	176	232.547	362	17	25.4531	49	0	0	0	13	210.5	287	706	763.25	777
128	1000000	1	0.1	174	183.273	194	65	75.9453	86	94	96.2812	101	15	16.7734	19	196	232.977	262	17	24.6094	31	0	0	0	3	34.8672	79	537	545.859	556
256	1000000	1	0.1	192	201.812	212	73	92.0781	114	107	113.551	115	20	22.832	25	198	238.641	268	15	25.4219	31	0	0	0	3	47.8164	103	596	605.18	615
512	1000000	1	0.1	244	252.766	265	71	82.5996	93	128	151.572	160	19	22.6621	27	188	244.934	287	14	26.0527	33	0	0	0	3	56.2891	121	653	661.242	673
1024	1000000	1	0.1	249	259.182	271	77	89.6934	103	124	153.856	166	36	41.876	52	188	248.588	304	16	25.6475	33	0	0	0	4	74.0205	143	706	715.318	727
2048	1000000	1	0.1	358	369.569	383	80	95.9976	111	219	243.635	257	36	42.8379	46	195	254.334	297	16	26.2349	33	0	0	0	4	59.4829	135	814	824.222	837
4096	1000000	1	0.1	282	350.706	372	83	104.1	191	99	110.688	119	55	63.7429	81	181	258.886	446	14	25.2749	34	0	0	0	4	276.533	375	987	1055.97	1072
