P01 17519 22050 fill_color=colorp00
P02 18617 21990 fill_color=colorp00
P03 14044 15637 fill_color=colorp00
P04 16122 16269 fill_color=colorp00
P07 17431 18266 fill_color=colorp00
P08 15419 17734 fill_color=colorp00
P09 13685 13778 fill_color=colorp00
P10 15392 15507 fill_color=colorp00
P15 15040 16052 fill_color=colorp00
P16 14973 16743 fill_color=colorp00
P17 17346 17545 fill_color=colorp00
P23 11502 11543 fill_color=colorp00
P24 12163 12259 fill_color=colorp00
P31 12715 13199 fill_color=colorp00
P32 15710 15873 fill_color=colorp00
P33 15842 15848 fill_color=colorp00
P00 16773 18363 fill_color=colorp01
P02 21990 26063 fill_color=colorp01
P03 15637 16027 fill_color=colorp01
P04 16269 19104 fill_color=colorp01
P05 16179 17347 fill_color=colorp01
P07 18266 18283 fill_color=colorp01
P08 17734 18606 fill_color=colorp01
P09 13778 15086 fill_color=colorp01
P11 14902 15002 fill_color=colorp01
P15 16052 16075 fill_color=colorp01
P16 16743 17982 fill_color=colorp01
P17 17545 17799 fill_color=colorp01
P19 16702 16709 fill_color=colorp01
P31 13199 13631 fill_color=colorp01
P32 15873 18558 fill_color=colorp01
P33 15848 16153 fill_color=colorp01
P34 15238 15245 fill_color=colorp01
P39 12000 12038 fill_color=colorp01
P40 13554 13689 fill_color=colorp01
P48 13359 13400 fill_color=colorp01
P00 18363 19473 fill_color=colorp02
P01 22050 23496 fill_color=colorp02
P03 16027 21060 fill_color=colorp02
P04 19104 22657 fill_color=colorp02
P05 17347 19140 fill_color=colorp02
P06 14986 15648 fill_color=colorp02
P07 18283 18284 fill_color=colorp02
P08 18606 18645 fill_color=colorp02
P09 15086 16550 fill_color=colorp02
P10 15507 15637 fill_color=colorp02
P11 15002 15116 fill_color=colorp02
P12 13953 13961 fill_color=colorp02
P15 16075 16076 fill_color=colorp02
P16 17982 18045 fill_color=colorp02
P17 17799 19503 fill_color=colorp02
P18 13722 13730 fill_color=colorp02
P19 16709 16834 fill_color=colorp02
P32 18558 19694 fill_color=colorp02
P33 16153 16154 fill_color=colorp02
P34 15245 15356 fill_color=colorp02
P48 13400 13515 fill_color=colorp02
P00 19473 19926 fill_color=colorp03
P01 23496 23576 fill_color=colorp03
P02 26063 27883 fill_color=colorp03
P04 22657 24840 fill_color=colorp03
P05 19140 20842 fill_color=colorp03
P06 15648 18088 fill_color=colorp03
P07 18284 18461 fill_color=colorp03
P08 18645 18669 fill_color=colorp03
P09 16550 16581 fill_color=colorp03
P10 15637 17408 fill_color=colorp03
P11 15116 15117 fill_color=colorp03
P12 13961 14030 fill_color=colorp03
P13 13160 13164 fill_color=colorp03
P16 18045 18081 fill_color=colorp03
P17 19503 21587 fill_color=colorp03
P18 13730 14610 fill_color=colorp03
P19 16834 16984 fill_color=colorp03
P20 13655 13736 fill_color=colorp03
P24 12259 12309 fill_color=colorp03
P25 13857 13865 fill_color=colorp03
P00 19926 19959 fill_color=colorp04
P01 23576 24511 fill_color=colorp04
P02 27883 29111 fill_color=colorp04
P03 21060 21850 fill_color=colorp04
P05 20842 25770 fill_color=colorp04
P06 18088 20285 fill_color=colorp04
P07 18461 19477 fill_color=colorp04
P08 18669 18670 fill_color=colorp04
P09 16581 16625 fill_color=colorp04
P10 17408 18230 fill_color=colorp04
P11 15117 16317 fill_color=colorp04
P12 14030 14149 fill_color=colorp04
P13 13164 13243 fill_color=colorp04
P17 21587 21603 fill_color=colorp04
P18 14610 15333 fill_color=colorp04
P20 13736 13791 fill_color=colorp04
P24 12309 12310 fill_color=colorp04
P25 13865 13945 fill_color=colorp04
P26 11749 11755 fill_color=colorp04
P31 13631 13632 fill_color=colorp04
P32 19694 19742 fill_color=colorp04
P33 16154 17825 fill_color=colorp04
P34 15356 15478 fill_color=colorp04
P35 15161 15168 fill_color=colorp04
P01 24511 24860 fill_color=colorp05
P02 29111 29677 fill_color=colorp05
P03 21850 22532 fill_color=colorp05
P04 24840 26642 fill_color=colorp05
P06 20285 24808 fill_color=colorp05
P07 19477 21165 fill_color=colorp05
P09 16625 16643 fill_color=colorp05
P11 16317 16962 fill_color=colorp05
P12 14149 14971 fill_color=colorp05
P13 13243 13348 fill_color=colorp05
P16 18081 18082 fill_color=colorp05
P17 21603 21642 fill_color=colorp05
P18 15333 15334 fill_color=colorp05
P19 16984 18325 fill_color=colorp05
P20 13791 13884 fill_color=colorp05
P21 14157 14164 fill_color=colorp05
P32 19742 19784 fill_color=colorp05
P33 17825 19607 fill_color=colorp05
P34 15478 16840 fill_color=colorp05
P35 15168 15343 fill_color=colorp05
P40 13689 13819 fill_color=colorp05
P42 10172 10178 fill_color=colorp05
P02 29677 29859 fill_color=colorp06
P03 22532 23402 fill_color=colorp06
P04 26642 27471 fill_color=colorp06
P05 25770 27572 fill_color=colorp06
P07 21165 26828 fill_color=colorp06
P09 16643 16644 fill_color=colorp06
P10 18230 18246 fill_color=colorp06
P11 16962 16978 fill_color=colorp06
P12 14971 15697 fill_color=colorp06
P13 13348 13477 fill_color=colorp06
P14 14899 14906 fill_color=colorp06
P17 21642 21662 fill_color=colorp06
P18 15334 15351 fill_color=colorp06
P19 18325 19582 fill_color=colorp06
P20 13884 14738 fill_color=colorp06
P21 14164 14315 fill_color=colorp06
P32 19784 19802 fill_color=colorp06
P33 19607 19623 fill_color=colorp06
P34 16840 18159 fill_color=colorp06
P35 15343 16200 fill_color=colorp06
P36 13843 13919 fill_color=colorp06
P48 13515 13669 fill_color=colorp06
P49 14704 14710 fill_color=colorp06
P00 19959 20216 fill_color=colorp07
P01 24860 24878 fill_color=colorp07
P02 29859 29860 fill_color=colorp07
P03 23402 23435 fill_color=colorp07
P04 27471 27817 fill_color=colorp07
P05 27572 28212 fill_color=colorp07
P06 24808 26876 fill_color=colorp07
P08 18670 21424 fill_color=colorp07
P09 16644 16915 fill_color=colorp07
P10 18246 18323 fill_color=colorp07
P11 16978 16979 fill_color=colorp07
P12 15697 15755 fill_color=colorp07
P13 13477 15334 fill_color=colorp07
P14 14906 16290 fill_color=colorp07
P15 16076 16131 fill_color=colorp07
P18 15351 15367 fill_color=colorp07
P19 19582 19598 fill_color=colorp07
P20 14738 15594 fill_color=colorp07
P21 14315 16192 fill_color=colorp07
P25 13945 13946 fill_color=colorp07
P26 11755 11820 fill_color=colorp07
P27 13563 13650 fill_color=colorp07
P33 19623 19642 fill_color=colorp07
P34 18159 18197 fill_color=colorp07
P35 16200 18137 fill_color=colorp07
P36 13919 16151 fill_color=colorp07
P40 13819 13820 fill_color=colorp07
P42 10178 10383 fill_color=colorp07
P48 13669 13670 fill_color=colorp07
P49 14710 14907 fill_color=colorp07
P56 9697 9704 fill_color=colorp07
P63 9305 9361 fill_color=colorp07
P00 20216 21006 fill_color=colorp08
P01 24878 25229 fill_color=colorp08
P02 29860 29897 fill_color=colorp08
P03 23435 23458 fill_color=colorp08
P04 27817 27818 fill_color=colorp08
P07 26828 27856 fill_color=colorp08
P09 16915 21277 fill_color=colorp08
P10 18323 21727 fill_color=colorp08
P11 16979 17694 fill_color=colorp08
P12 15755 15861 fill_color=colorp08
P15 16131 17146 fill_color=colorp08
P16 18082 18105 fill_color=colorp08
P17 21662 21663 fill_color=colorp08
P23 11543 12009 fill_color=colorp08
P24 12310 14590 fill_color=colorp08
P25 13946 14037 fill_color=colorp08
P30 14572 14665 fill_color=colorp08
P31 13632 13642 fill_color=colorp08
P32 19802 19803 fill_color=colorp08
P39 12038 12380 fill_color=colorp08
P40 13820 14022 fill_color=colorp08
P63 9361 9439 fill_color=colorp08
P00 21006 21023 fill_color=colorp09
P01 25229 25616 fill_color=colorp09
P02 29897 30440 fill_color=colorp09
P03 23458 23489 fill_color=colorp09
P04 27818 27862 fill_color=colorp09
P05 28212 28230 fill_color=colorp09
P06 26876 26877 fill_color=colorp09
P07 27856 27945 fill_color=colorp09
P08 21424 22991 fill_color=colorp09
P10 21727 24849 fill_color=colorp09
P11 17694 21132 fill_color=colorp09
P12 15861 17112 fill_color=colorp09
P13 15334 15420 fill_color=colorp09
P14 16290 16298 fill_color=colorp09
P15 17146 18083 fill_color=colorp09
P31 13642 13643 fill_color=colorp09
P32 19803 19832 fill_color=colorp09
P33 19642 19643 fill_color=colorp09
P39 12380 12397 fill_color=colorp09
P40 14022 15877 fill_color=colorp09
P41 12693 12757 fill_color=colorp09
P47 11811 11890 fill_color=colorp09
P63 9439 9539 fill_color=colorp09
P00 21023 21040 fill_color=colorp10
P02 30440 30469 fill_color=colorp10
P03 23489 24195 fill_color=colorp10
P04 27862 28200 fill_color=colorp10
P06 26877 26894 fill_color=colorp10
P07 27945 27973 fill_color=colorp10
P08 22991 24068 fill_color=colorp10
P09 21277 22490 fill_color=colorp10
P11 21132 24847 fill_color=colorp10
P12 17112 19119 fill_color=colorp10
P13 15420 17619 fill_color=colorp10
P14 16298 16527 fill_color=colorp10
P15 18083 18983 fill_color=colorp10
P16 18105 18106 fill_color=colorp10
P17 21663 21679 fill_color=colorp10
P18 15367 15391 fill_color=colorp10
P20 15594 15595 fill_color=colorp10
P24 14590 15629 fill_color=colorp10
P25 14037 15706 fill_color=colorp10
P26 11820 11892 fill_color=colorp10
P27 13650 13740 fill_color=colorp10
P28 15268 15273 fill_color=colorp10
P01 25616 25637 fill_color=colorp11
P02 30469 30493 fill_color=colorp11
P03 24195 24196 fill_color=colorp11
P04 28200 28667 fill_color=colorp11
P05 28230 28490 fill_color=colorp11
P06 26894 26910 fill_color=colorp11
P07 27973 27974 fill_color=colorp11
P08 24068 24238 fill_color=colorp11
P09 22490 23703 fill_color=colorp11
P10 24849 26273 fill_color=colorp11
P12 19119 23710 fill_color=colorp11
P13 17619 18446 fill_color=colorp11
P14 16527 18558 fill_color=colorp11
P15 18983 19829 fill_color=colorp11
P24 15629 15667 fill_color=colorp11
P25 15706 17274 fill_color=colorp11
P27 13740 13741 fill_color=colorp11
P28 15273 15378 fill_color=colorp11
P30 14665 14738 fill_color=colorp11
P32 19832 19833 fill_color=colorp11
P33 19643 19659 fill_color=colorp11
P34 18197 18198 fill_color=colorp11
P40 15877 16948 fill_color=colorp11
P41 12757 12893 fill_color=colorp11
P02 30493 30494 fill_color=colorp12
P03 24196 24212 fill_color=colorp12
P04 28667 28700 fill_color=colorp12
P05 28490 28780 fill_color=colorp12
P06 26910 27205 fill_color=colorp12
P07 27974 28028 fill_color=colorp12
P08 24238 24255 fill_color=colorp12
P09 23703 24064 fill_color=colorp12
P10 26273 26999 fill_color=colorp12
P11 24847 26654 fill_color=colorp12
P13 18446 22295 fill_color=colorp12
P14 18558 20570 fill_color=colorp12
P15 19829 20777 fill_color=colorp12
P33 19659 19660 fill_color=colorp12
P34 18198 18214 fill_color=colorp12
P35 18137 18138 fill_color=colorp12
P40 16948 17853 fill_color=colorp12
P41 12893 15120 fill_color=colorp12
P42 10383 10547 fill_color=colorp12
P43 14753 14881 fill_color=colorp12
P47 11890 11992 fill_color=colorp12
P03 24212 24213 fill_color=colorp13
P04 28700 28717 fill_color=colorp13
P05 28780 28798 fill_color=colorp13
P06 27205 27237 fill_color=colorp13
P07 28028 28655 fill_color=colorp13
P09 24064 24080 fill_color=colorp13
P10 26999 27837 fill_color=colorp13
P11 26654 26983 fill_color=colorp13
P12 23710 25269 fill_color=colorp13
P14 20570 26058 fill_color=colorp13
P15 20777 20944 fill_color=colorp13
P18 15391 15392 fill_color=colorp13
P20 15595 15611 fill_color=colorp13
P21 16192 16193 fill_color=colorp13
P25 17274 17310 fill_color=colorp13
P26 11892 12863 fill_color=colorp13
P27 13741 14706 fill_color=colorp13
P28 15378 15461 fill_color=colorp13
P34 18214 18215 fill_color=colorp13
P35 18138 18161 fill_color=colorp13
P36 16151 16152 fill_color=colorp13
P40 17853 17881 fill_color=colorp13
P41 15120 15137 fill_color=colorp13
P42 10547 12397 fill_color=colorp13
P43 14881 14956 fill_color=colorp13
P06 27237 27238 fill_color=colorp14
P07 28655 29028 fill_color=colorp14
P09 24080 24081 fill_color=colorp14
P10 27837 27888 fill_color=colorp14
P11 26983 27711 fill_color=colorp14
P12 25269 26007 fill_color=colorp14
P13 22295 24443 fill_color=colorp14
P15 20944 25094 fill_color=colorp14
P20 15611 15612 fill_color=colorp14
P21 16193 16209 fill_color=colorp14
P25 17310 17337 fill_color=colorp14
P26 12863 12884 fill_color=colorp14
P27 14706 16570 fill_color=colorp14
P28 15461 16646 fill_color=colorp14
P30 14738 14802 fill_color=colorp14
P35 18161 18162 fill_color=colorp14
P36 16152 16171 fill_color=colorp14
P41 15137 15167 fill_color=colorp14
P42 12397 14272 fill_color=colorp14
P43 14956 16231 fill_color=colorp14
P44 14172 14267 fill_color=colorp14
P47 11992 12042 fill_color=colorp14
P49 14907 14908 fill_color=colorp14
P56 9704 9877 fill_color=colorp14
P57 14874 14886 fill_color=colorp14
P00 21040 21393 fill_color=colorp15
P01 25637 25661 fill_color=colorp15
P02 30494 30495 fill_color=colorp15
P07 29028 29039 fill_color=colorp15
P08 24255 24579 fill_color=colorp15
P09 24081 24398 fill_color=colorp15
P10 27888 28243 fill_color=colorp15
P11 27711 28043 fill_color=colorp15
P12 26007 26336 fill_color=colorp15
P13 24443 24476 fill_color=colorp15
P14 26058 27626 fill_color=colorp15
P16 18106 20923 fill_color=colorp15
P17 21679 21757 fill_color=colorp15
P18 15392 15466 fill_color=colorp15
P23 12009 12524 fill_color=colorp15
P24 15667 15823 fill_color=colorp15
P25 17337 17358 fill_color=colorp15
P27 16570 16586 fill_color=colorp15
P28 16646 17909 fill_color=colorp15
P30 14802 16743 fill_color=colorp15
P31 13643 14033 fill_color=colorp15
P40 17881 17902 fill_color=colorp15
P41 15167 15189 fill_color=colorp15
P42 14272 14291 fill_color=colorp15
P43 16231 16920 fill_color=colorp15
P44 14267 14957 fill_color=colorp15
P47 12042 14021 fill_color=colorp15
P56 9877 9878 fill_color=colorp15
P57 14886 15035 fill_color=colorp15
P62 9888 10016 fill_color=colorp15
P63 9539 9963 fill_color=colorp15
P00 21393 21957 fill_color=colorp16
P01 25661 26111 fill_color=colorp16
P02 30495 30568 fill_color=colorp16
P03 24213 24253 fill_color=colorp16
P05 28798 28800 fill_color=colorp16
P08 24579 24600 fill_color=colorp16
P10 28243 28244 fill_color=colorp16
P15 25094 26201 fill_color=colorp16
P17 21757 27273 fill_color=colorp16
P18 15466 17416 fill_color=colorp16
P19 19598 20784 fill_color=colorp16
P21 16209 16299 fill_color=colorp16
P23 12524 13901 fill_color=colorp16
P24 15823 17807 fill_color=colorp16
P25 17358 17420 fill_color=colorp16
P26 12884 12922 fill_color=colorp16
P31 14033 14113 fill_color=colorp16
P32 19833 19846 fill_color=colorp16
P48 13670 13987 fill_color=colorp16
P63 9963 10065 fill_color=colorp16
P00 21957 21994 fill_color=colorp17
P01 26111 26156 fill_color=colorp17
P02 30568 31135 fill_color=colorp17
P03 24253 25051 fill_color=colorp17
P04 28717 28733 fill_color=colorp17
P05 28800 28844 fill_color=colorp17
P06 27238 27258 fill_color=colorp17
P08 24600 24601 fill_color=colorp17
P10 28244 28260 fill_color=colorp17
P15 26201 26216 fill_color=colorp17
P16 20923 22798 fill_color=colorp17
P18 17416 22718 fill_color=colorp17
P19 20784 24289 fill_color=colorp17
P20 15612 16187 fill_color=colorp17
P21 16299 16795 fill_color=colorp17
P22 12778 13329 fill_color=colorp17
P23 13901 14461 fill_color=colorp17
P24 17807 18342 fill_color=colorp17
P25 17420 17483 fill_color=colorp17
P32 19846 19867 fill_color=colorp17
P34 18215 18216 fill_color=colorp17
P48 13987 16073 fill_color=colorp17
P51 13823 13933 fill_color=colorp17
P54 9332 9433 fill_color=colorp17
P55 11575 11581 fill_color=colorp17
P02 31135 31136 fill_color=colorp18
P03 25051 25331 fill_color=colorp18
P04 28733 29017 fill_color=colorp18
P05 28844 28845 fill_color=colorp18
P06 27258 27275 fill_color=colorp18
P07 29039 29056 fill_color=colorp18
P10 28260 28279 fill_color=colorp18
P13 24476 24477 fill_color=colorp18
P15 26216 26229 fill_color=colorp18
P16 22798 23427 fill_color=colorp18
P17 27273 29281 fill_color=colorp18
P19 24289 27231 fill_color=colorp18
P20 16187 19024 fill_color=colorp18
P21 16795 18111 fill_color=colorp18
P22 13329 13597 fill_color=colorp18
P23 14461 15187 fill_color=colorp18
P24 18342 18854 fill_color=colorp18
P25 17483 19105 fill_color=colorp18
P26 12922 13058 fill_color=colorp18
P27 16586 16673 fill_color=colorp18
P29 13765 13771 fill_color=colorp18
P01 26156 26157 fill_color=colorp19
P02 31136 31160 fill_color=colorp19
P03 25331 25359 fill_color=colorp19
P05 28845 29381 fill_color=colorp19
P06 27275 27841 fill_color=colorp19
P07 29056 29074 fill_color=colorp19
P16 23427 23781 fill_color=colorp19
P17 29281 30549 fill_color=colorp19
P18 22718 23840 fill_color=colorp19
P20 19024 23130 fill_color=colorp19
P21 18111 20065 fill_color=colorp19
P22 13597 15888 fill_color=colorp19
P23 15187 16186 fill_color=colorp19
P24 18854 18882 fill_color=colorp19
P25 19105 19517 fill_color=colorp19
P26 13058 14379 fill_color=colorp19
P27 16673 16674 fill_color=colorp19
P29 13771 13869 fill_color=colorp19
P31 14113 14179 fill_color=colorp19
P32 19867 19868 fill_color=colorp19
P34 18216 18233 fill_color=colorp19
P35 18162 18179 fill_color=colorp19
P36 16171 16172 fill_color=colorp19
P48 16073 17380 fill_color=colorp19
P49 14908 15067 fill_color=colorp19
P50 12898 12905 fill_color=colorp19
P03 25359 25376 fill_color=colorp20
P04 29017 29034 fill_color=colorp20
P05 29381 29399 fill_color=colorp20
P06 27841 28163 fill_color=colorp20
P07 29074 29402 fill_color=colorp20
P10 28279 28280 fill_color=colorp20
P13 24477 24495 fill_color=colorp20
P14 27626 27628 fill_color=colorp20
P17 30549 30705 fill_color=colorp20
P18 23840 24971 fill_color=colorp20
P19 27231 28741 fill_color=colorp20
P21 20065 24322 fill_color=colorp20
P22 15888 18419 fill_color=colorp20
P25 19517 19554 fill_color=colorp20
P26 14379 15196 fill_color=colorp20
P27 16674 17553 fill_color=colorp20
P28 17909 17986 fill_color=colorp20
P29 13869 13937 fill_color=colorp20
P48 17380 17934 fill_color=colorp20
P49 15067 15784 fill_color=colorp20
P50 12905 12979 fill_color=colorp20
P51 13933 14057 fill_color=colorp20
P05 29399 29400 fill_color=colorp21
P06 28163 28195 fill_color=colorp21
P07 29402 29994 fill_color=colorp21
P13 24495 24496 fill_color=colorp21
P14 27628 27645 fill_color=colorp21
P16 23781 23801 fill_color=colorp21
P17 30705 30868 fill_color=colorp21
P18 24971 25431 fill_color=colorp21
P19 28741 29425 fill_color=colorp21
P20 23130 24730 fill_color=colorp21
P22 18419 22332 fill_color=colorp21
P23 16186 16588 fill_color=colorp21
P26 15196 15216 fill_color=colorp21
P27 17553 18434 fill_color=colorp21
P28 17986 18938 fill_color=colorp21
P29 13937 14018 fill_color=colorp21
P35 18179 18180 fill_color=colorp21
P36 16172 16218 fill_color=colorp21
P42 14291 14292 fill_color=colorp21
P48 17934 17955 fill_color=colorp21
P49 15784 17805 fill_color=colorp21
P50 12979 14881 fill_color=colorp21
P51 14057 14212 fill_color=colorp21
P56 9878 10056 fill_color=colorp21
P58 13906 13919 fill_color=colorp21
P17 30868 31032 fill_color=colorp22
P18 25431 25484 fill_color=colorp22
P19 29425 30265 fill_color=colorp22
P20 24730 25713 fill_color=colorp22
P21 24322 25901 fill_color=colorp22
P23 16588 19751 fill_color=colorp22
P25 19554 19555 fill_color=colorp22
P26 15216 15242 fill_color=colorp22
P27 18434 18451 fill_color=colorp22
P28 18938 18959 fill_color=colorp22
P29 14018 15832 fill_color=colorp22
P30 16743 16867 fill_color=colorp22
P31 14179 14247 fill_color=colorp22
P48 17955 17991 fill_color=colorp22
P49 17805 17822 fill_color=colorp22
P50 14881 14917 fill_color=colorp22
P51 14212 17717 fill_color=colorp22
P52 13877 14025 fill_color=colorp22
P54 9433 9434 fill_color=colorp22
P55 11581 11702 fill_color=colorp22
P56 10056 10057 fill_color=colorp22
P58 13919 13979 fill_color=colorp22
P00 21994 22005 fill_color=colorp23
P08 24601 24760 fill_color=colorp23
P15 26229 26393 fill_color=colorp23
P16 23801 24297 fill_color=colorp23
P17 31032 31263 fill_color=colorp23
P18 25484 25779 fill_color=colorp23
P19 30265 30626 fill_color=colorp23
P21 25901 26087 fill_color=colorp23
P22 22332 23504 fill_color=colorp23
P24 18882 20389 fill_color=colorp23
P26 15242 15263 fill_color=colorp23
P29 15832 15876 fill_color=colorp23
P30 16867 17491 fill_color=colorp23
P31 14247 16485 fill_color=colorp23
P48 17991 18013 fill_color=colorp23
P51 17717 17781 fill_color=colorp23
P52 14025 14619 fill_color=colorp23
P54 9434 9914 fill_color=colorp23
P55 11702 14061 fill_color=colorp23
P58 13979 14047 fill_color=colorp23
P62 10016 10139 fill_color=colorp23
P63 10065 10348 fill_color=colorp23
P00 22005 22025 fill_color=colorp24
P03 25376 25389 fill_color=colorp24
P04 29034 29035 fill_color=colorp24
P08 24760 25587 fill_color=colorp24
P10 28280 28701 fill_color=colorp24
P11 28043 28086 fill_color=colorp24
P15 26393 26440 fill_color=colorp24
P16 24297 25026 fill_color=colorp24
P17 31263 31472 fill_color=colorp24
P18 25779 26031 fill_color=colorp24
P19 30626 30663 fill_color=colorp24
P23 19751 20433 fill_color=colorp24
P25 19555 24305 fill_color=colorp24
P26 15263 17206 fill_color=colorp24
P30 17491 18347 fill_color=colorp24
P31 16485 17576 fill_color=colorp24
P63 10348 10590 fill_color=colorp24
P03 25389 25390 fill_color=colorp25
P04 29035 29053 fill_color=colorp25
P07 29994 29995 fill_color=colorp25
P08 25587 25605 fill_color=colorp25
P10 28701 29253 fill_color=colorp25
P11 28086 28662 fill_color=colorp25
P13 24496 24529 fill_color=colorp25
P14 27645 27676 fill_color=colorp25
P15 26440 26459 fill_color=colorp25
P16 25026 25035 fill_color=colorp25
P17 31472 31489 fill_color=colorp25
P18 26031 26627 fill_color=colorp25
P19 30663 30806 fill_color=colorp25
P20 25713 25753 fill_color=colorp25
P22 23504 23506 fill_color=colorp25
P24 20389 22091 fill_color=colorp25
P26 17206 21665 fill_color=colorp25
P27 18451 20958 fill_color=colorp25
P28 18959 21039 fill_color=colorp25
P29 15876 16015 fill_color=colorp25
P30 18347 19255 fill_color=colorp25
P31 17576 17582 fill_color=colorp25
P04 29053 29054 fill_color=colorp26
P07 29995 30011 fill_color=colorp26
P10 29253 29269 fill_color=colorp26
P13 24529 24840 fill_color=colorp26
P14 27676 27702 fill_color=colorp26
P16 25035 25043 fill_color=colorp26
P18 26627 26657 fill_color=colorp26
P19 30806 31258 fill_color=colorp26
P20 25753 26041 fill_color=colorp26
P21 26087 26104 fill_color=colorp26
P22 23506 23535 fill_color=colorp26
P23 20433 20454 fill_color=colorp26
P24 22091 22700 fill_color=colorp26
P25 24305 25918 fill_color=colorp26
P27 20958 23632 fill_color=colorp26
P28 21039 21179 fill_color=colorp26
P29 16015 18045 fill_color=colorp26
P30 19255 20923 fill_color=colorp26
P31 17582 19382 fill_color=colorp26
P07 30011 30027 fill_color=colorp27
P10 29269 29285 fill_color=colorp27
P11 28662 28663 fill_color=colorp27
P13 24840 25180 fill_color=colorp27
P14 27702 28394 fill_color=colorp27
P15 26459 26482 fill_color=colorp27
P18 26657 26676 fill_color=colorp27
P19 31258 31259 fill_color=colorp27
P20 26041 26344 fill_color=colorp27
P21 26104 26410 fill_color=colorp27
P22 23535 23551 fill_color=colorp27
P25 25918 26758 fill_color=colorp27
P26 21665 22717 fill_color=colorp27
P28 21179 27228 fill_color=colorp27
P29 18045 19606 fill_color=colorp27
P30 20923 21011 fill_color=colorp27
P36 16218 16219 fill_color=colorp27
P42 14292 14331 fill_color=colorp27
P43 16920 16922 fill_color=colorp27
P49 17822 17842 fill_color=colorp27
P50 14917 14918 fill_color=colorp27
P56 10057 12143 fill_color=colorp27
P57 15035 15126 fill_color=colorp27
P10 29285 29286 fill_color=colorp28
P11 28663 28687 fill_color=colorp28
P13 25180 25199 fill_color=colorp28
P14 28394 28877 fill_color=colorp28
P15 26482 27011 fill_color=colorp28
P20 26344 26360 fill_color=colorp28
P21 26410 26714 fill_color=colorp28
P22 23551 23567 fill_color=colorp28
P25 26758 27503 fill_color=colorp28
P26 22717 22765 fill_color=colorp28
P27 23632 25795 fill_color=colorp28
P29 19606 24509 fill_color=colorp28
P30 21011 23298 fill_color=colorp28
P31 19382 19435 fill_color=colorp28
P42 14331 14332 fill_color=colorp28
P43 16922 16941 fill_color=colorp28
P44 14957 14974 fill_color=colorp28
P47 14021 14022 fill_color=colorp28
P49 17842 17843 fill_color=colorp28
P50 14918 14934 fill_color=colorp28
P51 17781 17782 fill_color=colorp28
P56 12143 13960 fill_color=colorp28
P57 15126 16645 fill_color=colorp28
P58 14047 14258 fill_color=colorp28
P59 12886 12893 fill_color=colorp28
P62 10139 10206 fill_color=colorp28
P18 26676 26677 fill_color=colorp29
P19 31259 31282 fill_color=colorp29
P20 26360 26377 fill_color=colorp29
P21 26714 26731 fill_color=colorp29
P22 23567 24282 fill_color=colorp29
P23 20454 20499 fill_color=colorp29
P25 27503 27534 fill_color=colorp29
P26 22765 23528 fill_color=colorp29
P27 25795 26389 fill_color=colorp29
P28 27228 29045 fill_color=colorp29
P30 23298 28930 fill_color=colorp29
P31 19435 20352 fill_color=colorp29
P50 14934 14935 fill_color=colorp29
P51 17782 17798 fill_color=colorp29
P52 14619 14620 fill_color=colorp29
P56 13960 14016 fill_color=colorp29
P57 16645 17431 fill_color=colorp29
P58 14258 16330 fill_color=colorp29
P59 12893 13106 fill_color=colorp29
P62 10206 10254 fill_color=colorp29
P08 25605 25622 fill_color=colorp30
P11 28687 28706 fill_color=colorp30
P14 28877 28889 fill_color=colorp30
P15 27011 27675 fill_color=colorp30
P22 24282 24308 fill_color=colorp30
P23 20499 20722 fill_color=colorp30
P24 22700 23004 fill_color=colorp30
P25 27534 27875 fill_color=colorp30
P26 23528 24178 fill_color=colorp30
P27 26389 26407 fill_color=colorp30
P28 29045 29930 fill_color=colorp30
P29 24509 26711 fill_color=colorp30
P31 20352 25282 fill_color=colorp30
P44 14974 14975 fill_color=colorp30
P47 14022 14047 fill_color=colorp30
P51 17798 17799 fill_color=colorp30
P52 14620 14637 fill_color=colorp30
P55 14061 14062 fill_color=colorp30
P56 14016 14017 fill_color=colorp30
P57 17431 17465 fill_color=colorp30
P58 16330 17467 fill_color=colorp30
P59 13106 14890 fill_color=colorp30
P62 10254 11464 fill_color=colorp30
P63 10590 10660 fill_color=colorp30
P00 22025 22193 fill_color=colorp31
P01 26157 26329 fill_color=colorp31
P04 29054 29055 fill_color=colorp31
P08 25622 25633 fill_color=colorp31
P09 24398 24399 fill_color=colorp31
P15 27675 27785 fill_color=colorp31
P16 25043 25061 fill_color=colorp31
P19 31282 31301 fill_color=colorp31
P22 24308 24318 fill_color=colorp31
P23 20722 21462 fill_color=colorp31
P24 23004 23376 fill_color=colorp31
P25 27875 27876 fill_color=colorp31
P26 24178 24831 fill_color=colorp31
P28 29930 29939 fill_color=colorp31
P29 26711 27062 fill_color=colorp31
P30 28930 30705 fill_color=colorp31
P32 19868 22503 fill_color=colorp31
P33 19660 20072 fill_color=colorp31
P37 12782 12824 fill_color=colorp31
P39 12397 12946 fill_color=colorp31
P40 17902 17976 fill_color=colorp31
P47 14047 14057 fill_color=colorp31
P52 14637 14638 fill_color=colorp31
P55 14062 14093 fill_color=colorp31
P58 17467 17499 fill_color=colorp31
P59 14890 14924 fill_color=colorp31
P62 11464 14698 fill_color=colorp31
P63 10660 11910 fill_color=colorp31
P00 22193 22226 fill_color=colorp32
P01 26329 27289 fill_color=colorp32
P02 31160 31563 fill_color=colorp32
P04 29055 29104 fill_color=colorp32
P05 29400 29441 fill_color=colorp32
P06 28195 28216 fill_color=colorp32
P08 25633 25634 fill_color=colorp32
P09 24399 24429 fill_color=colorp32
P11 28706 28707 fill_color=colorp32
P16 25061 25073 fill_color=colorp32
P17 31489 31510 fill_color=colorp32
P19 31301 31302 fill_color=colorp32
P31 25282 26237 fill_color=colorp32
P33 20072 24343 fill_color=colorp32
P34 18233 20124 fill_color=colorp32
P35 18180 18980 fill_color=colorp32
P37 12824 14463 fill_color=colorp32
P38 13948 14057 fill_color=colorp32
P39 12946 13856 fill_color=colorp32
P40 17976 19955 fill_color=colorp32
P41 15189 15261 fill_color=colorp32
P44 14975 15070 fill_color=colorp32
P47 14057 14153 fill_color=colorp32
P48 18013 19262 fill_color=colorp32
P49 17843 17904 fill_color=colorp32
P52 14638 14648 fill_color=colorp32
P00 22226 22227 fill_color=colorp33
P01 27289 27351 fill_color=colorp33
P02 31563 31564 fill_color=colorp33
P04 29104 29709 fill_color=colorp33
P05 29441 30123 fill_color=colorp33
P06 28216 28234 fill_color=colorp33
P07 30027 30048 fill_color=colorp33
P09 24429 24430 fill_color=colorp33
P11 28707 28722 fill_color=colorp33
P12 26336 26337 fill_color=colorp33
P31 26237 26362 fill_color=colorp33
P32 22503 24060 fill_color=colorp33
P34 20124 25436 fill_color=colorp33
P35 18980 20699 fill_color=colorp33
P36 16219 16355 fill_color=colorp33
P37 14463 16268 fill_color=colorp33
P38 14057 15223 fill_color=colorp33
P39 13856 14722 fill_color=colorp33
P40 19955 20526 fill_color=colorp33
P41 15261 15317 fill_color=colorp33
P48 19262 20203 fill_color=colorp33
P49 17904 17906 fill_color=colorp33
P52 14648 14735 fill_color=colorp33
P55 14093 14185 fill_color=colorp33
P01 27351 27352 fill_color=colorp34
P02 31564 31587 fill_color=colorp34
P04 29709 29737 fill_color=colorp34
P05 30123 30605 fill_color=colorp34
P06 28234 28798 fill_color=colorp34
P07 30048 30084 fill_color=colorp34
P11 28722 28723 fill_color=colorp34
P12 26337 26353 fill_color=colorp34
P13 25199 25200 fill_color=colorp34
P17 31510 31511 fill_color=colorp34
P19 31302 31319 fill_color=colorp34
P32 24060 24616 fill_color=colorp34
P33 24343 26339 fill_color=colorp34
P35 20699 25254 fill_color=colorp34
P36 16355 17966 fill_color=colorp34
P37 16268 18335 fill_color=colorp34
P38 15223 15364 fill_color=colorp34
P40 20526 21487 fill_color=colorp34
P41 15317 16518 fill_color=colorp34
P42 14332 14401 fill_color=colorp34
P43 16941 17027 fill_color=colorp34
P44 15070 15182 fill_color=colorp34
P45 13989 13995 fill_color=colorp34
P48 20203 20848 fill_color=colorp34
P49 17906 17968 fill_color=colorp34
P04 29737 29738 fill_color=colorp35
P05 30605 30641 fill_color=colorp35
P06 28798 29089 fill_color=colorp35
P07 30084 30739 fill_color=colorp35
P12 26353 26354 fill_color=colorp35
P13 25200 25219 fill_color=colorp35
P14 28889 28890 fill_color=colorp35
P19 31319 31335 fill_color=colorp35
P21 26731 26732 fill_color=colorp35
P32 24616 24860 fill_color=colorp35
P33 26339 26977 fill_color=colorp35
P34 25436 27303 fill_color=colorp35
P36 17966 23860 fill_color=colorp35
P37 18335 18410 fill_color=colorp35
P38 15364 17369 fill_color=colorp35
P40 21487 21504 fill_color=colorp35
P41 16518 16519 fill_color=colorp35
P42 14401 15359 fill_color=colorp35
P43 17027 17108 fill_color=colorp35
P48 20848 21670 fill_color=colorp35
P49 17968 19298 fill_color=colorp35
P50 14935 15020 fill_color=colorp35
P52 14735 14845 fill_color=colorp35
P53 9574 9587 fill_color=colorp35
P06 29089 29105 fill_color=colorp36
P07 30739 31430 fill_color=colorp36
P13 25219 25220 fill_color=colorp36
P14 28890 28909 fill_color=colorp36
P19 31335 31336 fill_color=colorp36
P21 26732 26774 fill_color=colorp36
P27 26407 26408 fill_color=colorp36
P33 26977 27005 fill_color=colorp36
P34 27303 27887 fill_color=colorp36
P35 25254 27393 fill_color=colorp36
P37 18410 21191 fill_color=colorp36
P38 17369 19700 fill_color=colorp36
P40 21504 21505 fill_color=colorp36
P41 16519 16536 fill_color=colorp36
P42 15359 16364 fill_color=colorp36
P43 17108 18102 fill_color=colorp36
P44 15182 15183 fill_color=colorp36
P45 13995 14079 fill_color=colorp36
P48 21670 21688 fill_color=colorp36
P49 19298 21117 fill_color=colorp36
P50 15020 16147 fill_color=colorp36
P52 14845 14846 fill_color=colorp36
P53 9587 9644 fill_color=colorp36
P56 14017 14095 fill_color=colorp36
P57 17465 17472 fill_color=colorp36
P31 26362 26372 fill_color=colorp37
P32 24860 25390 fill_color=colorp37
P33 27005 27647 fill_color=colorp37
P34 27887 28682 fill_color=colorp37
P35 27393 27435 fill_color=colorp37
P36 23860 24780 fill_color=colorp37
P38 19700 23994 fill_color=colorp37
P39 14722 16416 fill_color=colorp37
P40 21505 21523 fill_color=colorp37
P41 16536 16565 fill_color=colorp37
P42 16364 16380 fill_color=colorp37
P43 18102 19025 fill_color=colorp37
P44 15183 16783 fill_color=colorp37
P45 14079 14294 fill_color=colorp37
P47 14153 14247 fill_color=colorp37
P49 21117 21138 fill_color=colorp37
P50 16147 16948 fill_color=colorp37
P53 9644 9702 fill_color=colorp37
P56 14095 14096 fill_color=colorp37
P57 17472 17544 fill_color=colorp37
P59 14924 14931 fill_color=colorp37
P32 25390 25412 fill_color=colorp38
P33 27647 28017 fill_color=colorp38
P34 28682 28714 fill_color=colorp38
P35 27435 28231 fill_color=colorp38
P36 24780 25698 fill_color=colorp38
P37 21191 22769 fill_color=colorp38
P39 16416 21279 fill_color=colorp38
P41 16565 16566 fill_color=colorp38
P43 19025 19062 fill_color=colorp38
P44 16783 16821 fill_color=colorp38
P45 14294 16200 fill_color=colorp38
P47 14247 14305 fill_color=colorp38
P48 21688 21711 fill_color=colorp38
P49 21138 21170 fill_color=colorp38
P50 16948 16981 fill_color=colorp38
P52 14846 16390 fill_color=colorp38
P53 9702 11191 fill_color=colorp38
P55 14185 14280 fill_color=colorp38
P57 17544 17545 fill_color=colorp38
P59 14931 15037 fill_color=colorp38
P60 12131 12137 fill_color=colorp38
P01 27352 27361 fill_color=colorp39
P08 25634 25761 fill_color=colorp39
P09 24430 24447 fill_color=colorp39
P31 26372 26556 fill_color=colorp39
P32 25412 25765 fill_color=colorp39
P33 28017 28329 fill_color=colorp39
P37 22769 23379 fill_color=colorp39
P38 23994 25761 fill_color=colorp39
P40 21523 22255 fill_color=colorp39
P44 16821 16846 fill_color=colorp39
P45 16200 16803 fill_color=colorp39
P47 14305 17014 fill_color=colorp39
P48 21711 21730 fill_color=colorp39
P52 16390 16429 fill_color=colorp39
P53 11191 12288 fill_color=colorp39
P55 14280 16975 fill_color=colorp39
P59 15037 15038 fill_color=colorp39
P60 12137 12196 fill_color=colorp39
P63 11910 12552 fill_color=colorp39
P01 27361 27382 fill_color=colorp40
P05 30641 30672 fill_color=colorp40
P07 31430 31431 fill_color=colorp40
P08 25761 25839 fill_color=colorp40
P09 24447 25160 fill_color=colorp40
P11 28723 29176 fill_color=colorp40
P12 26354 26728 fill_color=colorp40
P13 25220 25242 fill_color=colorp40
P15 27785 27807 fill_color=colorp40
P31 26556 26577 fill_color=colorp40
P32 25765 26471 fill_color=colorp40
P33 28329 28589 fill_color=colorp40
P34 28714 29060 fill_color=colorp40
P35 28231 28247 fill_color=colorp40
P36 25698 25699 fill_color=colorp40
P37 23379 23405 fill_color=colorp40
P39 21279 21652 fill_color=colorp40
P41 16566 21709 fill_color=colorp40
P42 16380 17137 fill_color=colorp40
P43 19062 19134 fill_color=colorp40
P44 16846 17972 fill_color=colorp40
P45 16803 17615 fill_color=colorp40
P47 17014 19092 fill_color=colorp40
P63 12552 12654 fill_color=colorp40
P09 25160 25176 fill_color=colorp41
P11 29176 29203 fill_color=colorp41
P12 26728 27560 fill_color=colorp41
P13 25242 25259 fill_color=colorp41
P14 28909 28941 fill_color=colorp41
P15 27807 27835 fill_color=colorp41
P32 26471 26483 fill_color=colorp41
P33 28589 28602 fill_color=colorp41
P34 29060 29480 fill_color=colorp41
P35 28247 28248 fill_color=colorp41
P36 25699 25719 fill_color=colorp41
P37 23405 23431 fill_color=colorp41
P38 25761 25762 fill_color=colorp41
P40 22255 24149 fill_color=colorp41
P42 17137 18024 fill_color=colorp41
P43 19134 21898 fill_color=colorp41
P44 17972 20946 fill_color=colorp41
P45 17615 19343 fill_color=colorp41
P46 7811 7931 fill_color=colorp41
P47 19092 19973 fill_color=colorp41
P05 30672 30673 fill_color=colorp42
P07 31431 31466 fill_color=colorp42
P12 27560 27594 fill_color=colorp42
P13 25259 25941 fill_color=colorp42
P14 28941 29659 fill_color=colorp42
P15 27835 27855 fill_color=colorp42
P21 26774 26775 fill_color=colorp42
P27 26408 26450 fill_color=colorp42
P28 29939 29941 fill_color=colorp42
P34 29480 29496 fill_color=colorp42
P35 28248 28595 fill_color=colorp42
P36 25719 26100 fill_color=colorp42
P37 23431 23449 fill_color=colorp42
P40 24149 24455 fill_color=colorp42
P41 21709 22040 fill_color=colorp42
P43 21898 26803 fill_color=colorp42
P44 20946 21079 fill_color=colorp42
P49 21170 21188 fill_color=colorp42
P50 16981 16982 fill_color=colorp42
P56 14096 16039 fill_color=colorp42
P57 17545 17777 fill_color=colorp42
P58 17499 17505 fill_color=colorp42
P12 27594 27621 fill_color=colorp43
P13 25941 25960 fill_color=colorp43
P14 29659 30141 fill_color=colorp43
P15 27855 28167 fill_color=colorp43
P27 26450 26451 fill_color=colorp43
P28 29941 29957 fill_color=colorp43
P34 29496 29512 fill_color=colorp43
P35 28595 28614 fill_color=colorp43
P36 26100 26453 fill_color=colorp43
P37 23449 23795 fill_color=colorp43
P38 25762 25800 fill_color=colorp43
P40 24455 24472 fill_color=colorp43
P41 22040 23060 fill_color=colorp43
P42 18024 19862 fill_color=colorp43
P44 21079 25256 fill_color=colorp43
P45 19343 22045 fill_color=colorp43
P46 7931 8069 fill_color=colorp43
P47 19973 20301 fill_color=colorp43
P49 21188 21189 fill_color=colorp43
P50 16982 17002 fill_color=colorp43
P53 12288 12289 fill_color=colorp43
P56 16039 16095 fill_color=colorp43
P57 17777 20272 fill_color=colorp43
P58 17505 17663 fill_color=colorp43
P59 15038 15126 fill_color=colorp43
P60 12196 12281 fill_color=colorp43
P14 30141 30159 fill_color=colorp44
P15 28167 28430 fill_color=colorp44
P28 29957 29972 fill_color=colorp44
P30 30705 30706 fill_color=colorp44
P32 26483 26501 fill_color=colorp44
P34 29512 29535 fill_color=colorp44
P36 26453 26454 fill_color=colorp44
P37 23795 24354 fill_color=colorp44
P38 25800 25834 fill_color=colorp44
P39 21652 21676 fill_color=colorp44
P40 24472 24817 fill_color=colorp44
P41 23060 24122 fill_color=colorp44
P42 19862 19894 fill_color=colorp44
P43 26803 28450 fill_color=colorp44
P45 22045 25380 fill_color=colorp44
P46 8069 10400 fill_color=colorp44
P47 20301 22542 fill_color=colorp44
P56 16095 16096 fill_color=colorp44
P57 20272 20858 fill_color=colorp44
P58 17663 19035 fill_color=colorp44
P60 12281 12402 fill_color=colorp44
P62 14698 14841 fill_color=colorp44
P34 29535 29536 fill_color=colorp45
P36 26454 26473 fill_color=colorp45
P37 24354 24401 fill_color=colorp45
P38 25834 26616 fill_color=colorp45
P39 21676 21941 fill_color=colorp45
P40 24817 25072 fill_color=colorp45
P41 24122 24672 fill_color=colorp45
P43 28450 29539 fill_color=colorp45
P44 25256 26544 fill_color=colorp45
P46 10400 15195 fill_color=colorp45
P47 22542 24919 fill_color=colorp45
P50 17002 17003 fill_color=colorp45
P53 12289 12328 fill_color=colorp45
P55 16975 16976 fill_color=colorp45
P57 20858 20891 fill_color=colorp45
P58 19035 19036 fill_color=colorp45
P59 15126 15953 fill_color=colorp45
P60 12402 13970 fill_color=colorp45
P61 8717 8724 fill_color=colorp45
P63 12654 12698 fill_color=colorp45
P41 24672 24697 fill_color=colorp46
P43 29539 29569 fill_color=colorp46
P44 26544 27401 fill_color=colorp46
P45 25380 27051 fill_color=colorp46
P47 24919 27478 fill_color=colorp46
P57 20891 20892 fill_color=colorp46
P58 19036 19067 fill_color=colorp46
P59 15953 15954 fill_color=colorp46
P60 13970 15621 fill_color=colorp46
P61 8724 9501 fill_color=colorp46
P62 14841 14910 fill_color=colorp46
P63 12698 12837 fill_color=colorp46
P09 25176 25194 fill_color=colorp47
P12 27621 27640 fill_color=colorp47
P14 30159 30170 fill_color=colorp47
P15 28430 29133 fill_color=colorp47
P28 29972 29973 fill_color=colorp47
P30 30706 30735 fill_color=colorp47
P31 26577 26588 fill_color=colorp47
P32 26501 26522 fill_color=colorp47
P37 24401 24422 fill_color=colorp47
P38 26616 26628 fill_color=colorp47
P39 21941 22904 fill_color=colorp47
P40 25072 25874 fill_color=colorp47
P41 24697 25027 fill_color=colorp47
P43 29569 29699 fill_color=colorp47
P44 27401 28230 fill_color=colorp47
P45 27051 28047 fill_color=colorp47
P46 15195 16174 fill_color=colorp47
P53 12328 12329 fill_color=colorp47
P55 16976 17004 fill_color=colorp47
P57 20892 20910 fill_color=colorp47
P58 19067 19085 fill_color=colorp47
P60 15621 15661 fill_color=colorp47
P61 9501 9532 fill_color=colorp47
P62 14910 17117 fill_color=colorp47
P63 12837 16430 fill_color=colorp47
P01 27382 27393 fill_color=colorp48
P02 31587 31606 fill_color=colorp48
P06 29105 29138 fill_color=colorp48
P07 31466 31467 fill_color=colorp48
P16 25073 25229 fill_color=colorp48
P17 31511 32255 fill_color=colorp48
P19 31336 31890 fill_color=colorp48
P20 26377 26617 fill_color=colorp48
P21 26775 26794 fill_color=colorp48
P22 24318 24358 fill_color=colorp48
P23 21462 21483 fill_color=colorp48
P32 26522 26983 fill_color=colorp48
P33 28602 28952 fill_color=colorp48
P34 29536 29804 fill_color=colorp48
P35 28614 28952 fill_color=colorp48
P36 26473 26489 fill_color=colorp48
P38 26628 26649 fill_color=colorp48
P39 22904 22928 fill_color=colorp48
P49 21189 25801 fill_color=colorp48
P50 17003 17161 fill_color=colorp48
P51 17799 19258 fill_color=colorp48
P52 16429 17529 fill_color=colorp48
P54 9914 11653 fill_color=colorp48
P55 17004 17979 fill_color=colorp48
P06 29138 29139 fill_color=colorp49
P07 31467 31501 fill_color=colorp49
P14 30170 30171 fill_color=colorp49
P19 31890 31926 fill_color=colorp49
P20 26617 26884 fill_color=colorp49
P21 26794 27439 fill_color=colorp49
P22 24358 24374 fill_color=colorp49
P27 26451 26470 fill_color=colorp49
P28 29973 29974 fill_color=colorp49
P32 26983 26992 fill_color=colorp49
P33 28952 28954 fill_color=colorp49
P34 29804 29818 fill_color=colorp49
P35 28952 29436 fill_color=colorp49
P36 26489 27131 fill_color=colorp49
P37 24422 24439 fill_color=colorp49
P38 26649 26680 fill_color=colorp49
P42 19894 19910 fill_color=colorp49
P43 29699 29700 fill_color=colorp49
P48 21730 23479 fill_color=colorp49
P50 17161 22754 fill_color=colorp49
P51 19258 21062 fill_color=colorp49
P52 17529 19647 fill_color=colorp49
P53 12329 12443 fill_color=colorp49
P54 11653 11780 fill_color=colorp49
P56 16096 16973 fill_color=colorp49
P57 20910 20996 fill_color=colorp49
P19 31926 31927 fill_color=colorp50
P20 26884 26901 fill_color=colorp50
P21 27439 28069 fill_color=colorp50
P22 24374 24415 fill_color=colorp50
P27 26470 26471 fill_color=colorp50
P28 29974 29994 fill_color=colorp50
P29 27062 27063 fill_color=colorp50
P35 29436 29452 fill_color=colorp50
P36 27131 27523 fill_color=colorp50
P37 24439 24780 fill_color=colorp50
P38 26680 26712 fill_color=colorp50
P42 19910 19911 fill_color=colorp50
P43 29700 29717 fill_color=colorp50
P45 28047 28048 fill_color=colorp50
P48 23479 23514 fill_color=colorp50
P49 25801 27865 fill_color=colorp50
P51 21062 24960 fill_color=colorp50
P52 19647 20457 fill_color=colorp50
P53 12443 14840 fill_color=colorp50
P54 11780 11851 fill_color=colorp50
P56 16973 17954 fill_color=colorp50
P57 20996 21981 fill_color=colorp50
P58 19085 19164 fill_color=colorp50
P59 15954 16016 fill_color=colorp50
P60 15661 15666 fill_color=colorp50
P17 32255 32273 fill_color=colorp51
P20 26901 26927 fill_color=colorp51
P21 28069 28104 fill_color=colorp51
P22 24415 25672 fill_color=colorp51
P23 21483 21545 fill_color=colorp51
P28 29994 29995 fill_color=colorp51
P29 27063 27079 fill_color=colorp51
P30 30735 30736 fill_color=colorp51
P48 23514 23994 fill_color=colorp51
P49 27865 28553 fill_color=colorp51
P50 22754 24171 fill_color=colorp51
P52 20457 25121 fill_color=colorp51
P53 14840 15501 fill_color=colorp51
P54 11851 13184 fill_color=colorp51
P55 17979 19359 fill_color=colorp51
P56 17954 17990 fill_color=colorp51
P57 21981 22734 fill_color=colorp51
P58 19164 19948 fill_color=colorp51
P59 16016 16162 fill_color=colorp51
P60 15666 15725 fill_color=colorp51
P61 9532 9538 fill_color=colorp51
P22 25672 25699 fill_color=colorp52
P23 21545 21781 fill_color=colorp52
P29 27079 27080 fill_color=colorp52
P30 30736 30752 fill_color=colorp52
P31 26588 26589 fill_color=colorp52
P32 26992 26993 fill_color=colorp52
P33 28954 28972 fill_color=colorp52
P35 29452 29477 fill_color=colorp52
P36 27523 27524 fill_color=colorp52
P38 26712 27280 fill_color=colorp52
P39 22928 22961 fill_color=colorp52
P48 23994 24363 fill_color=colorp52
P49 28553 29332 fill_color=colorp52
P50 24171 24498 fill_color=colorp52
P51 24960 26712 fill_color=colorp52
P53 15501 17482 fill_color=colorp52
P54 13184 16523 fill_color=colorp52
P55 19359 21729 fill_color=colorp52
P56 17990 17991 fill_color=colorp52
P57 22734 22750 fill_color=colorp52
P58 19948 20468 fill_color=colorp52
P59 16162 17363 fill_color=colorp52
P60 15725 15726 fill_color=colorp52
P61 9538 9684 fill_color=colorp52
P62 17117 17252 fill_color=colorp52
P63 16430 16443 fill_color=colorp52
P35 29477 29478 fill_color=colorp53
P36 27524 27541 fill_color=colorp53
P37 24780 24797 fill_color=colorp53
P38 27280 27879 fill_color=colorp53
P39 22961 23391 fill_color=colorp53
P43 29717 29718 fill_color=colorp53
P45 28048 28088 fill_color=colorp53
P47 27478 27480 fill_color=colorp53
P49 29332 29364 fill_color=colorp53
P50 24498 25410 fill_color=colorp53
P51 26712 27020 fill_color=colorp53
P52 25121 25915 fill_color=colorp53
P54 16523 18604 fill_color=colorp53
P55 21729 23250 fill_color=colorp53
P57 22750 22782 fill_color=colorp53
P59 17363 18140 fill_color=colorp53
P60 15726 17520 fill_color=colorp53
P61 9684 9785 fill_color=colorp53
P63 16443 16558 fill_color=colorp53
P17 32273 32292 fill_color=colorp54
P22 25699 25700 fill_color=colorp54
P23 21781 21948 fill_color=colorp54
P48 24363 24950 fill_color=colorp54
P49 29364 29389 fill_color=colorp54
P50 25410 25428 fill_color=colorp54
P51 27020 27488 fill_color=colorp54
P52 25915 27196 fill_color=colorp54
P53 17482 18326 fill_color=colorp54
P55 23250 27191 fill_color=colorp54
P57 22782 22783 fill_color=colorp54
P59 18140 18177 fill_color=colorp54
P60 17520 17545 fill_color=colorp54
P61 9785 11481 fill_color=colorp54
P62 17252 17254 fill_color=colorp54
P63 16558 16778 fill_color=colorp54
P17 32292 32293 fill_color=colorp55
P22 25700 25726 fill_color=colorp55
P23 21948 22717 fill_color=colorp55
P30 30752 30753 fill_color=colorp55
P31 26589 26615 fill_color=colorp55
P33 28972 28991 fill_color=colorp55
P38 27879 27899 fill_color=colorp55
P39 23391 24294 fill_color=colorp55
P45 28088 28089 fill_color=colorp55
P47 27480 27514 fill_color=colorp55
P48 24950 25304 fill_color=colorp55
P51 27488 28021 fill_color=colorp55
P52 27196 28091 fill_color=colorp55
P53 18326 18864 fill_color=colorp55
P54 18604 20238 fill_color=colorp55
P58 20468 20483 fill_color=colorp55
P59 18177 18200 fill_color=colorp55
P60 17545 17576 fill_color=colorp55
P61 11481 11524 fill_color=colorp55
P62 17254 18721 fill_color=colorp55
P63 16778 21020 fill_color=colorp55
P07 31501 31502 fill_color=colorp56
P14 30171 30207 fill_color=colorp56
P15 29133 29134 fill_color=colorp56
P21 28104 28138 fill_color=colorp56
P22 25726 25727 fill_color=colorp56
P27 26471 27202 fill_color=colorp56
P28 29995 30724 fill_color=colorp56
P29 27080 27134 fill_color=colorp56
P30 30753 30754 fill_color=colorp56
P36 27541 27557 fill_color=colorp56
P37 24797 24798 fill_color=colorp56
P42 19911 20574 fill_color=colorp56
P43 29718 29771 fill_color=colorp56
P44 28230 28231 fill_color=colorp56
P49 29389 29718 fill_color=colorp56
P50 25428 25765 fill_color=colorp56
P51 28021 28058 fill_color=colorp56
P52 28091 28092 fill_color=colorp56
P57 22783 27468 fill_color=colorp56
P58 20483 22245 fill_color=colorp56
P59 18200 18424 fill_color=colorp56
P14 30207 30208 fill_color=colorp57
P15 29134 29165 fill_color=colorp57
P27 27202 27220 fill_color=colorp57
P28 30724 31330 fill_color=colorp57
P29 27134 27470 fill_color=colorp57
P30 30754 30787 fill_color=colorp57
P36 27557 27558 fill_color=colorp57
P37 24798 24814 fill_color=colorp57
P38 27899 27900 fill_color=colorp57
P42 20574 20624 fill_color=colorp57
P43 29771 30705 fill_color=colorp57
P44 28231 28487 fill_color=colorp57
P45 28089 28124 fill_color=colorp57
P46 16174 16175 fill_color=colorp57
P47 27514 27530 fill_color=colorp57
P49 29718 29737 fill_color=colorp57
P50 25765 26113 fill_color=colorp57
P51 28058 28362 fill_color=colorp57
P52 28092 28108 fill_color=colorp57
P53 18864 18896 fill_color=colorp57
P54 20238 20239 fill_color=colorp57
P56 17991 19771 fill_color=colorp57
P58 22245 26648 fill_color=colorp57
P59 18424 21065 fill_color=colorp57
P60 17576 20073 fill_color=colorp57
P61 11524 11649 fill_color=colorp57
P62 18721 19094 fill_color=colorp57
P21 28138 28139 fill_color=colorp58
P22 25727 25744 fill_color=colorp58
P23 22717 22731 fill_color=colorp58
P28 31330 31378 fill_color=colorp58
P29 27470 28283 fill_color=colorp58
P30 30787 31279 fill_color=colorp58
P31 26615 26648 fill_color=colorp58
P42 20624 20625 fill_color=colorp58
P43 30705 30737 fill_color=colorp58
P44 28487 28968 fill_color=colorp58
P45 28124 28125 fill_color=colorp58
P46 16175 16206 fill_color=colorp58
P47 27530 27543 fill_color=colorp58
P50 26113 26131 fill_color=colorp58
P51 28362 28673 fill_color=colorp58
P52 28108 28331 fill_color=colorp58
P55 27191 27203 fill_color=colorp58
P56 19771 20377 fill_color=colorp58
P57 27468 29214 fill_color=colorp58
P59 21065 25914 fill_color=colorp58
P60 20073 22045 fill_color=colorp58
P61 11649 11748 fill_color=colorp58
P62 19094 21187 fill_color=colorp58
P28 31378 31379 fill_color=colorp59
P29 28283 28329 fill_color=colorp59
P30 31279 31904 fill_color=colorp59
P31 26648 26681 fill_color=colorp59
P37 24814 24815 fill_color=colorp59
P38 27900 27921 fill_color=colorp59
P39 24294 24295 fill_color=colorp59
P43 30737 30753 fill_color=colorp59
P45 28125 28394 fill_color=colorp59
P46 16206 16207 fill_color=colorp59
P50 26131 26148 fill_color=colorp59
P51 28673 28705 fill_color=colorp59
P52 28331 28785 fill_color=colorp59
P53 18896 19189 fill_color=colorp59
P54 20239 20273 fill_color=colorp59
P55 27203 27221 fill_color=colorp59
P56 20377 20426 fill_color=colorp59
P57 29214 30312 fill_color=colorp59
P58 26648 28548 fill_color=colorp59
P60 22045 23942 fill_color=colorp59
P61 11748 15062 fill_color=colorp59
P62 21187 23766 fill_color=colorp59
P63 21020 21207 fill_color=colorp59
P38 27921 27922 fill_color=colorp60
P39 24295 24310 fill_color=colorp60
P43 30753 30770 fill_color=colorp60
P44 28968 28997 fill_color=colorp60
P45 28394 28976 fill_color=colorp60
P46 16207 16841 fill_color=colorp60
P47 27543 27586 fill_color=colorp60
P50 26148 26149 fill_color=colorp60
P51 28705 28721 fill_color=colorp60
P52 28785 28786 fill_color=colorp60
P53 19189 19845 fill_color=colorp60
P54 20273 20302 fill_color=colorp60
P55 27221 27253 fill_color=colorp60
P57 30312 31238 fill_color=colorp60
P58 28548 29337 fill_color=colorp60
P59 25914 26824 fill_color=colorp60
P61 15062 20093 fill_color=colorp60
P62 23766 24426 fill_color=colorp60
P63 21207 22966 fill_color=colorp60
P45 28976 28977 fill_color=colorp61
P46 16841 17057 fill_color=colorp61
P47 27586 27611 fill_color=colorp61
P51 28721 28722 fill_color=colorp61
P52 28786 28816 fill_color=colorp61
P53 19845 19868 fill_color=colorp61
P54 20302 20921 fill_color=colorp61
P55 27253 27291 fill_color=colorp61
P57 31238 31270 fill_color=colorp61
P58 29337 29356 fill_color=colorp61
P59 26824 28050 fill_color=colorp61
P60 23942 25766 fill_color=colorp61
P62 24426 25412 fill_color=colorp61
P63 22966 26643 fill_color=colorp61
P15 29165 29194 fill_color=colorp62
P23 22731 22757 fill_color=colorp62
P28 31379 31393 fill_color=colorp62
P29 28329 28339 fill_color=colorp62
P30 31904 32338 fill_color=colorp62
P31 26681 27940 fill_color=colorp62
P44 28997 29022 fill_color=colorp62
P46 17057 17077 fill_color=colorp62
P47 27611 28407 fill_color=colorp62
P52 28816 28843 fill_color=colorp62
P54 20921 20922 fill_color=colorp62
P55 27291 27829 fill_color=colorp62
P57 31270 31426 fill_color=colorp62
P58 29356 30107 fill_color=colorp62
P59 28050 29046 fill_color=colorp62
P60 25766 26020 fill_color=colorp62
P61 20093 20552 fill_color=colorp62
P63 26643 30736 fill_color=colorp62
P07 31502 31539 fill_color=colorp63
P08 25839 25900 fill_color=colorp63
P09 25194 25267 fill_color=colorp63
P15 29194 29416 fill_color=colorp63
P16 25229 25298 fill_color=colorp63
P23 22757 22951 fill_color=colorp63
P24 23376 23542 fill_color=colorp63
P30 32338 32405 fill_color=colorp63
P31 27940 28560 fill_color=colorp63
P39 24310 24619 fill_color=colorp63
P40 25874 25943 fill_color=colorp63
P45 28977 28988 fill_color=colorp63
P46 17077 17107 fill_color=colorp63
P47 28407 29924 fill_color=colorp63
P52 28843 28844 fill_color=colorp63
P53 19868 19894 fill_color=colorp63
P54 20922 21020 fill_color=colorp63
P55 27829 29600 fill_color=colorp63
P59 29046 29093 fill_color=colorp63
P60 26020 26641 fill_color=colorp63
P61 20552 22030 fill_color=colorp63
P62 25412 27230 fill_color=colorp63
