resource id,timestamp,power
423,2016-04-07 16:53:18.926,62
423,2016-04-07 16:53:24.651,54
423,2016-04-07 16:53:31.563,58
423,2016-04-07 16:53:33.344,54
423,2016-04-07 16:53:35.708,58
423,2016-04-07 16:53:37.526,54
423,2016-04-07 16:53:38.526,52
423,2016-04-07 16:53:40.469,58
423,2016-04-07 16:53:41.878,54
423,2016-04-07 16:53:46.246,52
423,2016-04-07 16:53:50.008,62
423,2016-04-07 16:53:53.733,52
423,2016-04-07 16:54:06.892,54
423,2016-04-07 16:54:10.115,52
423,2016-04-07 16:54:12.318,54
423,2016-04-07 16:54:21.33,52
423,2016-04-07 16:54:28.27,60
423,2016-04-07 16:54:37.391,56
423,2016-04-07 16:54:48.026,54
423,2016-04-07 16:54:50.235,56
423,2016-04-07 16:54:53.187,52
423,2016-04-07 16:54:57.511,54
423,2016-04-07 16:55:03.96,52
423,2016-04-07 16:55:16.909,54
423,2016-04-07 16:55:22.93,52
423,2016-04-07 16:55:24.49,54
423,2016-04-07 16:55:30.982,52
423,2016-04-07 16:55:39.534,54
423,2016-04-07 16:55:43.601,52
423,2016-04-07 16:55:55.05,58
423,2016-04-07 16:55:58.203,56
423,2016-04-07 16:55:59.203,54
423,2016-04-07 16:56:15.259,52
423,2016-04-07 16:56:34.06,54
423,2016-04-07 16:56:37.504,58
423,2016-04-07 16:56:38.591,64
423,2016-04-07 16:56:39.755,60
423,2016-04-07 16:56:40.755,58
423,2016-04-07 16:56:48.603,54
423,2016-04-07 16:56:54.68,58
423,2016-04-07 16:57:01.014,52
423,2016-04-07 16:57:11.862,58
423,2016-04-07 16:57:18.737,52
423,2016-04-07 16:57:32.915,60
423,2016-04-07 16:57:39.138,52
423,2016-04-07 16:57:50.167,54
423,2016-04-07 16:57:53.639,52
423,2016-04-07 16:57:57.362,54
423,2016-04-07 16:57:59.815,52
423,2016-04-07 16:58:02.639,54
423,2016-04-07 16:58:03.639,52
423,2016-04-07 16:58:07.806,54
423,2016-04-07 16:58:15.986,62
423,2016-04-07 16:58:27.483,58
423,2016-04-07 16:58:34.271,54
423,2016-04-07 16:58:37.216,52
423,2016-04-07 16:58:38.232,-4
423,2016-04-07 16:59:02.793,-2
423,2016-04-07 16:59:08.514,54
423,2016-04-07 16:59:09.904,64
423,2016-04-07 16:59:15.103,52
423,2016-04-07 16:59:22.964,56
423,2016-04-07 16:59:25.191,58
423,2016-04-07 16:59:29.542,52
423,2016-04-07 16:59:36.443,60
423,2016-04-07 16:59:38.807,52
423,2016-04-07 16:59:46.749,54
423,2016-04-07 17:00:00.112,52
423,2016-04-07 17:00:10.476,70
423,2016-04-07 17:00:11.476,80
423,2016-04-07 17:00:12.784,72
423,2016-04-07 17:00:30.242,52
423,2016-04-07 17:00:34.265,62
423,2016-04-07 17:00:35.911,54
423,2016-04-07 17:00:41.995,58
423,2016-04-07 17:00:50.05,54
423,2016-04-07 17:00:54.005,52
423,2016-04-07 17:02:22.674,54
423,2016-04-07 17:02:25.395,56
423,2016-04-07 17:02:27.404,54
423,2016-04-07 17:03:22.91,52
423,2016-04-07 17:03:35.375,54
423,2016-04-07 17:03:45.165,56
423,2016-04-07 17:03:58.152,52
423,2016-04-07 17:04:04.51,56
423,2016-04-07 17:04:19.032,60
423,2016-04-07 17:04:24.219,64
423,2016-04-07 17:04:25.302,54
423,2016-04-07 17:04:27.302,62
423,2016-04-07 17:04:33.147,60
423,2016-04-07 17:04:35.56,58
423,2016-04-07 17:04:36.56,52
423,2016-04-07 17:04:38.563,54
423,2016-04-07 17:04:39.879,56
423,2016-04-07 17:04:41.252,54
423,2016-04-07 17:04:43.009,52
423,2016-04-07 17:04:46.709,58
423,2016-04-07 17:04:53.372,52
423,2016-04-07 17:04:56.472,54
423,2016-04-07 17:04:59.472,52
423,2016-04-07 17:05:03.473,56
423,2016-04-07 17:05:05.473,54
423,2016-04-07 17:05:10.502,52
423,2016-04-07 17:05:13.493,54
423,2016-04-07 17:05:17.263,60
423,2016-04-07 17:05:18.735,54
423,2016-04-07 17:05:23.532,52
423,2016-04-07 17:05:32.706,54
423,2016-04-07 17:05:37.137,52
423,2016-04-07 17:05:43.73,58
423,2016-04-07 17:05:47.667,54
423,2016-04-07 17:05:52.197,52
423,2016-04-07 17:05:56.892,54
423,2016-04-07 17:05:59.832,52
423,2016-04-07 17:06:05.248,54
423,2016-04-07 17:06:08.724,52
423,2016-04-07 17:06:13.126,54
423,2016-04-07 17:06:19.491,58
423,2016-04-07 17:06:23.364,52
423,2016-04-07 17:06:24.465,54
423,2016-04-07 17:06:27.381,52
423,2016-04-07 17:06:41.186,64
423,2016-04-07 17:06:45.743,52
423,2016-04-07 17:06:57.555,56
423,2016-04-07 17:07:01.986,54
423,2016-04-07 17:07:05.767,52
423,2016-04-07 17:07:16.095,54
423,2016-04-07 17:07:22.344,56
423,2016-04-07 17:07:30.057,52
423,2016-04-07 17:07:40.053,60
423,2016-04-07 17:07:50.525,52
423,2016-04-07 17:08:00.448,54
423,2016-04-07 17:08:03.696,52
423,2016-04-07 17:08:13.035,54
423,2016-04-07 17:08:21.419,56
423,2016-04-07 17:08:31.705,68
423,2016-04-07 17:08:40.839,52
423,2016-04-07 17:08:46.961,56
423,2016-04-07 17:08:52.618,54
423,2016-04-07 17:08:53.618,72
423,2016-04-07 17:08:54.618,88
423,2016-04-07 17:09:07.274,54
423,2016-04-07 17:09:12.135,60
423,2016-04-07 17:09:19.644,52
423,2016-04-07 17:09:24.749,62
423,2016-04-07 17:09:29.513,52
423,2016-04-07 17:10:09.918,-4
423,2016-04-07 17:10:52.95,-2
423,2016-04-07 17:10:54.244,58
423,2016-04-07 17:10:57.956,54
423,2016-04-07 17:11:01.973,52
423,2016-04-07 17:11:08.812,56
423,2016-04-07 17:11:19.83,52
423,2016-04-07 17:11:35.161,54
423,2016-04-07 17:11:56.792,52
423,2016-04-07 17:12:13.859,66
423,2016-04-07 17:12:15.883,58
423,2016-04-07 17:12:18.089,62
423,2016-04-07 17:12:20.9,52
423,2016-04-07 17:12:24.347,54
423,2016-04-07 17:12:30.156,62
423,2016-04-07 17:12:40.714,64
423,2016-04-07 17:12:44.048,52
423,2016-04-07 17:12:52.772,-4
423,2016-04-07 17:13:02.284,-2
423,2016-04-07 17:13:02.499,60
423,2016-04-07 17:13:04.013,62
423,2016-04-07 17:13:06.013,54
423,2016-04-07 17:13:21.778,56
423,2016-04-07 17:13:24.982,54
423,2016-04-07 17:13:26.001,56
423,2016-04-07 17:13:30.001,64
423,2016-04-07 17:13:31.001,60
423,2016-04-07 17:13:33.001,52
423,2016-04-07 17:13:38.144,54
423,2016-04-07 17:13:40.144,52
423,2016-04-07 17:13:41.144,62
423,2016-04-07 17:13:42.211,64
423,2016-04-07 17:13:44.211,54
423,2016-04-07 17:13:45.211,52
423,2016-04-07 17:13:47.211,54
423,2016-04-07 17:13:55.471,58
423,2016-04-07 17:13:58.487,62
423,2016-04-07 17:14:01.989,54
423,2016-04-07 17:14:05.577,52
423,2016-04-07 17:14:10.003,62
423,2016-04-07 17:14:14.004,60
423,2016-04-07 17:14:15.004,52
423,2016-04-07 17:14:20.635,54
423,2016-04-07 17:14:23.457,52
423,2016-04-07 17:14:24.744,54
423,2016-04-07 17:14:26.039,56
423,2016-04-07 17:14:27.428,54
423,2016-04-07 17:14:31.447,68
423,2016-04-07 17:14:34.945,54
423,2016-04-07 17:14:46.167,52
423,2016-04-07 17:14:50.041,54
423,2016-04-07 17:14:52.046,52
423,2016-04-07 17:14:58.196,54
423,2016-04-07 17:14:59.196,58
423,2016-04-07 17:15:02.317,52
423,2016-04-07 17:15:21.684,60
423,2016-04-07 17:15:23.23,54
423,2016-04-07 17:15:24.301,52
423,2016-04-07 17:15:26.386,58
423,2016-04-07 17:15:37.27,52
423,2016-04-07 17:15:44.347,56
423,2016-04-07 17:15:49.479,52
423,2016-04-07 17:15:53.096,56
423,2016-04-07 17:15:59.067,62
423,2016-04-07 17:16:01.091,60
423,2016-04-07 17:16:07.209,52
423,2016-04-07 17:16:18.194,58
423,2016-04-07 17:16:23.414,60
423,2016-04-07 17:16:30.591,62
423,2016-04-07 17:16:37.513,52
423,2016-04-07 17:16:44.153,54
423,2016-04-07 17:16:49.915,56
423,2016-04-07 17:16:53.473,54
423,2016-04-07 17:17:01.147,72
423,2016-04-07 17:17:06.847,52
423,2016-04-07 17:17:15.654,54
423,2016-04-07 17:17:23.151,52
423,2016-04-07 17:17:24.432,56
423,2016-04-07 17:17:25.484,54
423,2016-04-07 17:17:26.485,52
423,2016-04-07 17:17:27.486,54
423,2016-04-07 17:17:29.487,56
423,2016-04-07 17:17:30.487,54
423,2016-04-07 17:17:34.053,56
423,2016-04-07 17:17:37.115,54
423,2016-04-07 17:17:50.476,52
423,2016-04-07 17:17:57.185,60
423,2016-04-07 17:18:06.416,54
423,2016-04-07 17:18:14.05,52
423,2016-04-07 17:18:31.358,54
423,2016-04-07 17:18:33.859,52
423,2016-04-07 17:18:37.566,54
423,2016-04-07 17:18:46.967,52
423,2016-04-07 17:18:51.94,56
423,2016-04-07 17:18:54.855,54
423,2016-04-07 17:18:56.411,52
423,2016-04-07 17:19:07.714,54
423,2016-04-07 17:19:16.087,56
423,2016-04-07 17:19:22.795,52
423,2016-04-07 17:19:36.743,54
423,2016-04-07 17:19:40.396,58
423,2016-04-07 17:19:45.311,52
423,2016-04-07 17:19:50.512,56
423,2016-04-07 17:19:54.545,54
423,2016-04-07 17:19:56.144,52
423,2016-04-07 17:19:58.636,56
423,2016-04-07 17:20:17.711,52
423,2016-04-07 17:20:35.581,56
423,2016-04-07 17:20:40.717,58
423,2016-04-07 17:20:41.933,52
423,2016-04-07 17:20:42.933,62
423,2016-04-07 17:20:53.982,54
423,2016-04-07 17:20:59.023,56
423,2016-04-07 17:21:01.411,54
423,2016-04-07 17:21:15.208,52
423,2016-04-07 17:21:35.875,54
423,2016-04-07 17:21:42.673,52
423,2016-04-07 17:21:50.503,58
423,2016-04-07 17:21:56.431,52
423,2016-04-07 17:21:59.134,54
423,2016-04-07 17:22:15.727,56
423,2016-04-07 17:22:24.712,52
423,2016-04-07 17:22:29.505,54
423,2016-04-07 17:22:33.312,58
423,2016-04-07 17:22:43.59,54
423,2016-04-07 17:22:52.237,52
423,2016-04-07 17:23:09.523,66
423,2016-04-07 17:23:18.658,52
423,2016-04-07 17:23:24.326,60
423,2016-04-07 17:23:29.376,64
423,2016-04-07 17:23:32.236,52
423,2016-04-07 17:23:33.57,54
423,2016-04-07 17:23:35.194,52
423,2016-04-07 17:23:55.14,54
423,2016-04-07 17:24:09.656,52
423,2016-04-07 17:24:18.995,78
423,2016-04-07 17:24:32.941,60
423,2016-04-07 17:24:50.015,54
423,2016-04-07 17:25:18.406,86
423,2016-04-07 17:25:21.533,52
423,2016-04-07 17:25:25.8,54
423,2016-04-07 17:25:28.046,58
423,2016-04-07 17:25:30.563,52
423,2016-04-07 17:25:42.891,66
423,2016-04-07 17:25:59.96,62
423,2016-04-07 17:26:01.581,54
423,2016-04-07 17:27:41.478,58
423,2016-04-07 17:27:45.148,60
423,2016-04-07 17:27:46.893,52
423,2016-04-07 17:28:07.693,62
423,2016-04-07 17:28:28.086,60
423,2016-04-07 17:28:34.196,52
423,2016-04-07 17:28:42.762,54
423,2016-04-07 17:28:47.085,62
423,2016-04-07 17:28:51.55,58
423,2016-04-07 17:28:55.543,52
423,2016-04-07 17:29:06.888,58
423,2016-04-07 17:29:13.19,52
423,2016-04-07 17:29:16.193,54
423,2016-04-07 17:29:18.194,58
423,2016-04-07 17:29:20.844,52
423,2016-04-07 17:29:31.606,58
423,2016-04-07 17:29:39.975,56
423,2016-04-07 17:29:45.768,54
423,2016-04-07 17:29:51.548,64
423,2016-04-07 17:30:08.027,52
423,2016-04-07 17:30:11.43,56
423,2016-04-07 17:30:26.797,52
423,2016-04-07 17:30:30.073,62
423,2016-04-07 17:30:33.475,56
423,2016-04-07 17:30:36.579,52
423,2016-04-07 17:30:38.58,54
423,2016-04-07 17:30:52.156,52
423,2016-04-07 17:31:03.477,54
423,2016-04-07 17:31:08.538,52
423,2016-04-07 17:31:21.229,58
423,2016-04-07 17:31:22.46,56
423,2016-04-07 17:31:29.561,58
423,2016-04-07 17:31:41.342,54
423,2016-04-07 17:31:43.329,52
423,2016-04-07 17:31:46.404,58
423,2016-04-07 17:31:49.404,52
423,2016-04-07 17:31:54.092,60
423,2016-04-07 17:31:55.092,52
423,2016-04-07 17:31:57.041,56
423,2016-04-07 17:31:59.604,58
423,2016-04-07 17:32:00.626,54
423,2016-04-07 17:32:05.779,58
423,2016-04-07 17:32:15.211,52
423,2016-04-07 17:32:27.678,54
423,2016-04-07 17:32:33.102,52
423,2016-04-07 17:32:45.615,54
423,2016-04-07 17:32:49.255,52
423,2016-04-07 17:32:57.697,54
423,2016-04-07 17:33:09.81,52
423,2016-04-07 17:33:22.068,-4
423,2016-04-07 17:33:43.949,-2
423,2016-04-07 17:33:48.612,54
423,2016-04-07 17:33:55.318,64
423,2016-04-07 17:33:57.648,58
423,2016-04-07 17:33:59.569,60
423,2016-04-07 17:34:01.89,52
423,2016-04-07 17:34:18.938,54
423,2016-04-07 17:34:20.715,52
423,2016-04-07 17:34:23.18,54
423,2016-04-07 17:34:26.431,52
423,2016-04-07 17:34:33.308,54
423,2016-04-07 17:34:42.139,52
423,2016-04-07 17:34:45.9,62
423,2016-04-07 17:34:57.802,54
423,2016-04-07 17:35:05.892,52
423,2016-04-07 17:35:26.687,54
423,2016-04-07 17:35:30.946,60
423,2016-04-07 17:35:37.765,52
423,2016-04-07 17:35:39.766,56
423,2016-04-07 17:35:40.768,60
423,2016-04-07 17:35:50.415,52
423,2016-04-07 17:36:05.434,54
423,2016-04-07 17:36:10.625,58
423,2016-04-07 17:36:24.147,54
423,2016-04-07 17:36:30.958,58
423,2016-04-07 17:36:39.477,60
423,2016-04-07 17:36:50.282,52
423,2016-04-07 17:36:57.381,56
423,2016-04-07 17:36:58.933,54
423,2016-04-07 17:36:59.933,52
423,2016-04-07 17:37:01.935,-4
423,2016-04-07 17:37:30.649,-2
423,2016-04-07 17:37:39.361,54
423,2016-04-07 17:37:46.754,56
423,2016-04-07 17:37:54.508,52
423,2016-04-07 17:37:58.109,54
423,2016-04-07 17:38:04.345,52
423,2016-04-07 17:38:23.896,60
423,2016-04-07 17:38:36.612,52
423,2016-04-07 17:38:55.413,56
423,2016-04-07 17:39:00.662,52
423,2016-04-07 17:39:01.733,54
423,2016-04-07 17:39:09.955,52
423,2016-04-07 17:39:28.348,60
423,2016-04-07 17:39:39.383,58
423,2016-04-07 17:39:52.599,52
423,2016-04-07 17:39:54.716,54
423,2016-04-07 17:39:58.755,52
423,2016-04-07 17:39:59.756,56
423,2016-04-07 17:40:01.758,54
423,2016-04-07 17:40:02.758,52
423,2016-04-07 17:40:05.759,56
423,2016-04-07 17:40:06.759,62
423,2016-04-07 17:40:07.759,58
423,2016-04-07 17:40:08.76,54
423,2016-04-07 17:40:10.673,52
423,2016-04-07 17:40:16.184,56
423,2016-04-07 17:40:17.184,54
423,2016-04-07 17:40:18.776,52
423,2016-04-07 17:40:20.319,54
423,2016-04-07 17:40:24.812,52
423,2016-04-07 17:40:32.154,56
423,2016-04-07 17:40:37.311,58
423,2016-04-07 17:40:38.312,56
423,2016-04-07 17:40:44.001,54
423,2016-04-07 17:40:48.136,58
423,2016-04-07 17:40:59.655,54
423,2016-04-07 17:41:08.484,58
423,2016-04-07 17:41:23.968,56
423,2016-04-07 17:41:39.319,52
423,2016-04-07 17:41:47.449,54
423,2016-04-07 17:41:50.912,52
423,2016-04-07 17:41:57.293,56
423,2016-04-07 17:42:05.458,60
423,2016-04-07 17:42:16.938,66
423,2016-04-07 17:42:23.17,56
423,2016-04-07 17:42:33.917,52
423,2016-04-07 17:42:44.252,54
423,2016-04-07 17:42:47.555,58
423,2016-04-07 17:42:50.557,52
423,2016-04-07 17:42:51.581,54
423,2016-04-07 17:42:52.581,52
423,2016-04-07 17:42:59.651,58
423,2016-04-07 17:43:03.888,52
423,2016-04-07 17:43:15.823,54
423,2016-04-07 17:43:29.284,56
423,2016-04-07 17:43:30.547,52
423,2016-04-07 17:43:34.647,54
423,2016-04-07 17:43:48.983,52
423,2016-04-07 17:43:53.241,54
423,2016-04-07 17:44:06.635,52
423,2016-04-07 17:44:12.389,54
423,2016-04-07 17:44:19.228,52
423,2016-04-07 17:44:25.107,56
423,2016-04-07 17:44:41.866,52
423,2016-04-07 17:44:49.476,54
423,2016-04-07 17:44:59.372,58
423,2016-04-07 17:45:06.436,72
423,2016-04-07 17:45:09.402,52
423,2016-04-07 17:45:14.669,56
423,2016-04-07 17:45:22.71,54
423,2016-04-07 17:45:25.412,58
423,2016-04-07 17:45:40.279,52
423,2016-04-07 17:46:02.056,54
423,2016-04-07 17:46:24.288,52
423,2016-04-07 17:46:32.892,62
423,2016-04-07 17:46:34.198,54
423,2016-04-07 17:46:35.2,58
423,2016-04-07 17:46:48.296,52
423,2016-04-07 17:46:55.214,54
423,2016-04-07 17:46:58.929,52
423,2016-04-07 17:47:07.902,62
423,2016-04-07 17:47:09.132,52
423,2016-04-07 17:47:13.132,54
423,2016-04-07 17:47:14.197,52
423,2016-04-07 17:47:20.066,62
423,2016-04-07 17:47:23.223,52
423,2016-04-07 17:47:30.391,58
423,2016-04-07 17:47:31.568,54
423,2016-04-07 17:47:33.863,52
423,2016-04-07 17:47:36.115,54
423,2016-04-07 17:47:51.363,52
423,2016-04-07 17:48:04.82,86
423,2016-04-07 17:48:11.156,56
423,2016-04-07 17:48:18.871,52
423,2016-04-07 17:48:31.697,54
423,2016-04-07 17:48:34.325,52
423,2016-04-07 17:48:42.621,54
423,2016-04-07 17:48:53.291,60
423,2016-04-07 17:48:54.291,58
423,2016-04-07 17:48:55.292,54
423,2016-04-07 17:48:57.293,52
423,2016-04-07 17:49:15.923,54
423,2016-04-07 17:49:26.423,52
423,2016-04-07 17:49:43.302,54
423,2016-04-07 17:50:00.839,-4
423,2016-04-07 17:50:10.61,-2
423,2016-04-07 17:50:33.729,62
423,2016-04-07 17:50:35.444,60
423,2016-04-07 17:50:36.916,52
423,2016-04-07 17:50:37.957,54
423,2016-04-07 17:50:40.958,52
423,2016-04-07 17:50:42.958,64
423,2016-04-07 17:50:44.068,62
423,2016-04-07 17:50:45.73,54
423,2016-04-07 17:50:47.464,56
423,2016-04-07 17:50:49.651,54
423,2016-04-07 17:50:52.672,52
423,2016-04-07 17:50:55.171,54
423,2016-04-07 17:50:57.082,52
423,2016-04-07 17:50:58.715,54
423,2016-04-07 17:51:00.569,52
423,2016-04-07 17:51:02.679,54
423,2016-04-07 17:51:06.822,52
423,2016-04-07 17:51:12.738,54
423,2016-04-07 17:51:15.426,52
423,2016-04-07 17:51:17.463,54
423,2016-04-07 17:51:20.115,52
423,2016-04-07 17:51:22.316,54
423,2016-04-07 17:51:29.55,56
423,2016-04-07 17:51:33.042,52
423,2016-04-07 17:51:35.219,54
423,2016-04-07 17:51:37.788,56
423,2016-04-07 17:51:41.13,54
423,2016-04-07 17:51:48.548,52
423,2016-04-07 17:51:51.619,64
423,2016-04-07 17:51:55.511,52
423,2016-04-07 17:52:04.194,60
423,2016-04-07 17:52:10.575,52
423,2016-04-07 17:52:19.612,54
423,2016-04-07 17:52:26.885,52
423,2016-04-07 17:52:34.409,54
423,2016-04-07 17:52:44.783,52
423,2016-04-07 17:52:49.207,54
423,2016-04-07 17:52:57.815,56
423,2016-04-07 17:53:01.281,54
423,2016-04-07 17:53:02.493,60
423,2016-04-07 17:53:05.274,52
423,2016-04-07 17:53:08.274,58
423,2016-04-07 17:53:14.534,54
423,2016-04-07 17:53:27.181,52
423,2016-04-07 17:53:31.181,54
423,2016-04-07 17:53:32.538,58
423,2016-04-07 17:53:33.695,56
423,2016-04-07 17:53:36.176,54
423,2016-04-07 17:53:43.111,56
423,2016-04-07 17:53:50.756,54
423,2016-04-07 17:53:53.031,56
423,2016-04-07 17:53:54.125,54
423,2016-04-07 17:53:56.202,52
423,2016-04-07 17:53:58.219,58
423,2016-04-07 17:53:59.22,60
423,2016-04-07 17:54:01.118,52
423,2016-04-07 17:54:13.714,54
423,2016-04-07 17:54:23.357,60
423,2016-04-07 17:54:28.699,54
423,2016-04-07 17:54:30.746,58
423,2016-04-07 17:54:39.581,52
423,2016-04-07 17:54:48.964,54
423,2016-04-07 17:54:51.021,52
423,2016-04-07 17:54:54.07,54
423,2016-04-07 17:54:56.62,52
423,2016-04-07 17:54:57.892,54
423,2016-04-07 17:54:58.892,56
423,2016-04-07 17:55:00.691,54
423,2016-04-07 17:55:11.421,60
423,2016-04-07 17:55:12.421,58
423,2016-04-07 17:55:13.716,54
423,2016-04-07 17:55:24.377,52
423,2016-04-07 17:55:27.324,54
423,2016-04-07 17:55:34.525,52
423,2016-04-07 17:55:37.525,54
423,2016-04-07 17:55:43.11,62
423,2016-04-07 17:55:48.134,52
423,2016-04-07 17:55:50.618,54
423,2016-04-07 17:55:52.619,52
423,2016-04-07 17:56:03.599,54
423,2016-04-07 17:56:12.237,52
423,2016-04-07 17:56:14.396,54
423,2016-04-07 17:56:23.778,58
423,2016-04-07 17:56:34.069,54
423,2016-04-07 17:56:39.642,52
423,2016-04-07 17:56:51.049,60
423,2016-04-07 17:56:56.184,54
423,2016-04-07 17:56:58.456,52
423,2016-04-07 17:57:00.848,58
423,2016-04-07 17:57:09.088,54
423,2016-04-07 17:57:15.244,52
423,2016-04-07 17:57:22.654,54
423,2016-04-07 17:57:25.339,62
423,2016-04-07 17:57:27.151,60
423,2016-04-07 17:57:31.338,52
423,2016-04-07 17:57:35.221,62
423,2016-04-07 17:57:36.779,64
423,2016-04-07 17:57:37.779,62
423,2016-04-07 17:57:38.779,60
423,2016-04-07 17:57:39.779,52
423,2016-04-07 17:57:51.036,54
423,2016-04-07 17:57:55.458,52
423,2016-04-07 17:57:59.42,60
423,2016-04-07 17:58:03.79,52
423,2016-04-07 17:58:06.154,58
423,2016-04-07 17:58:07.699,60
423,2016-04-07 17:58:09.412,54
423,2016-04-07 17:58:11.965,60
423,2016-04-07 17:58:13.242,64
423,2016-04-07 17:58:14.242,60
423,2016-04-07 17:58:17.12,52
423,2016-04-07 17:58:20.445,62
423,2016-04-07 17:58:24.861,52
423,2016-04-07 17:58:31.696,54
423,2016-04-07 17:58:44.122,52
423,2016-04-07 17:58:49.117,54
423,2016-04-07 17:58:52.22,64
423,2016-04-07 17:59:05.753,52
423,2016-04-07 17:59:09.377,54
423,2016-04-07 17:59:18.204,58
423,2016-04-07 17:59:23.224,54
423,2016-04-07 17:59:25.79,58
423,2016-04-07 17:59:27.79,52
423,2016-04-07 17:59:28.791,54
423,2016-04-07 17:59:29.801,52
423,2016-04-07 17:59:32.802,54
423,2016-04-07 17:59:40.606,52
423,2016-04-07 17:59:44.752,58
423,2016-04-07 17:59:46.752,52
423,2016-04-07 17:59:48.752,54
423,2016-04-07 17:59:50.866,58
423,2016-04-07 17:59:56.758,52
423,2016-04-07 17:59:59.309,62
423,2016-04-07 18:00:00.501,88
423,2016-04-07 18:00:01.67,70
423,2016-04-07 18:00:18.261,52
423,2016-04-07 18:00:30.933,54
423,2016-04-07 18:00:36.15,52
423,2016-04-07 18:00:39.651,58
423,2016-04-07 18:00:41.651,62
423,2016-04-07 18:00:43.188,56
423,2016-04-07 18:00:44.989,52
423,2016-04-07 18:00:46.84,54
423,2016-04-07 18:00:50.843,52
423,2016-04-07 18:00:51.843,54
423,2016-04-07 18:00:52.843,52
423,2016-04-07 18:00:54.845,56
423,2016-04-07 18:01:07.988,52
423,2016-04-07 18:01:10.684,54
423,2016-04-07 18:01:11.856,52
423,2016-04-07 18:01:13.86,60
423,2016-04-07 18:01:17.134,52
423,2016-04-07 18:01:28.222,56
423,2016-04-07 18:01:32.585,78
423,2016-04-07 18:01:34.953,54
423,2016-04-07 18:01:40.013,52
423,2016-04-07 18:01:49.051,54
423,2016-04-07 18:01:51.204,52
423,2016-04-07 18:01:54.205,54
423,2016-04-07 18:02:05.764,62
423,2016-04-07 18:02:08.658,58
423,2016-04-07 18:02:11.904,52
423,2016-04-07 18:02:16.104,58
423,2016-04-07 18:02:21.642,52
423,2016-04-07 18:02:30.388,66
423,2016-04-07 18:02:36.458,52
423,2016-04-07 18:02:47.791,54
423,2016-04-07 18:02:49.274,60
423,2016-04-07 18:02:55.811,58
423,2016-04-07 18:03:03.186,60
423,2016-04-07 18:03:04.713,54
423,2016-04-07 18:03:05.718,60
423,2016-04-07 18:03:08.72,54
423,2016-04-07 18:03:10.76,52
423,2016-04-07 18:03:12.76,54
423,2016-04-07 18:03:16.6,52
423,2016-04-07 18:03:31.394,62
423,2016-04-07 18:03:37.958,54
423,2016-04-07 18:03:46.484,56
423,2016-04-07 18:03:51.741,54
423,2016-04-07 18:03:52.838,62
423,2016-04-07 18:03:57.81,58
423,2016-04-07 18:04:02.831,54
423,2016-04-07 18:04:07.32,56
423,2016-04-07 18:04:12.778,54
423,2016-04-07 18:04:15.353,60
423,2016-04-07 18:04:21.987,52
423,2016-04-07 18:04:24.369,58
423,2016-04-07 18:04:34.067,52
423,2016-04-07 18:04:40.762,54
423,2016-04-07 18:04:45.235,52
423,2016-04-07 18:04:51.074,54
423,2016-04-07 18:04:55.226,60
423,2016-04-07 18:05:00.904,54
423,2016-04-07 18:05:04.328,60
423,2016-04-07 18:05:12.672,62
423,2016-04-07 18:05:19.162,54
423,2016-04-07 18:05:26.263,60
423,2016-04-07 18:05:52.906,52
423,2016-04-07 18:05:55.784,56
423,2016-04-07 18:05:56.83,54
423,2016-04-07 18:05:57.841,52
423,2016-04-07 18:06:05.844,54
423,2016-04-07 18:06:07.846,52
423,2016-04-07 18:06:10.849,56
423,2016-04-07 18:06:12.849,52
423,2016-04-07 18:06:14.849,54
423,2016-04-07 18:06:16.849,52
423,2016-04-07 18:06:17.849,62
423,2016-04-07 18:06:19.85,64
423,2016-04-07 18:06:20.851,54
423,2016-04-07 18:06:21.852,52
423,2016-04-07 18:07:46.481,62
423,2016-04-07 18:07:51.057,52
423,2016-04-07 18:07:59.861,56
423,2016-04-07 18:08:06.48,52
423,2016-04-07 18:08:18.346,54
423,2016-04-07 18:08:27.785,60
423,2016-04-07 18:08:29.788,52
423,2016-04-07 18:08:30.943,54
423,2016-04-07 18:08:39.68,56
423,2016-04-07 18:08:48.625,52
423,2016-04-07 18:09:01.882,54
423,2016-04-07 18:09:16.309,52
423,2016-04-07 18:09:22.102,58
423,2016-04-07 18:09:27.982,52
423,2016-04-07 18:09:39.443,54
423,2016-04-07 18:09:46.667,58
423,2016-04-07 18:09:58.729,54
423,2016-04-07 18:10:10.817,52
423,2016-04-07 18:10:23.658,54
423,2016-04-07 18:10:30.579,58
423,2016-04-07 18:10:35.242,56
423,2016-04-07 18:10:36.593,52
423,2016-04-07 18:10:37.652,54
423,2016-04-07 18:10:39.824,52
423,2016-04-07 18:10:51.949,54
423,2016-04-07 18:11:01.608,60
423,2016-04-07 18:11:11.675,52
423,2016-04-07 18:11:16.917,54
423,2016-04-07 18:11:28.918,52
423,2016-04-07 18:11:35.596,58
423,2016-04-07 18:11:42.246,52
423,2016-04-07 18:11:49.016,54
423,2016-04-07 18:11:51.695,56
423,2016-04-07 18:11:53.494,54
423,2016-04-07 18:11:54.494,56
423,2016-04-07 18:11:55.505,54
423,2016-04-07 18:14:32.389,-4
423,2016-04-07 18:14:50.526,-2
423,2016-04-07 18:14:59.252,56
423,2016-04-07 18:15:05.057,52
423,2016-04-07 18:15:11.665,56
423,2016-04-07 18:15:20.568,52
423,2016-04-07 18:15:26.798,66
423,2016-04-07 18:15:36.555,54
423,2016-04-07 18:15:42.971,60
423,2016-04-07 18:15:50.182,52
423,2016-04-07 18:16:10.523,62
423,2016-04-07 18:16:17.787,64
423,2016-04-07 18:16:22.043,54
423,2016-04-07 18:16:28.734,52
423,2016-04-07 18:16:35.322,58
423,2016-04-07 18:16:41.888,66
423,2016-04-07 18:16:46.65,52
423,2016-04-07 18:17:00.3,60
423,2016-04-07 18:17:07.766,90
423,2016-04-07 18:17:14.754,56
423,2016-04-07 18:17:22.185,54
423,2016-04-07 18:17:29.727,52
423,2016-04-07 18:17:49.101,58
423,2016-04-07 18:17:51.292,60
423,2016-04-07 18:17:56.936,52
423,2016-04-07 18:18:03.65,58
423,2016-04-07 18:18:04.65,60
423,2016-04-07 18:18:07.492,78
423,2016-04-07 18:18:10.477,70
423,2016-04-07 18:18:13.646,60
423,2016-04-07 18:18:19.596,52
423,2016-04-07 18:18:28.498,54
423,2016-04-07 18:18:41.137,60
423,2016-04-07 18:18:46.836,52
423,2016-04-07 18:19:07.947,54
423,2016-04-07 18:19:12.872,52
423,2016-04-07 18:19:14.79,54
423,2016-04-07 18:19:15.791,52
423,2016-04-07 18:19:16.791,60
423,2016-04-07 18:19:17.792,62
423,2016-04-07 18:19:22.792,52
423,2016-04-07 18:19:25.793,54
423,2016-04-07 18:19:26.794,52
423,2016-04-07 18:19:32.795,54
423,2016-04-07 18:19:33.795,52
423,2016-04-07 18:19:34.796,60
423,2016-04-07 18:19:35.797,64
423,2016-04-07 18:19:36.798,68
423,2016-04-07 18:19:37.803,62
423,2016-04-07 18:19:38.803,56
423,2016-04-07 18:19:39.803,54
423,2016-04-07 18:19:41.805,52
423,2016-04-07 18:19:45.808,54
423,2016-04-07 18:19:50.889,52
423,2016-04-07 18:19:53.997,54
423,2016-04-07 18:19:55.061,52
423,2016-04-07 18:19:56.061,54
423,2016-04-07 18:19:57.061,52
423,2016-04-07 18:19:58.061,60
423,2016-04-07 18:20:00.061,52
423,2016-04-07 18:20:01.846,54
423,2016-04-07 18:20:03.614,56
423,2016-04-07 18:20:06.96,52
423,2016-04-07 18:20:09.877,54
423,2016-04-07 18:20:16.624,58
423,2016-04-07 18:20:21.894,54
423,2016-04-07 18:20:25.211,52
423,2016-04-07 18:20:30.353,62
423,2016-04-07 18:20:32.484,54
423,2016-04-07 18:20:38.466,52
423,2016-04-07 18:20:42.138,60
423,2016-04-07 18:20:47.959,54
423,2016-04-07 18:20:49.89,58
423,2016-04-07 18:20:54.793,54
423,2016-04-07 18:21:05.998,58
423,2016-04-07 18:21:11.6,52
423,2016-04-07 18:21:15.485,54
423,2016-04-07 18:21:22.742,52
423,2016-04-07 18:21:27.883,54
423,2016-04-07 18:21:32.554,52
423,2016-04-07 18:21:42.668,54
423,2016-04-07 18:21:46.477,52
423,2016-04-07 18:21:57.996,54
423,2016-04-07 18:22:05.911,52
423,2016-04-07 18:22:08.288,54
423,2016-04-07 18:22:19.926,52
423,2016-04-07 18:22:29.879,54
423,2016-04-07 18:22:42.937,60
423,2016-04-07 18:22:49.343,54
423,2016-04-07 18:22:50.673,56
423,2016-04-07 18:22:51.736,54
423,2016-04-07 18:22:53.737,52
423,2016-04-07 18:23:12.563,58
423,2016-04-07 18:23:23.198,52
423,2016-04-07 18:23:31.754,64
423,2016-04-07 18:23:40.166,54
423,2016-04-07 18:23:45.923,62
423,2016-04-07 18:23:51.078,54
423,2016-04-07 18:23:57.827,52
423,2016-04-07 18:24:11.527,54
423,2016-04-07 18:24:18.484,56
423,2016-04-07 18:24:29.977,64
423,2016-04-07 18:24:37.851,54
423,2016-04-07 18:24:46.502,52
423,2016-04-07 18:25:03.544,70
423,2016-04-07 18:25:11.943,62
423,2016-04-07 18:26:05.01,54
423,2016-04-07 18:26:06.002,70
423,2016-04-07 18:26:07.002,80
423,2016-04-07 18:26:08.002,78
423,2016-04-07 18:26:09.002,68
423,2016-04-07 18:26:10.003,52
423,2016-04-07 18:26:11.003,54
423,2016-04-07 18:26:14.003,52
423,2016-04-07 18:26:15.46,54
423,2016-04-07 18:26:29.781,52
423,2016-04-07 18:26:41.645,64
423,2016-04-07 18:26:52.558,54
423,2016-04-07 18:27:00.944,52
423,2016-04-07 18:27:08.529,54
423,2016-04-07 18:27:15.11,52
423,2016-04-07 18:27:19.111,54
423,2016-04-07 18:27:40.098,52
423,2016-04-07 18:30:37.506,52
423,2016-04-07 18:30:47.268,-3
423,2016-04-07 18:30:47.268,-3
423,2016-04-07 18:30:47.284,-3
423,2016-04-07 18:30:47.297,-3
423,2016-04-07 18:30:47.298,-3
423,2016-04-07 18:30:47.326,-3
423,2016-04-07 18:30:47.42,-3
423,2016-04-07 18:30:48.318,-3
423,2016-04-07 18:30:48.318,-3
423,2016-04-07 18:30:48.348,-3
423,2016-04-07 18:30:48.356,-3
423,2016-04-07 18:30:48.356,-3
423,2016-04-07 18:30:48.379,-3
423,2016-04-07 18:30:48.383,-3
423,2016-04-07 18:30:48.396,-3
423,2016-04-07 18:33:59.766,-2
423,2016-04-07 18:34:00.737,52
423,2016-04-07 18:34:09.157,54
423,2016-04-07 18:34:10.164,52
423,2016-04-07 18:34:12.407,60
423,2016-04-07 18:34:14.407,62
423,2016-04-07 18:34:15.407,52
423,2016-04-07 18:34:18.437,56
423,2016-04-07 18:34:20.734,62
423,2016-04-07 18:34:22.734,58
423,2016-04-07 18:34:23.782,66
423,2016-04-07 18:34:24.783,62
423,2016-04-07 18:34:26.809,54
423,2016-04-07 18:34:30.844,52
423,2016-04-07 18:34:48.363,54
423,2016-04-07 18:34:49.386,52
423,2016-04-07 18:34:50.386,58
423,2016-04-07 18:34:51.398,56
423,2016-04-07 18:34:53.398,52
423,2016-04-07 18:35:04.053,54
423,2016-04-07 18:35:07.226,52
423,2016-04-07 18:35:15.395,58
423,2016-04-07 18:35:18.396,60
423,2016-04-07 18:35:20.6,52
423,2016-04-07 18:35:21.6,54
423,2016-04-07 18:35:22.6,60
423,2016-04-07 18:35:30.436,62
423,2016-04-07 18:35:32.437,54
423,2016-04-07 18:35:34.437,60
423,2016-04-07 18:35:36.81,52
423,2016-04-07 18:35:37.81,56
423,2016-04-07 18:35:40.811,52
423,2016-04-07 18:35:43.85,54
423,2016-04-07 18:35:44.85,52
423,2016-04-07 18:35:48.86,54
423,2016-04-07 18:35:53.103,52
423,2016-04-07 18:36:07.112,60
423,2016-04-07 18:36:09.239,54
423,2016-04-07 18:36:13.239,52
423,2016-04-07 18:36:16.24,56
423,2016-04-07 18:36:18.565,52
423,2016-04-07 18:36:24.803,54
423,2016-04-07 18:36:27.804,52
423,2016-04-07 18:36:29.805,54
423,2016-04-07 18:36:30.926,52
423,2016-04-07 18:36:36.634,54
423,2016-04-07 18:36:38.634,52
423,2016-04-07 18:36:41.202,54
423,2016-04-07 18:36:43.07,60
423,2016-04-07 18:36:45.658,54
423,2016-04-07 18:36:47.66,52
423,2016-04-07 18:36:48.66,54
423,2016-04-07 18:36:49.66,52
423,2016-04-07 18:36:55.663,54
423,2016-04-07 18:36:58.049,56
423,2016-04-07 18:37:00.049,54
423,2016-04-07 18:37:04.206,52
423,2016-04-07 18:37:05.206,54
423,2016-04-07 18:37:07.206,52
423,2016-04-07 18:37:09.206,56
423,2016-04-07 18:37:15.628,52
423,2016-04-07 18:37:28.847,54
423,2016-04-07 18:37:33.031,52
423,2016-04-07 18:37:34.288,58
423,2016-04-07 18:37:40.277,54
423,2016-04-07 18:37:41.952,60
423,2016-04-07 18:37:42.952,62
423,2016-04-07 18:37:45.174,54
423,2016-04-07 18:37:46.174,52
423,2016-04-07 18:37:50.174,54
423,2016-04-07 18:38:02.44,52
423,2016-04-07 18:38:11.002,54
423,2016-04-07 18:38:16.708,58
423,2016-04-07 18:38:17.876,52
423,2016-04-07 18:38:28.543,54
423,2016-04-07 18:38:42.237,52
423,2016-04-07 18:38:45.324,54
423,2016-04-07 18:38:47.325,52
423,2016-04-07 18:38:49.326,54
423,2016-04-07 18:38:59.618,52
423,2016-04-07 18:39:09.501,54
423,2016-04-07 18:39:10.502,58
423,2016-04-07 18:39:11.502,56
423,2016-04-07 18:39:13.503,52
423,2016-04-07 18:39:26.409,56
423,2016-04-07 18:39:31.544,58
423,2016-04-07 18:39:35.928,60
423,2016-04-07 18:39:39.794,52
423,2016-04-07 18:39:47.882,60
423,2016-04-07 18:40:06.862,52
423,2016-04-07 18:40:08.636,54
423,2016-04-07 18:40:09.636,52
423,2016-04-07 18:40:11.759,58
423,2016-04-07 18:40:14.088,54
423,2016-04-07 18:40:16.339,52
423,2016-04-07 18:40:21.358,54
423,2016-04-07 18:40:31.334,52
423,2016-04-07 18:40:43.816,60
423,2016-04-07 18:40:45.927,62
423,2016-04-07 18:40:46.945,52
423,2016-04-07 18:40:56.922,60
423,2016-04-07 18:40:58.375,54
423,2016-04-07 18:41:23.115,56
423,2016-04-07 18:41:26.458,52
423,2016-04-07 18:41:27.79,54
423,2016-04-07 18:41:29.826,-4
423,2016-04-07 18:41:47.768,-2
423,2016-04-07 18:41:53.362,60
423,2016-04-07 18:42:00.605,52
423,2016-04-07 18:42:28.264,54
423,2016-04-07 18:42:39.556,52
423,2016-04-07 18:42:41.24,58
423,2016-04-07 18:42:43.411,60
423,2016-04-07 18:42:44.794,62
423,2016-04-07 18:42:49.993,-4
423,2016-04-07 18:43:06.796,-2
423,2016-04-07 18:43:07.542,52
423,2016-04-07 18:43:12.73,56
423,2016-04-07 18:43:14.795,52
423,2016-04-07 18:43:16.795,54
423,2016-04-07 18:43:20.986,52
423,2016-04-07 18:43:22.478,54
423,2016-04-07 18:43:26.551,56
423,2016-04-07 18:43:27.697,58
423,2016-04-07 18:43:29.123,54
423,2016-04-07 18:43:30.953,52
423,2016-04-07 18:43:33.185,56
423,2016-04-07 18:43:35.364,54
423,2016-04-07 18:43:40.907,52
423,2016-04-07 18:43:43.272,54
423,2016-04-07 18:43:50.939,52
423,2016-04-07 18:44:00.298,54
423,2016-04-07 18:44:04.686,52
423,2016-04-07 18:44:14.464,-4
423,2016-04-07 18:44:31.935,-2
423,2016-04-07 18:44:36.524,54
423,2016-04-07 18:44:37.818,62
423,2016-04-07 18:44:39.891,60
423,2016-04-07 18:44:41.64,62
423,2016-04-07 18:44:44.483,54
423,2016-04-07 18:44:47.068,52
423,2016-04-07 18:44:49.547,56
423,2016-04-07 18:44:52.686,54
423,2016-04-07 18:44:54.281,52
423,2016-04-07 18:45:06.158,54
423,2016-04-07 18:45:10.92,60
423,2016-04-07 18:45:19.292,58
423,2016-04-07 18:45:22.977,56
423,2016-04-07 18:45:30.734,54
423,2016-04-07 18:45:36.844,60
423,2016-04-07 18:45:41.429,58
423,2016-04-07 18:45:49.827,52
423,2016-04-07 18:46:03.106,54
423,2016-04-07 18:46:13.771,56
423,2016-04-07 18:46:24.991,58
423,2016-04-07 18:46:30.481,52
423,2016-04-07 18:46:40.079,54
423,2016-04-07 18:46:53.742,52
423,2016-04-07 18:47:04.124,54
423,2016-04-07 18:47:19.094,52
423,2016-04-07 18:47:26.344,54
423,2016-04-07 18:47:31.616,56
423,2016-04-07 18:47:41.499,62
423,2016-04-07 18:47:50.968,54
423,2016-04-07 18:48:00.689,52
423,2016-04-07 18:48:08.88,54
423,2016-04-07 18:48:14.862,62
423,2016-04-07 18:48:18.455,52
423,2016-04-07 18:48:27.096,54
423,2016-04-07 18:48:34.916,52
423,2016-04-07 18:48:37.684,54
423,2016-04-07 18:48:43.217,52
423,2016-04-07 18:48:45.561,60
423,2016-04-07 18:49:04.427,54
423,2016-04-07 18:49:13.446,58
423,2016-04-07 18:49:20.446,56
423,2016-04-07 18:49:25.387,52
423,2016-04-07 18:49:45.408,58
423,2016-04-07 18:49:46.758,60
423,2016-04-07 18:49:50.364,52
423,2016-04-07 18:49:52.375,60
423,2016-04-07 18:49:56.892,54
423,2016-04-07 18:50:02.97,62
423,2016-04-07 18:50:06.492,54
423,2016-04-07 18:50:24.756,60
423,2016-04-07 18:50:25.756,54
423,2016-04-07 18:50:34.071,52
423,2016-04-07 18:50:35.254,62
423,2016-04-07 18:50:40.737,60
423,2016-04-07 18:50:45.198,54
423,2016-04-07 18:50:53.417,62
423,2016-04-07 18:51:01.129,52
423,2016-04-07 18:51:29.395,68
423,2016-04-07 18:51:33.435,60
423,2016-04-07 18:51:37.268,52
423,2016-04-07 18:52:09.704,54
423,2016-04-07 18:52:19.195,52
423,2016-04-07 18:52:23.527,54
423,2016-04-07 18:52:32.695,52
423,2016-04-07 18:52:45.356,62
423,2016-04-07 18:52:47.357,52
423,2016-04-07 18:52:48.39,60
423,2016-04-07 18:52:57.375,56
423,2016-04-07 18:53:11.172,52
423,2016-04-07 18:53:34.739,54
423,2016-04-07 18:53:42.883,52
423,2016-04-07 18:53:47.001,54
423,2016-04-07 18:53:49.559,52
423,2016-04-07 18:53:53.132,56
423,2016-04-07 18:53:59.04,52
423,2016-04-07 18:54:01.121,54
423,2016-04-07 18:54:06.016,58
423,2016-04-07 18:54:10.881,52
423,2016-04-07 18:54:25.65,60
423,2016-04-07 18:54:27.421,52
423,2016-04-07 18:54:32.992,54
423,2016-04-07 18:54:45.733,52
423,2016-04-07 18:54:54.577,54
423,2016-04-07 18:55:06.482,60
423,2016-04-07 18:55:08.899,52
423,2016-04-07 18:55:14.383,64
423,2016-04-07 18:55:20.301,54
423,2016-04-07 18:55:23.774,52
423,2016-04-07 18:55:26.815,54
423,2016-04-07 18:55:29.489,56
423,2016-04-07 18:55:32.0,54
423,2016-04-07 18:55:34.321,58
423,2016-04-07 18:55:36.403,60
423,2016-04-07 18:55:38.678,56
423,2016-04-07 18:55:44.042,54
423,2016-04-07 18:55:51.381,52
423,2016-04-07 18:55:56.365,64
423,2016-04-07 18:56:05.222,52
423,2016-04-07 18:56:13.262,54
423,2016-04-07 18:56:23.751,52
423,2016-04-07 18:56:31.782,54
423,2016-04-07 18:56:33.557,52
423,2016-04-07 18:56:38.327,-4
423,2016-04-07 18:58:12.839,-2
423,2016-04-07 18:58:13.78,54
423,2016-04-07 18:58:28.423,52
423,2016-04-07 18:58:30.186,56
423,2016-04-07 18:58:32.471,54
423,2016-04-07 18:58:34.219,52
423,2016-04-07 18:58:36.228,54
423,2016-04-07 18:58:41.967,86
423,2016-04-07 18:58:45.997,54
423,2016-04-07 18:58:57.548,104
423,2016-04-07 18:59:11.649,102
423,2016-04-07 18:59:20.023,106
423,2016-04-07 18:59:24.098,104
423,2016-04-07 18:59:26.121,102
423,2016-04-07 18:59:27.288,106
423,2016-04-07 18:59:28.288,104
423,2016-04-07 18:59:36.042,106
423,2016-04-07 18:59:42.403,102
423,2016-04-07 18:59:44.252,104
423,2016-04-07 18:59:48.246,106
423,2016-04-07 18:59:55.299,102
423,2016-04-07 18:59:56.915,104
423,2016-04-07 19:00:00.208,106
423,2016-04-07 19:00:08.015,-4
423,2016-04-07 19:00:33.129,-2
423,2016-04-07 19:00:35.629,104
423,2016-04-07 19:00:37.768,106
423,2016-04-07 19:00:38.768,108
423,2016-04-07 19:00:45.003,106
423,2016-04-07 19:00:52.109,104
423,2016-04-07 19:01:13.207,106
423,2016-04-07 19:01:29.488,104
423,2016-04-07 19:01:30.756,106
423,2016-04-07 19:01:50.931,104
423,2016-04-07 19:02:02.244,-4
423,2016-04-07 19:02:23.681,-2
423,2016-04-07 19:02:25.904,-4
423,2016-04-07 19:02:58.946,-2
423,2016-04-07 19:03:19.574,102
423,2016-04-07 19:03:22.204,106
423,2016-04-07 19:03:28.268,-4
423,2016-04-07 19:04:11.237,-2
423,2016-04-07 19:04:16.439,104
423,2016-04-07 19:04:22.397,106
423,2016-04-07 19:04:26.002,104
423,2016-04-07 19:04:33.361,106
423,2016-04-07 19:04:35.346,104
423,2016-04-07 19:04:36.862,106
423,2016-04-07 19:04:43.093,102
423,2016-04-07 19:04:45.78,104
423,2016-04-07 19:04:52.441,106
423,2016-04-07 19:05:06.242,104
423,2016-04-07 19:05:18.842,106
423,2016-04-07 19:05:29.179,104
423,2016-04-07 19:05:39.575,106
423,2016-04-07 19:05:41.628,104
423,2016-04-07 19:05:47.239,106
423,2016-04-07 19:05:55.715,104
423,2016-04-07 19:06:07.332,106
423,2016-04-07 19:06:15.258,104
423,2016-04-07 19:06:20.733,106
423,2016-04-07 19:06:22.208,104
423,2016-04-07 19:06:36.991,106
423,2016-04-07 19:06:57.741,104
423,2016-04-07 19:07:14.528,106
423,2016-04-07 19:07:32.542,104
423,2016-04-07 19:07:47.342,108
423,2016-04-07 19:08:05.748,104
423,2016-04-07 19:08:25.112,106
423,2016-04-07 19:08:40.419,104
423,2016-04-07 19:09:07.927,108
423,2016-04-07 19:09:11.988,104
423,2016-04-07 19:09:30.082,108
423,2016-04-07 19:09:53.154,106
423,2016-04-07 19:09:57.804,104
423,2016-04-07 19:10:00.001,106
423,2016-04-07 19:10:01.669,104
423,2016-04-07 19:10:03.656,106
423,2016-04-07 19:10:08.376,108
423,2016-04-07 19:10:09.981,104
423,2016-04-07 19:10:14.884,106
423,2016-04-07 19:10:23.341,104
423,2016-04-07 19:10:28.11,106
423,2016-04-07 19:10:35.422,-4
423,2016-04-07 19:11:02.722,-2
423,2016-04-07 19:11:08.939,104
423,2016-04-07 19:11:22.982,108
423,2016-04-07 19:11:26.874,102
423,2016-04-07 19:11:37.969,104
423,2016-04-07 19:11:43.415,102
423,2016-04-07 19:11:46.777,104
423,2016-04-07 19:12:00.566,106
423,2016-04-07 19:12:22.962,104
423,2016-04-07 19:12:25.841,-4
423,2016-04-07 19:13:00.522,-2
423,2016-04-07 19:13:10.507,-4
423,2016-04-07 19:13:39.034,-2
423,2016-04-07 19:13:46.067,108
423,2016-04-07 19:14:00.082,104
423,2016-04-07 19:14:01.916,102
423,2016-04-07 19:14:12.635,106
423,2016-04-07 19:14:26.822,104
423,2016-04-07 19:14:33.062,108
423,2016-04-07 19:14:40.601,104
423,2016-04-07 19:14:50.371,-4
423,2016-04-07 19:15:45.108,-2
423,2016-04-07 19:15:45.25,108
423,2016-04-07 19:15:49.025,104
423,2016-04-07 19:15:59.559,102
423,2016-04-07 19:16:13.773,106
423,2016-04-07 19:16:25.165,108
423,2016-04-07 19:16:33.017,104
423,2016-04-07 19:16:34.859,106
423,2016-04-07 19:16:39.942,104
423,2016-04-07 19:16:53.813,106
423,2016-04-07 19:16:55.169,104
423,2016-04-07 19:16:56.979,102
423,2016-04-07 19:17:04.346,104
423,2016-04-07 19:17:06.666,108
423,2016-04-07 19:17:09.196,104
423,2016-04-07 19:17:20.282,106
423,2016-04-07 19:18:19.019,104
423,2016-04-07 19:18:26.095,102
423,2016-04-07 19:18:27.256,104
423,2016-04-07 19:18:31.165,106
423,2016-04-07 19:18:32.781,108
423,2016-04-07 19:18:33.781,106
423,2016-04-07 19:18:49.05,-4
423,2016-04-07 19:19:27.784,-2
423,2016-04-07 19:19:28.752,104
423,2016-04-07 19:19:37.178,102
423,2016-04-07 19:19:47.209,104
423,2016-04-07 19:19:49.41,106
423,2016-04-07 19:19:51.409,104
423,2016-04-07 19:19:54.569,106
423,2016-04-07 19:19:56.793,104
423,2016-04-07 19:19:59.728,-4
423,2016-04-07 19:20:15.326,-2
423,2016-04-07 19:20:23.523,106
423,2016-04-07 19:20:32.609,104
423,2016-04-07 19:20:40.744,106
423,2016-04-07 19:20:44.983,104
423,2016-04-07 19:20:50.227,102
423,2016-04-07 19:20:56.891,106
423,2016-04-07 19:21:08.322,104
423,2016-04-07 19:21:19.49,106
423,2016-04-07 19:21:30.895,104
423,2016-04-07 19:21:47.26,106
423,2016-04-07 19:21:57.999,104
423,2016-04-07 19:22:02.374,108
423,2016-04-07 19:22:09.905,104
423,2016-04-07 19:22:10.914,106
423,2016-04-07 19:22:19.066,104
423,2016-04-07 19:22:23.604,106
423,2016-04-07 19:22:33.174,104
423,2016-04-07 19:22:35.352,106
423,2016-04-07 19:22:37.939,104
423,2016-04-07 19:22:57.837,106
423,2016-04-07 19:23:01.326,104
423,2016-04-07 19:23:07.338,106
423,2016-04-07 19:23:14.738,102
423,2016-04-07 19:23:16.456,106
423,2016-04-07 19:23:29.181,104
423,2016-04-07 19:23:40.026,106
423,2016-04-07 19:23:45.019,104
423,2016-04-07 19:23:53.22,106
423,2016-04-07 19:24:05.605,104
423,2016-04-07 19:24:07.994,106
423,2016-04-07 19:24:11.294,104
423,2016-04-07 19:24:13.777,-4
423,2016-04-07 19:26:22.755,-2
423,2016-04-07 19:26:43.216,102
423,2016-04-07 19:26:45.017,106
423,2016-04-07 19:26:50.321,104
423,2016-04-07 19:27:19.599,-4
423,2016-04-07 19:27:39.73,-2
423,2016-04-07 19:27:52.913,106
423,2016-04-07 19:28:03.805,104
423,2016-04-07 19:28:16.472,106
423,2016-04-07 19:28:25.638,104
423,2016-04-07 19:28:33.678,-4
423,2016-04-07 19:29:21.63,-2
423,2016-04-07 19:29:29.313,106
423,2016-04-07 19:29:32.326,104
423,2016-04-07 19:29:34.333,106
423,2016-04-07 19:29:45.015,-4
423,2016-04-07 19:30:12.129,-2
423,2016-04-07 19:30:15.965,-4
423,2016-04-07 19:30:55.104,-2
423,2016-04-07 19:30:55.811,104
423,2016-04-07 19:31:08.197,106
423,2016-04-07 19:31:24.505,104
423,2016-04-07 19:31:30.937,102
423,2016-04-07 19:31:37.205,106
423,2016-04-07 19:31:39.294,104
423,2016-04-07 19:31:47.763,108
423,2016-04-07 19:31:50.904,104
423,2016-04-07 19:32:05.869,106
423,2016-04-07 19:32:10.436,104
423,2016-04-07 19:32:12.699,102
423,2016-04-07 19:32:14.798,104
423,2016-04-07 19:32:19.265,106
423,2016-04-07 19:32:22.928,104
423,2016-04-07 19:32:30.628,102
423,2016-04-07 19:32:35.749,104
423,2016-04-07 19:32:45.483,106
423,2016-04-07 19:32:52.542,104
423,2016-04-07 19:32:59.495,106
423,2016-04-07 19:33:10.904,104
423,2016-04-07 19:33:15.493,108
423,2016-04-07 19:33:17.794,106
423,2016-04-07 19:33:26.221,102
423,2016-04-07 19:33:29.365,106
423,2016-04-07 19:33:34.811,102
423,2016-04-07 19:33:41.002,106
423,2016-04-07 19:33:48.858,104
423,2016-04-07 19:33:55.844,106
423,2016-04-07 19:33:59.645,104
423,2016-04-07 19:34:17.783,106
423,2016-04-07 19:34:32.873,102
423,2016-04-07 19:34:44.006,104
423,2016-04-07 19:34:50.656,106
423,2016-04-07 19:35:01.408,108
423,2016-04-07 19:35:08.224,106
423,2016-04-07 19:35:16.819,102
423,2016-04-07 19:35:24.075,104
423,2016-04-07 19:35:48.913,106
423,2016-04-07 19:36:04.097,104
423,2016-04-07 19:36:15.275,106
423,2016-04-07 19:36:30.322,104
423,2016-04-07 19:36:45.22,102
423,2016-04-07 19:36:58.406,104
423,2016-04-07 19:36:59.931,106
423,2016-04-07 19:37:25.772,104
423,2016-04-07 19:37:49.352,106
423,2016-04-07 19:37:57.304,104
423,2016-04-07 19:38:05.22,106
423,2016-04-07 19:38:14.91,104
423,2016-04-07 19:38:37.097,106
423,2016-04-07 19:38:50.147,104
423,2016-04-07 19:38:53.808,106
423,2016-04-07 19:39:03.981,104
423,2016-04-07 19:39:11.232,106
423,2016-04-07 19:39:16.188,104
423,2016-04-07 19:39:19.305,106
423,2016-04-07 19:39:29.106,104
423,2016-04-07 19:40:00.104,106
423,2016-04-07 19:40:12.614,102
423,2016-04-07 19:40:22.198,106
423,2016-04-07 19:40:29.115,104
423,2016-04-07 19:40:45.557,106
423,2016-04-07 19:40:57.606,104
423,2016-04-07 19:41:15.552,106
423,2016-04-07 19:41:22.893,104
423,2016-04-07 19:41:38.584,102
423,2016-04-07 19:41:50.809,106
423,2016-04-07 19:42:00.056,104
423,2016-04-07 19:42:08.819,102
423,2016-04-07 19:42:22.936,104
423,2016-04-07 19:42:28.364,106
423,2016-04-07 19:42:48.375,104
423,2016-04-07 19:42:53.696,106
423,2016-04-07 19:43:06.316,104
423,2016-04-07 19:43:35.222,106
423,2016-04-07 19:43:38.115,104
423,2016-04-07 19:43:51.297,106
423,2016-04-07 19:43:56.359,104
423,2016-04-07 19:44:05.415,102
423,2016-04-07 19:44:21.314,104
423,2016-04-07 19:44:30.606,-4
423,2016-04-07 19:44:58.876,-2
423,2016-04-07 19:45:04.345,106
423,2016-04-07 19:45:12.585,104
423,2016-04-07 19:45:19.672,106
423,2016-04-07 19:45:31.915,104
423,2016-04-07 19:45:36.108,106
423,2016-04-07 19:45:50.907,104
423,2016-04-07 19:46:00.265,106
423,2016-04-07 19:46:06.771,102
423,2016-04-07 19:46:11.913,104
423,2016-04-07 19:46:24.047,102
423,2016-04-07 19:46:34.439,104
423,2016-04-07 19:46:54.106,106
423,2016-04-07 19:47:02.187,-4
423,2016-04-07 19:47:36.463,-2
423,2016-04-07 19:47:37.581,104
423,2016-04-07 19:48:03.018,106
423,2016-04-07 19:48:15.592,104
423,2016-04-07 19:48:32.766,106
423,2016-04-07 19:48:46.724,104
423,2016-04-07 19:49:08.774,108
423,2016-04-07 19:49:20.277,106
423,2016-04-07 19:49:30.205,104
423,2016-04-07 19:50:20.084,106
423,2016-04-07 19:50:33.292,104
423,2016-04-07 19:50:50.841,106
423,2016-04-07 19:51:13.196,104
423,2016-04-07 19:51:21.949,102
423,2016-04-07 19:51:25.535,104
423,2016-04-07 19:51:34.362,106
423,2016-04-07 19:51:36.73,102
423,2016-04-07 19:51:39.334,104
423,2016-04-07 19:51:40.726,106
423,2016-04-07 19:51:46.062,104
423,2016-04-07 19:51:52.979,106
423,2016-04-07 19:51:57.108,104
423,2016-04-07 19:52:01.941,106
423,2016-04-07 19:52:09.947,104
423,2016-04-07 19:52:14.165,102
423,2016-04-07 19:52:18.631,106
423,2016-04-07 19:52:25.928,104
423,2016-04-07 19:52:30.313,102
423,2016-04-07 19:52:33.056,104
423,2016-04-07 19:52:40.187,106
423,2016-04-07 19:52:45.563,104
423,2016-04-07 19:52:57.987,106
423,2016-04-07 19:53:09.228,104
423,2016-04-07 19:53:21.549,106
423,2016-04-07 19:53:26.846,104
423,2016-04-07 19:53:46.729,106
423,2016-04-07 19:53:55.161,104
423,2016-04-07 19:54:02.985,102
423,2016-04-07 19:54:11.442,104
423,2016-04-07 19:54:16.006,106
423,2016-04-07 19:54:25.795,54
423,2016-04-07 19:54:35.077,52
423,2016-04-07 19:54:40.417,54
423,2016-04-07 19:54:50.05,60
423,2016-04-07 19:54:58.906,54
423,2016-04-07 19:55:05.41,52
423,2016-04-07 19:55:14.286,54
423,2016-04-07 19:55:20.49,52
423,2016-04-07 19:55:27.2,60
423,2016-04-07 19:55:36.155,52
423,2016-04-07 19:56:02.679,54
423,2016-04-07 19:56:14.198,66
423,2016-04-07 19:56:29.58,52
423,2016-04-07 19:56:35.739,56
423,2016-04-07 19:56:37.546,54
423,2016-04-07 19:56:39.228,52
423,2016-04-07 19:56:41.465,-4
423,2016-04-07 19:57:11.956,-2
423,2016-04-07 19:57:26.134,60
423,2016-04-07 19:57:29.939,52
423,2016-04-07 19:57:31.485,56
423,2016-04-07 19:57:33.151,58
423,2016-04-07 19:57:36.162,54
423,2016-04-07 19:57:37.429,56
423,2016-04-07 19:57:42.361,52
423,2016-04-07 19:57:49.703,54
423,2016-04-07 19:57:53.64,58
423,2016-04-07 19:57:57.284,62
423,2016-04-07 19:58:04.585,60
423,2016-04-07 19:58:08.702,52
423,2016-04-07 19:58:15.719,54
423,2016-04-07 19:58:23.041,52
423,2016-04-07 19:58:29.733,60
423,2016-04-07 19:59:52.841,54
423,2016-04-07 19:59:59.202,52
423,2016-04-07 20:00:06.983,54
423,2016-04-07 20:00:18.306,52
423,2016-04-07 20:00:48.121,56
423,2016-04-07 20:00:58.045,52
423,2016-04-07 20:01:03.78,54
423,2016-04-07 20:01:14.909,60
423,2016-04-07 20:01:24.482,52
423,2016-04-07 20:01:33.411,56
423,2016-04-07 20:01:36.583,52
423,2016-04-07 20:01:47.735,-4
423,2016-04-07 20:02:13.466,-2
423,2016-04-07 20:02:20.598,-4
423,2016-04-07 20:02:36.371,-2
423,2016-04-07 20:02:40.064,54
423,2016-04-07 20:03:03.052,52
423,2016-04-07 20:03:13.874,54
423,2016-04-07 20:03:19.724,62
423,2016-04-07 20:03:29.92,52
423,2016-04-07 20:04:00.038,54
423,2016-04-07 20:04:01.552,52
423,2016-04-07 20:04:21.788,60
423,2016-04-07 20:04:31.266,52
423,2016-04-07 20:05:01.396,60
423,2016-04-07 20:05:02.807,54
423,2016-04-07 20:05:08.815,56
423,2016-04-07 20:05:10.884,54
423,2016-04-07 20:05:14.554,52
423,2016-04-07 20:05:15.805,54
423,2016-04-07 20:05:16.956,52
423,2016-04-07 20:05:18.034,56
423,2016-04-07 20:05:19.804,52
423,2016-04-07 20:05:24.241,58
423,2016-04-07 20:05:32.927,54
423,2016-04-07 20:05:39.225,52
423,2016-04-07 20:05:42.79,54
423,2016-04-07 20:05:47.946,60
423,2016-04-07 20:05:58.287,52
423,2016-04-07 20:06:17.039,54
423,2016-04-07 20:06:35.299,52
423,2016-04-07 20:06:52.891,54
423,2016-04-07 20:07:02.047,52
423,2016-04-07 20:07:05.01,56
423,2016-04-07 20:07:07.011,52
423,2016-04-07 20:07:09.317,54
423,2016-04-07 20:07:23.373,-4
423,2016-04-07 20:07:41.527,-2
423,2016-04-07 20:07:42.186,52
423,2016-04-07 20:07:58.112,54
423,2016-04-07 20:08:06.481,52
423,2016-04-07 20:08:19.837,70
423,2016-04-07 20:08:27.769,54
423,2016-04-07 20:08:37.026,52
423,2016-04-07 20:08:51.635,54
423,2016-04-07 20:09:13.729,52
423,2016-04-07 20:09:29.069,54
423,2016-04-07 20:09:34.474,60
423,2016-04-07 20:09:48.185,52
423,2016-04-07 20:10:05.332,58
423,2016-04-07 20:10:23.757,54
423,2016-04-07 20:10:39.359,52
423,2016-04-07 20:10:50.794,58
423,2016-04-07 20:11:00.958,52
423,2016-04-07 20:11:35.614,54
423,2016-04-07 20:11:44.751,52
423,2016-04-07 20:11:47.228,56
423,2016-04-07 20:11:49.049,64
423,2016-04-07 20:11:50.755,60
423,2016-04-07 20:11:52.109,62
423,2016-04-07 20:12:01.206,52
423,2016-04-07 20:12:15.727,54
423,2016-04-07 20:12:18.814,52
423,2016-04-07 20:12:38.713,54
423,2016-04-07 20:12:42.328,52
423,2016-04-07 20:13:10.883,54
423,2016-04-07 20:13:30.205,52
423,2016-04-07 20:13:41.623,-4
423,2016-04-07 20:13:59.886,-2
423,2016-04-07 20:14:02.188,54
423,2016-04-07 20:14:07.928,52
423,2016-04-07 20:14:14.92,54
423,2016-04-07 20:14:17.536,52
423,2016-04-07 20:14:24.306,54
423,2016-04-07 20:14:26.492,52
423,2016-04-07 20:14:43.576,60
423,2016-04-07 20:14:50.239,54
423,2016-04-07 20:15:02.807,52
423,2016-04-07 20:15:24.022,58
423,2016-04-07 20:15:28.674,52
423,2016-04-07 20:15:37.568,60
423,2016-04-07 20:15:46.636,56
423,2016-04-07 20:16:01.139,58
423,2016-04-07 20:16:08.669,52
423,2016-04-07 20:16:25.543,54
423,2016-04-07 20:16:31.264,52
423,2016-04-07 20:16:49.697,60
423,2016-04-07 20:16:55.368,52
423,2016-04-07 20:17:05.184,54
423,2016-04-07 20:17:11.401,52
423,2016-04-07 20:17:22.121,54
423,2016-04-07 20:17:32.258,52
423,2016-04-07 20:17:46.762,54
423,2016-04-07 20:18:10.052,52
423,2016-04-07 20:18:20.561,54
423,2016-04-07 20:18:23.166,56
423,2016-04-07 20:18:25.931,54
423,2016-04-07 20:18:29.035,52
423,2016-04-07 20:18:31.035,54
423,2016-04-07 20:18:41.598,52
423,2016-04-07 20:18:45.569,62
423,2016-04-07 20:18:50.948,58
423,2016-04-07 20:19:04.536,52
423,2016-04-07 20:19:16.38,54
423,2016-04-07 20:19:37.852,52
423,2016-04-07 20:19:41.493,54
423,2016-04-07 20:19:49.377,52
423,2016-04-07 20:19:59.17,54
423,2016-04-07 20:20:01.168,60
423,2016-04-07 20:20:03.452,52
423,2016-04-07 20:20:06.365,54
423,2016-04-07 20:20:09.365,-4
423,2016-04-07 20:20:50.591,-2
423,2016-04-07 20:21:18.551,56
423,2016-04-07 20:21:32.246,52
423,2016-04-07 20:21:34.821,54
423,2016-04-07 20:21:39.628,60
423,2016-04-07 20:21:41.766,54
423,2016-04-07 20:21:46.431,52
423,2016-04-07 20:21:50.22,54
423,2016-04-07 20:21:56.254,62
423,2016-04-07 20:22:03.431,82
423,2016-04-07 20:22:06.229,70
423,2016-04-07 20:22:13.959,52
423,2016-04-07 20:22:25.811,60
423,2016-04-07 20:22:40.378,62
423,2016-04-07 20:22:46.941,54
423,2016-04-07 20:23:01.05,52
423,2016-04-07 20:23:09.072,54
423,2016-04-07 20:23:19.604,52
423,2016-04-07 20:23:29.205,54
423,2016-04-07 20:23:36.068,58
423,2016-04-07 20:23:42.522,56
423,2016-04-07 20:23:53.485,64
423,2016-04-07 20:24:00.881,52
423,2016-04-07 20:24:11.038,54
423,2016-04-07 20:24:18.551,58
423,2016-04-07 20:24:20.64,64
423,2016-04-07 20:24:24.909,54
423,2016-04-07 20:24:39.809,62
423,2016-04-07 20:24:47.765,54
423,2016-04-07 20:24:55.943,56
423,2016-04-07 20:25:06.391,70
423,2016-04-07 20:25:10.298,54
423,2016-04-07 20:25:13.113,52
423,2016-04-07 20:25:24.072,58
423,2016-04-07 20:25:29.791,56
423,2016-04-07 20:30:32.702,-4
423,2016-04-07 20:32:33.62,-2
423,2016-04-07 20:32:35.36,52
423,2016-04-07 20:32:38.039,54
423,2016-04-07 20:32:39.585,52
423,2016-04-07 20:32:40.585,54
423,2016-04-07 20:32:51.603,52
423,2016-04-07 20:32:56.487,54
423,2016-04-07 20:33:00.384,52
423,2016-04-07 20:33:10.836,54
423,2016-04-07 20:33:21.882,52
423,2016-04-07 20:33:30.886,58
423,2016-04-07 20:33:50.905,54
423,2016-04-07 20:33:54.508,52
423,2016-04-07 20:34:05.422,56
423,2016-04-07 20:34:17.191,54
423,2016-04-07 20:34:34.654,58
423,2016-04-07 20:34:46.759,60
423,2016-04-07 20:34:50.405,58
423,2016-04-07 20:34:53.081,54
423,2016-04-07 20:34:57.476,56
423,2016-04-07 20:35:00.891,54
423,2016-04-07 20:35:05.588,64
423,2016-04-07 20:35:08.85,52
423,2016-04-07 20:35:15.83,56
423,2016-04-07 20:35:20.062,52
423,2016-04-07 20:35:23.474,54
423,2016-04-07 20:35:31.259,58
423,2016-04-07 20:35:39.087,62
423,2016-04-07 20:35:41.36,54
423,2016-04-07 20:35:56.925,58
423,2016-04-07 20:36:01.216,52
423,2016-04-07 20:36:10.124,56
423,2016-04-07 20:36:15.003,54
423,2016-04-07 20:36:23.398,62
423,2016-04-07 20:36:32.874,58
423,2016-04-07 20:36:34.763,60
423,2016-04-07 20:36:35.767,54
423,2016-04-07 20:36:36.99,64
423,2016-04-07 20:36:42.651,52
423,2016-04-07 20:37:03.591,54
423,2016-04-07 20:37:11.111,68
423,2016-04-07 20:37:14.792,54
423,2016-04-07 20:37:24.775,52
423,2016-04-07 20:37:32.0,54
423,2016-04-07 20:37:36.751,52
423,2016-04-07 20:37:52.975,54
423,2016-04-07 20:37:58.392,52
423,2016-04-07 20:38:02.187,54
423,2016-04-07 20:38:13.595,52
423,2016-04-07 20:38:17.675,54
423,2016-04-07 20:38:22.096,52
423,2016-04-07 20:38:24.279,58
423,2016-04-07 20:38:25.678,60
423,2016-04-07 20:38:27.965,62
423,2016-04-07 20:38:29.079,54
423,2016-04-07 20:38:30.286,52
423,2016-04-07 20:38:34.745,60
423,2016-04-07 20:38:37.748,52
423,2016-04-07 20:38:38.748,54
423,2016-04-07 20:38:40.748,58
423,2016-04-07 20:38:41.748,56
423,2016-04-07 20:38:42.748,54
423,2016-04-07 20:38:45.025,52
423,2016-04-07 20:38:48.024,54
423,2016-04-07 20:38:51.035,60
423,2016-04-07 20:38:52.141,58
423,2016-04-07 20:38:54.029,52
423,2016-04-07 20:38:55.245,62
423,2016-04-07 20:38:57.666,60
423,2016-04-07 20:39:00.188,54
423,2016-04-07 20:39:03.79,52
423,2016-04-07 20:39:09.741,54
423,2016-04-07 20:39:17.976,56
423,2016-04-07 20:39:22.121,70
423,2016-04-07 20:39:25.846,52
423,2016-04-07 20:39:30.184,54
423,2016-04-07 20:39:35.3,52
423,2016-04-07 20:39:52.021,54
423,2016-04-07 20:39:54.512,58
423,2016-04-07 20:39:59.612,62
423,2016-04-07 20:40:03.782,52
423,2016-04-07 20:40:09.163,62
423,2016-04-07 20:40:17.085,52
423,2016-04-07 20:40:24.766,54
423,2016-04-07 20:40:29.667,52
423,2016-04-07 20:40:32.73,54
423,2016-04-07 20:40:40.194,52
423,2016-04-07 20:40:46.839,-4
423,2016-04-07 20:41:13.727,-2
423,2016-04-07 20:41:13.768,-4
423,2016-04-07 20:41:29.371,-2
423,2016-04-07 20:41:32.012,54
423,2016-04-07 20:41:34.724,52
423,2016-04-07 20:41:44.829,56
423,2016-04-07 20:41:52.527,52
423,2016-04-07 20:41:53.547,60
423,2016-04-07 20:42:01.989,52
423,2016-04-07 20:42:09.951,56
423,2016-04-07 20:42:13.357,52
423,2016-04-07 20:42:19.586,66
423,2016-04-07 20:42:36.098,60
423,2016-04-07 20:42:39.802,56
423,2016-04-07 20:42:49.498,52
423,2016-04-07 20:42:55.895,56
423,2016-04-07 20:42:57.988,62
423,2016-04-07 20:43:00.01,56
423,2016-04-07 20:43:01.01,54
423,2016-04-07 20:43:02.01,52
423,2016-04-07 20:43:03.01,58
423,2016-04-07 20:43:04.011,60
423,2016-04-07 20:43:06.011,62
423,2016-04-07 20:43:07.012,60
423,2016-04-07 20:43:08.012,54
423,2016-04-07 20:43:10.476,52
423,2016-04-07 20:43:13.198,54
423,2016-04-07 20:43:22.073,52
423,2016-04-07 20:43:28.463,54
423,2016-04-07 20:43:30.284,56
423,2016-04-07 20:43:31.666,54
423,2016-04-07 20:43:35.672,52
423,2016-04-07 20:43:36.791,54
423,2016-04-07 20:43:38.865,52
423,2016-04-07 20:43:42.286,60
423,2016-04-07 20:43:44.583,52
423,2016-04-07 20:43:45.984,56
423,2016-04-07 20:43:49.984,52
423,2016-04-07 20:43:54.684,54
423,2016-04-07 20:44:03.38,52
423,2016-04-07 20:44:12.92,54
423,2016-04-07 20:44:21.601,64
423,2016-04-07 20:44:24.466,56
423,2016-04-07 20:44:25.467,54
423,2016-04-07 20:44:29.468,52
423,2016-04-07 20:44:39.129,54
423,2016-04-07 20:44:40.659,52
423,2016-04-07 20:44:49.004,60
423,2016-04-07 20:44:52.329,52
423,2016-04-07 20:45:03.536,54
423,2016-04-07 20:45:08.776,52
423,2016-04-07 20:45:19.101,58
423,2016-04-07 20:45:21.105,52
423,2016-04-07 20:45:26.03,-4
423,2016-04-07 20:45:38.599,-2
423,2016-04-07 20:45:39.457,58
423,2016-04-07 20:45:55.153,52
423,2016-04-07 20:45:59.474,56
423,2016-04-07 20:46:06.352,52
423,2016-04-07 20:46:19.817,54
423,2016-04-07 20:46:23.659,52
423,2016-04-07 20:46:42.959,54
423,2016-04-07 20:46:45.57,68
423,2016-04-07 20:46:48.5,60
423,2016-04-07 20:46:51.756,64
423,2016-04-07 20:46:52.756,58
423,2016-04-07 20:46:53.756,52
423,2016-04-07 20:46:54.757,60
423,2016-04-07 20:46:55.759,58
423,2016-04-07 20:46:57.76,52
423,2016-04-07 20:46:58.872,62
423,2016-04-07 20:47:01.738,64
423,2016-04-07 20:47:02.739,66
423,2016-04-07 20:47:10.743,52
423,2016-04-07 20:47:12.968,54
423,2016-04-07 20:47:16.084,58
423,2016-04-07 20:47:22.467,54
423,2016-04-07 20:47:31.158,52
423,2016-04-07 20:47:34.33,64
423,2016-04-07 20:47:42.977,52
423,2016-04-07 20:47:44.978,54
423,2016-04-07 20:47:55.504,52
423,2016-04-07 20:48:02.634,54
423,2016-04-07 20:48:08.467,52
423,2016-04-07 20:48:19.281,56
423,2016-04-07 20:48:28.716,52
423,2016-04-07 20:48:35.674,56
423,2016-04-07 20:48:36.675,52
423,2016-04-07 20:48:38.675,54
423,2016-04-07 20:48:45.97,52
423,2016-04-07 20:48:56.193,58
423,2016-04-07 20:48:59.194,56
423,2016-04-07 20:49:00.194,52
423,2016-04-07 20:49:05.196,54
423,2016-04-07 20:49:10.196,52
423,2016-04-07 20:49:12.218,54
423,2016-04-07 20:49:14.219,52
423,2016-04-07 20:49:18.246,54
423,2016-04-07 20:49:24.307,52
423,2016-04-07 20:49:28.847,54
423,2016-04-07 20:49:36.239,52
423,2016-04-07 20:49:42.266,54
423,2016-04-07 20:49:46.0,52
423,2016-04-07 20:49:48.465,54
423,2016-04-07 20:49:49.979,-4
423,2016-04-07 20:51:49.545,-2
423,2016-04-07 20:51:50.769,52
423,2016-04-07 20:51:52.255,56
423,2016-04-07 20:51:55.392,62
423,2016-04-07 20:52:07.537,56
423,2016-04-07 20:52:14.079,58
423,2016-04-07 20:52:23.899,54
423,2016-04-07 20:52:34.763,52
423,2016-04-07 20:52:48.231,54
423,2016-04-07 20:52:52.412,66
423,2016-04-07 20:52:54.412,58
423,2016-04-07 20:52:55.412,52
423,2016-04-07 20:53:13.158,58
423,2016-04-07 20:53:15.024,62
423,2016-04-07 20:53:18.708,54
423,2016-04-07 20:53:21.836,52
423,2016-04-07 20:53:30.424,60
423,2016-04-07 20:53:36.414,64
423,2016-04-07 20:53:38.385,58
423,2016-04-07 20:53:42.902,52
423,2016-04-07 20:53:48.59,68
423,2016-04-07 20:53:54.653,54
423,2016-04-07 20:54:04.582,88
423,2016-04-07 20:54:11.39,54
423,2016-04-07 20:54:18.696,-4
423,2016-04-07 20:54:35.737,-2
423,2016-04-07 20:54:45.447,60
423,2016-04-07 20:54:53.271,62
423,2016-04-07 20:55:00.075,52
423,2016-04-07 20:55:04.99,78
423,2016-04-07 20:55:16.102,54
423,2016-04-07 20:55:24.775,52
423,2016-04-07 20:55:37.413,60
423,2016-04-07 20:55:47.666,52
423,2016-04-07 20:55:55.912,54
423,2016-04-07 20:55:59.933,52
423,2016-04-07 20:56:22.165,54
423,2016-04-07 20:56:40.112,52
423,2016-04-07 20:56:53.914,60
423,2016-04-07 20:57:08.344,52
423,2016-04-07 20:57:20.877,54
423,2016-04-07 20:57:21.877,52
423,2016-04-07 20:57:24.879,54
423,2016-04-07 20:57:27.881,52
423,2016-04-07 20:57:29.486,54
423,2016-04-07 20:57:32.902,56
423,2016-04-07 20:57:34.902,64
423,2016-04-07 20:57:35.902,60
423,2016-04-07 20:57:37.903,54
423,2016-04-07 20:57:41.496,52
423,2016-04-07 20:57:44.34,54
423,2016-04-07 20:57:46.619,60
423,2016-04-07 20:57:47.97,54
423,2016-04-07 20:57:50.813,52
423,2016-04-07 20:57:57.219,54
423,2016-04-07 20:57:59.478,66
423,2016-04-07 20:58:05.418,54
423,2016-04-07 20:58:09.209,66
423,2016-04-07 20:58:10.231,60
423,2016-04-07 20:58:11.314,52
423,2016-04-07 20:58:14.928,54
423,2016-04-07 20:58:18.841,52
423,2016-04-07 20:58:22.848,54
423,2016-04-07 20:58:23.896,52
423,2016-04-07 20:58:29.227,60
423,2016-04-07 20:58:32.313,52
423,2016-04-07 20:58:39.367,54
423,2016-04-07 20:58:43.634,66
423,2016-04-07 20:58:47.099,54
423,2016-04-07 20:58:49.271,52
423,2016-04-07 20:58:57.282,54
423,2016-04-07 20:59:10.263,58
423,2016-04-07 20:59:18.326,52
423,2016-04-07 20:59:26.551,58
423,2016-04-07 20:59:27.551,64
423,2016-04-07 20:59:33.845,52
423,2016-04-07 20:59:52.741,60
423,2016-04-07 21:00:01.149,62
423,2016-04-07 21:00:02.149,56
423,2016-04-07 21:00:09.956,52
423,2016-04-07 21:00:17.892,54
423,2016-04-07 21:00:23.162,52
423,2016-04-07 21:00:26.569,54
423,2016-04-07 21:00:30.872,52
423,2016-04-07 21:00:46.263,54
423,2016-04-07 21:00:59.746,52
423,2016-04-07 21:01:22.481,66
423,2016-04-07 21:01:32.986,58
423,2016-04-07 21:01:38.219,52
423,2016-04-07 21:01:42.21,58
423,2016-04-07 21:01:47.617,52
423,2016-04-07 21:01:59.582,54
423,2016-04-07 21:02:07.724,52
423,2016-04-07 21:02:16.756,54
423,2016-04-07 21:02:27.214,52
423,2016-04-07 21:02:35.647,54
423,2016-04-07 21:02:48.574,52
423,2016-04-07 21:03:02.715,54
423,2016-04-07 21:03:11.93,52
423,2016-04-07 21:03:16.467,54
423,2016-04-07 21:03:17.641,52
423,2016-04-07 21:03:35.605,54
423,2016-04-07 21:03:45.942,58
423,2016-04-07 21:03:54.554,54
423,2016-04-07 21:04:00.979,52
423,2016-04-07 21:04:07.718,54
423,2016-04-07 21:04:18.586,62
423,2016-04-07 21:04:23.711,52
423,2016-04-07 21:04:57.414,54
423,2016-04-07 21:04:59.103,52
423,2016-04-07 21:05:12.528,54
423,2016-04-07 21:05:21.824,52
423,2016-04-07 21:05:32.715,58
423,2016-04-07 21:05:40.826,54
423,2016-04-07 21:05:47.563,52
423,2016-04-07 21:05:58.974,54
423,2016-04-07 21:06:08.453,52
423,2016-04-07 21:06:14.035,68
423,2016-04-07 21:06:24.298,52
423,2016-04-07 21:06:28.723,56
423,2016-04-07 21:06:39.709,54
423,2016-04-07 21:06:45.511,52
423,2016-04-07 21:06:46.727,54
423,2016-04-07 21:06:48.727,52
423,2016-04-07 21:07:08.047,54
423,2016-04-07 21:07:11.987,52
423,2016-04-07 21:07:27.185,54
423,2016-04-07 21:07:37.749,52
423,2016-04-07 21:07:52.108,54
423,2016-04-07 21:07:56.462,52
423,2016-04-07 21:08:01.101,54
423,2016-04-07 21:08:21.885,56
423,2016-04-07 21:08:34.156,64
423,2016-04-07 21:08:38.842,52
423,2016-04-07 21:08:49.527,62
423,2016-04-07 21:09:02.829,52
423,2016-04-07 21:09:14.248,56
423,2016-04-07 21:09:21.077,54
423,2016-04-07 21:09:32.319,56
423,2016-04-07 21:09:34.667,52
423,2016-04-07 21:09:52.461,54
423,2016-04-07 21:09:54.09,52
423,2016-04-07 21:10:09.697,56
423,2016-04-07 21:10:18.763,54
423,2016-04-07 21:10:26.418,52
423,2016-04-07 21:10:36.105,-4
423,2016-04-07 21:10:58.943,-2
423,2016-04-07 21:11:03.106,54
423,2016-04-07 21:11:07.359,52
423,2016-04-07 21:11:20.945,54
423,2016-04-07 21:11:26.202,52
423,2016-04-07 21:11:30.354,54
423,2016-04-07 21:11:46.737,70
423,2016-04-07 21:11:52.712,54
423,2016-04-07 21:11:55.04,52
423,2016-04-07 21:12:25.825,54
423,2016-04-07 21:12:29.904,68
423,2016-04-07 21:12:31.019,60
423,2016-04-07 21:12:32.646,58
423,2016-04-07 21:12:33.7,52
423,2016-04-07 21:12:36.144,56
423,2016-04-07 21:12:50.343,70
423,2016-04-07 21:12:54.787,52
423,2016-04-07 21:13:00.574,58
423,2016-04-07 21:13:02.856,54
423,2016-04-07 21:13:08.479,56
423,2016-04-07 21:13:25.055,52
423,2016-04-07 21:13:32.989,58
423,2016-04-07 21:13:38.16,52
423,2016-04-07 21:13:56.938,54
423,2016-04-07 21:14:10.185,52
423,2016-04-07 21:14:12.971,54
423,2016-04-07 21:14:13.971,52
423,2016-04-07 21:14:14.971,54
423,2016-04-07 21:14:15.971,52
423,2016-04-07 21:14:17.532,60
423,2016-04-07 21:14:19.447,54
423,2016-04-07 21:14:22.678,56
423,2016-04-07 21:14:24.38,52
423,2016-04-07 21:14:27.676,60
423,2016-04-07 21:14:31.825,52
423,2016-04-07 21:14:33.271,56
423,2016-04-07 21:14:36.404,62
423,2016-04-07 21:14:38.423,54
423,2016-04-07 21:14:49.629,52
423,2016-04-07 21:14:52.884,62
423,2016-04-07 21:14:54.097,54
423,2016-04-07 21:14:55.112,52
423,2016-04-07 21:14:58.113,54
423,2016-04-07 21:14:59.113,52
423,2016-04-07 21:15:01.024,54
423,2016-04-07 21:15:07.283,52
423,2016-04-07 21:15:16.421,58
423,2016-04-07 21:15:17.688,60
423,2016-04-07 21:15:26.251,52
423,2016-04-07 21:15:35.475,54
423,2016-04-07 21:15:37.566,56
423,2016-04-07 21:15:38.793,54
423,2016-04-07 21:15:50.728,52
423,2016-04-07 21:15:58.59,58
423,2016-04-07 21:16:10.531,54
423,2016-04-07 21:16:16.638,56
423,2016-04-07 21:16:22.942,62
423,2016-04-07 21:16:31.994,54
423,2016-04-07 21:16:35.43,52
423,2016-04-07 21:16:36.636,58
423,2016-04-07 21:16:48.255,52
423,2016-04-07 21:16:53.154,54
423,2016-04-07 21:17:13.942,52
423,2016-04-07 21:17:33.156,54
423,2016-04-07 21:17:34.779,52
423,2016-04-07 21:17:36.024,60
423,2016-04-07 21:17:53.848,62
423,2016-04-07 21:18:01.819,52
423,2016-04-07 21:18:14.677,58
423,2016-04-07 21:18:16.977,52
423,2016-04-07 21:18:29.807,56
423,2016-04-07 21:18:36.424,52
423,2016-04-07 21:18:41.838,56
423,2016-04-07 21:18:53.263,-4
423,2016-04-07 21:19:21.667,-2
423,2016-04-07 21:20:38.331,-4
423,2016-04-07 21:20:49.637,-2
423,2016-04-07 21:20:49.952,54
423,2016-04-07 21:20:56.259,52
423,2016-04-07 21:20:59.374,56
423,2016-04-07 21:21:02.139,62
423,2016-04-07 21:21:05.791,56
423,2016-04-07 21:21:07.116,58
423,2016-04-07 21:21:09.654,52
423,2016-04-07 21:21:13.345,56
423,2016-04-07 21:21:17.76,52
423,2016-04-07 21:21:21.736,54
423,2016-04-07 21:21:22.736,52
423,2016-04-07 21:21:23.739,54
423,2016-04-07 21:21:33.592,52
423,2016-04-07 21:21:52.152,54
423,2016-04-07 21:21:54.305,52
423,2016-04-07 21:22:11.925,54
423,2016-04-07 21:22:19.543,60
423,2016-04-07 21:22:24.306,52
423,2016-04-07 21:22:30.234,-4
423,2016-04-07 21:22:51.1,-2
423,2016-04-07 21:23:02.201,54
423,2016-04-07 21:23:08.184,64
423,2016-04-07 21:24:09.705,60
423,2016-04-07 21:24:12.673,64
423,2016-04-07 21:24:14.458,56
423,2016-04-07 21:24:15.458,58
423,2016-04-07 21:24:18.998,56
423,2016-04-07 21:24:27.694,54
423,2016-04-07 21:24:39.408,52
423,2016-04-07 21:24:59.335,54
423,2016-04-07 21:25:07.153,52
423,2016-04-07 21:25:10.881,54
423,2016-04-07 21:25:13.882,52
423,2016-04-07 21:25:17.883,62
423,2016-04-07 21:25:19.883,52
423,2016-04-07 21:25:20.884,54
423,2016-04-07 21:25:21.885,52
423,2016-04-07 21:25:26.886,54
423,2016-04-07 21:25:27.886,52
423,2016-04-07 21:25:29.887,54
423,2016-04-07 21:25:30.887,56
423,2016-04-07 21:25:31.887,52
423,2016-04-07 21:25:32.888,54
423,2016-04-07 21:25:35.421,60
423,2016-04-07 21:25:39.747,52
423,2016-04-07 21:25:44.005,54
423,2016-04-07 21:25:46.372,52
423,2016-04-07 21:25:47.975,60
423,2016-04-07 21:25:51.415,64
423,2016-04-07 21:25:53.432,62
423,2016-04-07 21:25:57.211,52
423,2016-04-07 21:26:02.076,54
423,2016-04-07 21:26:06.907,52
423,2016-04-07 21:26:09.334,54
423,2016-04-07 21:26:13.673,52
423,2016-04-07 21:26:17.184,54
423,2016-04-07 21:26:20.165,52
423,2016-04-07 21:26:26.921,60
423,2016-04-07 21:26:28.86,52
423,2016-04-07 21:26:30.918,56
423,2016-04-07 21:26:35.697,60
423,2016-04-07 21:26:40.074,54
423,2016-04-07 21:26:53.805,62
423,2016-04-07 21:26:56.339,54
423,2016-04-07 21:27:02.209,52
423,2016-04-07 21:27:16.094,54
423,2016-04-07 21:27:21.574,52
423,2016-04-07 21:27:28.619,60
423,2016-04-07 21:27:32.734,52
423,2016-04-07 21:27:40.072,54
423,2016-04-07 21:27:51.457,64
423,2016-04-07 21:27:56.238,60
423,2016-04-07 21:28:06.557,54
423,2016-04-07 21:28:13.606,52
423,2016-04-07 21:28:30.049,54
423,2016-04-07 21:28:32.158,52
423,2016-04-07 21:28:53.976,54
423,2016-04-07 21:28:57.162,52
423,2016-04-07 21:29:09.934,56
423,2016-04-07 21:29:14.08,62
423,2016-04-07 21:29:18.909,54
423,2016-04-07 21:29:26.257,56
423,2016-04-07 21:29:34.832,54
423,2016-04-07 21:29:36.833,58
423,2016-04-07 21:29:39.162,60
423,2016-04-07 21:29:58.139,58
423,2016-04-07 21:30:02.605,52
423,2016-04-07 21:30:20.014,62
423,2016-04-07 21:30:29.404,64
423,2016-04-07 21:30:32.293,54
423,2016-04-07 21:30:37.048,52
423,2016-04-07 21:30:50.964,58
423,2016-04-07 21:31:53.722,54
423,2016-04-07 21:31:55.722,52
423,2016-04-07 21:31:58.723,54
423,2016-04-07 21:32:00.106,52
423,2016-04-07 21:32:18.031,-4
423,2016-04-07 21:32:53.281,-2
423,2016-04-07 21:32:57.999,60
423,2016-04-07 21:32:59.065,54
423,2016-04-07 21:33:00.065,52
423,2016-04-07 21:33:03.271,54
423,2016-04-07 21:33:10.314,52
423,2016-04-07 21:33:24.629,54
423,2016-04-07 21:33:27.629,52
423,2016-04-07 21:33:36.146,56
423,2016-04-07 21:33:43.594,52
423,2016-04-07 21:33:52.203,54
423,2016-04-07 21:34:02.74,52
423,2016-04-07 21:34:12.764,62
423,2016-04-07 21:34:14.764,52
423,2016-04-07 21:34:20.309,54
423,2016-04-07 21:34:25.748,52
423,2016-04-07 21:34:31.023,54
423,2016-04-07 21:34:36.857,52
423,2016-04-07 21:34:38.337,54
423,2016-04-07 21:34:40.338,56
423,2016-04-07 21:34:42.338,52
423,2016-04-07 21:34:43.338,54
423,2016-04-07 21:34:45.339,52
423,2016-04-07 21:34:49.401,54
423,2016-04-07 21:34:59.073,52
423,2016-04-07 21:35:04.72,54
423,2016-04-07 21:35:06.056,58
423,2016-04-07 21:35:08.889,52
423,2016-04-07 21:35:11.709,54
423,2016-04-07 21:35:14.558,52
423,2016-04-07 21:35:21.49,54
423,2016-04-07 21:35:36.532,58
423,2016-04-07 21:35:40.116,54
423,2016-04-07 21:35:44.614,62
423,2016-04-07 21:35:52.544,56
423,2016-04-07 21:35:58.942,54
423,2016-04-07 21:36:03.11,62
423,2016-04-07 21:36:04.432,60
423,2016-04-07 21:36:05.433,62
423,2016-04-07 21:36:07.433,66
423,2016-04-07 21:36:08.436,56
423,2016-04-07 21:36:17.856,54
423,2016-04-07 21:36:29.267,52
423,2016-04-07 21:36:32.174,54
423,2016-04-07 21:36:33.213,52
423,2016-04-07 21:36:46.735,60
423,2016-04-07 21:36:53.962,52
423,2016-04-07 21:37:03.805,54
423,2016-04-07 21:37:06.808,60
423,2016-04-07 21:37:12.754,52
423,2016-04-07 21:37:18.181,54
423,2016-04-07 21:37:22.408,56
423,2016-04-07 21:37:28.398,60
423,2016-04-07 21:37:40.106,52
423,2016-04-07 21:39:51.142,54
423,2016-04-07 21:39:55.325,52
423,2016-04-07 21:40:03.296,54
423,2016-04-07 21:40:06.57,52
423,2016-04-07 21:40:08.066,54
423,2016-04-07 21:40:15.271,52
423,2016-04-07 21:40:24.619,60
423,2016-04-07 21:40:26.619,52
423,2016-04-07 21:40:29.145,54
423,2016-04-07 21:40:49.245,52
423,2016-04-07 21:40:51.246,54
423,2016-04-07 21:40:54.102,52
423,2016-04-07 21:41:07.791,54
423,2016-04-07 21:41:08.896,56
423,2016-04-07 21:41:18.843,52
423,2016-04-07 21:41:23.645,64
423,2016-04-07 21:41:31.003,58
423,2016-04-07 21:41:34.617,54
423,2016-04-07 21:41:45.056,52
423,2016-04-07 21:41:54.277,54
423,2016-04-07 21:41:56.387,52
423,2016-04-07 21:41:58.388,58
423,2016-04-07 21:42:09.554,54
423,2016-04-07 21:42:12.64,52
423,2016-04-07 21:42:32.121,62
423,2016-04-07 21:42:44.135,52
423,2016-04-07 21:42:49.242,68
423,2016-04-07 21:42:52.575,52
423,2016-04-07 21:43:07.423,-4
423,2016-04-07 21:43:23.104,-2
423,2016-04-07 21:43:23.533,54
423,2016-04-07 21:43:44.072,58
423,2016-04-07 21:43:47.633,52
423,2016-04-07 21:43:50.649,62
423,2016-04-07 21:43:57.262,58
423,2016-04-07 21:43:59.999,54
423,2016-04-07 21:44:14.691,52
423,2016-04-07 21:44:29.181,56
423,2016-04-07 21:45:14.11,62
423,2016-04-07 21:45:15.584,52
423,2016-04-07 21:45:17.585,66
423,2016-04-07 21:45:19.585,60
423,2016-04-07 21:45:20.585,54
423,2016-04-07 21:45:21.585,52
423,2016-04-07 21:45:24.585,-4
423,2016-04-07 21:45:42.838,-2
423,2016-04-07 21:45:49.218,54
423,2016-04-07 21:45:50.528,52
423,2016-04-07 21:45:58.137,54
423,2016-04-07 21:46:03.79,52
423,2016-04-07 21:46:15.764,54
423,2016-04-07 21:46:19.393,52
423,2016-04-07 21:46:41.739,62
423,2016-04-07 21:46:52.351,52
423,2016-04-07 21:46:57.1,56
423,2016-04-07 21:47:04.819,52
423,2016-04-07 21:47:20.217,54
423,2016-04-07 21:47:21.219,52
423,2016-04-07 21:47:34.608,58
423,2016-04-07 21:47:41.228,54
423,2016-04-07 21:47:47.44,52
423,2016-04-07 21:48:01.874,60
423,2016-04-07 21:48:09.018,52
423,2016-04-07 21:48:26.458,54
423,2016-04-07 21:48:33.223,52
423,2016-04-07 21:48:43.902,54
423,2016-04-07 21:48:50.098,52
423,2016-04-07 21:48:57.201,-4
423,2016-04-07 21:49:28.68,-2
423,2016-04-07 21:49:35.325,56
423,2016-04-07 21:49:50.524,54
423,2016-04-07 21:49:57.306,60
423,2016-04-07 21:50:03.063,54
423,2016-04-07 21:50:14.971,56
423,2016-04-07 21:50:37.573,52
423,2016-04-07 21:50:53.257,54
423,2016-04-07 21:50:59.551,52
423,2016-04-07 21:51:02.168,54
423,2016-04-07 21:51:20.248,52
423,2016-04-07 21:51:32.726,54
423,2016-04-07 21:51:52.437,60
423,2016-04-07 21:51:53.897,54
423,2016-04-07 21:51:54.897,52
423,2016-04-07 21:51:56.976,54
423,2016-04-07 21:51:58.977,52
423,2016-04-07 21:52:05.643,88
423,2016-04-07 21:52:07.999,64
423,2016-04-07 21:52:08.999,56
423,2016-04-07 21:52:13.6,52
423,2016-04-07 21:52:22.113,58
423,2016-04-07 21:52:33.873,-4
423,2016-04-07 21:52:43.702,-2
423,2016-04-07 21:52:49.003,54
423,2016-04-07 21:53:03.442,52
423,2016-04-07 21:53:09.929,62
423,2016-04-07 21:53:22.624,52
423,2016-04-07 21:53:27.455,58
423,2016-04-07 21:53:39.395,54
423,2016-04-07 21:53:45.416,52
423,2016-04-07 21:53:46.779,62
423,2016-04-07 21:53:56.859,58
423,2016-04-07 21:54:07.061,54
423,2016-04-07 21:54:10.242,64
423,2016-04-07 21:54:17.238,54
423,2016-04-07 21:54:18.613,56
423,2016-04-07 21:54:19.664,62
423,2016-04-07 21:54:27.718,52
423,2016-04-07 21:54:40.583,54
423,2016-04-07 21:55:08.753,56
423,2016-04-07 21:55:19.117,52
423,2016-04-07 21:56:14.287,54
423,2016-04-07 21:56:15.613,52
423,2016-04-07 21:56:17.613,54
423,2016-04-07 21:56:18.946,56
423,2016-04-07 21:56:20.39,54
423,2016-04-07 21:56:23.181,52
423,2016-04-07 21:56:26.681,60
423,2016-04-07 21:56:40.466,54
423,2016-04-07 21:56:42.216,60
423,2016-04-07 21:56:52.431,52
423,2016-04-07 21:56:55.451,56
423,2016-04-07 21:57:13.497,52
423,2016-04-07 21:57:16.237,56
423,2016-04-07 21:57:36.917,52
423,2016-04-07 21:57:41.814,54
423,2016-04-07 21:57:49.67,60
423,2016-04-07 21:57:53.753,58
423,2016-04-07 21:57:55.999,52
423,2016-04-07 21:58:16.589,58
423,2016-04-07 21:58:17.659,60
423,2016-04-07 21:58:18.659,54
423,2016-04-07 21:58:20.659,52
423,2016-04-07 21:58:37.711,54
423,2016-04-07 21:58:45.537,52
423,2016-04-07 21:58:51.238,54
423,2016-04-07 21:59:05.479,60
423,2016-04-07 21:59:11.459,52
423,2016-04-07 21:59:16.525,64
423,2016-04-07 21:59:26.608,52
423,2016-04-07 21:59:30.465,54
423,2016-04-07 21:59:45.277,58
423,2016-04-07 21:59:53.201,52
423,2016-04-07 22:00:06.687,58
423,2016-04-07 22:00:10.069,52
423,2016-04-07 22:00:20.295,54
423,2016-04-07 22:00:21.684,52
423,2016-04-07 22:00:30.189,54
423,2016-04-07 22:00:38.682,56
423,2016-04-07 22:00:40.684,-4
423,2016-04-07 22:01:00.832,-2
423,2016-04-07 22:01:01.065,-4
423,2016-04-07 22:01:30.827,-2
423,2016-04-07 22:01:37.057,52
423,2016-04-07 22:01:43.403,54
423,2016-04-07 22:01:44.595,56
423,2016-04-07 22:01:45.595,52
423,2016-04-07 22:01:57.907,68
423,2016-04-07 22:02:13.664,54
423,2016-04-07 22:02:21.658,52
423,2016-04-07 22:02:31.809,54
423,2016-04-07 22:02:39.964,58
423,2016-04-07 22:02:49.769,54
423,2016-04-07 22:02:59.073,56
423,2016-04-07 22:03:07.853,52
423,2016-04-07 22:03:11.854,60
423,2016-04-07 22:03:13.701,62
423,2016-04-07 22:03:14.951,52
423,2016-04-07 22:03:36.983,58
423,2016-04-07 22:03:44.223,54
423,2016-04-07 22:03:45.265,60
423,2016-04-07 22:03:48.266,58
423,2016-04-07 22:03:49.267,54
423,2016-04-07 22:04:02.899,52
423,2016-04-07 22:04:09.925,54
423,2016-04-07 22:04:32.872,52
423,2016-04-07 22:04:38.543,54
423,2016-04-07 22:04:46.987,52
423,2016-04-07 22:04:54.545,54
423,2016-04-07 22:05:08.244,52
423,2016-04-07 22:05:14.035,78
423,2016-04-07 22:05:15.835,80
423,2016-04-07 22:05:16.951,70
423,2016-04-07 22:05:19.781,58
423,2016-04-07 22:05:35.823,54
423,2016-04-07 22:07:22.869,-4
423,2016-04-07 22:07:37.889,-2
423,2016-04-07 22:07:38.781,58
423,2016-04-07 22:07:41.818,54
423,2016-04-07 22:07:43.103,52
423,2016-04-07 22:07:49.921,54
423,2016-04-07 22:07:56.006,56
423,2016-04-07 22:08:02.398,52
423,2016-04-07 22:08:14.827,54
423,2016-04-07 22:08:31.776,52
423,2016-04-07 22:08:38.358,64
423,2016-04-07 22:08:46.787,52
423,2016-04-07 22:08:52.854,66
423,2016-04-07 22:08:56.046,58
423,2016-04-07 22:09:01.308,52
423,2016-04-07 22:09:16.778,56
423,2016-04-07 22:13:56.07,-2
423,2016-04-07 22:14:06.211,52
423,2016-04-07 22:14:11.855,54
423,2016-04-07 22:14:28.51,52
423,2016-04-07 22:14:39.954,54
423,2016-04-07 22:14:49.458,52
423,2016-04-07 22:14:59.973,56
423,2016-04-07 22:15:04.207,52
423,2016-04-07 22:15:20.251,56
423,2016-04-07 22:15:24.904,60
423,2016-04-07 22:15:32.459,52
423,2016-04-07 22:15:41.092,54
423,2016-04-07 22:15:49.87,52
423,2016-04-07 22:16:11.952,54
423,2016-04-07 22:16:27.239,52
423,2016-04-07 22:16:39.208,54
423,2016-04-07 22:16:53.795,52
423,2016-04-07 22:17:12.225,60
423,2016-04-07 22:17:14.388,56
423,2016-04-07 22:17:17.379,52
423,2016-04-07 22:17:26.895,54
423,2016-04-07 22:17:33.103,52
423,2016-04-07 22:17:37.74,54
423,2016-04-07 22:17:41.686,60
423,2016-04-07 22:17:46.427,62
423,2016-04-07 22:17:53.148,60
423,2016-04-07 22:17:58.908,56
423,2016-04-07 22:18:02.303,58
423,2016-04-07 22:18:11.692,52
423,2016-04-07 22:18:20.162,62
423,2016-04-07 22:18:22.019,52
423,2016-04-07 22:18:30.961,58
423,2016-04-07 22:18:36.474,-4
423,2016-04-07 22:18:47.954,-2
423,2016-04-07 22:18:48.49,54
423,2016-04-07 22:18:56.476,52
423,2016-04-07 22:19:05.779,64
423,2016-04-07 22:19:10.65,56
423,2016-04-07 22:19:20.351,54
423,2016-04-07 22:19:33.763,62
423,2016-04-07 22:19:39.079,52
423,2016-04-07 22:19:47.953,54
423,2016-04-07 22:19:54.156,52
423,2016-04-07 22:20:06.529,54
423,2016-04-07 22:20:13.687,52
423,2016-04-07 22:20:20.317,66
423,2016-04-07 22:20:23.334,54
423,2016-04-07 22:20:27.405,58
423,2016-04-07 22:20:31.317,52
423,2016-04-07 22:20:32.961,54
423,2016-04-07 22:20:33.961,52
423,2016-04-07 22:20:52.67,60
423,2016-04-07 22:21:16.066,58
423,2016-04-07 22:21:18.343,52
423,2016-04-07 22:21:21.418,54
423,2016-04-07 22:21:23.667,52
423,2016-04-07 22:21:26.873,60
423,2016-04-07 22:21:33.109,52
423,2016-04-07 22:21:42.67,54
423,2016-04-07 22:21:52.914,52
423,2016-04-07 22:21:54.303,54
423,2016-04-07 22:22:18.294,58
423,2016-04-07 22:22:28.842,54
423,2016-04-07 22:22:31.749,52
423,2016-04-07 22:22:33.25,54
423,2016-04-07 22:22:36.27,52
423,2016-04-07 22:22:54.709,54
423,2016-04-07 22:23:02.988,58
423,2016-04-07 22:23:06.215,56
423,2016-04-07 22:23:15.9,54
423,2016-04-07 22:23:17.701,56
423,2016-04-07 22:23:20.013,54
423,2016-04-07 22:23:22.108,60
423,2016-04-07 22:23:30.846,52
423,2016-04-07 22:25:12.151,-4
423,2016-04-07 22:25:43.001,-2
423,2016-04-07 22:25:43.55,62
423,2016-04-07 22:25:46.603,52
423,2016-04-07 22:25:49.603,54
423,2016-04-07 22:25:54.401,52
423,2016-04-07 22:25:56.481,60
423,2016-04-07 22:25:58.481,56
423,2016-04-07 22:26:00.574,60
423,2016-04-07 22:26:02.777,62
423,2016-04-07 22:26:03.787,54
423,2016-04-07 22:26:08.768,52
423,2016-04-07 22:26:11.771,54
423,2016-04-07 22:26:12.843,52
423,2016-04-07 22:27:34.132,54
423,2016-04-07 22:27:45.866,52
423,2016-04-07 22:27:56.502,54
423,2016-04-07 22:28:20.311,52
423,2016-04-07 22:28:29.871,54
423,2016-04-07 22:28:42.132,60
423,2016-04-07 22:28:51.146,62
423,2016-04-07 22:29:02.162,-4
423,2016-04-07 22:29:27.029,-2
423,2016-04-07 22:29:29.667,-4
423,2016-04-07 22:29:50.733,-2
423,2016-04-07 22:29:52.068,-4
423,2016-04-07 22:30:22.884,-2
423,2016-04-07 22:30:36.221,54
423,2016-04-07 22:30:49.905,52
423,2016-04-07 22:30:51.478,-4
423,2016-04-07 22:31:30.376,-2
423,2016-04-07 22:31:31.881,86
423,2016-04-07 22:31:34.775,78
423,2016-04-07 22:31:36.997,54
423,2016-04-07 22:31:38.672,56
423,2016-04-07 22:31:42.599,54
423,2016-04-07 22:31:45.988,52
423,2016-04-07 22:32:04.08,54
423,2016-04-07 22:32:20.019,60
423,2016-04-07 22:32:28.702,56
423,2016-04-07 22:32:45.723,52
423,2016-04-07 22:32:58.017,66
423,2016-04-07 22:33:11.621,54
423,2016-04-07 22:33:34.808,60
423,2016-04-07 22:33:53.699,62
423,2016-04-07 22:34:03.508,54
423,2016-04-07 22:34:31.316,52
423,2016-04-07 22:34:39.22,54
423,2016-04-07 22:34:49.172,56
423,2016-04-07 22:34:55.955,52
423,2016-04-07 22:35:12.126,54
423,2016-04-07 22:35:18.747,52
423,2016-04-07 22:35:28.03,54
423,2016-04-07 22:35:36.757,-4
423,2016-04-07 22:36:06.358,-2
423,2016-04-07 22:36:08.738,-4
423,2016-04-07 22:36:34.019,-2
423,2016-04-07 22:36:47.209,56
423,2016-04-07 22:36:58.377,62
423,2016-04-07 22:37:07.737,56
423,2016-04-07 22:37:23.971,52
423,2016-04-07 22:37:40.528,-4
423,2016-04-07 22:38:14.351,-2
423,2016-04-07 22:38:21.2,54
423,2016-04-07 22:38:23.984,52
423,2016-04-07 22:38:30.435,54
423,2016-04-07 22:38:31.836,52
423,2016-04-07 22:38:37.505,-4
423,2016-04-07 22:40:15.28,-3
423,2016-04-07 22:40:15.79,-3
423,2016-04-07 22:40:15.795,-3
423,2016-04-07 22:40:16.05,-3
423,2016-04-07 22:40:16.087,-3
423,2016-04-07 22:40:16.087,-3
423,2016-04-07 22:40:16.087,-3
423,2016-04-07 22:40:16.092,-3
423,2016-04-07 22:40:16.108,-3
423,2016-04-07 22:40:16.255,-3
423,2016-04-07 22:41:58.273,-2
423,2016-04-07 22:42:05.905,52
423,2016-04-07 22:42:14.861,56
423,2016-04-07 22:42:20.94,64
423,2016-04-07 22:42:25.146,54
423,2016-04-07 22:42:29.067,52
423,2016-04-07 22:42:42.916,54
423,2016-04-07 22:42:48.036,52
423,2016-04-07 22:42:50.777,54
423,2016-04-07 22:42:51.777,52
423,2016-04-07 22:42:57.095,54
423,2016-04-07 22:42:59.866,52
423,2016-04-07 22:43:08.82,54
423,2016-04-07 22:43:21.933,52
423,2016-04-07 22:43:27.13,54
423,2016-04-07 22:43:33.042,52
423,2016-04-07 22:43:36.283,54
423,2016-04-07 22:43:38.284,52
423,2016-04-07 22:43:46.436,56
423,2016-04-07 22:43:52.436,54
423,2016-04-07 22:43:54.868,52
423,2016-04-07 22:44:05.675,54
423,2016-04-07 22:44:17.644,56
423,2016-04-07 22:44:24.699,54
423,2016-04-07 22:44:28.828,58
423,2016-04-07 22:44:39.537,54
423,2016-04-07 22:44:45.49,52
423,2016-04-07 22:44:47.833,54
423,2016-04-07 22:44:51.009,52
423,2016-04-07 22:44:53.989,62
423,2016-04-07 22:44:55.983,72
423,2016-04-07 22:45:04.622,52
423,2016-04-07 22:45:12.251,62
423,2016-04-07 22:45:25.965,52
423,2016-04-07 22:45:33.618,54
423,2016-04-07 22:45:41.443,52
423,2016-04-07 22:45:48.099,54
423,2016-04-07 22:46:00.339,56
423,2016-04-07 22:46:03.296,52
423,2016-04-07 22:46:10.139,54
423,2016-04-07 22:46:23.342,52
423,2016-04-07 22:46:30.557,58
423,2016-04-07 22:46:42.984,52
423,2016-04-07 22:46:49.408,54
423,2016-04-07 22:47:03.159,56
423,2016-04-07 22:47:06.658,52
423,2016-04-07 22:47:20.495,54
423,2016-04-07 22:47:27.673,56
423,2016-04-07 22:47:29.943,52
423,2016-04-07 22:47:33.332,54
423,2016-04-07 22:47:35.603,52
423,2016-04-07 22:47:37.606,54
423,2016-04-07 22:47:39.639,62
423,2016-04-07 22:47:40.639,60
423,2016-04-07 22:47:41.868,52
423,2016-04-07 22:47:43.449,70
423,2016-04-07 22:47:45.864,62
423,2016-04-07 22:47:46.864,52
423,2016-04-07 22:47:48.864,54
423,2016-04-07 22:47:58.857,58
423,2016-04-07 22:48:03.766,52
423,2016-04-07 22:48:09.638,54
423,2016-04-07 22:48:15.515,52
423,2016-04-07 22:48:37.218,56
423,2016-04-07 22:48:38.716,62
423,2016-04-07 22:48:40.887,60
423,2016-04-07 22:48:41.887,62
423,2016-04-07 22:49:02.058,52
423,2016-04-07 22:49:10.299,54
423,2016-04-07 22:49:11.3,52
423,2016-04-07 22:49:18.302,54
423,2016-04-07 22:49:33.653,62
423,2016-04-07 22:49:34.93,60
423,2016-04-07 22:49:36.29,52
423,2016-04-07 22:49:47.753,54
423,2016-04-07 22:49:50.245,56
423,2016-04-07 22:49:51.655,52
423,2016-04-07 22:49:55.186,54
423,2016-04-07 22:50:00.492,52
423,2016-04-07 22:50:06.98,58
423,2016-04-07 22:50:10.125,56
423,2016-04-07 22:50:13.572,62
423,2016-04-07 22:50:17.628,52
423,2016-04-07 22:50:26.869,58
423,2016-04-07 22:50:30.026,64
423,2016-04-07 22:50:36.798,52
423,2016-04-07 22:50:45.585,54
423,2016-04-07 22:50:47.525,60
423,2016-04-07 22:51:03.575,62
423,2016-04-07 22:51:06.933,54
423,2016-04-07 22:51:11.969,52
423,2016-04-07 22:51:29.275,54
423,2016-04-07 22:51:38.306,52
423,2016-04-07 22:51:47.866,54
423,2016-04-07 22:51:54.468,52
423,2016-04-07 22:52:00.924,54
423,2016-04-07 22:52:11.236,52
423,2016-04-07 22:52:24.006,54
423,2016-04-07 22:52:35.754,52
423,2016-04-07 22:52:40.311,54
423,2016-04-07 22:52:47.665,56
423,2016-04-07 22:53:04.318,52
423,2016-04-07 22:53:15.962,54
423,2016-04-07 22:53:21.158,52
423,2016-04-07 22:53:34.551,54
423,2016-04-07 22:53:41.695,52
423,2016-04-07 22:53:47.466,54
423,2016-04-07 22:54:01.741,52
423,2016-04-07 22:54:06.002,54
423,2016-04-07 22:54:09.686,62
423,2016-04-07 22:54:16.031,52
423,2016-04-07 22:54:29.499,54
423,2016-04-07 22:54:36.678,52
423,2016-04-07 22:54:56.732,56
423,2016-04-07 22:55:27.523,54
423,2016-04-07 22:55:29.697,52
423,2016-04-07 22:55:31.71,56
423,2016-04-07 22:55:34.004,60
423,2016-04-07 22:55:51.894,52
423,2016-04-07 22:56:08.462,54
423,2016-04-07 22:56:13.653,-4
423,2016-04-07 22:57:10.418,-2
423,2016-04-07 22:57:17.782,52
423,2016-04-07 22:57:27.428,54
423,2016-04-07 22:57:44.982,58
423,2016-04-07 22:57:50.738,54
423,2016-04-07 22:57:53.475,52
423,2016-04-07 22:57:57.41,54
423,2016-04-07 22:57:58.411,58
423,2016-04-07 22:58:00.56,54
423,2016-04-07 22:58:03.622,52
423,2016-04-07 22:58:06.592,56
423,2016-04-07 22:58:11.694,52
423,2016-04-07 22:58:18.147,54
423,2016-04-07 22:58:25.694,52
423,2016-04-07 22:58:37.68,54
423,2016-04-07 22:58:47.222,56
423,2016-04-07 22:58:58.445,54
423,2016-04-07 22:59:10.657,52
423,2016-04-07 22:59:37.771,54
423,2016-04-07 22:59:39.174,52
423,2016-04-07 22:59:40.484,58
423,2016-04-07 22:59:55.988,60
423,2016-04-07 22:59:58.178,62
423,2016-04-07 22:59:59.179,68
423,2016-04-07 23:00:00.179,70
423,2016-04-07 23:00:01.179,60
423,2016-04-07 23:00:02.179,54
423,2016-04-07 23:00:03.573,-4
423,2016-04-07 23:00:27.254,-2
423,2016-04-07 23:00:45.167,52
423,2016-04-07 23:00:52.524,54
423,2016-04-07 23:00:54.778,56
423,2016-04-07 23:01:00.372,-4
423,2016-04-07 23:01:44.81,-2
423,2016-04-07 23:01:46.643,52
423,2016-04-07 23:01:49.496,62
423,2016-04-07 23:01:50.982,78
423,2016-04-07 23:01:52.561,88
423,2016-04-07 23:01:54.331,58
423,2016-04-07 23:01:56.202,52
423,2016-04-07 23:01:57.68,56
423,2016-04-07 23:01:59.68,52
423,2016-04-07 23:02:01.723,54
423,2016-04-07 23:02:08.952,52
423,2016-04-07 23:02:13.54,54
423,2016-04-07 23:02:19.826,58
423,2016-04-07 23:02:23.784,62
423,2016-04-07 23:02:27.048,54
423,2016-04-07 23:02:31.359,58
423,2016-04-07 23:02:36.878,54
423,2016-04-07 23:02:38.714,-4
423,2016-04-07 23:03:23.846,-2
423,2016-04-07 23:03:27.696,60
423,2016-04-07 23:03:40.838,54
423,2016-04-07 23:03:43.91,62
423,2016-04-07 23:03:45.912,60
423,2016-04-07 23:04:02.203,54
423,2016-04-07 23:04:12.219,52
423,2016-04-07 23:04:21.449,56
423,2016-04-07 23:04:26.816,54
423,2016-04-07 23:04:31.515,52
423,2016-04-07 23:04:38.781,54
423,2016-04-07 23:04:47.774,-4
423,2016-04-07 23:05:12.924,-2
423,2016-04-07 23:05:17.287,52
423,2016-04-07 23:05:34.901,54
423,2016-04-07 23:05:40.525,52
423,2016-04-07 23:05:45.997,54
423,2016-04-07 23:05:58.485,52
423,2016-04-07 23:06:07.997,54
423,2016-04-07 23:06:17.953,52
423,2016-04-07 23:06:24.572,66
423,2016-04-07 23:06:30.564,52
423,2016-04-07 23:06:32.553,58
423,2016-04-07 23:06:36.326,54
423,2016-04-07 23:06:57.53,56
423,2016-04-07 23:07:02.248,60
423,2016-04-07 23:07:10.486,52
423,2016-04-07 23:07:16.446,54
423,2016-04-07 23:08:34.447,52
423,2016-04-07 23:08:37.347,54
423,2016-04-07 23:08:39.23,52
423,2016-04-07 23:08:42.134,54
423,2016-04-07 23:08:44.668,52
423,2016-04-07 23:08:47.204,60
423,2016-04-07 23:08:49.563,66
423,2016-04-07 23:08:50.881,58
423,2016-04-07 23:08:53.468,54
423,2016-04-07 23:09:02.736,62
423,2016-04-07 23:09:07.441,52
423,2016-04-07 23:09:16.219,54
423,2016-04-07 23:09:32.736,52
423,2016-04-07 23:09:44.778,56
423,2016-04-07 23:09:57.304,54
423,2016-04-07 23:10:06.434,70
423,2016-04-07 23:10:13.495,52
423,2016-04-07 23:10:16.036,62
423,2016-04-07 23:10:19.107,52
423,2016-04-07 23:10:40.632,-4
423,2016-04-07 23:12:45.49,-2
423,2016-04-07 23:12:46.416,78
423,2016-04-07 23:12:51.236,58
423,2016-04-07 23:12:55.091,52
423,2016-04-07 23:13:02.294,54
423,2016-04-07 23:13:33.926,60
423,2016-04-07 23:13:58.071,54
423,2016-04-07 23:14:09.963,62
423,2016-04-07 23:14:19.042,68
423,2016-04-07 23:14:22.924,60
423,2016-04-07 23:14:25.359,58
423,2016-04-07 23:14:27.367,52
423,2016-04-07 23:14:46.438,86
423,2016-04-07 23:14:48.877,70
423,2016-04-07 23:14:50.588,54
423,2016-04-07 23:14:54.049,-4
423,2016-04-07 23:15:28.568,-2
423,2016-04-07 23:15:29.395,52
423,2016-04-07 23:15:47.389,60
423,2016-04-07 23:15:55.735,52
423,2016-04-07 23:16:23.973,54
423,2016-04-07 23:16:35.359,52
423,2016-04-07 23:16:52.837,56
423,2016-04-07 23:17:00.703,60
423,2016-04-07 23:17:11.464,52
423,2016-04-07 23:17:20.647,54
423,2016-04-07 23:17:24.335,52
423,2016-04-07 23:17:37.451,54
423,2016-04-07 23:17:45.29,52
423,2016-04-07 23:17:53.18,56
423,2016-04-07 23:18:05.751,52
423,2016-04-07 23:18:17.419,64
423,2016-04-07 23:18:24.326,52
423,2016-04-07 23:18:40.392,58
423,2016-04-07 23:18:45.931,52
423,2016-04-07 23:18:50.841,54
423,2016-04-07 23:18:57.079,52
423,2016-04-07 23:18:59.28,54
423,2016-04-07 23:19:12.662,52
423,2016-04-07 23:19:20.056,60
423,2016-04-07 23:19:24.995,52
423,2016-04-07 23:19:36.61,70
423,2016-04-07 23:19:40.235,54
423,2016-04-07 23:19:45.51,52
423,2016-04-07 23:19:49.029,54
423,2016-04-07 23:19:52.1,60
423,2016-04-07 23:19:56.568,54
423,2016-04-07 23:20:00.723,56
423,2016-04-07 23:20:08.186,54
423,2016-04-07 23:20:16.7,52
423,2016-04-07 23:20:20.905,54
423,2016-04-07 23:20:22.27,52
423,2016-04-07 23:20:28.571,54
423,2016-04-07 23:20:30.818,52
423,2016-04-07 23:20:32.054,54
423,2016-04-07 23:20:41.651,52
423,2016-04-07 23:20:49.296,56
423,2016-04-07 23:20:52.957,54
423,2016-04-07 23:20:56.674,52
423,2016-04-07 23:20:58.674,54
423,2016-04-07 23:20:59.886,56
423,2016-04-07 23:21:01.903,54
423,2016-04-07 23:21:09.894,60
423,2016-04-07 23:21:16.278,52
423,2016-04-07 23:21:27.454,54
423,2016-04-07 23:21:31.739,60
423,2016-04-07 23:21:36.594,62
423,2016-04-07 23:21:42.434,52
423,2016-04-07 23:21:49.437,54
423,2016-04-07 23:21:56.693,52
423,2016-04-07 23:22:08.299,58
423,2016-04-07 23:22:14.361,52
423,2016-04-07 23:22:21.649,54
423,2016-04-07 23:22:29.653,56
423,2016-04-07 23:22:37.12,52
423,2016-04-07 23:22:56.765,54
423,2016-04-07 23:23:01.615,66
423,2016-04-07 23:23:03.237,60
423,2016-04-07 23:23:07.013,56
423,2016-04-07 23:23:17.996,54
423,2016-04-07 23:23:23.319,52
423,2016-04-07 23:23:25.587,56
423,2016-04-07 23:23:32.15,52
423,2016-04-07 23:23:39.425,60
423,2016-04-07 23:23:45.421,52
423,2016-04-07 23:23:47.699,54
423,2016-04-07 23:25:46.425,-3
423,2016-04-07 23:25:46.458,-3
423,2016-04-07 23:25:46.502,-3
423,2016-04-07 23:25:46.512,-3
423,2016-04-07 23:25:46.515,-3
423,2016-04-07 23:25:46.515,-3
423,2016-04-07 23:25:46.517,-3
423,2016-04-07 23:25:46.52,-3
423,2016-04-07 23:27:04.722,-2
423,2016-04-07 23:27:14.008,52
423,2016-04-07 23:27:17.407,60
423,2016-04-07 23:27:19.96,58
423,2016-04-07 23:27:26.519,52
423,2016-04-07 23:27:37.198,54
423,2016-04-07 23:27:39.273,52
423,2016-04-07 23:27:41.145,54
423,2016-04-07 23:27:46.08,52
423,2016-04-07 23:27:58.167,54
423,2016-04-07 23:28:04.775,52
423,2016-04-07 23:28:10.157,56
423,2016-04-07 23:28:24.925,52
423,2016-04-07 23:28:33.759,54
423,2016-04-07 23:28:43.894,64
423,2016-04-07 23:28:48.917,52
423,2016-04-07 23:29:03.789,54
423,2016-04-07 23:29:06.662,52
423,2016-04-07 23:29:09.804,56
423,2016-04-07 23:29:11.807,54
423,2016-04-07 23:29:21.712,52
423,2016-04-07 23:29:28.057,54
423,2016-04-07 23:29:29.057,56
423,2016-04-07 23:29:31.274,52
423,2016-04-07 23:29:39.388,54
423,2016-04-07 23:29:47.257,52
423,2016-04-07 23:29:52.004,54
423,2016-04-07 23:29:54.309,52
423,2016-04-07 23:30:04.34,56
423,2016-04-07 23:30:14.247,52
423,2016-04-07 23:30:27.841,54
423,2016-04-07 23:30:35.395,52
423,2016-04-07 23:30:44.794,54
423,2016-04-07 23:30:54.471,60
423,2016-04-07 23:30:57.52,86
423,2016-04-07 23:31:06.997,54
423,2016-04-07 23:31:12.279,52
423,2016-04-07 23:31:16.318,54
423,2016-04-07 23:31:29.384,52
423,2016-04-07 23:31:39.609,54
423,2016-04-07 23:31:43.858,52
423,2016-04-07 23:31:50.361,-4
423,2016-04-07 23:32:02.772,-2
423,2016-04-07 23:32:02.996,54
423,2016-04-07 23:32:04.762,58
423,2016-04-07 23:32:06.91,52
423,2016-04-07 23:32:09.912,54
423,2016-04-07 23:32:15.932,58
423,2016-04-07 23:32:28.806,52
423,2016-04-07 23:32:33.533,56
423,2016-04-07 23:32:36.584,52
423,2016-04-07 23:32:56.978,62
423,2016-04-07 23:32:59.022,60
423,2016-04-07 23:33:13.143,54
423,2016-04-07 23:33:19.701,62
423,2016-04-07 23:33:23.471,54
423,2016-04-07 23:33:29.526,64
423,2016-04-07 23:33:49.166,52
423,2016-04-07 23:33:56.309,54
423,2016-04-07 23:34:10.767,52
423,2016-04-07 23:34:18.831,56
423,2016-04-07 23:34:23.585,52
423,2016-04-07 23:34:33.622,54
423,2016-04-07 23:34:51.985,56
423,2016-04-07 23:34:59.835,54
423,2016-04-07 23:35:07.469,52
423,2016-04-07 23:35:10.257,56
423,2016-04-07 23:35:16.304,52
423,2016-04-07 23:35:20.414,54
423,2016-04-07 23:35:24.632,52
423,2016-04-07 23:35:36.402,54
423,2016-04-07 23:35:46.852,52
423,2016-04-07 23:35:48.975,54
423,2016-04-07 23:35:57.347,60
423,2016-04-07 23:36:18.129,52
423,2016-04-07 23:37:15.311,54
423,2016-04-07 23:37:18.639,52
423,2016-04-07 23:37:29.803,60
423,2016-04-07 23:37:42.056,-4
423,2016-04-07 23:38:03.797,-2
423,2016-04-07 23:38:05.035,52
423,2016-04-07 23:38:09.979,54
423,2016-04-07 23:38:31.188,52
423,2016-04-07 23:38:42.998,54
423,2016-04-07 23:38:48.629,52
423,2016-04-07 23:38:57.511,54
423,2016-04-07 23:39:13.011,52
423,2016-04-07 23:39:28.502,54
423,2016-04-07 23:39:31.848,56
423,2016-04-07 23:39:41.548,54
423,2016-04-07 23:39:46.805,52
423,2016-04-07 23:39:48.453,58
423,2016-04-07 23:39:51.033,52
423,2016-04-07 23:39:54.454,54
423,2016-04-07 23:40:02.49,52
423,2016-04-07 23:40:05.139,60
423,2016-04-07 23:40:12.319,52
423,2016-04-07 23:40:17.834,56
423,2016-04-07 23:40:22.012,52
423,2016-04-07 23:40:25.845,54
423,2016-04-07 23:40:28.966,-4
423,2016-04-07 23:41:01.905,-2
423,2016-04-07 23:41:19.445,56
423,2016-04-07 23:41:29.187,54
423,2016-04-07 23:41:30.917,52
423,2016-04-07 23:41:32.278,56
423,2016-04-07 23:41:33.678,52
423,2016-04-07 23:42:00.801,54
423,2016-04-07 23:42:07.101,56
423,2016-04-07 23:42:08.33,58
423,2016-04-07 23:42:20.822,52
423,2016-04-07 23:42:28.919,54
423,2016-04-07 23:42:30.082,52
423,2016-04-07 23:42:37.524,54
423,2016-04-07 23:42:40.868,52
423,2016-04-07 23:42:45.517,54
423,2016-04-07 23:42:53.845,52
423,2016-04-07 23:43:07.704,-4
423,2016-04-07 23:43:32.013,-2
423,2016-04-07 23:43:42.447,54
423,2016-04-07 23:43:46.825,58
423,2016-04-07 23:43:53.185,54
423,2016-04-07 23:43:54.532,56
423,2016-04-07 23:44:07.188,54
423,2016-04-07 23:44:19.1,-4
423,2016-04-07 23:44:59.073,-2
423,2016-04-07 23:45:03.296,52
423,2016-04-07 23:45:06.697,54
423,2016-04-07 23:45:21.595,68
423,2016-04-07 23:45:30.375,58
423,2016-04-07 23:45:40.18,52
423,2016-04-07 23:45:45.282,54
423,2016-04-07 23:45:52.131,64
423,2016-04-07 23:46:05.051,52
423,2016-04-07 23:46:28.602,54
423,2016-04-07 23:46:54.78,52
423,2016-04-07 23:47:00.081,58
423,2016-04-07 23:47:12.251,52
423,2016-04-07 23:47:17.755,54
423,2016-04-07 23:47:19.129,52
