resource id,timestamp,power
414,2016-04-07 16:53:15.958,56
414,2016-04-07 16:53:24.278,52
414,2016-04-07 16:53:31.441,60
414,2016-04-07 16:53:33.296,52
414,2016-04-07 16:53:34.947,54
414,2016-04-07 16:53:38.999,72
414,2016-04-07 16:53:41.371,62
414,2016-04-07 16:53:45.641,54
414,2016-04-07 16:53:48.938,52
414,2016-04-07 16:53:53.534,54
414,2016-04-07 16:53:56.385,52
414,2016-04-07 16:54:09.307,54
414,2016-04-07 16:54:11.352,60
414,2016-04-07 16:54:24.211,58
414,2016-04-07 16:54:29.294,64
414,2016-04-07 16:54:40.357,58
414,2016-04-07 16:54:49.74,60
414,2016-04-07 16:54:56.226,56
414,2016-04-07 16:55:01.775,52
414,2016-04-07 16:55:02.954,54
414,2016-04-07 16:55:28.05,60
414,2016-04-07 16:55:32.669,54
414,2016-04-07 16:55:37.158,52
414,2016-04-07 16:55:47.915,56
414,2016-04-07 16:55:51.466,54
414,2016-04-07 16:55:58.202,52
414,2016-04-07 16:56:03.416,58
414,2016-04-07 16:56:28.696,54
414,2016-04-07 16:56:39.011,60
414,2016-04-07 16:57:47.895,56
414,2016-04-07 16:57:48.895,54
414,2016-04-07 16:57:51.219,56
414,2016-04-07 16:57:52.219,54
414,2016-04-07 16:58:03.151,62
414,2016-04-07 16:58:13.665,60
414,2016-04-07 16:58:31.657,54
414,2016-04-07 16:58:43.191,58
414,2016-04-07 16:58:58.183,52
414,2016-04-07 16:59:03.636,58
414,2016-04-07 16:59:08.724,52
414,2016-04-07 16:59:10.113,62
414,2016-04-07 16:59:37.802,52
414,2016-04-07 16:59:40.683,58
414,2016-04-07 16:59:43.061,60
414,2016-04-07 16:59:44.278,66
414,2016-04-07 16:59:54.923,54
414,2016-04-07 17:00:09.897,62
414,2016-04-07 17:00:12.908,54
414,2016-04-07 17:00:32.577,52
414,2016-04-07 17:00:35.909,54
414,2016-04-07 17:00:41.004,58
414,2016-04-07 17:00:49.628,52
414,2016-04-07 17:00:53.8,54
414,2016-04-07 17:02:20.509,52
414,2016-04-07 17:02:24.346,60
414,2016-04-07 17:02:26.699,52
414,2016-04-07 17:02:27.749,58
414,2016-04-07 17:02:30.749,52
414,2016-04-07 17:02:32.362,54
414,2016-04-07 17:02:36.596,56
414,2016-04-07 17:02:40.661,54
414,2016-04-07 17:02:47.58,52
414,2016-04-07 17:02:58.981,54
414,2016-04-07 17:03:00.776,52
414,2016-04-07 17:03:07.593,60
414,2016-04-07 17:03:16.585,62
414,2016-04-07 17:03:21.809,52
414,2016-04-07 17:03:23.631,54
414,2016-04-07 17:03:40.791,52
414,2016-04-07 17:03:52.684,54
414,2016-04-07 17:04:03.052,52
414,2016-04-07 17:04:13.654,54
414,2016-04-07 17:04:23.753,58
414,2016-04-07 17:04:24.938,60
414,2016-04-07 17:04:25.939,56
414,2016-04-07 17:04:26.939,54
414,2016-04-07 17:04:32.457,52
414,2016-04-07 17:04:34.082,54
414,2016-04-07 17:04:35.487,62
414,2016-04-07 17:04:38.487,52
414,2016-04-07 17:04:49.564,56
414,2016-04-07 17:04:53.856,54
414,2016-04-07 17:04:55.017,52
414,2016-04-07 17:05:04.019,54
414,2016-04-07 17:05:07.617,52
414,2016-04-07 17:05:10.747,54
414,2016-04-07 17:05:13.61,52
414,2016-04-07 17:05:16.76,54
414,2016-04-07 17:05:18.525,52
414,2016-04-07 17:05:21.517,60
414,2016-04-07 17:05:27.713,56
414,2016-04-07 17:05:32.405,54
414,2016-04-07 17:05:37.154,52
414,2016-04-07 17:05:42.797,54
414,2016-04-07 17:05:52.371,52
414,2016-04-07 17:05:59.22,54
414,2016-04-07 17:06:04.881,56
414,2016-04-07 17:06:07.825,58
414,2016-04-07 17:06:11.522,54
414,2016-04-07 17:06:27.666,56
414,2016-04-07 17:06:42.665,54
414,2016-04-07 17:06:49.835,56
414,2016-04-07 17:06:58.658,52
414,2016-04-07 17:07:01.895,60
414,2016-04-07 17:07:06.62,54
414,2016-04-07 17:07:16.911,56
414,2016-04-07 17:07:22.906,54
414,2016-04-07 17:07:32.948,52
414,2016-04-07 17:07:43.826,56
414,2016-04-07 17:07:51.137,54
414,2016-04-07 17:07:59.787,60
414,2016-04-07 17:08:08.226,54
414,2016-04-07 17:08:20.782,52
414,2016-04-07 17:08:25.678,54
414,2016-04-07 17:08:40.678,56
414,2016-04-07 17:08:48.48,66
414,2016-04-07 17:08:52.709,56
414,2016-04-07 17:08:54.308,60
414,2016-04-07 17:09:09.02,54
414,2016-04-07 17:09:14.867,56
414,2016-04-07 17:09:27.236,54
414,2016-04-07 17:10:17.585,58
414,2016-04-07 17:10:22.907,54
414,2016-04-07 17:10:27.405,52
414,2016-04-07 17:10:32.851,56
414,2016-04-07 17:10:39.306,54
414,2016-04-07 17:10:44.647,58
414,2016-04-07 17:10:47.818,54
414,2016-04-07 17:10:57.494,62
414,2016-04-07 17:11:02.191,54
414,2016-04-07 17:11:11.969,52
414,2016-04-07 17:11:20.142,54
414,2016-04-07 17:11:30.192,58
414,2016-04-07 17:11:36.894,64
414,2016-04-07 17:11:48.472,54
414,2016-04-07 17:12:05.392,62
414,2016-04-07 17:12:12.92,54
414,2016-04-07 17:12:16.335,52
414,2016-04-07 17:12:19.966,54
414,2016-04-07 17:12:21.466,60
414,2016-04-07 17:12:22.466,68
414,2016-04-07 17:12:23.466,66
414,2016-04-07 17:12:24.466,54
414,2016-04-07 17:12:28.263,52
414,2016-04-07 17:12:35.077,54
414,2016-04-07 17:12:44.637,56
414,2016-04-07 17:12:50.69,54
414,2016-04-07 17:13:01.153,58
414,2016-04-07 17:13:02.154,52
414,2016-04-07 17:13:04.155,54
414,2016-04-07 17:13:05.155,64
414,2016-04-07 17:13:06.156,62
414,2016-04-07 17:13:09.87,52
414,2016-04-07 17:13:21.583,54
414,2016-04-07 17:13:26.874,68
414,2016-04-07 17:13:28.875,62
414,2016-04-07 17:13:29.876,52
414,2016-04-07 17:13:30.877,54
414,2016-04-07 17:13:32.877,56
414,2016-04-07 17:13:35.881,62
414,2016-04-07 17:13:38.115,52
414,2016-04-07 17:13:39.115,54
414,2016-04-07 17:13:41.116,52
414,2016-04-07 17:13:42.163,54
414,2016-04-07 17:13:45.164,56
414,2016-04-07 17:13:47.164,60
414,2016-04-07 17:13:56.176,62
414,2016-04-07 17:13:58.694,52
414,2016-04-07 17:14:03.318,58
414,2016-04-07 17:14:06.495,52
414,2016-04-07 17:14:07.882,54
414,2016-04-07 17:14:09.112,56
414,2016-04-07 17:14:10.147,58
414,2016-04-07 17:14:11.147,54
414,2016-04-07 17:14:13.147,52
414,2016-04-07 17:14:14.148,54
414,2016-04-07 17:14:18.057,56
414,2016-04-07 17:14:20.308,54
414,2016-04-07 17:14:22.31,56
414,2016-04-07 17:14:24.567,54
414,2016-04-07 17:14:26.656,52
414,2016-04-07 17:14:29.031,54
414,2016-04-07 17:14:31.55,62
414,2016-04-07 17:14:34.999,64
414,2016-04-07 17:14:38.988,54
414,2016-04-07 17:14:43.042,60
414,2016-04-07 17:14:46.492,54
414,2016-04-07 17:14:49.694,56
414,2016-04-07 17:14:51.93,58
414,2016-04-07 17:14:56.685,52
414,2016-04-07 17:14:57.924,60
414,2016-04-07 17:14:58.925,58
414,2016-04-07 17:14:59.926,52
414,2016-04-07 17:15:09.884,54
414,2016-04-07 17:15:17.352,52
414,2016-04-07 17:15:21.239,62
414,2016-04-07 17:15:23.417,54
414,2016-04-07 17:15:24.783,52
414,2016-04-07 17:15:25.785,58
414,2016-04-07 17:15:34.784,54
414,2016-04-07 17:15:41.011,52
414,2016-04-07 17:15:46.739,54
414,2016-04-07 17:15:53.47,56
414,2016-04-07 17:15:59.787,70
414,2016-04-07 17:16:01.703,78
414,2016-04-07 17:16:13.119,64
414,2016-04-07 17:16:22.087,52
414,2016-04-07 17:16:27.664,62
414,2016-04-07 17:16:30.554,60
414,2016-04-07 17:16:31.725,70
414,2016-04-07 17:16:38.796,54
414,2016-04-07 17:16:46.503,62
414,2016-04-07 17:16:50.087,56
414,2016-04-07 17:16:51.893,54
414,2016-04-07 17:17:01.132,96
414,2016-04-07 17:17:06.61,64
414,2016-04-07 17:17:09.085,60
414,2016-04-07 17:17:11.028,54
414,2016-04-07 17:17:20.952,58
414,2016-04-07 17:17:24.07,56
414,2016-04-07 17:17:27.072,54
414,2016-04-07 17:17:34.039,52
414,2016-04-07 17:17:45.344,58
414,2016-04-07 17:17:52.639,60
414,2016-04-07 17:18:05.887,54
414,2016-04-07 17:18:10.898,52
414,2016-04-07 17:18:16.535,54
414,2016-04-07 17:18:21.728,62
414,2016-04-07 17:18:33.431,54
414,2016-04-07 17:18:46.965,60
414,2016-04-07 17:18:51.661,54
414,2016-04-07 17:18:57.225,52
414,2016-04-07 17:19:11.068,56
414,2016-04-07 17:19:16.123,54
414,2016-04-07 17:19:24.173,52
414,2016-04-07 17:19:34.19,54
414,2016-04-07 17:19:39.515,52
414,2016-04-07 17:19:41.629,54
414,2016-04-07 17:19:53.844,58
414,2016-04-07 17:19:55.244,62
414,2016-04-07 17:20:09.894,54
414,2016-04-07 17:20:20.444,52
414,2016-04-07 17:20:34.72,54
414,2016-04-07 17:20:40.41,60
414,2016-04-07 17:20:41.745,52
414,2016-04-07 17:20:45.473,54
414,2016-04-07 17:20:56.186,58
414,2016-04-07 17:21:00.634,54
414,2016-04-07 17:21:14.076,52
414,2016-04-07 17:21:16.487,-4
414,2016-04-07 17:21:46.121,-2
414,2016-04-07 17:21:55.663,54
414,2016-04-07 17:21:57.679,56
414,2016-04-07 17:21:59.113,54
414,2016-04-07 17:22:20.234,56
414,2016-04-07 17:22:25.911,54
414,2016-04-07 17:22:30.555,52
414,2016-04-07 17:22:41.65,56
414,2016-04-07 17:22:48.237,52
414,2016-04-07 17:22:54.011,54
414,2016-04-07 17:22:57.63,52
414,2016-04-07 17:22:58.756,56
414,2016-04-07 17:23:07.025,54
414,2016-04-07 17:23:15.838,52
414,2016-04-07 17:23:20.99,56
414,2016-04-07 17:23:25.192,54
414,2016-04-07 17:23:34.381,52
414,2016-04-07 17:23:42.439,54
414,2016-04-07 17:24:01.442,60
414,2016-04-07 17:24:02.753,52
414,2016-04-07 17:24:04.126,54
414,2016-04-07 17:24:05.342,52
414,2016-04-07 17:24:17.243,80
414,2016-04-07 17:24:19.722,72
414,2016-04-07 17:24:32.973,54
414,2016-04-07 17:24:43.177,60
414,2016-04-07 17:24:50.262,54
414,2016-04-07 17:25:03.837,-4
414,2016-04-07 17:25:24.299,-2
414,2016-04-07 17:25:25.944,58
414,2016-04-07 17:25:28.424,54
414,2016-04-07 17:25:30.595,52
414,2016-04-07 17:25:40.305,56
414,2016-04-07 17:25:48.518,54
414,2016-04-07 17:26:01.959,52
414,2016-04-07 17:26:08.658,54
414,2016-04-07 17:26:22.454,58
414,2016-04-07 17:26:25.225,56
414,2016-04-07 17:26:30.382,88
414,2016-04-07 17:26:33.272,52
414,2016-04-07 17:26:36.351,54
414,2016-04-07 17:26:39.836,62
414,2016-04-07 17:26:40.836,58
414,2016-04-07 17:26:59.418,52
414,2016-04-07 17:27:09.451,54
414,2016-04-07 17:27:10.452,56
414,2016-04-07 17:27:12.456,52
414,2016-04-07 17:27:13.474,60
414,2016-04-07 17:27:14.942,54
414,2016-04-07 17:27:18.419,52
414,2016-04-07 17:27:22.105,54
414,2016-04-07 17:27:25.907,62
414,2016-04-07 17:27:34.502,52
414,2016-04-07 17:27:44.357,56
414,2016-04-07 17:27:45.709,58
414,2016-04-07 17:27:59.858,56
414,2016-04-07 17:28:07.374,52
414,2016-04-07 17:28:28.0,54
414,2016-04-07 17:28:34.126,52
414,2016-04-07 17:28:37.362,54
414,2016-04-07 17:28:47.066,52
414,2016-04-07 17:28:53.105,54
414,2016-04-07 17:29:05.922,52
414,2016-04-07 17:29:13.18,54
414,2016-04-07 17:29:14.18,52
414,2016-04-07 17:29:15.18,58
414,2016-04-07 17:29:16.181,60
414,2016-04-07 17:29:17.264,54
414,2016-04-07 17:29:19.532,56
414,2016-04-07 17:29:23.085,52
414,2016-04-07 17:29:35.259,62
414,2016-04-07 17:29:40.144,54
414,2016-04-07 17:29:45.245,52
414,2016-04-07 17:29:50.014,56
414,2016-04-07 17:29:57.426,52
414,2016-04-07 17:30:09.023,58
414,2016-04-07 17:30:15.027,56
414,2016-04-07 17:30:27.016,58
414,2016-04-07 17:30:29.792,60
414,2016-04-07 17:30:32.137,52
414,2016-04-07 17:30:34.139,54
414,2016-04-07 17:30:35.139,52
414,2016-04-07 17:30:36.139,54
414,2016-04-07 17:30:38.139,52
414,2016-04-07 17:30:40.141,54
414,2016-04-07 17:30:48.141,64
414,2016-04-07 17:30:55.836,54
414,2016-04-07 17:31:03.168,52
414,2016-04-07 17:31:06.004,62
414,2016-04-07 17:31:12.742,54
414,2016-04-07 17:31:18.58,58
414,2016-04-07 17:31:21.803,62
414,2016-04-07 17:31:23.803,56
414,2016-04-07 17:31:30.559,68
414,2016-04-07 17:31:42.324,54
414,2016-04-07 17:31:45.577,56
414,2016-04-07 17:31:47.577,64
414,2016-04-07 17:31:48.577,60
414,2016-04-07 17:31:49.577,54
414,2016-04-07 17:31:51.577,52
414,2016-04-07 17:31:58.15,54
414,2016-04-07 17:32:00.858,58
414,2016-04-07 17:32:04.017,52
414,2016-04-07 17:32:10.798,54
414,2016-04-07 17:32:23.507,52
414,2016-04-07 17:32:27.513,54
414,2016-04-07 17:32:29.678,52
414,2016-04-07 17:32:40.975,56
414,2016-04-07 17:32:46.094,54
414,2016-04-07 17:32:49.53,52
414,2016-04-07 17:33:02.221,54
414,2016-04-07 17:33:13.574,64
414,2016-04-07 17:33:16.382,54
414,2016-04-07 17:33:28.569,52
414,2016-04-07 17:33:32.086,54
414,2016-04-07 17:33:38.614,52
414,2016-04-07 17:33:40.616,54
414,2016-04-07 17:33:45.862,56
414,2016-04-07 17:33:47.856,54
414,2016-04-07 17:33:51.874,56
414,2016-04-07 17:33:55.162,58
414,2016-04-07 17:33:57.162,54
414,2016-04-07 17:33:59.358,52
414,2016-04-07 17:34:01.118,54
414,2016-04-07 17:34:07.431,56
414,2016-04-07 17:34:13.439,52
414,2016-04-07 17:34:17.944,62
414,2016-04-07 17:34:19.575,60
414,2016-04-07 17:34:20.925,54
414,2016-04-07 17:34:24.933,52
414,2016-04-07 17:34:26.645,54
414,2016-04-07 17:34:37.723,52
414,2016-04-07 17:34:42.823,54
414,2016-04-07 17:34:45.737,52
414,2016-04-07 17:34:53.127,50
414,2016-04-07 17:35:04.828,54
414,2016-04-07 17:35:09.134,52
414,2016-04-07 17:35:22.053,54
414,2016-04-07 17:35:27.284,52
414,2016-04-07 17:35:39.7,54
414,2016-04-07 17:35:41.7,52
414,2016-04-07 17:35:53.429,54
414,2016-04-07 17:36:09.553,56
414,2016-04-07 17:36:23.104,54
414,2016-04-07 17:36:34.926,52
414,2016-04-07 17:36:44.568,54
414,2016-04-07 17:36:55.494,56
414,2016-04-07 17:36:58.497,52
414,2016-04-07 17:37:07.61,50
414,2016-04-07 17:37:16.927,54
414,2016-04-07 17:37:20.104,60
414,2016-04-07 17:37:28.481,52
414,2016-04-07 17:37:38.473,54
414,2016-04-07 17:37:45.264,52
414,2016-04-07 17:37:50.703,54
414,2016-04-07 17:37:55.688,56
414,2016-04-07 17:37:59.398,54
414,2016-04-07 17:38:06.845,52
414,2016-04-07 17:38:23.234,58
414,2016-04-07 17:38:31.382,62
414,2016-04-07 17:38:45.021,52
414,2016-04-07 17:38:50.731,54
414,2016-04-07 17:38:57.459,52
414,2016-04-07 17:39:02.461,56
414,2016-04-07 17:39:14.737,54
414,2016-04-07 17:39:31.484,56
414,2016-04-07 17:39:36.196,60
414,2016-04-07 17:39:41.27,52
414,2016-04-07 17:39:52.688,60
414,2016-04-07 17:39:53.689,66
414,2016-04-07 17:39:55.689,52
414,2016-04-07 17:39:57.689,54
414,2016-04-07 17:40:04.691,52
414,2016-04-07 17:40:06.692,54
414,2016-04-07 17:40:07.692,52
414,2016-04-07 17:40:13.68,56
414,2016-04-07 17:40:15.73,58
414,2016-04-07 17:40:16.73,54
414,2016-04-07 17:40:19.027,52
414,2016-04-07 17:40:20.676,54
414,2016-04-07 17:40:21.696,58
414,2016-04-07 17:40:23.696,54
414,2016-04-07 17:40:26.819,-4
414,2016-04-07 17:42:25.416,-3
414,2016-04-07 17:42:25.487,-3
414,2016-04-07 17:42:25.51,-3
414,2016-04-07 17:42:25.53,-3
414,2016-04-07 17:42:25.739,-3
414,2016-04-07 17:42:25.744,-3
414,2016-04-07 17:42:25.744,-3
414,2016-04-07 17:42:26.175,-3
414,2016-04-07 17:42:26.233,-3
414,2016-04-07 17:42:26.508,-3
414,2016-04-07 17:42:26.514,-3
414,2016-04-07 17:42:26.529,-3
414,2016-04-07 17:42:26.53,-3
414,2016-04-07 17:43:56.608,-2
414,2016-04-07 17:44:05.137,52
414,2016-04-07 17:44:12.276,56
414,2016-04-07 17:44:18.282,54
414,2016-04-07 17:44:28.147,56
414,2016-04-07 17:44:39.789,52
414,2016-04-07 17:44:48.272,54
414,2016-04-07 17:44:52.914,52
414,2016-04-07 17:44:56.809,54
414,2016-04-07 17:45:03.79,62
414,2016-04-07 17:45:06.654,78
414,2016-04-07 17:45:07.654,62
414,2016-04-07 17:45:08.658,54
414,2016-04-07 17:45:11.849,52
414,2016-04-07 17:45:22.157,60
414,2016-04-07 17:45:23.738,54
414,2016-04-07 17:45:30.922,52
414,2016-04-07 17:45:41.723,54
414,2016-04-07 17:45:53.77,56
414,2016-04-07 17:46:06.319,80
414,2016-04-07 17:46:09.85,62
414,2016-04-07 17:46:16.669,54
414,2016-04-07 17:46:19.356,52
414,2016-04-07 17:46:25.293,54
414,2016-04-07 17:46:30.037,52
414,2016-04-07 17:46:32.18,54
414,2016-04-07 17:46:36.181,52
414,2016-04-07 17:46:52.27,54
414,2016-04-07 17:46:55.972,56
414,2016-04-07 17:46:58.405,70
414,2016-04-07 17:47:05.013,84
414,2016-04-07 17:47:07.845,60
414,2016-04-07 17:47:09.429,52
414,2016-04-07 17:47:10.663,58
414,2016-04-07 17:47:12.89,54
414,2016-04-07 17:47:17.198,52
414,2016-04-07 17:47:21.526,54
414,2016-04-07 17:47:26.586,58
414,2016-04-07 17:47:27.812,60
414,2016-04-07 17:47:30.48,54
414,2016-04-07 17:47:31.481,52
414,2016-04-07 17:47:34.571,54
414,2016-04-07 17:47:37.223,56
414,2016-04-07 17:47:50.248,58
414,2016-04-07 17:47:51.871,52
414,2016-04-07 17:47:52.873,54
414,2016-04-07 17:47:54.37,52
414,2016-04-07 17:48:00.206,62
414,2016-04-07 17:48:04.095,70
414,2016-04-07 17:48:11.119,54
414,2016-04-07 17:48:15.157,60
414,2016-04-07 17:48:30.328,52
414,2016-04-07 17:48:32.849,62
414,2016-04-07 17:48:38.203,52
414,2016-04-07 17:48:43.265,56
414,2016-04-07 17:48:48.608,54
414,2016-04-07 17:48:49.659,52
414,2016-04-07 17:48:51.826,54
414,2016-04-07 17:48:52.87,56
414,2016-04-07 17:48:54.53,54
414,2016-04-07 17:48:57.559,52
414,2016-04-07 17:49:01.386,54
414,2016-04-07 17:49:09.919,56
414,2016-04-07 17:49:14.456,52
414,2016-04-07 17:49:21.235,54
414,2016-04-07 17:49:23.419,56
414,2016-04-07 17:49:26.122,62
414,2016-04-07 17:49:27.562,54
414,2016-04-07 17:49:36.947,52
414,2016-04-07 17:49:39.529,64
414,2016-04-07 17:49:41.53,52
414,2016-04-07 17:49:47.212,60
414,2016-04-07 17:49:49.221,54
414,2016-04-07 17:49:51.927,62
414,2016-04-07 17:49:53.965,52
414,2016-04-07 17:50:08.441,54
414,2016-04-07 17:50:11.912,-4
414,2016-04-07 17:50:36.002,-2
414,2016-04-07 17:50:37.704,52
414,2016-04-07 17:50:39.843,54
414,2016-04-07 17:50:41.843,56
414,2016-04-07 17:50:42.843,54
414,2016-04-07 17:50:47.843,58
414,2016-04-07 17:50:49.639,60
414,2016-04-07 17:50:52.213,54
414,2016-04-07 17:50:57.159,60
414,2016-04-07 17:50:58.695,62
414,2016-04-07 17:51:00.369,78
414,2016-04-07 17:51:02.495,72
414,2016-04-07 17:51:05.953,54
414,2016-04-07 17:51:11.977,56
414,2016-04-07 17:51:13.629,58
414,2016-04-07 17:51:15.464,52
414,2016-04-07 17:51:22.446,54
414,2016-04-07 17:51:26.948,60
414,2016-04-07 17:51:29.987,62
414,2016-04-07 17:51:33.162,52
414,2016-04-07 17:51:35.021,54
414,2016-04-07 17:51:36.218,58
414,2016-04-07 17:51:38.009,60
414,2016-04-07 17:51:40.731,52
414,2016-04-07 17:51:43.95,54
414,2016-04-07 17:51:49.307,52
414,2016-04-07 17:51:52.512,56
414,2016-04-07 17:51:56.562,52
414,2016-04-07 17:52:02.208,60
414,2016-04-07 17:52:09.833,54
414,2016-04-07 17:52:17.575,52
414,2016-04-07 17:52:23.659,60
414,2016-04-07 17:52:28.092,54
414,2016-04-07 17:52:33.34,58
414,2016-04-07 17:52:39.742,54
414,2016-04-07 17:52:41.593,56
414,2016-04-07 17:52:42.755,54
414,2016-04-07 17:52:47.632,52
414,2016-04-07 17:52:53.05,58
414,2016-04-07 17:53:00.829,54
414,2016-04-07 17:53:04.024,52
414,2016-04-07 17:53:06.134,60
414,2016-04-07 17:53:08.215,52
414,2016-04-07 17:53:13.49,54
414,2016-04-07 17:53:28.296,52
414,2016-04-07 17:53:32.186,54
414,2016-04-07 17:53:33.695,52
414,2016-04-07 17:53:36.172,54
414,2016-04-07 17:53:41.622,52
414,2016-04-07 17:53:52.145,54
414,2016-04-07 17:53:54.33,56
414,2016-04-07 17:53:56.816,54
414,2016-04-07 17:54:01.818,56
414,2016-04-07 17:54:02.875,54
414,2016-04-07 17:54:09.193,56
414,2016-04-07 17:54:15.703,58
414,2016-04-07 17:54:18.959,60
414,2016-04-07 17:54:26.7,52
414,2016-04-07 17:54:29.384,54
414,2016-04-07 17:54:32.477,56
414,2016-04-07 17:54:39.733,52
414,2016-04-07 17:54:45.815,54
414,2016-04-07 17:54:55.421,60
414,2016-04-07 17:54:57.796,58
414,2016-04-07 17:55:02.34,54
414,2016-04-07 17:55:08.543,52
414,2016-04-07 17:55:11.373,54
414,2016-04-07 17:55:20.173,52
414,2016-04-07 17:55:26.715,54
414,2016-04-07 17:55:35.127,56
414,2016-04-07 17:56:12.26,54
414,2016-04-07 17:56:22.772,52
414,2016-04-07 17:56:32.826,54
414,2016-04-07 17:56:44.013,52
414,2016-04-07 17:56:56.282,54
414,2016-04-07 17:57:01.188,-4
414,2016-04-07 17:57:21.345,-2
414,2016-04-07 17:57:29.696,52
414,2016-04-07 17:57:37.009,62
414,2016-04-07 17:57:40.161,52
414,2016-04-07 17:57:44.038,-4
414,2016-04-07 17:58:05.583,-2
414,2016-04-07 17:58:07.567,56
414,2016-04-07 17:58:13.09,-4
414,2016-04-07 17:58:39.773,-2
414,2016-04-07 17:58:48.716,-4
414,2016-04-07 17:59:23.206,-2
414,2016-04-07 17:59:26.476,62
414,2016-04-07 17:59:31.504,-4
414,2016-04-07 18:00:00.89,-2
414,2016-04-07 18:00:12.257,56
414,2016-04-07 18:00:28.406,64
414,2016-04-07 18:00:42.089,54
414,2016-04-07 18:00:45.503,56
414,2016-04-07 18:00:50.867,54
414,2016-04-07 18:01:08.753,60
414,2016-04-07 18:01:16.029,62
414,2016-04-07 18:01:23.232,52
414,2016-04-07 18:01:32.327,70
414,2016-04-07 18:01:38.712,52
414,2016-04-07 18:01:50.802,56
414,2016-04-07 18:01:53.834,-4
414,2016-04-07 18:02:20.066,-2
414,2016-04-07 18:02:23.18,-4
414,2016-04-07 18:03:04.634,-2
414,2016-04-07 18:03:10.254,54
414,2016-04-07 18:03:26.233,52
414,2016-04-07 18:03:46.673,54
414,2016-04-07 18:03:52.438,60
414,2016-04-07 18:04:05.765,58
414,2016-04-07 18:04:19.02,52
414,2016-04-07 18:04:23.708,54
414,2016-04-07 18:04:44.147,52
414,2016-04-07 18:04:54.151,54
414,2016-04-07 18:05:14.804,56
414,2016-04-07 18:05:26.406,-4
414,2016-04-07 18:06:00.139,-2
414,2016-04-07 18:06:01.129,54
414,2016-04-07 18:06:04.299,58
414,2016-04-07 18:06:05.527,54
414,2016-04-07 18:06:11.725,52
414,2016-04-07 18:06:17.394,54
414,2016-04-07 18:06:25.812,-4
414,2016-04-07 18:06:43.367,-2
414,2016-04-07 18:06:46.5,52
414,2016-04-07 18:06:57.85,54
414,2016-04-07 18:07:01.492,52
414,2016-04-07 18:07:12.001,56
414,2016-04-07 18:07:18.793,52
414,2016-04-07 18:07:24.982,54
414,2016-04-07 18:07:32.955,60
414,2016-04-07 18:07:34.478,54
414,2016-04-07 18:07:41.376,68
414,2016-04-07 18:07:44.905,52
414,2016-04-07 18:07:55.5,56
414,2016-04-07 18:07:56.734,54
414,2016-04-07 18:08:05.047,56
414,2016-04-07 18:08:12.251,60
414,2016-04-07 18:08:23.794,54
414,2016-04-07 18:08:29.067,56
414,2016-04-07 18:08:34.414,52
414,2016-04-07 18:08:41.208,56
414,2016-04-07 18:08:52.868,54
414,2016-04-07 18:08:59.918,56
414,2016-04-07 18:09:04.355,64
414,2016-04-07 18:09:17.464,56
414,2016-04-07 18:09:21.908,54
414,2016-04-07 18:09:35.615,52
414,2016-04-07 18:09:38.771,60
414,2016-04-07 18:09:43.373,52
414,2016-04-07 18:09:46.781,54
414,2016-04-07 18:09:56.34,52
414,2016-04-07 18:10:13.531,54
414,2016-04-07 18:10:27.339,52
414,2016-04-07 18:10:35.504,54
414,2016-04-07 18:10:37.389,56
414,2016-04-07 18:10:39.342,54
414,2016-04-07 18:10:42.891,52
414,2016-04-07 18:10:49.454,54
414,2016-04-07 18:11:06.111,52
414,2016-04-07 18:11:16.933,54
414,2016-04-07 18:11:36.545,56
414,2016-04-07 18:11:39.116,54
414,2016-04-07 18:11:47.971,52
414,2016-04-07 18:11:51.344,58
414,2016-04-07 18:11:53.018,54
414,2016-04-07 18:11:55.426,62
414,2016-04-07 18:12:02.991,60
414,2016-04-07 18:12:13.774,52
414,2016-04-07 18:13:08.874,-4
414,2016-04-07 18:14:00.7,-2
414,2016-04-07 18:14:04.895,54
414,2016-04-07 18:14:10.125,52
414,2016-04-07 18:14:16.426,54
414,2016-04-07 18:14:22.747,52
414,2016-04-07 18:14:48.063,54
414,2016-04-07 18:14:54.894,52
414,2016-04-07 18:15:03.275,60
414,2016-04-07 18:15:18.867,52
414,2016-04-07 18:15:33.857,58
414,2016-04-07 18:15:49.913,54
414,2016-04-07 18:16:08.9,-4
414,2016-04-07 18:16:41.456,-2
414,2016-04-07 18:16:45.985,58
414,2016-04-07 18:16:54.311,52
414,2016-04-07 18:17:03.237,58
414,2016-04-07 18:17:13.316,52
414,2016-04-07 18:17:20.752,58
414,2016-04-07 18:17:32.798,54
414,2016-04-07 18:17:42.127,58
414,2016-04-07 18:17:52.251,56
414,2016-04-07 18:17:59.159,52
414,2016-04-07 18:18:03.592,54
414,2016-04-07 18:18:06.46,56
414,2016-04-07 18:18:07.477,64
414,2016-04-07 18:18:08.587,74
414,2016-04-07 18:18:09.601,88
414,2016-04-07 18:18:10.654,76
414,2016-04-07 18:18:16.251,52
414,2016-04-07 18:18:19.349,54
414,2016-04-07 18:18:26.591,52
414,2016-04-07 18:18:28.591,54
414,2016-04-07 18:18:43.779,56
414,2016-04-07 18:18:46.19,54
414,2016-04-07 18:18:49.72,52
414,2016-04-07 18:19:12.04,54
414,2016-04-07 18:19:14.444,52
414,2016-04-07 18:19:19.208,54
414,2016-04-07 18:19:20.681,52
414,2016-04-07 18:19:21.921,62
414,2016-04-07 18:19:23.119,56
414,2016-04-07 18:19:24.51,52
414,2016-04-07 18:19:26.594,60
414,2016-04-07 18:19:29.48,58
414,2016-04-07 18:19:30.709,66
414,2016-04-07 18:19:32.04,62
414,2016-04-07 18:19:34.29,58
414,2016-04-07 18:19:36.324,56
414,2016-04-07 18:19:37.358,52
414,2016-04-07 18:19:38.807,64
414,2016-04-07 18:19:39.81,66
414,2016-04-07 18:19:40.811,70
414,2016-04-07 18:19:41.811,62
414,2016-04-07 18:19:43.87,52
414,2016-04-07 18:19:44.87,58
414,2016-04-07 18:19:46.873,56
414,2016-04-07 18:19:47.874,54
414,2016-04-07 18:19:49.346,52
414,2016-04-07 18:19:52.786,74
414,2016-04-07 18:19:54.094,58
414,2016-04-07 18:19:55.094,54
414,2016-04-07 18:19:57.094,52
414,2016-04-07 18:19:58.095,54
414,2016-04-07 18:20:20.872,62
414,2016-04-07 18:20:24.193,54
414,2016-04-07 18:20:30.614,62
414,2016-04-07 18:20:33.158,54
414,2016-04-07 18:20:39.795,52
414,2016-04-07 18:20:45.665,56
414,2016-04-07 18:20:48.837,54
414,2016-04-07 18:20:57.623,62
414,2016-04-07 18:21:08.396,54
414,2016-04-07 18:21:15.146,56
414,2016-04-07 18:21:23.108,60
414,2016-04-07 18:21:28.419,56
414,2016-04-07 18:21:32.749,52
414,2016-04-07 18:21:40.614,56
414,2016-04-07 18:21:46.317,52
414,2016-04-07 18:21:57.067,54
414,2016-04-07 18:22:03.82,52
414,2016-04-07 18:22:06.187,54
414,2016-04-07 18:22:07.358,52
414,2016-04-07 18:22:19.841,54
414,2016-04-07 18:22:29.806,52
414,2016-04-07 18:22:42.257,54
414,2016-04-07 18:22:48.93,60
414,2016-04-07 18:22:50.329,62
414,2016-04-07 18:22:51.525,52
414,2016-04-07 18:22:55.567,54
414,2016-04-07 18:23:07.805,56
414,2016-04-07 18:23:12.952,58
414,2016-04-07 18:23:23.378,56
414,2016-04-07 18:23:27.479,54
414,2016-04-07 18:23:39.949,52
414,2016-04-07 18:23:46.516,54
414,2016-04-07 18:23:55.312,56
414,2016-04-07 18:24:03.577,54
414,2016-04-07 18:24:13.419,52
414,2016-04-07 18:24:23.074,54
414,2016-04-07 18:24:33.207,52
414,2016-04-07 18:24:49.214,60
414,2016-04-07 18:24:56.611,54
414,2016-04-07 18:25:09.801,78
414,2016-04-07 18:26:05.07,62
414,2016-04-07 18:26:07.652,70
414,2016-04-07 18:26:08.803,62
414,2016-04-07 18:26:12.361,54
414,2016-04-07 18:26:19.227,52
414,2016-04-07 18:26:31.522,54
414,2016-04-07 18:26:41.204,60
414,2016-04-07 18:26:48.541,-4
414,2016-04-07 18:27:28.571,-2
414,2016-04-07 18:27:40.521,52
414,2016-04-07 18:28:00.25,54
414,2016-04-07 18:29:51.71,52
414,2016-04-07 18:29:58.727,54
414,2016-04-07 18:30:11.127,56
414,2016-04-07 18:30:19.678,62
414,2016-04-07 18:30:28.173,-4
414,2016-04-07 18:32:47.395,-2
414,2016-04-07 18:32:53.146,56
414,2016-04-07 18:33:08.412,-4
414,2016-04-07 18:33:44.872,-2
414,2016-04-07 18:33:51.422,-4
414,2016-04-07 18:34:13.286,-2
414,2016-04-07 18:34:15.695,54
414,2016-04-07 18:34:24.03,56
414,2016-04-07 18:34:27.154,54
414,2016-04-07 18:34:34.449,52
414,2016-04-07 18:34:44.323,54
414,2016-04-07 18:34:52.991,52
414,2016-04-07 18:34:58.021,54
414,2016-04-07 18:35:05.357,56
414,2016-04-07 18:35:06.398,54
414,2016-04-07 18:35:09.83,62
414,2016-04-07 18:35:12.479,52
414,2016-04-07 18:35:21.031,54
414,2016-04-07 18:35:32.48,64
414,2016-04-07 18:35:44.433,52
414,2016-04-07 18:36:07.482,54
414,2016-04-07 18:36:19.953,52
414,2016-04-07 18:36:52.647,56
414,2016-04-07 18:37:03.68,52
414,2016-04-07 18:37:07.263,58
414,2016-04-07 18:37:33.206,54
414,2016-04-07 18:37:45.637,52
414,2016-04-07 18:37:47.321,54
414,2016-04-07 18:38:11.306,-4
414,2016-04-07 18:38:41.377,-2
414,2016-04-07 18:38:45.676,52
414,2016-04-07 18:39:09.24,60
414,2016-04-07 18:39:12.703,58
414,2016-04-07 18:39:27.631,60
414,2016-04-07 18:39:42.138,56
414,2016-04-07 18:39:48.252,52
414,2016-04-07 18:40:11.309,54
414,2016-04-07 18:40:24.309,52
414,2016-04-07 18:40:32.103,54
414,2016-04-07 18:40:43.293,56
414,2016-04-07 18:40:59.037,60
414,2016-04-07 18:41:20.921,52
414,2016-04-07 18:41:23.791,54
414,2016-04-07 18:41:45.457,52
414,2016-04-07 18:41:48.856,56
414,2016-04-07 18:42:11.315,64
414,2016-04-07 18:42:18.249,52
414,2016-04-07 18:42:30.267,60
414,2016-04-07 18:42:43.207,54
414,2016-04-07 18:42:51.046,52
414,2016-04-07 18:42:57.696,54
414,2016-04-07 18:43:02.732,52
414,2016-04-07 18:43:03.738,54
414,2016-04-07 18:43:07.768,56
414,2016-04-07 18:43:10.103,64
414,2016-04-07 18:43:11.522,60
414,2016-04-07 18:43:12.549,52
414,2016-04-07 18:43:14.55,-4
414,2016-04-07 18:43:49.78,-2
414,2016-04-07 18:43:55.046,54
414,2016-04-07 18:43:59.835,52
414,2016-04-07 18:44:13.393,54
414,2016-04-07 18:44:25.283,58
414,2016-04-07 18:44:30.1,52
414,2016-04-07 18:44:37.332,54
414,2016-04-07 18:44:43.466,60
414,2016-04-07 18:44:44.817,58
414,2016-04-07 18:44:45.825,54
414,2016-04-07 18:44:49.586,52
414,2016-04-07 18:44:59.336,54
414,2016-04-07 18:45:06.56,60
414,2016-04-07 18:45:18.034,54
414,2016-04-07 18:45:22.807,52
414,2016-04-07 18:45:28.939,62
414,2016-04-07 18:45:36.526,52
414,2016-04-07 18:45:42.86,60
414,2016-04-07 18:45:55.189,54
414,2016-04-07 18:46:06.91,58
414,2016-04-07 18:46:13.359,52
414,2016-04-07 18:46:26.095,54
414,2016-04-07 18:46:32.547,52
414,2016-04-07 18:46:48.414,56
414,2016-04-07 18:46:58.931,58
414,2016-04-07 18:47:04.599,54
414,2016-04-07 18:47:12.718,52
414,2016-04-07 18:47:24.742,56
414,2016-04-07 18:47:33.55,-4
414,2016-04-07 18:48:04.796,-2
414,2016-04-07 18:48:10.977,52
414,2016-04-07 18:48:18.22,62
414,2016-04-07 18:48:22.434,54
414,2016-04-07 18:48:36.632,62
414,2016-04-07 18:48:43.43,54
414,2016-04-07 18:48:45.398,60
414,2016-04-07 18:49:05.716,64
414,2016-04-07 18:49:13.546,62
414,2016-04-07 18:49:19.73,54
414,2016-04-07 18:49:26.508,58
414,2016-04-07 18:49:44.348,54
414,2016-04-07 18:49:51.923,56
414,2016-04-07 18:50:02.255,52
414,2016-04-07 18:50:05.236,54
414,2016-04-07 18:50:21.142,62
414,2016-04-07 18:50:27.053,54
414,2016-04-07 18:50:35.263,62
414,2016-04-07 18:50:44.363,52
414,2016-04-07 18:50:56.311,58
414,2016-04-07 18:51:06.497,54
414,2016-04-07 18:51:33.624,52
414,2016-04-07 18:51:37.412,56
414,2016-04-07 18:52:09.036,54
414,2016-04-07 18:52:16.32,-4
414,2016-04-07 18:52:36.131,-2
414,2016-04-07 18:52:43.174,52
414,2016-04-07 18:52:46.761,54
414,2016-04-07 18:52:47.773,52
414,2016-04-07 18:52:55.418,58
414,2016-04-07 18:53:10.37,64
414,2016-04-07 18:53:24.572,52
414,2016-04-07 18:53:28.418,-4
414,2016-04-07 18:53:44.591,-2
414,2016-04-07 18:53:45.065,54
414,2016-04-07 18:53:51.519,58
414,2016-04-07 18:53:56.586,54
414,2016-04-07 18:54:00.879,52
414,2016-04-07 18:54:05.454,54
414,2016-04-07 18:54:09.368,62
414,2016-04-07 18:54:16.58,54
414,2016-04-07 18:54:25.634,60
414,2016-04-07 18:54:27.698,54
414,2016-04-07 18:54:29.572,74
414,2016-04-07 18:54:46.892,54
414,2016-04-07 18:55:03.491,56
414,2016-04-07 18:55:06.027,54
414,2016-04-07 18:55:23.371,52
414,2016-04-07 18:55:28.162,54
414,2016-04-07 18:55:29.163,56
414,2016-04-07 18:55:30.163,54
414,2016-04-07 18:55:32.163,62
414,2016-04-07 18:55:36.592,56
414,2016-04-07 18:55:42.166,52
414,2016-04-07 18:55:45.484,56
414,2016-04-07 18:56:01.492,60
414,2016-04-07 18:56:11.621,54
414,2016-04-07 18:56:13.728,60
414,2016-04-07 18:56:31.431,54
414,2016-04-07 18:56:50.003,-4
414,2016-04-07 18:57:14.239,-2
414,2016-04-07 18:57:14.683,62
414,2016-04-07 18:57:19.24,52
414,2016-04-07 18:57:27.138,60
414,2016-04-07 18:57:32.709,58
414,2016-04-07 18:57:34.909,54
414,2016-04-07 18:57:42.531,52
414,2016-04-07 18:57:50.474,70
414,2016-04-07 18:58:01.922,54
414,2016-04-07 18:58:09.86,52
414,2016-04-07 18:58:11.971,54
414,2016-04-07 18:58:25.823,52
414,2016-04-07 18:58:28.775,54
414,2016-04-07 18:58:31.299,56
414,2016-04-07 18:58:33.302,52
414,2016-04-07 18:58:34.328,54
414,2016-04-07 18:58:40.54,70
414,2016-04-07 18:58:46.107,54
414,2016-04-07 18:58:53.396,92
414,2016-04-07 18:59:05.07,104
414,2016-04-07 18:59:12.084,108
414,2016-04-07 18:59:18.85,104
414,2016-04-07 18:59:28.992,106
414,2016-04-07 18:59:29.997,108
414,2016-04-07 18:59:39.445,106
414,2016-04-07 18:59:54.33,102
414,2016-04-07 18:59:55.959,104
414,2016-04-07 18:59:59.444,106
414,2016-04-07 19:00:04.539,104
414,2016-04-07 19:00:09.294,106
414,2016-04-07 19:00:22.119,104
414,2016-04-07 19:00:37.676,106
414,2016-04-07 19:00:38.676,108
414,2016-04-07 19:00:41.813,106
414,2016-04-07 19:00:47.765,108
414,2016-04-07 19:00:49.812,104
414,2016-04-07 19:00:50.812,102
414,2016-04-07 19:00:52.117,104
414,2016-04-07 19:01:02.099,106
414,2016-04-07 19:01:04.474,104
414,2016-04-07 19:01:09.775,106
414,2016-04-07 19:01:13.72,104
414,2016-04-07 19:01:24.639,102
414,2016-04-07 19:01:27.233,104
414,2016-04-07 19:01:31.888,106
414,2016-04-07 19:01:37.278,104
414,2016-04-07 19:01:44.064,106
414,2016-04-07 19:01:53.401,104
414,2016-04-07 19:01:56.49,106
414,2016-04-07 19:01:58.282,108
414,2016-04-07 19:02:02.099,104
414,2016-04-07 19:02:05.596,106
414,2016-04-07 19:02:16.88,104
414,2016-04-07 19:02:21.12,106
414,2016-04-07 19:02:25.108,108
414,2016-04-07 19:02:33.534,106
414,2016-04-07 19:02:36.897,104
414,2016-04-07 19:02:45.322,106
414,2016-04-07 19:03:00.2,104
414,2016-04-07 19:03:11.581,106
414,2016-04-07 19:03:13.764,104
414,2016-04-07 19:03:17.708,106
414,2016-04-07 19:03:19.227,104
414,2016-04-07 19:03:25.243,106
414,2016-04-07 19:03:29.342,104
414,2016-04-07 19:03:37.267,108
414,2016-04-07 19:03:56.961,102
414,2016-04-07 19:04:02.875,104
414,2016-04-07 19:04:12.558,106
414,2016-04-07 19:04:16.768,104
414,2016-04-07 19:04:21.356,106
414,2016-04-07 19:04:23.356,104
414,2016-04-07 19:04:26.9,106
414,2016-04-07 19:04:30.281,108
414,2016-04-07 19:04:32.283,106
414,2016-04-07 19:04:34.544,104
414,2016-04-07 19:04:35.544,106
414,2016-04-07 19:04:39.499,104
414,2016-04-07 19:04:42.62,106
414,2016-04-07 19:04:45.091,104
414,2016-04-07 19:04:47.101,106
414,2016-04-07 19:04:49.579,104
414,2016-04-07 19:04:51.747,106
414,2016-04-07 19:04:54.249,104
414,2016-04-07 19:04:59.75,106
414,2016-04-07 19:05:04.933,108
414,2016-04-07 19:05:07.358,104
414,2016-04-07 19:05:10.635,108
414,2016-04-07 19:05:21.617,106
414,2016-04-07 19:05:24.784,104
414,2016-04-07 19:05:43.426,106
414,2016-04-07 19:05:46.612,104
414,2016-04-07 19:05:51.315,106
414,2016-04-07 19:05:57.453,-4
414,2016-04-07 19:07:12.009,-2
414,2016-04-07 19:07:19.848,104
414,2016-04-07 19:07:32.831,108
414,2016-04-07 19:07:41.086,104
414,2016-04-07 19:08:15.993,106
414,2016-04-07 19:08:29.542,104
414,2016-04-07 19:08:40.447,106
414,2016-04-07 19:08:47.229,104
414,2016-04-07 19:08:59.889,106
414,2016-04-07 19:09:10.599,104
414,2016-04-07 19:09:14.695,106
414,2016-04-07 19:09:20.06,104
414,2016-04-07 19:09:31.346,-4
414,2016-04-07 19:09:58.005,-2
414,2016-04-07 19:10:01.085,106
414,2016-04-07 19:10:06.312,104
414,2016-04-07 19:10:10.77,106
414,2016-04-07 19:10:17.443,104
414,2016-04-07 19:10:21.344,106
414,2016-04-07 19:10:25.706,104
414,2016-04-07 19:10:31.835,102
414,2016-04-07 19:10:34.125,106
414,2016-04-07 19:10:42.927,104
414,2016-04-07 19:11:02.089,106
414,2016-04-07 19:11:06.723,104
414,2016-04-07 19:11:14.761,106
414,2016-04-07 19:11:25.238,104
414,2016-04-07 19:11:28.688,106
414,2016-04-07 19:11:41.588,104
414,2016-04-07 19:11:55.616,106
414,2016-04-07 19:12:00.342,108
414,2016-04-07 19:12:05.026,106
414,2016-04-07 19:12:15.149,104
414,2016-04-07 19:12:25.661,-4
414,2016-04-07 19:12:46.402,-2
414,2016-04-07 19:12:52.944,106
414,2016-04-07 19:13:06.767,104
414,2016-04-07 19:13:12.05,106
414,2016-04-07 19:13:19.293,104
414,2016-04-07 19:13:29.614,106
414,2016-04-07 19:13:42.331,104
414,2016-04-07 19:13:46.715,106
414,2016-04-07 19:13:54.215,104
414,2016-04-07 19:14:04.391,106
414,2016-04-07 19:14:12.656,104
414,2016-04-07 19:14:18.965,102
414,2016-04-07 19:14:30.973,104
414,2016-04-07 19:14:37.458,102
414,2016-04-07 19:14:45.086,-4
414,2016-04-07 19:15:44.399,-2
414,2016-04-07 19:15:45.193,106
414,2016-04-07 19:15:52.756,104
414,2016-04-07 19:16:15.578,106
414,2016-04-07 19:16:33.855,104
414,2016-04-07 19:16:41.944,108
414,2016-04-07 19:16:50.686,102
414,2016-04-07 19:17:04.797,-4
414,2016-04-07 19:18:22.764,-2
414,2016-04-07 19:18:25.044,104
414,2016-04-07 19:18:27.934,106
414,2016-04-07 19:18:38.36,-4
414,2016-04-07 19:19:06.036,-2
414,2016-04-07 19:19:16.422,104
414,2016-04-07 19:19:25.684,106
414,2016-04-07 19:19:30.504,104
414,2016-04-07 19:19:37.094,106
414,2016-04-07 19:19:48.167,104
414,2016-04-07 19:20:08.111,106
414,2016-04-07 19:20:13.748,104
414,2016-04-07 19:20:27.775,106
414,2016-04-07 19:20:39.183,104
414,2016-04-07 19:20:50.21,106
414,2016-04-07 19:20:52.299,-4
414,2016-04-07 19:21:19.563,-2
414,2016-04-07 19:21:28.457,108
414,2016-04-07 19:21:39.001,106
414,2016-04-07 19:21:49.204,104
414,2016-04-07 19:21:58.224,106
414,2016-04-07 19:22:01.426,104
414,2016-04-07 19:22:12.915,-4
414,2016-04-07 19:22:22.408,-2
414,2016-04-07 19:22:27.774,106
414,2016-04-07 19:22:33.597,104
414,2016-04-07 19:22:36.748,106
414,2016-04-07 19:22:55.55,104
414,2016-04-07 19:23:01.327,106
414,2016-04-07 19:23:08.984,104
414,2016-04-07 19:23:16.206,102
414,2016-04-07 19:23:29.377,108
414,2016-04-07 19:23:36.824,106
414,2016-04-07 19:23:51.212,108
414,2016-04-07 19:24:05.441,106
414,2016-04-07 19:24:10.869,104
414,2016-04-07 19:24:13.729,-4
414,2016-04-07 19:24:35.938,-2
414,2016-04-07 19:24:37.221,106
414,2016-04-07 19:24:45.564,104
414,2016-04-07 19:24:48.351,106
414,2016-04-07 19:25:11.051,108
414,2016-04-07 19:25:23.925,106
414,2016-04-07 19:25:31.532,104
414,2016-04-07 19:25:47.85,108
414,2016-04-07 19:25:52.747,104
414,2016-04-07 19:26:04.495,-4
414,2016-04-07 19:26:24.846,-2
414,2016-04-07 19:26:25.479,106
414,2016-04-07 19:26:30.528,108
414,2016-04-07 19:26:43.276,104
414,2016-04-07 19:26:45.914,108
414,2016-04-07 19:27:02.62,104
414,2016-04-07 19:27:11.302,106
414,2016-04-07 19:27:14.054,104
414,2016-04-07 19:27:33.95,106
414,2016-04-07 19:27:53.266,104
414,2016-04-07 19:28:19.655,106
414,2016-04-07 19:28:41.318,108
414,2016-04-07 19:29:21.717,106
414,2016-04-07 19:29:27.747,104
414,2016-04-07 19:29:36.104,-4
414,2016-04-07 19:30:05.563,-2
414,2016-04-07 19:30:12.291,-4
414,2016-04-07 19:30:54.309,-2
414,2016-04-07 19:31:06.501,106
414,2016-04-07 19:31:17.169,104
414,2016-04-07 19:31:27.965,106
414,2016-04-07 19:31:35.257,104
414,2016-04-07 19:31:40.976,106
414,2016-04-07 19:31:52.578,104
414,2016-04-07 19:31:55.852,106
414,2016-04-07 19:31:57.397,104
414,2016-04-07 19:32:00.983,106
414,2016-04-07 19:32:09.111,104
414,2016-04-07 19:32:12.114,106
414,2016-04-07 19:32:13.757,104
414,2016-04-07 19:32:17.596,106
414,2016-04-07 19:32:21.885,104
414,2016-04-07 19:32:28.231,106
414,2016-04-07 19:32:32.759,108
414,2016-04-07 19:32:37.057,106
414,2016-04-07 19:32:43.953,108
414,2016-04-07 19:32:45.454,106
414,2016-04-07 19:32:48.352,104
414,2016-04-07 19:32:52.418,108
414,2016-04-07 19:32:57.574,104
414,2016-04-07 19:33:01.199,102
414,2016-04-07 19:33:04.97,106
414,2016-04-07 19:33:11.876,104
414,2016-04-07 19:33:13.006,106
414,2016-04-07 19:33:16.71,104
414,2016-04-07 19:33:18.94,108
414,2016-04-07 19:33:19.94,106
414,2016-04-07 19:33:25.978,104
414,2016-04-07 19:33:34.912,106
414,2016-04-07 19:33:43.202,104
414,2016-04-07 19:33:53.789,106
414,2016-04-07 19:34:00.007,104
414,2016-04-07 19:34:10.761,106
414,2016-04-07 19:34:25.062,104
414,2016-04-07 19:34:36.875,108
414,2016-04-07 19:34:45.217,102
414,2016-04-07 19:34:50.946,104
414,2016-04-07 19:35:00.332,106
414,2016-04-07 19:35:08.26,104
414,2016-04-07 19:35:19.748,108
414,2016-04-07 19:35:22.805,104
414,2016-04-07 19:35:24.859,106
414,2016-04-07 19:35:33.793,104
414,2016-04-07 19:35:47.98,106
414,2016-04-07 19:35:49.181,104
414,2016-04-07 19:35:59.987,106
414,2016-04-07 19:36:10.638,104
414,2016-04-07 19:36:15.864,108
414,2016-04-07 19:36:21.88,104
414,2016-04-07 19:36:31.294,106
414,2016-04-07 19:36:39.248,-4
414,2016-04-07 19:37:50.153,-2
414,2016-04-07 19:37:50.473,108
414,2016-04-07 19:37:53.096,104
414,2016-04-07 19:37:55.264,106
414,2016-04-07 19:37:58.51,104
414,2016-04-07 19:38:03.561,108
414,2016-04-07 19:38:04.936,106
414,2016-04-07 19:38:07.32,104
414,2016-04-07 19:38:09.153,106
414,2016-04-07 19:38:11.071,108
414,2016-04-07 19:38:15.803,106
414,2016-04-07 19:38:24.604,104
414,2016-04-07 19:38:27.253,106
414,2016-04-07 19:38:32.251,104
414,2016-04-07 19:38:39.932,106
414,2016-04-07 19:38:49.937,104
414,2016-04-07 19:38:56.438,106
414,2016-04-07 19:39:06.877,104
414,2016-04-07 19:39:16.708,106
414,2016-04-07 19:39:19.035,104
414,2016-04-07 19:39:23.415,106
414,2016-04-07 19:39:25.448,104
414,2016-04-07 19:39:30.141,106
414,2016-04-07 19:39:37.291,104
414,2016-04-07 19:39:51.067,108
414,2016-04-07 19:40:02.15,106
414,2016-04-07 19:40:16.698,108
414,2016-04-07 19:40:24.662,106
414,2016-04-07 19:40:30.562,104
414,2016-04-07 19:40:37.961,106
414,2016-04-07 19:40:50.208,104
414,2016-04-07 19:40:57.32,106
414,2016-04-07 19:40:58.687,104
414,2016-04-07 19:41:07.549,-4
414,2016-04-07 19:41:28.748,-2
414,2016-04-07 19:41:36.898,106
414,2016-04-07 19:41:39.673,108
414,2016-04-07 19:41:48.918,104
414,2016-04-07 19:41:56.854,106
414,2016-04-07 19:42:06.104,104
414,2016-04-07 19:42:21.134,106
414,2016-04-07 19:42:26.111,108
414,2016-04-07 19:42:38.926,106
414,2016-04-07 19:42:48.071,108
414,2016-04-07 19:42:52.51,104
414,2016-04-07 19:42:55.118,-4
414,2016-04-07 19:43:30.804,-2
414,2016-04-07 19:43:36.141,106
414,2016-04-07 19:43:38.041,104
414,2016-04-07 19:43:39.853,108
414,2016-04-07 19:43:43.125,106
414,2016-04-07 19:43:50.992,104
414,2016-04-07 19:43:56.047,106
414,2016-04-07 19:44:05.296,104
414,2016-04-07 19:44:20.61,108
414,2016-04-07 19:44:22.725,106
414,2016-04-07 19:44:29.034,104
414,2016-04-07 19:44:41.056,106
414,2016-04-07 19:45:06.569,104
414,2016-04-07 19:45:13.977,106
414,2016-04-07 19:45:22.093,104
414,2016-04-07 19:45:31.156,106
414,2016-04-07 19:45:34.547,104
414,2016-04-07 19:45:38.083,106
414,2016-04-07 19:45:53.09,104
414,2016-04-07 19:46:05.196,108
414,2016-04-07 19:46:11.555,104
414,2016-04-07 19:46:19.97,106
414,2016-04-07 19:46:27.203,104
414,2016-04-07 19:46:35.984,106
414,2016-04-07 19:46:55.045,104
414,2016-04-07 19:46:59.995,102
414,2016-04-07 19:47:13.816,106
414,2016-04-07 19:47:30.64,104
414,2016-04-07 19:47:37.2,106
414,2016-04-07 19:47:39.654,104
414,2016-04-07 19:48:15.081,106
414,2016-04-07 19:48:30.663,104
414,2016-04-07 19:48:46.63,106
414,2016-04-07 19:48:58.189,108
414,2016-04-07 19:49:02.297,106
414,2016-04-07 19:49:04.262,108
414,2016-04-07 19:49:20.212,106
414,2016-04-07 19:49:22.716,104
414,2016-04-07 19:49:40.447,106
414,2016-04-07 19:49:56.415,104
414,2016-04-07 19:50:10.27,106
414,2016-04-07 19:50:23.769,104
414,2016-04-07 19:50:42.395,-4
414,2016-04-07 19:51:20.863,-2
414,2016-04-07 19:51:25.841,106
414,2016-04-07 19:51:29.827,102
414,2016-04-07 19:51:31.886,104
414,2016-04-07 19:51:34.698,106
414,2016-04-07 19:51:41.963,104
414,2016-04-07 19:51:44.332,106
414,2016-04-07 19:51:48.031,104
414,2016-04-07 19:51:56.483,106
414,2016-04-07 19:51:58.488,104
414,2016-04-07 19:52:05.764,108
414,2016-04-07 19:52:09.883,104
414,2016-04-07 19:52:15.862,106
414,2016-04-07 19:52:23.834,104
414,2016-04-07 19:52:27.904,106
414,2016-04-07 19:52:31.152,104
414,2016-04-07 19:52:32.359,102
414,2016-04-07 19:52:33.359,104
414,2016-04-07 19:52:38.814,106
414,2016-04-07 19:52:45.999,104
414,2016-04-07 19:52:50.395,106
414,2016-04-07 19:52:53.705,104
414,2016-04-07 19:52:56.808,106
414,2016-04-07 19:53:02.853,104
414,2016-04-07 19:53:22.551,106
414,2016-04-07 19:53:25.745,104
414,2016-04-07 19:53:34.293,106
414,2016-04-07 19:53:38.248,104
414,2016-04-07 19:53:40.89,106
414,2016-04-07 19:53:51.958,102
414,2016-04-07 19:53:59.533,108
414,2016-04-07 19:54:07.765,104
414,2016-04-07 19:54:12.899,106
414,2016-04-07 19:54:15.761,104
414,2016-04-07 19:54:21.945,108
414,2016-04-07 19:54:29.307,56
414,2016-04-07 19:54:38.127,54
414,2016-04-07 19:54:40.477,52
414,2016-04-07 19:54:49.158,56
414,2016-04-07 19:54:57.571,92
414,2016-04-07 19:55:04.063,54
414,2016-04-07 19:55:09.844,68
414,2016-04-07 19:55:15.392,60
414,2016-04-07 19:55:22.301,54
414,2016-04-07 19:55:30.476,62
414,2016-04-07 19:55:36.165,54
414,2016-04-07 19:55:44.386,56
414,2016-04-07 19:55:46.784,54
414,2016-04-07 19:55:55.754,52
414,2016-04-07 19:56:08.101,60
414,2016-04-07 19:56:22.127,52
414,2016-04-07 19:56:32.052,56
414,2016-04-07 19:56:36.764,54
414,2016-04-07 19:56:37.792,52
414,2016-04-07 19:56:40.792,62
414,2016-04-07 19:56:46.373,58
414,2016-04-07 19:57:02.071,56
414,2016-04-07 19:57:08.498,52
414,2016-04-07 19:57:20.583,54
414,2016-04-07 19:57:29.332,52
414,2016-04-07 19:57:34.521,54
414,2016-04-07 19:57:39.393,52
414,2016-04-07 19:57:43.802,54
414,2016-04-07 19:57:45.912,52
414,2016-04-07 19:57:52.25,54
414,2016-04-07 19:57:54.291,52
414,2016-04-07 19:57:57.465,54
414,2016-04-07 19:58:04.592,62
414,2016-04-07 19:58:06.379,64
414,2016-04-07 19:58:09.5,56
414,2016-04-07 19:58:21.181,58
414,2016-04-07 19:58:23.941,54
414,2016-04-07 19:58:30.726,52
414,2016-04-07 19:58:33.005,54
414,2016-04-07 19:58:34.304,52
414,2016-04-07 19:58:42.741,54
414,2016-04-07 19:58:50.68,58
414,2016-04-07 19:58:57.624,54
414,2016-04-07 19:59:07.532,56
414,2016-04-07 19:59:19.377,52
414,2016-04-07 19:59:21.384,54
414,2016-04-07 19:59:29.214,52
414,2016-04-07 19:59:36.974,56
414,2016-04-07 19:59:40.141,54
414,2016-04-07 19:59:52.691,52
414,2016-04-07 19:59:59.811,54
414,2016-04-07 20:00:09.354,52
414,2016-04-07 20:00:17.01,54
414,2016-04-07 20:00:27.594,52
414,2016-04-07 20:00:39.233,58
414,2016-04-07 20:00:40.56,52
414,2016-04-07 20:00:49.317,58
414,2016-04-07 20:01:02.846,66
414,2016-04-07 20:01:03.915,62
414,2016-04-07 20:01:14.856,60
414,2016-04-07 20:01:21.254,54
414,2016-04-07 20:01:32.048,60
414,2016-04-07 20:01:36.521,62
414,2016-04-07 20:01:47.221,52
414,2016-04-07 20:01:55.367,56
414,2016-04-07 20:02:00.916,54
414,2016-04-07 20:02:15.306,52
414,2016-04-07 20:02:27.549,54
414,2016-04-07 20:02:34.909,52
414,2016-04-07 20:02:35.909,54
414,2016-04-07 20:02:39.96,52
414,2016-04-07 20:02:54.546,54
414,2016-04-07 20:03:03.483,62
414,2016-04-07 20:03:05.0,52
414,2016-04-07 20:03:20.577,62
414,2016-04-07 20:03:34.74,54
414,2016-04-07 20:03:43.635,52
414,2016-04-07 20:03:50.534,54
414,2016-04-07 20:03:58.218,56
414,2016-04-07 20:03:59.813,54
414,2016-04-07 20:04:21.012,56
414,2016-04-07 20:04:36.093,-4
414,2016-04-07 20:05:09.773,-2
414,2016-04-07 20:05:10.227,60
414,2016-04-07 20:05:12.784,52
414,2016-04-07 20:05:14.257,54
414,2016-04-07 20:05:15.257,60
414,2016-04-07 20:05:16.257,58
414,2016-04-07 20:05:17.258,54
414,2016-04-07 20:05:20.258,52
414,2016-04-07 20:05:21.258,54
414,2016-04-07 20:05:23.258,56
414,2016-04-07 20:05:25.532,54
414,2016-04-07 20:05:33.322,62
414,2016-04-07 20:05:36.951,52
414,2016-04-07 20:05:41.445,54
414,2016-04-07 20:05:43.682,62
414,2016-04-07 20:05:46.015,54
414,2016-04-07 20:05:50.523,52
414,2016-04-07 20:05:57.492,60
414,2016-04-07 20:06:01.006,54
414,2016-04-07 20:06:06.078,52
414,2016-04-07 20:06:14.932,56
414,2016-04-07 20:06:21.858,52
414,2016-04-07 20:06:32.834,56
414,2016-04-07 20:06:36.032,52
414,2016-04-07 20:06:40.734,54
414,2016-04-07 20:06:47.61,66
414,2016-04-07 20:06:53.399,58
414,2016-04-07 20:06:55.408,54
414,2016-04-07 20:06:56.408,62
414,2016-04-07 20:07:02.904,52
414,2016-04-07 20:07:04.63,54
414,2016-04-07 20:07:05.63,60
414,2016-04-07 20:07:08.631,52
414,2016-04-07 20:07:10.631,56
414,2016-04-07 20:07:13.131,52
414,2016-04-07 20:07:22.256,86
414,2016-04-07 20:07:31.973,54
414,2016-04-07 20:07:34.003,52
414,2016-04-07 20:07:35.003,60
414,2016-04-07 20:07:36.003,62
414,2016-04-07 20:07:38.003,54
414,2016-04-07 20:07:39.003,52
414,2016-04-07 20:07:42.005,54
414,2016-04-07 20:07:43.243,58
414,2016-04-07 20:07:45.801,60
414,2016-04-07 20:07:50.162,52
414,2016-04-07 20:07:57.494,54
414,2016-04-07 20:08:03.545,52
414,2016-04-07 20:08:06.796,62
414,2016-04-07 20:08:14.417,56
414,2016-04-07 20:08:19.624,54
414,2016-04-07 20:08:20.667,62
414,2016-04-07 20:08:29.801,68
414,2016-04-07 20:08:36.64,54
414,2016-04-07 20:08:48.35,52
414,2016-04-07 20:08:54.924,54
414,2016-04-07 20:09:03.015,52
414,2016-04-07 20:09:17.748,54
414,2016-04-07 20:09:26.322,62
414,2016-04-07 20:09:29.003,56
414,2016-04-07 20:09:33.45,52
414,2016-04-07 20:09:34.85,58
414,2016-04-07 20:09:40.077,54
414,2016-04-07 20:09:47.548,68
414,2016-04-07 20:09:51.218,52
414,2016-04-07 20:09:54.502,54
414,2016-04-07 20:10:09.002,52
414,2016-04-07 20:10:19.326,54
414,2016-04-07 20:10:23.236,60
414,2016-04-07 20:10:25.914,52
414,2016-04-07 20:10:41.863,60
414,2016-04-07 20:10:50.346,54
414,2016-04-07 20:10:52.347,52
414,2016-04-07 20:10:53.348,54
414,2016-04-07 20:10:55.35,56
414,2016-04-07 20:11:08.312,60
414,2016-04-07 20:11:29.051,52
414,2016-04-07 20:11:37.632,56
414,2016-04-07 20:11:40.004,52
414,2016-04-07 20:11:42.567,54
414,2016-04-07 20:11:46.863,52
414,2016-04-07 20:11:47.863,54
414,2016-04-07 20:11:49.863,56
414,2016-04-07 20:11:50.863,54
414,2016-04-07 20:11:52.864,64
414,2016-04-07 20:12:01.599,54
414,2016-04-07 20:12:10.972,52
414,2016-04-07 20:12:17.48,58
414,2016-04-07 20:12:18.909,54
414,2016-04-07 20:12:19.91,62
414,2016-04-07 20:12:21.91,54
414,2016-04-07 20:12:22.911,60
414,2016-04-07 20:12:23.911,58
414,2016-04-07 20:12:30.403,60
414,2016-04-07 20:12:37.16,52
414,2016-04-07 20:12:39.485,54
414,2016-04-07 20:12:41.485,56
414,2016-04-07 20:12:44.457,52
414,2016-04-07 20:13:02.841,54
414,2016-04-07 20:13:10.518,62
414,2016-04-07 20:13:28.952,54
414,2016-04-07 20:13:31.804,52
414,2016-04-07 20:13:34.823,58
414,2016-04-07 20:13:37.824,54
414,2016-04-07 20:13:38.824,56
414,2016-04-07 20:13:39.824,-4
414,2016-04-07 20:13:59.658,-2
414,2016-04-07 20:14:02.042,52
414,2016-04-07 20:14:03.889,54
414,2016-04-07 20:14:07.902,58
414,2016-04-07 20:14:14.722,52
414,2016-04-07 20:14:17.313,56
414,2016-04-07 20:14:18.932,58
414,2016-04-07 20:14:20.136,54
414,2016-04-07 20:14:21.137,56
414,2016-04-07 20:14:23.14,52
414,2016-04-07 20:14:24.14,54
414,2016-04-07 20:14:26.21,60
414,2016-04-07 20:14:28.087,52
414,2016-04-07 20:14:32.377,58
414,2016-04-07 20:14:39.185,54
414,2016-04-07 20:14:43.974,52
414,2016-04-07 20:14:46.903,62
414,2016-04-07 20:14:50.071,54
414,2016-04-07 20:14:59.129,52
414,2016-04-07 20:15:06.779,54
414,2016-04-07 20:15:11.257,62
414,2016-04-07 20:15:19.242,52
414,2016-04-07 20:15:24.932,54
414,2016-04-07 20:15:28.61,62
414,2016-04-07 20:15:33.337,58
414,2016-04-07 20:15:42.003,52
414,2016-04-07 20:15:46.315,62
414,2016-04-07 20:15:47.458,60
414,2016-04-07 20:15:55.432,52
414,2016-04-07 20:16:04.213,54
414,2016-04-07 20:16:14.721,64
414,2016-04-07 20:16:24.29,58
414,2016-04-07 20:16:30.673,52
414,2016-04-07 20:16:32.158,56
414,2016-04-07 20:16:34.931,54
414,2016-04-07 20:16:35.932,56
414,2016-04-07 20:16:37.932,52
414,2016-04-07 20:16:48.348,54
414,2016-04-07 20:16:53.554,52
414,2016-04-07 20:17:02.155,62
414,2016-04-07 20:17:05.162,64
414,2016-04-07 20:17:11.337,54
414,2016-04-07 20:17:15.312,52
414,2016-04-07 20:17:25.56,54
414,2016-04-07 20:17:32.55,56
414,2016-04-07 20:17:33.781,64
414,2016-04-07 20:17:36.93,52
414,2016-04-07 20:18:07.389,56
414,2016-04-07 20:18:17.913,54
414,2016-04-07 20:18:21.199,56
414,2016-04-07 20:18:22.869,54
414,2016-04-07 20:18:31.419,60
414,2016-04-07 20:18:36.408,54
414,2016-04-07 20:18:39.662,52
414,2016-04-07 20:18:43.792,58
414,2016-04-07 20:18:47.247,52
414,2016-04-07 20:18:53.442,54
414,2016-04-07 20:19:08.141,60
414,2016-04-07 20:19:16.52,58
414,2016-04-07 20:19:22.423,60
414,2016-04-07 20:19:34.997,54
414,2016-04-07 20:19:38.921,58
414,2016-04-07 20:19:48.812,54
414,2016-04-07 20:19:56.987,52
414,2016-04-07 20:20:00.679,58
414,2016-04-07 20:20:02.21,56
414,2016-04-07 20:20:03.236,54
414,2016-04-07 20:20:09.67,62
414,2016-04-07 20:20:16.1,58
414,2016-04-07 20:20:24.498,54
414,2016-04-07 20:20:31.296,58
414,2016-04-07 20:20:33.778,54
414,2016-04-07 20:20:35.863,56
414,2016-04-07 20:20:50.512,58
414,2016-04-07 20:21:18.095,54
414,2016-04-07 20:21:34.265,56
414,2016-04-07 20:21:36.266,54
414,2016-04-07 20:21:37.268,62
414,2016-04-07 20:21:39.276,52
414,2016-04-07 20:21:41.277,54
414,2016-04-07 20:21:42.278,52
414,2016-04-07 20:21:46.611,54
414,2016-04-07 20:21:48.612,60
414,2016-04-07 20:21:50.612,62
414,2016-04-07 20:21:52.921,56
414,2016-04-07 20:21:56.491,52
414,2016-04-07 20:21:58.662,54
414,2016-04-07 20:22:03.748,62
414,2016-04-07 20:22:06.115,-4
414,2016-04-07 20:23:37.908,-2
414,2016-04-07 20:23:41.995,52
414,2016-04-07 20:23:50.027,62
414,2016-04-07 20:23:53.339,52
414,2016-04-07 20:23:58.769,62
414,2016-04-07 20:24:08.562,54
414,2016-04-07 20:24:17.81,60
414,2016-04-07 20:24:19.467,62
414,2016-04-07 20:24:22.185,54
414,2016-04-07 20:24:34.51,52
414,2016-04-07 20:24:55.188,60
414,2016-04-07 20:25:05.558,54
414,2016-04-07 20:25:08.505,56
414,2016-04-07 20:25:10.465,64
414,2016-04-07 20:25:11.465,62
414,2016-04-07 20:25:24.942,54
414,2016-04-07 20:25:29.76,56
414,2016-04-07 20:30:38.13,-4
414,2016-04-07 20:32:33.471,-2
414,2016-04-07 20:32:35.145,52
414,2016-04-07 20:32:37.26,54
414,2016-04-07 20:32:38.687,56
414,2016-04-07 20:32:42.688,54
414,2016-04-07 20:32:44.689,56
414,2016-04-07 20:32:45.688,54
414,2016-04-07 20:32:46.81,58
414,2016-04-07 20:32:49.413,54
414,2016-04-07 20:32:52.429,58
414,2016-04-07 20:32:56.449,60
414,2016-04-07 20:33:00.242,56
414,2016-04-07 20:33:08.475,54
414,2016-04-07 20:33:20.574,52
414,2016-04-07 20:33:27.539,54
414,2016-04-07 20:33:31.004,52
414,2016-04-07 20:33:49.66,56
414,2016-04-07 20:33:51.843,54
414,2016-04-07 20:33:55.263,52
414,2016-04-07 20:34:05.044,54
414,2016-04-07 20:34:16.93,60
414,2016-04-07 20:34:18.36,58
414,2016-04-07 20:34:19.361,56
414,2016-04-07 20:34:24.104,54
414,2016-04-07 20:34:25.104,56
414,2016-04-07 20:34:35.667,52
414,2016-04-07 20:34:48.211,54
414,2016-04-07 20:34:56.814,56
414,2016-04-07 20:34:59.881,52
414,2016-04-07 20:35:01.098,58
414,2016-04-07 20:35:03.264,52
414,2016-04-07 20:35:04.35,54
414,2016-04-07 20:35:10.105,56
414,2016-04-07 20:35:11.289,62
414,2016-04-07 20:35:14.494,56
414,2016-04-07 20:35:19.571,62
414,2016-04-07 20:35:22.867,54
414,2016-04-07 20:35:27.98,60
414,2016-04-07 20:35:36.79,62
414,2016-04-07 20:35:41.837,54
414,2016-04-07 20:35:56.96,56
414,2016-04-07 20:36:00.852,54
414,2016-04-07 20:36:22.878,52
414,2016-04-07 20:36:32.659,54
414,2016-04-07 20:36:33.95,62
414,2016-04-07 20:36:34.95,54
414,2016-04-07 20:36:37.953,64
414,2016-04-07 20:36:50.84,54
414,2016-04-07 20:36:54.178,52
414,2016-04-07 20:36:55.178,54
414,2016-04-07 20:36:57.282,62
414,2016-04-07 20:37:14.416,56
414,2016-04-07 20:37:25.011,54
414,2016-04-07 20:37:35.456,62
414,2016-04-07 20:37:37.55,52
414,2016-04-07 20:37:49.702,58
414,2016-04-07 20:37:55.287,54
414,2016-04-07 20:38:10.909,52
414,2016-04-07 20:38:15.746,54
414,2016-04-07 20:38:20.389,62
414,2016-04-07 20:38:24.717,78
414,2016-04-07 20:38:26.358,60
414,2016-04-07 20:38:27.8,54
414,2016-04-07 20:38:29.985,62
414,2016-04-07 20:38:32.396,54
414,2016-04-07 20:38:33.396,52
414,2016-04-07 20:38:35.396,56
414,2016-04-07 20:38:36.396,58
414,2016-04-07 20:38:37.396,60
414,2016-04-07 20:38:39.396,54
414,2016-04-07 20:38:43.115,58
414,2016-04-07 20:38:45.619,54
414,2016-04-07 20:38:48.571,52
414,2016-04-07 20:38:50.65,56
414,2016-04-07 20:38:51.891,54
414,2016-04-07 20:38:57.319,52
414,2016-04-07 20:39:00.393,54
414,2016-04-07 20:39:09.809,60
414,2016-04-07 20:39:14.45,54
414,2016-04-07 20:39:19.274,52
414,2016-04-07 20:39:27.689,54
414,2016-04-07 20:39:28.939,52
414,2016-04-07 20:39:34.622,56
414,2016-04-07 20:39:37.28,52
414,2016-04-07 20:39:43.657,54
414,2016-04-07 20:39:53.581,52
414,2016-04-07 20:39:56.618,56
414,2016-04-07 20:40:05.36,54
414,2016-04-07 20:40:10.098,52
414,2016-04-07 20:40:20.042,62
414,2016-04-07 20:40:24.369,52
414,2016-04-07 20:40:28.489,54
414,2016-04-07 20:40:34.436,52
414,2016-04-07 20:40:41.886,56
414,2016-04-07 20:40:44.912,52
414,2016-04-07 20:40:46.579,56
414,2016-04-07 20:40:54.609,54
414,2016-04-07 20:41:07.552,56
414,2016-04-07 20:41:12.092,54
414,2016-04-07 20:41:15.013,-4
414,2016-04-07 20:41:34.331,-2
414,2016-04-07 20:41:34.572,52
414,2016-04-07 20:41:35.974,56
414,2016-04-07 20:41:36.974,54
414,2016-04-07 20:41:54.442,52
414,2016-04-07 20:42:06.771,54
414,2016-04-07 20:42:13.17,52
414,2016-04-07 20:42:22.639,54
414,2016-04-07 20:42:38.709,52
414,2016-04-07 20:42:47.649,54
414,2016-04-07 20:42:58.223,60
414,2016-04-07 20:43:00.331,58
414,2016-04-07 20:43:01.331,52
414,2016-04-07 20:43:07.331,54
414,2016-04-07 20:43:11.135,52
414,2016-04-07 20:43:13.526,54
414,2016-04-07 20:43:25.238,52
414,2016-04-07 20:43:29.871,54
414,2016-04-07 20:43:31.315,58
414,2016-04-07 20:43:32.517,60
414,2016-04-07 20:43:33.883,54
414,2016-04-07 20:43:35.884,52
414,2016-04-07 20:43:38.854,58
414,2016-04-07 20:43:44.267,54
414,2016-04-07 20:43:46.567,52
414,2016-04-07 20:43:47.878,56
414,2016-04-07 20:43:54.854,54
414,2016-04-07 20:44:07.466,52
414,2016-04-07 20:44:19.473,54
414,2016-04-07 20:44:26.302,56
414,2016-04-07 20:44:29.305,54
414,2016-04-07 20:44:39.483,52
414,2016-04-07 20:44:50.576,54
414,2016-04-07 20:44:58.412,60
414,2016-04-07 20:45:02.742,62
414,2016-04-07 20:45:08.14,54
414,2016-04-07 20:45:19.683,52
414,2016-04-07 20:45:24.241,54
414,2016-04-07 20:45:36.448,52
414,2016-04-07 20:45:46.042,54
414,2016-04-07 20:45:59.251,60
414,2016-04-07 20:46:03.872,58
414,2016-04-07 20:46:14.591,60
414,2016-04-07 20:46:18.749,62
414,2016-04-07 20:46:19.749,66
414,2016-04-07 20:46:25.282,52
414,2016-04-07 20:46:37.662,62
414,2016-04-07 20:46:45.781,52
414,2016-04-07 20:46:55.086,62
414,2016-04-07 20:46:56.086,58
414,2016-04-07 20:47:02.069,62
414,2016-04-07 20:47:14.05,56
414,2016-04-07 20:47:29.739,54
414,2016-04-07 20:47:39.783,58
414,2016-04-07 20:47:43.71,60
414,2016-04-07 20:47:55.528,52
414,2016-04-07 20:48:01.824,58
414,2016-04-07 20:48:10.997,60
414,2016-04-07 20:48:19.981,52
414,2016-04-07 20:48:33.92,56
414,2016-04-07 20:48:37.385,58
414,2016-04-07 20:48:38.385,56
414,2016-04-07 20:48:46.181,52
414,2016-04-07 20:48:52.319,54
414,2016-04-07 20:48:53.755,56
414,2016-04-07 20:48:56.214,52
414,2016-04-07 20:48:58.214,54
414,2016-04-07 20:48:59.214,52
414,2016-04-07 20:49:00.215,54
414,2016-04-07 20:49:02.216,56
414,2016-04-07 20:49:03.216,54
414,2016-04-07 20:49:04.222,60
414,2016-04-07 20:49:05.223,58
414,2016-04-07 20:49:07.601,52
414,2016-04-07 20:49:10.646,54
414,2016-04-07 20:49:12.702,52
414,2016-04-07 20:49:16.478,56
414,2016-04-07 20:49:18.817,60
414,2016-04-07 20:49:21.293,56
414,2016-04-07 20:49:24.073,52
414,2016-04-07 20:49:29.836,54
414,2016-04-07 20:49:34.965,56
414,2016-04-07 20:49:41.142,54
414,2016-04-07 20:49:45.698,58
414,2016-04-07 20:49:50.332,56
414,2016-04-07 20:49:58.594,52
414,2016-04-07 20:50:02.599,68
414,2016-04-07 20:50:07.132,54
414,2016-04-07 20:50:14.082,52
414,2016-04-07 20:50:24.123,54
414,2016-04-07 20:50:27.764,52
414,2016-04-07 20:50:33.815,54
414,2016-04-07 20:50:42.871,52
414,2016-04-07 20:50:49.437,54
414,2016-04-07 20:50:55.667,56
414,2016-04-07 20:51:00.866,54
414,2016-04-07 20:51:09.962,52
414,2016-04-07 20:51:14.518,54
414,2016-04-07 20:51:15.621,52
414,2016-04-07 20:51:31.93,54
414,2016-04-07 20:51:48.292,52
414,2016-04-07 20:51:53.325,54
414,2016-04-07 20:52:00.744,66
414,2016-04-07 20:52:07.995,54
414,2016-04-07 20:52:19.892,52
414,2016-04-07 20:52:25.758,62
414,2016-04-07 20:52:34.995,54
414,2016-04-07 20:52:48.811,58
414,2016-04-07 20:52:52.116,52
414,2016-04-07 20:52:53.116,54
414,2016-04-07 20:52:55.118,62
414,2016-04-07 20:52:57.119,54
414,2016-04-07 20:52:59.119,52
414,2016-04-07 20:53:00.121,62
414,2016-04-07 20:53:13.126,52
414,2016-04-07 20:53:14.834,54
414,2016-04-07 20:53:17.621,60
414,2016-04-07 20:53:21.71,54
414,2016-04-07 20:53:26.069,52
414,2016-04-07 20:53:35.322,58
414,2016-04-07 20:53:37.787,54
414,2016-04-07 20:53:39.242,60
414,2016-04-07 20:53:48.1,52
414,2016-04-07 20:53:54.697,54
414,2016-04-07 20:54:05.556,88
414,2016-04-07 20:54:11.576,52
414,2016-04-07 20:54:18.827,56
414,2016-04-07 20:54:28.201,54
414,2016-04-07 20:54:29.973,52
414,2016-04-07 20:54:41.002,60
414,2016-04-07 20:54:44.768,52
414,2016-04-07 20:54:47.708,54
414,2016-04-07 20:54:59.623,56
414,2016-04-07 20:55:04.553,62
414,2016-04-07 20:55:12.33,66
414,2016-04-07 20:55:21.405,60
414,2016-04-07 20:55:29.98,52
414,2016-04-07 20:56:00.198,-4
414,2016-04-07 20:56:41.612,-2
414,2016-04-07 20:56:48.274,54
414,2016-04-07 20:57:00.699,52
414,2016-04-07 20:57:17.437,56
414,2016-04-07 20:57:18.93,54
414,2016-04-07 20:57:19.93,52
414,2016-04-07 20:57:20.935,60
414,2016-04-07 20:57:24.937,54
414,2016-04-07 20:57:25.938,52
414,2016-04-07 20:57:27.939,54
414,2016-04-07 20:57:33.376,56
414,2016-04-07 20:57:34.376,54
414,2016-04-07 20:57:36.376,52
414,2016-04-07 20:57:37.376,54
414,2016-04-07 20:57:38.376,56
414,2016-04-07 20:57:41.787,52
414,2016-04-07 20:57:44.896,54
414,2016-04-07 20:57:56.891,56
414,2016-04-07 20:57:59.456,54
414,2016-04-07 20:58:05.743,56
414,2016-04-07 20:58:09.364,52
414,2016-04-07 20:58:10.65,54
414,2016-04-07 20:58:12.116,62
414,2016-04-07 20:58:14.574,70
414,2016-04-07 20:58:18.551,52
414,2016-04-07 20:58:22.281,54
414,2016-04-07 20:58:24.499,56
414,2016-04-07 20:58:28.865,58
414,2016-04-07 20:58:31.307,52
414,2016-04-07 20:58:33.271,54
414,2016-04-07 20:58:35.647,60
414,2016-04-07 20:58:40.233,68
414,2016-04-07 20:58:45.346,54
414,2016-04-07 20:58:48.761,52
414,2016-04-07 20:58:52.937,54
414,2016-04-07 20:58:55.01,52
414,2016-04-07 20:58:59.366,54
414,2016-04-07 20:59:05.332,56
414,2016-04-07 20:59:13.89,52
414,2016-04-07 20:59:18.93,58
414,2016-04-07 20:59:25.552,54
414,2016-04-07 20:59:27.789,52
414,2016-04-07 20:59:34.585,60
414,2016-04-07 20:59:43.177,54
414,2016-04-07 20:59:46.294,52
414,2016-04-07 20:59:59.129,62
414,2016-04-07 21:00:00.342,68
414,2016-04-07 21:00:01.342,62
414,2016-04-07 21:00:07.236,54
414,2016-04-07 21:00:18.147,52
414,2016-04-07 21:00:26.703,54
414,2016-04-07 21:00:37.003,52
414,2016-04-07 21:00:40.784,54
414,2016-04-07 21:00:47.822,52
414,2016-04-07 21:00:50.807,54
414,2016-04-07 21:00:52.923,52
414,2016-04-07 21:00:59.789,60
414,2016-04-07 21:01:08.954,52
414,2016-04-07 21:01:13.718,54
414,2016-04-07 21:01:14.799,52
414,2016-04-07 21:01:20.7,58
414,2016-04-07 21:01:26.78,56
414,2016-04-07 21:01:33.824,54
414,2016-04-07 21:01:37.718,52
414,2016-04-07 21:01:41.136,58
414,2016-04-07 21:01:44.259,54
414,2016-04-07 21:01:48.537,58
414,2016-04-07 21:01:50.538,56
414,2016-04-07 21:01:55.702,54
414,2016-04-07 21:02:08.063,52
414,2016-04-07 21:02:10.154,56
414,2016-04-07 21:02:23.97,54
414,2016-04-07 21:02:32.299,68
414,2016-04-07 21:02:37.795,58
414,2016-04-07 21:02:49.578,68
414,2016-04-07 21:02:56.51,60
414,2016-04-07 21:03:02.456,54
414,2016-04-07 21:03:14.236,52
414,2016-04-07 21:03:17.158,56
414,2016-04-07 21:03:22.671,52
414,2016-04-07 21:03:34.935,54
414,2016-04-07 21:03:45.202,52
414,2016-04-07 21:03:54.554,54
414,2016-04-07 21:04:01.595,52
414,2016-04-07 21:04:06.808,60
414,2016-04-07 21:04:08.652,54
414,2016-04-07 21:04:23.01,56
414,2016-04-07 21:04:28.581,60
414,2016-04-07 21:04:33.553,56
414,2016-04-07 21:04:38.008,54
414,2016-04-07 21:04:45.48,52
414,2016-04-07 21:04:55.983,54
414,2016-04-07 21:05:10.098,52
414,2016-04-07 21:05:20.769,56
414,2016-04-07 21:05:21.883,60
414,2016-04-07 21:05:34.023,58
414,2016-04-07 21:05:45.655,54
414,2016-04-07 21:05:48.464,52
414,2016-04-07 21:06:02.089,54
414,2016-04-07 21:06:06.678,58
414,2016-04-07 21:06:09.784,54
414,2016-04-07 21:06:23.522,58
414,2016-04-07 21:06:26.466,52
414,2016-04-07 21:06:36.068,60
414,2016-04-07 21:06:43.088,56
414,2016-04-07 21:06:45.528,64
414,2016-04-07 21:06:46.72,60
414,2016-04-07 21:06:47.72,52
414,2016-04-07 21:06:50.721,54
414,2016-04-07 21:06:53.725,-4
414,2016-04-07 21:07:12.44,-2
414,2016-04-07 21:07:17.954,52
414,2016-04-07 21:07:22.75,58
414,2016-04-07 21:07:24.75,52
414,2016-04-07 21:07:37.085,54
414,2016-04-07 21:07:49.09,52
414,2016-04-07 21:07:57.403,54
414,2016-04-07 21:08:08.693,52
414,2016-04-07 21:08:19.798,54
414,2016-04-07 21:08:33.962,52
414,2016-04-07 21:08:37.529,54
414,2016-04-07 21:08:47.379,52
414,2016-04-07 21:08:49.32,54
414,2016-04-07 21:08:59.989,62
414,2016-04-07 21:09:09.938,60
414,2016-04-07 21:09:17.194,52
414,2016-04-07 21:09:25.492,54
414,2016-04-07 21:09:30.998,52
414,2016-04-07 21:09:32.707,60
414,2016-04-07 21:09:34.119,70
414,2016-04-07 21:09:45.144,54
414,2016-04-07 21:09:53.663,56
414,2016-04-07 21:10:06.826,52
414,2016-04-07 21:10:14.992,60
414,2016-04-07 21:10:20.765,52
414,2016-04-07 21:10:28.027,60
414,2016-04-07 21:10:30.029,62
414,2016-04-07 21:10:45.049,54
414,2016-04-07 21:10:46.411,58
414,2016-04-07 21:10:56.29,56
414,2016-04-07 21:11:07.257,52
414,2016-04-07 21:11:12.974,62
414,2016-04-07 21:11:24.073,56
414,2016-04-07 21:11:26.69,54
414,2016-04-07 21:11:37.79,56
414,2016-04-07 21:11:44.547,54
414,2016-04-07 21:11:49.819,70
414,2016-04-07 21:11:52.607,54
414,2016-04-07 21:12:02.51,52
414,2016-04-07 21:12:21.682,54
414,2016-04-07 21:12:26.543,52
414,2016-04-07 21:12:29.734,56
414,2016-04-07 21:12:31.043,54
414,2016-04-07 21:12:32.598,52
414,2016-04-07 21:12:33.598,54
414,2016-04-07 21:12:35.602,56
414,2016-04-07 21:12:41.214,52
414,2016-04-07 21:12:51.545,54
414,2016-04-07 21:12:59.858,52
414,2016-04-07 21:13:01.614,58
414,2016-04-07 21:13:02.614,52
414,2016-04-07 21:13:12.183,54
414,2016-04-07 21:14:58.856,58
414,2016-04-07 21:14:59.856,56
414,2016-04-07 21:15:01.34,52
414,2016-04-07 21:15:06.732,54
414,2016-04-07 21:15:10.491,52
414,2016-04-07 21:15:16.801,54
414,2016-04-07 21:15:19.405,56
414,2016-04-07 21:15:27.334,54
414,2016-04-07 21:15:36.365,66
414,2016-04-07 21:15:37.609,74
414,2016-04-07 21:15:38.681,68
414,2016-04-07 21:15:53.466,64
414,2016-04-07 21:15:58.806,54
414,2016-04-07 21:16:14.53,52
414,2016-04-07 21:16:16.776,54
414,2016-04-07 21:16:24.212,52
414,2016-04-07 21:16:35.141,54
414,2016-04-07 21:16:37.141,56
414,2016-04-07 21:16:50.142,54
414,2016-04-07 21:17:04.303,52
414,2016-04-07 21:17:14.013,54
414,2016-04-07 21:17:18.624,62
414,2016-04-07 21:17:22.818,52
414,2016-04-07 21:17:32.754,54
414,2016-04-07 21:17:36.3,-4
414,2016-04-07 21:18:15.019,-2
414,2016-04-07 21:18:15.936,52
414,2016-04-07 21:18:27.51,54
414,2016-04-07 21:18:37.569,52
414,2016-04-07 21:18:49.229,54
414,2016-04-07 21:18:53.386,-4
414,2016-04-07 21:19:19.702,-2
414,2016-04-07 21:20:42.969,-4
414,2016-04-07 21:20:52.859,-2
414,2016-04-07 21:20:56.058,52
414,2016-04-07 21:21:01.716,54
414,2016-04-07 21:21:03.881,60
414,2016-04-07 21:21:07.03,56
414,2016-04-07 21:21:09.434,64
414,2016-04-07 21:21:10.434,60
414,2016-04-07 21:21:13.851,54
414,2016-04-07 21:21:19.884,52
414,2016-04-07 21:21:22.183,54
414,2016-04-07 21:21:23.183,56
414,2016-04-07 21:21:24.185,54
414,2016-04-07 21:21:40.039,52
414,2016-04-07 21:22:03.918,56
414,2016-04-07 21:22:17.111,52
414,2016-04-07 21:22:26.89,54
414,2016-04-07 21:22:28.712,58
414,2016-04-07 21:22:29.714,60
414,2016-04-07 21:22:43.104,52
414,2016-04-07 21:22:44.685,-4
414,2016-04-07 21:23:34.74,-2
414,2016-04-07 21:24:09.575,60
414,2016-04-07 21:24:15.002,54
414,2016-04-07 21:24:36.623,62
414,2016-04-07 21:24:56.437,54
414,2016-04-07 21:25:05.125,52
414,2016-04-07 21:25:06.594,60
414,2016-04-07 21:25:08.126,62
414,2016-04-07 21:25:09.422,56
414,2016-04-07 21:25:10.499,54
414,2016-04-07 21:25:13.499,52
414,2016-04-07 21:25:25.499,58
414,2016-04-07 21:25:26.499,60
414,2016-04-07 21:25:27.499,54
414,2016-04-07 21:25:28.499,52
414,2016-04-07 21:25:29.5,54
414,2016-04-07 21:25:30.5,52
414,2016-04-07 21:25:33.501,54
414,2016-04-07 21:25:37.401,52
414,2016-04-07 21:25:42.737,56
414,2016-04-07 21:25:45.652,54
414,2016-04-07 21:25:48.036,56
414,2016-04-07 21:25:51.865,58
414,2016-04-07 21:25:56.091,52
414,2016-04-07 21:25:58.878,58
414,2016-04-07 21:26:04.986,54
414,2016-04-07 21:26:09.333,52
414,2016-04-07 21:26:11.906,54
414,2016-04-07 21:26:14.181,56
414,2016-04-07 21:26:17.926,54
414,2016-04-07 21:26:20.004,58
414,2016-04-07 21:26:22.004,60
414,2016-04-07 21:26:26.926,52
414,2016-04-07 21:26:31.716,54
414,2016-04-07 21:26:38.146,52
414,2016-04-07 21:26:42.649,58
414,2016-04-07 21:26:50.276,54
414,2016-04-07 21:27:00.75,62
414,2016-04-07 21:27:07.565,58
414,2016-04-07 21:27:17.092,60
414,2016-04-07 21:27:23.118,54
414,2016-04-07 21:27:31.962,62
414,2016-04-07 21:27:36.942,68
414,2016-04-07 21:27:42.069,52
414,2016-04-07 21:27:52.898,58
414,2016-04-07 21:28:02.703,54
414,2016-04-07 21:28:10.264,60
414,2016-04-07 21:28:17.01,58
414,2016-04-07 21:28:24.299,52
414,2016-04-07 21:28:31.249,54
414,2016-04-07 21:28:32.833,52
414,2016-04-07 21:28:42.462,60
414,2016-04-07 21:28:54.616,62
414,2016-04-07 21:28:59.204,52
414,2016-04-07 21:29:06.109,54
414,2016-04-07 21:29:15.677,52
414,2016-04-07 21:29:19.89,58
414,2016-04-07 21:29:34.816,62
414,2016-04-07 21:29:36.886,54
414,2016-04-07 21:29:38.886,52
414,2016-04-07 21:29:53.669,54
414,2016-04-07 21:30:00.519,60
414,2016-04-07 21:30:02.763,52
414,2016-04-07 21:30:03.764,54
414,2016-04-07 21:30:16.623,58
414,2016-04-07 21:30:29.376,52
414,2016-04-07 21:30:37.407,54
414,2016-04-07 21:30:44.478,56
414,2016-04-07 21:34:15.248,-2
414,2016-04-07 21:34:15.452,62
414,2016-04-07 21:34:26.137,52
414,2016-04-07 21:34:34.354,54
414,2016-04-07 21:34:49.793,-4
414,2016-04-07 21:35:05.538,-2
414,2016-04-07 21:35:12.045,52
414,2016-04-07 21:35:15.867,54
414,2016-04-07 21:35:17.758,52
414,2016-04-07 21:35:21.75,54
414,2016-04-07 21:35:26.913,52
414,2016-04-07 21:35:32.05,56
414,2016-04-07 21:35:37.292,54
414,2016-04-07 21:35:40.126,52
414,2016-04-07 21:35:44.14,54
414,2016-04-07 21:35:48.743,52
414,2016-04-07 21:35:58.504,54
414,2016-04-07 21:36:03.715,52
414,2016-04-07 21:36:07.751,64
414,2016-04-07 21:36:08.783,62
414,2016-04-07 21:36:18.311,54
414,2016-04-07 21:36:28.923,52
414,2016-04-07 21:36:31.871,54
414,2016-04-07 21:36:34.871,52
414,2016-04-07 21:36:43.206,54
414,2016-04-07 21:36:50.491,70
414,2016-04-07 21:36:54.775,56
414,2016-04-07 21:36:57.886,52
414,2016-04-07 21:37:00.084,54
414,2016-04-07 21:37:04.085,52
414,2016-04-07 21:37:06.085,54
414,2016-04-07 21:37:16.21,64
414,2016-04-07 21:37:17.593,54
414,2016-04-07 21:37:25.708,60
414,2016-04-07 21:37:34.161,54
414,2016-04-07 21:37:41.839,52
414,2016-04-07 21:37:48.757,58
414,2016-04-07 21:37:59.355,54
414,2016-04-07 21:38:01.528,56
414,2016-04-07 21:38:09.635,54
414,2016-04-07 21:38:14.197,58
414,2016-04-07 21:38:18.997,52
414,2016-04-07 21:38:23.969,54
414,2016-04-07 21:38:25.97,68
414,2016-04-07 21:38:26.97,66
414,2016-04-07 21:38:27.97,60
414,2016-04-07 21:38:28.97,54
414,2016-04-07 21:38:33.334,52
414,2016-04-07 21:38:40.234,58
414,2016-04-07 21:38:46.871,60
414,2016-04-07 21:38:49.362,52
414,2016-04-07 21:38:59.52,54
414,2016-04-07 21:39:02.448,52
414,2016-04-07 21:39:12.357,54
414,2016-04-07 21:39:16.712,52
414,2016-04-07 21:39:17.712,60
414,2016-04-07 21:39:18.714,62
414,2016-04-07 21:39:27.05,52
414,2016-04-07 21:39:36.497,54
414,2016-04-07 21:39:45.744,60
414,2016-04-07 21:39:51.936,62
414,2016-04-07 21:39:59.676,52
414,2016-04-07 21:40:01.161,54
414,2016-04-07 21:40:02.256,58
414,2016-04-07 21:40:04.263,54
414,2016-04-07 21:40:05.263,52
414,2016-04-07 21:40:08.263,56
414,2016-04-07 21:40:10.792,54
414,2016-04-07 21:40:20.9,52
414,2016-04-07 21:40:22.631,58
414,2016-04-07 21:40:23.642,62
414,2016-04-07 21:40:25.642,58
414,2016-04-07 21:40:26.642,56
414,2016-04-07 21:40:27.643,52
414,2016-04-07 21:40:35.739,58
414,2016-04-07 21:40:51.099,56
414,2016-04-07 21:40:53.607,54
414,2016-04-07 21:41:06.413,58
414,2016-04-07 21:41:09.15,52
414,2016-04-07 21:41:19.039,54
414,2016-04-07 21:41:23.562,60
414,2016-04-07 21:41:29.404,52
414,2016-04-07 21:41:38.073,56
414,2016-04-07 21:41:46.34,54
414,2016-04-07 21:41:51.928,64
414,2016-04-07 21:41:56.59,54
414,2016-04-07 21:41:58.622,56
414,2016-04-07 21:42:04.896,54
414,2016-04-07 21:42:11.664,56
414,2016-04-07 21:42:26.889,52
414,2016-04-07 21:42:36.838,58
414,2016-04-07 21:42:40.587,52
414,2016-04-07 21:42:42.329,60
414,2016-04-07 21:42:45.331,54
414,2016-04-07 21:42:47.887,52
414,2016-04-07 21:42:50.235,54
414,2016-04-07 21:42:52.235,52
414,2016-04-07 21:42:54.557,54
414,2016-04-07 21:43:03.219,52
414,2016-04-07 21:43:06.585,-4
414,2016-04-07 21:43:21.685,-2
414,2016-04-07 21:43:23.743,54
414,2016-04-07 21:43:28.853,52
414,2016-04-07 21:43:49.49,68
414,2016-04-07 21:43:51.612,62
414,2016-04-07 21:43:52.612,52
414,2016-04-07 21:43:55.261,68
414,2016-04-07 21:43:57.349,54
414,2016-04-07 21:43:59.441,52
414,2016-04-07 21:44:09.36,54
414,2016-04-07 21:44:11.305,56
414,2016-04-07 21:44:12.655,54
414,2016-04-07 21:44:17.394,56
414,2016-04-07 21:44:50.618,52
414,2016-04-07 21:45:14.802,54
414,2016-04-07 21:45:18.804,52
414,2016-04-07 21:45:20.804,54
414,2016-04-07 21:45:23.805,56
414,2016-04-07 21:45:24.814,54
414,2016-04-07 21:45:26.3,52
414,2016-04-07 21:45:37.211,60
414,2016-04-07 21:45:40.675,52
414,2016-04-07 21:45:43.483,54
414,2016-04-07 21:45:45.418,60
414,2016-04-07 21:45:47.226,62
414,2016-04-07 21:45:49.093,56
414,2016-04-07 21:45:50.781,52
414,2016-04-07 21:45:52.725,56
414,2016-04-07 21:45:57.885,52
414,2016-04-07 21:46:23.175,56
414,2016-04-07 21:46:34.855,54
414,2016-04-07 21:46:51.36,52
414,2016-04-07 21:46:57.861,54
414,2016-04-07 21:47:02.553,58
414,2016-04-07 21:47:05.794,56
414,2016-04-07 21:47:07.401,58
414,2016-04-07 21:47:17.157,64
414,2016-04-07 21:47:21.349,54
414,2016-04-07 21:47:30.732,60
414,2016-04-07 21:47:37.42,58
414,2016-04-07 21:47:44.822,56
414,2016-04-07 21:47:47.31,52
414,2016-04-07 21:47:58.17,54
414,2016-04-07 21:48:09.342,52
414,2016-04-07 21:48:28.04,54
414,2016-04-07 21:48:37.262,52
414,2016-04-07 21:48:45.609,58
414,2016-04-07 21:48:47.694,54
414,2016-04-07 21:48:54.579,56
414,2016-04-07 21:48:55.945,54
414,2016-04-07 21:48:56.946,56
414,2016-04-07 21:49:01.623,58
414,2016-04-07 21:49:15.336,52
414,2016-04-07 21:49:24.135,54
414,2016-04-07 21:49:29.109,52
414,2016-04-07 21:49:37.647,66
414,2016-04-07 21:49:43.013,56
414,2016-04-07 21:49:54.152,50
414,2016-04-07 21:50:00.828,54
414,2016-04-07 21:50:08.693,52
414,2016-04-07 21:50:22.282,54
414,2016-04-07 21:50:38.515,58
414,2016-04-07 21:50:51.653,60
414,2016-04-07 21:50:56.081,52
414,2016-04-07 21:50:57.084,58
414,2016-04-07 21:51:00.658,54
414,2016-04-07 21:51:01.675,52
414,2016-04-07 21:51:17.237,70
414,2016-04-07 21:51:25.413,52
414,2016-04-07 21:51:34.536,54
414,2016-04-07 21:51:53.62,62
414,2016-04-07 21:51:56.678,54
414,2016-04-07 21:52:01.589,52
414,2016-04-07 21:52:05.496,54
414,2016-04-07 21:52:08.409,52
414,2016-04-07 21:52:21.974,54
414,2016-04-07 21:52:33.664,68
414,2016-04-07 21:52:39.246,60
414,2016-04-07 21:52:41.248,54
414,2016-04-07 21:52:42.339,60
414,2016-04-07 21:52:45.382,56
414,2016-04-07 21:52:54.296,54
414,2016-04-07 21:53:05.881,52
414,2016-04-07 21:53:21.5,54
414,2016-04-07 21:53:28.549,58
414,2016-04-07 21:53:39.581,52
414,2016-04-07 21:53:45.012,54
414,2016-04-07 21:53:47.392,52
414,2016-04-07 21:53:58.743,58
414,2016-04-07 21:54:04.537,56
414,2016-04-07 21:54:09.614,54
414,2016-04-07 21:54:11.652,62
414,2016-04-07 21:54:15.836,54
414,2016-04-07 21:54:23.346,-4
414,2016-04-07 21:54:56.846,-2
414,2016-04-07 21:55:11.232,56
414,2016-04-07 21:55:23.811,52
414,2016-04-07 21:56:14.377,56
414,2016-04-07 21:56:16.493,54
414,2016-04-07 21:56:18.537,52
414,2016-04-07 21:56:20.386,54
414,2016-04-07 21:56:25.27,52
414,2016-04-07 21:56:36.95,54
414,2016-04-07 21:56:41.56,52
414,2016-04-07 21:56:57.391,-4
414,2016-04-07 21:57:34.062,-2
414,2016-04-07 21:57:41.997,54
414,2016-04-07 21:57:49.709,52
414,2016-04-07 21:57:51.719,54
414,2016-04-07 21:57:55.005,52
414,2016-04-07 21:58:03.012,60
414,2016-04-07 21:58:16.495,52
414,2016-04-07 21:58:17.59,58
414,2016-04-07 21:58:19.59,60
414,2016-04-07 21:58:20.591,52
414,2016-04-07 21:58:21.592,54
414,2016-04-07 21:58:22.592,56
414,2016-04-07 21:58:24.593,54
414,2016-04-07 21:58:25.594,60
414,2016-04-07 21:58:26.754,58
414,2016-04-07 21:58:36.472,60
414,2016-04-07 21:58:39.798,52
414,2016-04-07 21:58:45.011,54
414,2016-04-07 21:58:56.303,52
414,2016-04-07 21:59:01.377,54
414,2016-04-07 21:59:08.219,58
414,2016-04-07 21:59:15.979,52
414,2016-04-07 21:59:23.188,56
414,2016-04-07 21:59:27.655,58
414,2016-04-07 21:59:40.97,56
414,2016-04-07 21:59:47.644,64
414,2016-04-07 21:59:54.975,52
414,2016-04-07 22:00:08.712,54
414,2016-04-07 22:00:13.914,52
414,2016-04-07 22:00:20.522,54
414,2016-04-07 22:00:21.571,56
414,2016-04-07 22:00:22.571,60
414,2016-04-07 22:00:30.107,54
414,2016-04-07 22:00:34.868,52
414,2016-04-07 22:00:37.299,60
414,2016-04-07 22:00:39.641,52
414,2016-04-07 22:01:01.655,-4
414,2016-04-07 22:01:30.653,-2
414,2016-04-07 22:01:40.046,54
414,2016-04-07 22:01:42.105,56
414,2016-04-07 22:01:43.105,54
414,2016-04-07 22:01:46.13,60
414,2016-04-07 22:01:59.152,52
414,2016-04-07 22:02:15.888,54
414,2016-04-07 22:02:22.78,52
414,2016-04-07 22:02:28.431,56
414,2016-04-07 22:02:38.115,58
414,2016-04-07 22:02:43.228,60
414,2016-04-07 22:02:56.177,62
414,2016-04-07 22:03:07.722,54
414,2016-04-07 22:03:11.363,52
414,2016-04-07 22:03:13.176,58
414,2016-04-07 22:03:14.719,56
414,2016-04-07 22:03:15.91,54
414,2016-04-07 22:03:33.474,52
414,2016-04-07 22:03:48.375,54
414,2016-04-07 22:03:51.418,52
414,2016-04-07 22:03:58.521,60
414,2016-04-07 22:04:04.706,54
414,2016-04-07 22:04:08.545,52
414,2016-04-07 22:04:20.234,54
414,2016-04-07 22:04:33.582,64
414,2016-04-07 22:04:38.548,56
414,2016-04-07 22:04:45.925,52
414,2016-04-07 22:04:50.088,56
414,2016-04-07 22:04:57.14,54
414,2016-04-07 22:05:14.051,78
414,2016-04-07 22:05:15.616,96
414,2016-04-07 22:05:16.72,78
414,2016-04-07 22:05:25.818,70
414,2016-04-07 22:05:35.834,54
414,2016-04-07 22:07:25.698,62
414,2016-04-07 22:07:47.955,52
414,2016-04-07 22:07:50.046,54
414,2016-04-07 22:07:55.635,60
414,2016-04-07 22:07:57.948,52
414,2016-04-07 22:13:11.421,-2
414,2016-04-07 22:13:15.862,-4
414,2016-04-07 22:13:40.851,-2
414,2016-04-07 22:13:45.603,56
414,2016-04-07 22:14:08.682,54
414,2016-04-07 22:14:12.353,70
414,2016-04-07 22:14:24.145,56
414,2016-04-07 22:14:39.911,52
414,2016-04-07 22:14:42.412,58
414,2016-04-07 22:14:55.751,52
414,2016-04-07 22:15:06.717,54
414,2016-04-07 22:15:21.396,56
414,2016-04-07 22:15:26.747,52
414,2016-04-07 22:15:34.307,58
414,2016-04-07 22:15:41.915,52
414,2016-04-07 22:15:52.215,54
414,2016-04-07 22:16:03.654,52
414,2016-04-07 22:16:09.063,58
414,2016-04-07 22:16:18.835,56
414,2016-04-07 22:16:25.942,54
414,2016-04-07 22:16:30.231,56
414,2016-04-07 22:16:39.341,52
414,2016-04-07 22:16:48.409,54
414,2016-04-07 22:17:02.969,52
414,2016-04-07 22:17:15.742,54
414,2016-04-07 22:17:19.337,52
414,2016-04-07 22:17:30.838,56
414,2016-04-07 22:17:35.982,54
414,2016-04-07 22:17:37.472,52
414,2016-04-07 22:17:43.249,54
414,2016-04-07 22:17:53.923,56
414,2016-04-07 22:17:58.561,52
414,2016-04-07 22:18:01.208,56
414,2016-04-07 22:18:13.698,52
414,2016-04-07 22:18:20.562,64
414,2016-04-07 22:18:23.19,58
414,2016-04-07 22:18:33.515,52
414,2016-04-07 22:18:42.199,54
414,2016-04-07 22:18:45.191,52
414,2016-04-07 22:18:50.018,60
414,2016-04-07 22:18:53.809,54
414,2016-04-07 22:19:05.396,52
414,2016-04-07 22:19:10.464,54
414,2016-04-07 22:19:17.289,52
414,2016-04-07 22:19:28.178,54
414,2016-04-07 22:19:34.909,52
414,2016-04-07 22:19:40.28,54
414,2016-04-07 22:19:47.958,56
414,2016-04-07 22:20:03.032,52
414,2016-04-07 22:20:08.856,54
414,2016-04-07 22:20:20.472,52
414,2016-04-07 22:20:23.332,62
414,2016-04-07 22:20:26.268,54
414,2016-04-07 22:20:31.316,64
414,2016-04-07 22:20:33.916,54
414,2016-04-07 22:20:37.518,64
414,2016-04-07 22:20:42.643,52
414,2016-04-07 22:20:45.661,54
414,2016-04-07 22:21:11.239,56
414,2016-04-07 22:21:45.347,-4
414,2016-04-07 22:22:31.024,-2
414,2016-04-07 22:22:32.956,54
414,2016-04-07 22:22:53.885,64
414,2016-04-07 22:23:02.927,52
414,2016-04-07 22:23:05.725,56
414,2016-04-07 22:23:15.926,54
414,2016-04-07 22:23:21.07,52
414,2016-04-07 22:24:59.714,54
414,2016-04-07 22:25:18.359,70
414,2016-04-07 22:25:27.808,-4
414,2016-04-07 22:26:11.835,-2
414,2016-04-07 22:26:32.148,-4
414,2016-04-07 22:27:10.393,-2
414,2016-04-07 22:27:11.531,54
414,2016-04-07 22:27:17.37,70
414,2016-04-07 22:27:30.714,52
414,2016-04-07 22:27:46.869,54
414,2016-04-07 22:28:13.483,52
414,2016-04-07 22:28:16.789,54
414,2016-04-07 22:28:21.953,52
414,2016-04-07 22:28:33.291,54
414,2016-04-07 22:28:47.688,64
414,2016-04-07 22:28:56.678,60
414,2016-04-07 22:29:04.378,-3
414,2016-04-07 22:29:04.378,-3
414,2016-04-07 22:29:04.379,-3
414,2016-04-07 22:29:09.375,-3
414,2016-04-07 22:29:13.041,-3
414,2016-04-07 22:29:15.028,52
414,2016-04-07 22:30:12.707,-2
414,2016-04-07 22:30:21.691,66
414,2016-04-07 22:30:45.362,-4
414,2016-04-07 22:31:08.415,-2
414,2016-04-07 22:31:11.545,60
414,2016-04-07 22:31:22.038,54
414,2016-04-07 22:31:27.689,56
414,2016-04-07 22:31:30.494,62
414,2016-04-07 22:31:32.623,80
414,2016-04-07 22:31:34.539,78
414,2016-04-07 22:31:36.36,54
414,2016-04-07 22:31:37.736,60
414,2016-04-07 22:31:38.867,62
414,2016-04-07 22:31:40.382,58
414,2016-04-07 22:31:42.85,52
414,2016-04-07 22:31:45.902,54
414,2016-04-07 22:31:51.148,52
414,2016-04-07 22:31:53.322,54
414,2016-04-07 22:31:56.08,52
414,2016-04-07 22:31:59.328,64
414,2016-04-07 22:32:02.505,52
414,2016-04-07 22:32:03.891,54
414,2016-04-07 22:32:06.926,-3
414,2016-04-07 22:32:06.926,-3
414,2016-04-07 22:33:40.896,-2
414,2016-04-07 22:33:53.7,58
414,2016-04-07 22:34:12.345,52
414,2016-04-07 22:34:19.75,54
414,2016-04-07 22:34:26.659,56
414,2016-04-07 22:34:38.324,54
414,2016-04-07 22:34:47.59,52
414,2016-04-07 22:34:49.714,56
414,2016-04-07 22:35:00.628,60
414,2016-04-07 22:35:08.924,54
414,2016-04-07 22:35:18.401,52
414,2016-04-07 22:35:23.691,54
414,2016-04-07 22:35:36.019,56
414,2016-04-07 22:35:38.839,-4
414,2016-04-07 22:35:58.59,-2
414,2016-04-07 22:36:02.896,52
414,2016-04-07 22:36:07.651,58
414,2016-04-07 22:36:11.798,54
414,2016-04-07 22:36:19.802,56
414,2016-04-07 22:36:25.568,-4
414,2016-04-07 22:36:32.546,-2
414,2016-04-07 22:36:33.275,-4
414,2016-04-07 22:36:51.835,-2
414,2016-04-07 22:37:01.224,52
414,2016-04-07 22:37:14.467,60
414,2016-04-07 22:37:24.869,52
414,2016-04-07 22:37:35.179,62
414,2016-04-07 22:37:38.377,52
414,2016-04-07 22:37:40.569,-4
414,2016-04-07 22:38:07.04,-2
414,2016-04-07 22:38:14.137,72
414,2016-04-07 22:38:21.804,54
414,2016-04-07 22:38:23.751,58
414,2016-04-07 22:38:25.654,54
414,2016-04-07 22:38:27.174,52
414,2016-04-07 22:38:29.254,60
414,2016-04-07 22:38:34.638,54
414,2016-04-07 22:38:39.731,52
414,2016-04-07 22:38:44.174,54
414,2016-04-07 22:38:47.566,52
414,2016-04-07 22:38:52.54,62
414,2016-04-07 22:39:02.898,54
414,2016-04-07 22:39:07.845,60
414,2016-04-07 22:39:13.686,56
414,2016-04-07 22:39:18.675,54
414,2016-04-07 22:39:27.968,52
414,2016-04-07 22:39:37.982,54
414,2016-04-07 22:39:42.158,56
414,2016-04-07 22:39:44.694,54
414,2016-04-07 22:39:54.074,-4
414,2016-04-07 22:40:20.595,-2
414,2016-04-07 22:40:29.687,56
414,2016-04-07 22:40:33.043,54
414,2016-04-07 22:40:36.026,52
414,2016-04-07 22:40:42.726,54
414,2016-04-07 22:40:47.445,52
414,2016-04-07 22:40:50.685,58
414,2016-04-07 22:40:52.876,60
414,2016-04-07 22:41:01.84,54
414,2016-04-07 22:41:14.787,52
414,2016-04-07 22:41:30.311,54
414,2016-04-07 22:41:32.665,52
414,2016-04-07 22:41:39.192,58
414,2016-04-07 22:41:46.986,54
414,2016-04-07 22:41:53.301,52
414,2016-04-07 22:42:01.831,54
414,2016-04-07 22:42:07.705,52
414,2016-04-07 22:42:09.979,54
414,2016-04-07 22:42:17.747,56
414,2016-04-07 22:42:24.865,52
414,2016-04-07 22:42:28.704,56
414,2016-04-07 22:42:37.743,52
414,2016-04-07 22:42:50.466,54
414,2016-04-07 22:42:52.533,58
414,2016-04-07 22:42:59.914,52
414,2016-04-07 22:43:09.203,54
414,2016-04-07 22:43:19.591,60
414,2016-04-07 22:43:24.937,54
414,2016-04-07 22:43:39.81,52
414,2016-04-07 22:43:42.698,54
414,2016-04-07 22:43:46.162,52
414,2016-04-07 22:43:51.002,54
414,2016-04-07 22:43:53.703,52
414,2016-04-07 22:44:03.636,54
414,2016-04-07 22:44:13.225,52
414,2016-04-07 22:44:22.497,54
414,2016-04-07 22:44:28.93,60
414,2016-04-07 22:44:37.425,58
414,2016-04-07 22:44:47.982,54
414,2016-04-07 22:44:53.058,52
414,2016-04-07 22:44:56.408,54
414,2016-04-07 22:45:17.923,52
414,2016-04-07 22:45:30.272,60
414,2016-04-07 22:45:34.493,58
414,2016-04-07 22:45:39.915,56
414,2016-04-07 22:45:44.109,54
414,2016-04-07 22:45:54.072,60
414,2016-04-07 22:46:01.317,54
414,2016-04-07 22:46:05.658,52
414,2016-04-07 22:46:18.874,54
414,2016-04-07 22:46:26.187,52
414,2016-04-07 22:46:29.523,54
414,2016-04-07 22:46:39.612,-4
414,2016-04-07 22:48:12.279,-2
414,2016-04-07 22:48:23.519,-4
414,2016-04-07 22:49:03.586,-2
414,2016-04-07 22:49:10.937,66
414,2016-04-07 22:49:13.089,54
414,2016-04-07 22:49:18.13,52
414,2016-04-07 22:49:31.643,54
414,2016-04-07 22:49:44.535,56
414,2016-04-07 22:49:47.3,60
414,2016-04-07 22:49:49.824,52
414,2016-04-07 22:49:52.646,54
414,2016-04-07 22:49:56.455,52
414,2016-04-07 22:50:04.23,54
414,2016-04-07 22:50:18.535,56
414,2016-04-07 22:50:22.721,52
414,2016-04-07 22:50:27.12,54
414,2016-04-07 22:50:32.014,56
414,2016-04-07 22:50:37.038,52
414,2016-04-07 22:50:45.457,54
414,2016-04-07 22:50:47.613,56
414,2016-04-07 22:50:59.556,-4
414,2016-04-07 22:51:31.22,-2
414,2016-04-07 22:51:36.852,52
414,2016-04-07 22:51:42.082,-4
414,2016-04-07 22:52:04.539,-2
414,2016-04-07 22:52:12.738,54
414,2016-04-07 22:52:23.848,62
414,2016-04-07 22:52:33.196,54
414,2016-04-07 22:52:39.636,52
414,2016-04-07 22:52:41.46,58
414,2016-04-07 22:52:54.636,54
414,2016-04-07 22:53:20.799,52
414,2016-04-07 22:53:38.316,60
414,2016-04-07 22:53:46.578,54
414,2016-04-07 22:53:59.899,-4
414,2016-04-07 22:54:35.635,-2
414,2016-04-07 22:54:57.539,-4
414,2016-04-07 22:55:53.88,-2
414,2016-04-07 22:56:09.903,56
414,2016-04-07 22:56:20.492,54
414,2016-04-07 22:56:36.987,78
414,2016-04-07 22:56:58.862,52
414,2016-04-07 22:57:18.332,54
414,2016-04-07 22:57:42.489,62
414,2016-04-07 22:57:50.574,52
414,2016-04-07 22:57:52.866,64
414,2016-04-07 22:57:56.203,54
414,2016-04-07 22:58:00.509,62
414,2016-04-07 22:58:12.854,54
414,2016-04-07 22:58:41.076,52
414,2016-04-07 22:58:57.899,-4
414,2016-04-07 22:59:57.838,-2
414,2016-04-07 23:00:00.648,-4
414,2016-04-07 23:01:23.388,-2
414,2016-04-07 23:01:27.759,-4
414,2016-04-07 23:01:53.629,-2
414,2016-04-07 23:01:55.478,54
414,2016-04-07 23:02:11.526,58
414,2016-04-07 23:03:16.714,52
414,2016-04-07 23:03:42.384,56
414,2016-04-07 23:03:56.773,60
414,2016-04-07 23:04:09.871,62
414,2016-04-07 23:04:26.65,54
414,2016-04-07 23:04:32.834,56
414,2016-04-07 23:04:50.573,52
414,2016-04-07 23:04:59.149,54
414,2016-04-07 23:05:11.717,52
414,2016-04-07 23:05:59.776,54
414,2016-04-07 23:06:15.482,64
414,2016-04-07 23:06:21.052,58
414,2016-04-07 23:06:26.184,52
414,2016-04-07 23:06:34.951,54
414,2016-04-07 23:06:36.258,52
414,2016-04-07 23:07:04.195,54
414,2016-04-07 23:07:11.956,52
414,2016-04-07 23:07:19.6,58
414,2016-04-07 23:08:34.791,52
414,2016-04-07 23:08:37.181,60
414,2016-04-07 23:08:39.111,54
414,2016-04-07 23:08:43.703,52
414,2016-04-07 23:08:49.849,54
414,2016-04-07 23:08:54.247,60
414,2016-04-07 23:09:04.797,86
414,2016-04-07 23:09:11.107,54
414,2016-04-07 23:09:14.209,52
414,2016-04-07 23:09:21.053,-4
414,2016-04-07 23:09:57.177,-2
414,2016-04-07 23:10:10.146,54
414,2016-04-07 23:10:18.088,62
414,2016-04-07 23:10:30.378,52
414,2016-04-07 23:10:44.572,66
414,2016-04-07 23:10:56.845,60
414,2016-04-07 23:12:38.066,-4
414,2016-04-07 23:12:56.372,-2
414,2016-04-07 23:12:58.886,52
414,2016-04-07 23:13:15.677,54
414,2016-04-07 23:13:32.385,52
414,2016-04-07 23:13:57.088,-4
414,2016-04-07 23:14:24.192,-2
414,2016-04-07 23:14:26.413,58
414,2016-04-07 23:14:46.915,70
414,2016-04-07 23:14:48.833,64
414,2016-04-07 23:14:50.296,54
414,2016-04-07 23:14:51.363,52
414,2016-04-07 23:14:53.448,60
414,2016-04-07 23:15:00.049,56
414,2016-04-07 23:15:11.69,52
414,2016-04-07 23:15:14.57,64
414,2016-04-07 23:15:28.23,52
414,2016-04-07 23:15:34.294,-4
414,2016-04-07 23:16:47.898,-2
414,2016-04-07 23:16:55.96,54
414,2016-04-07 23:17:02.937,52
414,2016-04-07 23:17:11.465,54
414,2016-04-07 23:17:22.921,52
414,2016-04-07 23:17:40.709,54
414,2016-04-07 23:17:51.342,52
414,2016-04-07 23:17:55.915,54
414,2016-04-07 23:18:13.381,56
414,2016-04-07 23:18:22.98,52
414,2016-04-07 23:18:39.357,54
414,2016-04-07 23:18:47.599,58
414,2016-04-07 23:18:49.684,52
414,2016-04-07 23:18:55.608,54
414,2016-04-07 23:18:57.238,52
414,2016-04-07 23:19:00.104,54
414,2016-04-07 23:19:14.579,58
414,2016-04-07 23:19:18.827,54
414,2016-04-07 23:19:25.074,52
414,2016-04-07 23:19:31.829,62
414,2016-04-07 23:19:37.132,78
414,2016-04-07 23:19:39.821,54
414,2016-04-07 23:19:47.965,52
414,2016-04-07 23:19:56.446,54
414,2016-04-07 23:20:06.308,52
414,2016-04-07 23:20:14.309,54
414,2016-04-07 23:20:22.715,58
414,2016-04-07 23:20:27.572,54
414,2016-04-07 23:20:29.748,52
414,2016-04-07 23:20:32.013,54
414,2016-04-07 23:20:59.763,52
414,2016-04-07 23:21:08.288,60
414,2016-04-07 23:21:12.973,54
414,2016-04-07 23:21:19.847,52
414,2016-04-07 23:21:31.874,56
414,2016-04-07 23:21:38.762,60
414,2016-04-07 23:21:53.058,54
414,2016-04-07 23:22:15.528,52
414,2016-04-07 23:22:23.535,60
414,2016-04-07 23:22:34.354,52
414,2016-04-07 23:22:41.08,54
414,2016-04-07 23:23:00.989,52
414,2016-04-07 23:23:03.2,70
414,2016-04-07 23:23:11.746,52
414,2016-04-07 23:23:19.968,54
414,2016-04-07 23:23:25.656,-4
414,2016-04-07 23:24:24.976,-2
414,2016-04-07 23:24:47.486,64
414,2016-04-07 23:25:08.084,-4
414,2016-04-07 23:25:46.479,-2
414,2016-04-07 23:25:48.252,52
414,2016-04-07 23:25:50.989,54
414,2016-04-07 23:25:53.689,52
414,2016-04-07 23:25:56.419,-4
414,2016-04-07 23:26:49.676,-2
414,2016-04-07 23:27:00.535,54
414,2016-04-07 23:27:14.021,52
414,2016-04-07 23:27:16.033,60
414,2016-04-07 23:27:19.057,54
414,2016-04-07 23:27:21.539,52
414,2016-04-07 23:27:25.019,54
414,2016-04-07 23:27:27.027,58
414,2016-04-07 23:27:34.004,60
414,2016-04-07 23:27:37.336,62
414,2016-04-07 23:27:38.365,54
414,2016-04-07 23:27:39.367,52
414,2016-04-07 23:27:42.479,54
414,2016-04-07 23:27:58.97,52
414,2016-04-07 23:28:04.836,66
414,2016-04-07 23:28:11.082,52
414,2016-04-07 23:28:25.281,54
414,2016-04-07 23:28:33.662,52
414,2016-04-07 23:28:43.361,54
414,2016-04-07 23:28:48.223,52
414,2016-04-07 23:28:56.588,54
414,2016-04-07 23:29:04.83,52
414,2016-04-07 23:29:17.144,54
414,2016-04-07 23:29:24.486,52
414,2016-04-07 23:29:35.068,54
414,2016-04-07 23:29:41.342,58
414,2016-04-07 23:29:48.466,60
414,2016-04-07 23:29:52.871,54
414,2016-04-07 23:29:55.518,62
414,2016-04-07 23:30:05.532,54
414,2016-04-07 23:30:16.183,56
414,2016-04-07 23:30:25.556,-4
414,2016-04-07 23:31:48.64,-2
414,2016-04-07 23:32:04.869,54
414,2016-04-07 23:32:22.813,52
414,2016-04-07 23:32:32.653,56
414,2016-04-07 23:32:35.794,52
414,2016-04-07 23:32:39.708,60
414,2016-04-07 23:32:57.533,52
414,2016-04-07 23:33:06.589,58
414,2016-04-07 23:33:17.272,60
414,2016-04-07 23:33:20.149,52
414,2016-04-07 23:33:21.656,62
414,2016-04-07 23:33:23.746,70
414,2016-04-07 23:33:32.906,-4
414,2016-04-07 23:34:11.014,-2
414,2016-04-07 23:34:17.697,-4
414,2016-04-07 23:34:33.646,-2
414,2016-04-07 23:34:45.834,60
414,2016-04-07 23:34:58.766,52
414,2016-04-07 23:35:06.653,60
414,2016-04-07 23:35:16.339,54
414,2016-04-07 23:35:20.754,52
414,2016-04-07 23:35:23.037,62
414,2016-04-07 23:35:40.272,54
414,2016-04-07 23:35:50.61,52
414,2016-04-07 23:35:56.194,54
414,2016-04-07 23:36:10.018,52
414,2016-04-07 23:36:18.946,54
414,2016-04-07 23:36:38.699,62
414,2016-04-07 23:37:26.67,56
414,2016-04-07 23:37:34.419,54
414,2016-04-07 23:37:42.058,60
414,2016-04-07 23:37:52.211,52
414,2016-04-07 23:37:58.041,54
414,2016-04-07 23:38:08.077,52
414,2016-04-07 23:38:09.688,54
414,2016-04-07 23:38:14.04,70
414,2016-04-07 23:38:25.658,58
414,2016-04-07 23:38:42.638,52
414,2016-04-07 23:39:07.239,56
414,2016-04-07 23:39:29.382,54
414,2016-04-07 23:39:32.177,52
414,2016-04-07 23:39:33.291,54
414,2016-04-07 23:39:37.39,52
414,2016-04-07 23:39:48.729,54
414,2016-04-07 23:39:52.77,56
414,2016-04-07 23:39:57.367,54
414,2016-04-07 23:40:04.255,58
414,2016-04-07 23:40:10.75,56
414,2016-04-07 23:40:18.869,54
414,2016-04-07 23:40:25.819,58
414,2016-04-07 23:40:27.965,54
414,2016-04-07 23:40:29.654,52
414,2016-04-07 23:40:42.622,54
414,2016-04-07 23:40:54.806,52
414,2016-04-07 23:41:16.178,60
414,2016-04-07 23:41:21.427,52
414,2016-04-07 23:41:29.511,56
414,2016-04-07 23:41:30.818,62
414,2016-04-07 23:41:33.116,54
414,2016-04-07 23:41:36.518,56
414,2016-04-07 23:41:52.037,54
414,2016-04-07 23:42:05.948,78
414,2016-04-07 23:42:07.499,62
414,2016-04-07 23:42:08.673,56
414,2016-04-07 23:42:16.862,62
414,2016-04-07 23:42:22.832,52
414,2016-04-07 23:42:24.204,54
414,2016-04-07 23:42:26.277,56
414,2016-04-07 23:42:35.238,54
414,2016-04-07 23:42:36.555,60
414,2016-04-07 23:42:39.839,52
414,2016-04-07 23:42:44.081,54
414,2016-04-07 23:42:48.804,58
414,2016-04-07 23:43:02.714,52
414,2016-04-07 23:43:06.041,58
414,2016-04-07 23:43:13.914,52
414,2016-04-07 23:43:23.973,54
414,2016-04-07 23:43:25.546,62
414,2016-04-07 23:43:27.309,60
414,2016-04-07 23:43:42.771,54
414,2016-04-07 23:43:46.857,62
414,2016-04-07 23:43:53.329,60
414,2016-04-07 23:43:54.634,-4
414,2016-04-07 23:44:18.31,-2
414,2016-04-07 23:44:19.431,-4
414,2016-04-07 23:44:58.971,-2
414,2016-04-07 23:45:03.324,54
414,2016-04-07 23:45:09.353,52
414,2016-04-07 23:45:23.511,54
414,2016-04-07 23:45:41.138,60
414,2016-04-07 23:45:44.66,54
414,2016-04-07 23:45:46.294,56
414,2016-04-07 23:45:48.558,-4
414,2016-04-07 23:46:32.427,-2
414,2016-04-07 23:46:34.802,-4
414,2016-04-07 23:47:14.348,-2
414,2016-04-07 23:47:16.034,52
