Labels	P0	P1	P2	P3	P4	P5	P6	P7	P8	P9	P10	P11	P12	P13	P14	P15	P16	P17	P18	P19	P20	P21	P22	P23	P24	P25	P26	P27	P28	P29	P30	P31
P0	0	1157	298	324	154	0	57	286	33	0	7	0	0	113	45	599	34	0	6	0	0	0	0	0	0	0	0	0	23	0	68	402
P1	385	0	677	274	44	0	0	0	0	0	0	0	69	502	38	26	1	0	47	10	0	0	0	0	0	0	0	0	53	49	666	17
P2	84	185	0	938	0	236	263	87	1	0	39	37	404	28	345	8	0	0	1	29	0	0	0	0	0	0	0	0	8	234	14	0
P3	111	101	706	0	125	410	588	10	0	0	0	24	210	0	0	0	0	0	0	27	0	0	0	0	0	57	72	1	379	384	9	0
P4	180	137	0	403	0	194	728	548	0	0	0	0	0	0	0	0	0	0	0	0	0	0	0	0	63	45	1	596	320	0	29	58
P5	0	0	81	172	82	0	307	288	1	396	19	621	17	0	1	0	0	0	0	76	0	0	49	6	33	13	518	359	1	15	0	0
P6	12	0	78	208	489	877	0	529	0	35	217	57	1	0	5	0	0	0	0	0	0	0	0	0	0	234	47	53	9	1	0	0
P7	97	0	34	12	319	344	509	0	667	542	237	1	0	0	9	29	0	0	0	0	0	0	1	41	259	0	0	22	0	0	0	117
P8	6	0	1	0	0	0	0	215	0	754	594	0	0	8	10	246	12	0	1	0	0	12	16	551	4	0	0	0	0	0	0	221
P9	0	0	0	0	0	120	7	172	714	0	667	158	0	0	0	0	0	0	0	8	10	2	285	164	10	0	1	14	0	0	0	0
P10	1	0	10	0	0	1	60	75	689	590	0	553	14	148	193	31	1	0	10	1	15	308	343	93	0	0	0	0	0	0	0	0
P11	0	0	9	9	0	247	12	1	0	406	514	0	233	17	12	0	0	0	1	315	364	47	59	0	0	0	16	1	0	1	0	0
P12	0	14	147	94	0	17	1	0	0	0	67	558	0	600	139	0	0	0	85	583	36	7	0	0	0	0	1	0	0	17	1	0
P13	23	186	31	0	0	0	0	0	35	0	447	0	527	0	656	524	77	0	883	74	1	39	0	5	0	0	0	0	0	1	12	1
P14	8	8	114	0	0	1	5	9	32	0	616	56	389	670	0	412	0	0	0	0	0	0	0	0	0	0	0	0	0	0	0	0
P15	232	31	9	0	0	0	0	65	683	0	72	0	0	748	641	0	642	0	76	0	0	1	0	43	0	0	0	0	0	0	1	176
P16	9	1	0	0	0	0	0	0	0	0	0	0	0	15	0	233	0	590	357	0	0	130	0	610	0	0	0	0	0	0	58	445
P17	0	0	0	0	0	0	0	0	0	0	0	0	0	0	0	0	851	0	214	184	15	424	0	68	0	0	0	0	0	14	193	16
P18	1	9	1	0	0	0	0	0	0	0	0	0	14	293	0	29	399	575	0	647	14	316	0	24	0	0	0	0	0	1	104	8
P19	0	1	7	10	0	17	0	0	0	1	0	133	210	29	0	0	0	496	542	0	965	107	114	0	0	0	112	7	0	210	30	0
P20	0	0	0	0	0	0	0	0	0	0	0	125	8	1	0	0	0	0	1	358	0	912	329	0	0	0	147	7	0	5	1	0
P21	0	0	0	0	0	0	0	0	0	0	106	13	1	10	0	1	39	171	122	23	333	0	792	791	0	104	13	1	0	1	10	1
P22	0	0	0	0	0	11	0	1	0	108	112	14	0	0	0	0	0	0	0	58	164	320	0	1069	70	8	11	94	0	0	0	0
P23	0	0	0	0	0	1	0	11	231	57	26	0	0	1	0	10	244	20	9	0	0	310	473	0	245	9	0	9	0	0	1	286
P24	0	0	0	0	14	9	0	106	6	9	0	0	0	0	0	0	0	0	0	0	0	0	189	716	0	289	5	390	6	0	9	204
P25	0	0	0	9	8	1	85	0	0	0	0	0	0	0	0	0	0	0	0	0	0	321	47	51	909	0	629	457	186	17	125	16
P26	0	0	0	15	0	173	9	0	0	1	0	16	1	0	0	0	0	0	0	276	446	81	62	0	21	672	0	336	56	196	13	0
P27	0	0	0	0	208	110	18	25	0	13	0	1	0	0	0	0	0	0	0	1	0	0	242	32	1119	360	111	0	133	0	0	215
P28	6	10	1	131	86	2	16	0	0	0	0	0	0	0	0	0	0	0	0	0	0	0	0	0	31	671	167	324	0	559	739	325
P29	0	12	107	147	0	16	1	0	0	0	0	1	15	1	0	0	0	58	1	511	25	7	0	0	0	32	421	0	403	0	471	1
P30	15	188	16	13	6	0	0	0	0	0	0	0	1	11	0	1	206	533	303	60	0	48	0	6	28	330	0	0	503	648	0	816
P31	121	16	0	0	44	0	0	78	155	0	0	0	0	1	0	110	801	29	42	0	0	0	0	308	371	0	0	185	340	0	918	0
