\begin{thebibliography}{1}

\bibitem{sundar2007low}
Hari Sundar, Rahul~S Sampath, Santi~S Adavani, Christos Davatzikos, and George
  Biros.
\newblock Low-constant parallel algorithms for finite element simulations using
  linear octrees.
\newblock In {\em Proceedings of the 2007 ACM/IEEE conference on
  Supercomputing}, page~25. ACM, 2007.

\end{thebibliography}
