\relax 
\providecommand\hyper@newdestlabel[2]{}
\providecommand\HyperFirstAtBeginDocument{\AtBeginDocument}
\HyperFirstAtBeginDocument{\ifx\hyper@anchor\@undefined
\global\let\oldcontentsline\contentsline
\gdef\contentsline#1#2#3#4{\oldcontentsline{#1}{#2}{#3}}
\global\let\oldnewlabel\newlabel
\gdef\newlabel#1#2{\newlabelxx{#1}#2}
\gdef\newlabelxx#1#2#3#4#5#6{\oldnewlabel{#1}{{#2}{#3}}}
\AtEndDocument{\ifx\hyper@anchor\@undefined
\let\contentsline\oldcontentsline
\let\newlabel\oldnewlabel
\fi}
\fi}
\global\let\hyper@last\relax 
\gdef\HyperFirstAtBeginDocument#1{#1}
\providecommand\HyField@AuxAddToFields[1]{}
\providecommand\HyField@AuxAddToCoFields[2]{}
\select@language{english}
\@writefile{toc}{\select@language{english}}
\@writefile{lof}{\select@language{english}}
\@writefile{lot}{\select@language{english}}
\@writefile{lof}{\contentsline {figure}{\numberline {1}{\ignorespaces  Octree partitioned using space filling curve, color coded by the process id (MPI rank). \relax }}{1}{figure.caption.2}}
\providecommand*\caption@xref[2]{\@setref\relax\@undefined{#1}}
\newlabel{usMesh_w_partitioning}{{1}{1}{Octree partitioned using space filling curve, color coded by the process id (MPI rank). \relax }{figure.caption.2}{}}
\newlabel{eq::load_flexibility}{{1}{1}{Flexibility in SFC based partitioning schemes}{equation.0.1}{}}
\@writefile{lof}{\contentsline {figure}{\numberline {2}{\ignorespaces  Illustration of the increase in communication costs with low tolerance (ideal load balancing). Partitions for the case of $p=3$ are drawn with the boundary of the partition ($s$) and the load-imbalance ($\lambda $) given along with the level ($l$) at which the partition is defined. At each level, the orange partition (\leavevmode {\color  {orange!50}$\blacksquare $}) gets the extra load that is progressively reduced. The green partition (\leavevmode {\color  {green!40}$\blacksquare $}) gets the largest boundary that progressively increases. \relax }}{1}{figure.caption.7}}
\newlabel{fig:flex}{{2}{1}{Illustration of the increase in communication costs with low tolerance (ideal load balancing). Partitions for the case of $p=3$ are drawn with the boundary of the partition ($s$) and the load-imbalance ($\lambda $) given along with the level ($l$) at which the partition is defined. At each level, the orange partition (\textcolor {orange!50}{$\blacksquare $}) gets the extra load that is progressively reduced. The green partition (\textcolor {green!40}{$\blacksquare $}) gets the largest boundary that progressively increases. \relax }{figure.caption.7}{}}
\@writefile{lof}{\contentsline {subfigure}{\numberline{(a)}{\ignorespaces {$\scriptstyle l=1,~\lambda =2,~s=16$}}}{1}{subfigure.2.1}}
\@writefile{lof}{\contentsline {subfigure}{\numberline{(b)}{\ignorespaces {$\scriptstyle l=2,~\lambda =1.2,~s=24$}}}{1}{subfigure.2.2}}
\@writefile{lof}{\contentsline {subfigure}{\numberline{(c)}{\ignorespaces {$\scriptstyle l=3,~\lambda =1.05,~s=28$}}}{1}{subfigure.2.3}}
\@writefile{lof}{\contentsline {subfigure}{\numberline{(d)}{\ignorespaces {$\scriptstyle l=4,~\lambda =1.01,~s=30$}}}{1}{subfigure.2.4}}
\newlabel{subfig::tol_op001}{{3a}{1}{$tol=0.001$ \relax }{figure.caption.8}{}}
\newlabel{sub@subfig::tol_op001}{{a}{1}{$tol=0.001$ \relax }{figure.caption.8}{}}
\newlabel{subfig::tol_op1}{{3b}{1}{$tol=0.1$ \relax }{figure.caption.8}{}}
\newlabel{sub@subfig::tol_op1}{{b}{1}{$tol=0.1$ \relax }{figure.caption.8}{}}
\newlabel{subfig::tol_op5}{{3c}{1}{$tol=0.5$ \relax }{figure.caption.8}{}}
\newlabel{sub@subfig::tol_op5}{{c}{1}{$tol=0.5$ \relax }{figure.caption.8}{}}
\@writefile{lof}{\contentsline {figure}{\numberline {3}{\ignorespaces Octree partition which assigned to mpi rank 3 with varying tolerance. Note that the partition get smoother (reduced number of boundary surfaces) with higher tolerance value. \relax }}{1}{figure.caption.8}}
\newlabel{eq::comm_matrix}{{2}{1}{Ghost octants \& communication matrix}{equation.0.2}{}}
\@writefile{lof}{\contentsline {figure}{\numberline {4}{\ignorespaces  Demontration of ghost octants for a given partition in an adaptive octree. Assuming that the green octants belongs to partition $a$ and all the grey octant would act as ghost octants for that partition which needs to be accessed when performing the distributed \textsc  {matvec }operation. \relax }}{1}{figure.caption.11}}
\newlabel{fig::octree_ghost}{{4}{1}{Demontration of ghost octants for a given partition in an adaptive octree. Assuming that the green octants belongs to partition $a$ and all the grey octant would act as ghost octants for that partition which needs to be accessed when performing the distributed \mvec operation. \relax }{figure.caption.11}{}}
\@writefile{lof}{\contentsline {figure}{\numberline {5}{\ignorespaces  High level diagram showing main comphonents and their conectivity to measure the energy consumption of \textsc  {matvec }operaton. \relax }}{1}{figure.caption.12}}
\newlabel{fig::cloudlb_energy}{{5}{1}{High level diagram showing main comphonents and their conectivity to measure the energy consumption of \mvec operaton. \relax }{figure.caption.12}{}}
\@writefile{lof}{\contentsline {figure}{\numberline {6}{\ignorespaces  Maximum \textsc  {matvec }\ execution time across all processes for weak scaling experiment with a grain size of $100K$ octants per process on \href  {https://www.olcf.ornl.gov/titan/}{Titan}. \textsc  {Hilbert }is faster for all cases. The fluctuations are due to the \textsc  {matvec }~code overlapping communication with computation. \relax }}{1}{figure.caption.15}}
\newlabel{fig:matvec}{{6}{1}{Maximum \mvec \ execution time across all processes for weak scaling experiment with a grain size of $100K$ octants per process on \Titan . \hilbertcurve is faster for all cases. The fluctuations are due to the \mvec ~code overlapping communication with computation. \relax }{figure.caption.15}{}}
\@writefile{lof}{\contentsline {figure}{\numberline {7}{\ignorespaces  Comparison for number of non-zeros (nnz) elements in the communication matrix corresponding to perform \textsc  {matvec }operation based on \textsc  {Hilbert }and \textsc  {Morton }based partitioning schemes for a mesh size of 1B nodes with 4096 mpi tasks with varying tolerance values in TACC's \href  {https://www.tacc.utexas.edu/stampede/}{Stampede}. Note that the scale difference between the axes in the plots, and for both partitioning schemes we can reduce the nnz (overall communication cost) by increasing the tolerance value. \relax }}{1}{figure.caption.16}}
\newlabel{fig:matvec_nnz}{{7}{1}{Comparison for number of non-zeros (nnz) elements in the communication matrix corresponding to perform \mvec operation based on \hilbertcurve and \mortoncurve based partitioning schemes for a mesh size of 1B nodes with 4096 mpi tasks with varying tolerance values in TACC's \Stampede . Note that the scale difference between the axes in the plots, and for both partitioning schemes we can reduce the nnz (overall communication cost) by increasing the tolerance value. \relax }{figure.caption.16}{}}
\@writefile{lof}{\contentsline {figure}{\numberline {8}{\ignorespaces  Comparison for \textsc  {matvec }energy consumption based on \textsc  {Hilbert }and \textsc  {Morton }based partitioning schemes for a mesh size of 95M \& 2M nodes with 256 mpi tasks \& 8 mpi tasks with varying tolerance values in \href  {https://cloudlab.us/}{CloudLab}. Note that the two scenarios depicts the effect of running 32 tasks in a single node Vs. 1 task in a single node. \relax }}{1}{figure.caption.17}}
\newlabel{fig:energy}{{8}{1}{Comparison for \mvec energy consumption based on \hilbertcurve and \mortoncurve based partitioning schemes for a mesh size of 95M \& 2M nodes with 256 mpi tasks \& 8 mpi tasks with varying tolerance values in \Cloudlab . Note that the two scenarios depicts the effect of running 32 tasks in a single node Vs. 1 task in a single node. \relax }{figure.caption.17}{}}
\newlabel{subfig::tol_op3_h}{{9a}{1}{\hilbertcurve \relax }{figure.caption.18}{}}
\newlabel{sub@subfig::tol_op3_h}{{a}{1}{\hilbertcurve \relax }{figure.caption.18}{}}
\newlabel{subfig::tol_op3_m}{{9b}{1}{\mortoncurve \relax }{figure.caption.18}{}}
\newlabel{sub@subfig::tol_op3_m}{{b}{1}{\mortoncurve \relax }{figure.caption.18}{}}
\@writefile{lof}{\contentsline {figure}{\numberline {9}{\ignorespaces  Sparsity structure of the communication matrices of \textsc  {Hilbert }and \textsc  {Morton }based partition schemes for a total mesh size of 1B nodes with 4096 mpi tasks ran on TACC's \href  {https://www.tacc.utexas.edu/stampede/}{Stampede}with a tolerance value of $0.3$. Note that the two matrices have different sparsity structures and \textsc  {Hilbert }is more sparse compared to \textsc  {Morton }communication matrix.\relax }}{1}{figure.caption.18}}
\newlabel{fig:spy_comm_mat}{{9}{1}{Sparsity structure of the communication matrices of \hilbertcurve and \mortoncurve based partition schemes for a total mesh size of 1B nodes with 4096 mpi tasks ran on TACC's \Stampede with a tolerance value of $0.3$. Note that the two matrices have different sparsity structures and \hilbertcurve is more sparse compared to \mortoncurve communication matrix.\relax }{figure.caption.18}{}}
\@writefile{lof}{\contentsline {figure}{\numberline {10}{\ignorespaces  Energy consumed by each node while performing \textsc  {matvec }operation , with ideal load balancing (for both \textsc  {Hilbert }and \textsc  {Morton }) Vs. flexible load balancing with a tolerance of $0.3$ for 95M mesh nodes with 256 mpi tasks in \href  {https://cloudlab.us/}{CloudLab}8 node cluster.\relax }}{1}{figure.caption.19}}
\newlabel{fig::energy_per_node}{{10}{1}{Energy consumed by each node while performing \mvec operation , with ideal load balancing (for both \hilbertcurve and \mortoncurve ) Vs. flexible load balancing with a tolerance of $0.3$ for 95M mesh nodes with 256 mpi tasks in \Cloudlab 8 node cluster.\relax }{figure.caption.19}{}}
