npes	numPts	option	tol	1_sf_min	1_sf_mean	1_sf_max	1_split_min	1_split_mean	1_split_max	1_a2a1_min	1_a2a1_mean	1_a2a1_max	1_a2a2_min	1_a2a2_mean	1_a2a2_max	1_ls_min	1_ls_mean	1_ls_max	1_sq::rd_min	1_sq::rd_mean	1_sq::rd_max	1_auxBal_min	1_auxBal_mean	1_auxBal_max	1_par::rd_min	1_par::rd_mean	1_par::rd_max	1_totRD_min	1_totRD_mean	1_totRD_max
2	1000000	1	0.1	0	0	0	39	39	39	0	0	0	14	14	14	188	203.5	219	21	24	27	0	0	0	2	17.5	33	275	275	275
4	1000000	1	0.1	0	0	0	43	43.75	44	0	0	0	14	14.5	15	190	207	214	17	23.5	26	0	0	0	2	8.75	25	275	275.5	276
8	1000000	1	0.1	0	0	0	48	48	48	0	0	0	16	17.125	18	183	223.125	245	15	22.375	25	0	0	0	2	25.25	65	314	314.875	316
16	1000000	1	0.1	68	69	70	40	49.375	56	20	20	20	10	13.5	15	182	214.125	246	15	20	27	0	0	0	2	42.25	82	390	390.562	391
32	1000000	1	0.1	94	94.9688	96	44	55.875	67	41	44.2812	45	12	13.625	16	174	220.438	260	14	20.3438	27	0	0	0	2	53.3438	113	439	440.312	441
64	1000000	1	0.1	107	112.391	124	56	66.0312	73	50	54.6719	57	14	16.2812	18	174	228.781	260	14	23.3281	32	0	0	0	3	40.4688	106	460	466.078	478
128	1000000	1	0.1	218	232.648	248	37	64.2812	79	17	19.9609	24	8	12.9219	17	170	231.359	284	13	21.8359	31	0	0	0	3	72.3438	164	610	615.656	626
256	1000000	1	0.1	251	269.062	287	54	73.5898	86	37	43.9961	49	11	14.1484	19	160	237.258	283	13	22.9648	32	0	0	0	3	73.2539	185	662	669.27	683
512	1000000	1	0.1	391	423.279	501	59	80.9727	135	45	57.3027	74	13	17.75	31	159	244.928	296	13	25.2773	45	0	0	0	4	188.461	324	859	957.334	969
1024	1000000	1	0.1	578	614.059	742	12	78.6133	109	15	21.0635	34	7	13.0098	28	138	246.974	357	12	23.0762	35	0	0	0	3	210.428	393	1067	1165.07	1179
2048	1000000	1	0.1	475	518.423	569	38	87.6636	109	33	46.3047	53	9	14.4941	20	152	252.473	324	11	23.73	35	0	0	0	4	120.172	320	987	995.249	1010
4096	1000000	1	0.1	566	648.816	782	46	96.4585	172	42	55.9597	78	12	17.343	38	152	258.963	329	11	24.4717	38	0	0	0	4	259.744	497	1205	1283.33	1296
