npes	numPts	option	tol	1_sf_min	1_sf_mean	1_sf_max	1_split_min	1_split_mean	1_split_max	1_a2a1_min	1_a2a1_mean	1_a2a1_max	1_a2a2_min	1_a2a2_mean	1_a2a2_max	1_ls_min	1_ls_mean	1_ls_max	1_sq::rd_min	1_sq::rd_mean	1_sq::rd_max	1_auxBal_min	1_auxBal_mean	1_auxBal_max	1_par::rd_min	1_par::rd_mean	1_par::rd_max	1_totRD_min	1_totRD_mean	1_totRD_max
2	1000000	1	0.1	0	0	0	39	39	39	0	0	0	14	14	14	184	203	222	17	23	29	0	0	0	2	20.5	39	278	278	278
4	1000000	1	0.1	0	0	0	44	50	56	0	0	0	15	15	15	189	206.75	214	17	23.25	29	0	0	0	2	9.25	27	276	282	288
8	1000000	1	0.1	0	0	0	48	54.125	58	0	0	0	16	18.75	21	192	234.125	278	17	26.625	31	0	0	0	2	48	92	351	356.875	361
16	1000000	1	0.1	0	0	0	57	62.1875	71	0	0	0	20	20.6875	21	203	220.312	236	18	25.3125	30	0	0	0	3	18.5	35	318	323.125	332
32	1000000	1	0.1	133	138.406	149	37	53.4688	63	63	69.0625	73	9	12.3125	15	189	223.344	253	16	22.4062	31	0	0	0	3	37.7812	84	462	467.344	478
64	1000000	1	0.1	144	150.281	159	49	63.75	79	77	80.1094	82	12	13.9688	16	193	230.281	259	15	23.1094	29	0	0	0	3	38.1406	82	491	498.188	507
128	1000000	1	0.1	145	151.18	160	64	74.4766	82	78	80.4609	82	15	16.9922	24	193	233.336	265	15	23.0312	30	0	0	0	3	41.1875	89	512	519.203	528
256	1000000	1	0.1	142	150.105	162	81	95.9375	104	63	75.2383	79	18	20.6641	23	198	239.254	267	15	24.6328	34	0	0	0	3	39.4414	89	539	547.434	559
512	1000000	1	0.1	456	479.434	561	46	73.6914	107	56	70.8574	87	8	13.1094	42	188	242.996	333	14	23.1543	31	0	0	0	4	230.135	326	1006	1041.39	1050
1024	1000000	1	0.1	537	571.144	663	53	83.7539	162	76	83.4326	101	9	14.4531	23	166	247.588	399	14	23.7168	62	0	0	0	7	283.753	419	1103	1202.69	1215
2048	1000000	1	0.1	425	447.641	468	61	91.4673	107	73	85.8813	94	14	17.1328	20	177	253.743	308	14	25.0601	34	0	0	0	4	84.0503	207	888	896.084	908
4096	1000000	1	0.1	452	526.587	611	69	98.5713	203	55	75.7283	106	17	21.6702	37	181	259.168	341	14	24.6699	41	0	0	0	4	268.435	400	1109	1176.43	1193
