npes	numPts	option	tol	1_sf_min	1_sf_mean	1_sf_max	1_split_min	1_split_mean	1_split_max	1_a2a1_min	1_a2a1_mean	1_a2a1_max	1_a2a2_min	1_a2a2_mean	1_a2a2_max	1_ls_min	1_ls_mean	1_ls_max	1_sq::rd_min	1_sq::rd_mean	1_sq::rd_max	1_auxBal_min	1_auxBal_mean	1_auxBal_max	1_par::rd_min	1_par::rd_mean	1_par::rd_max	1_totRD_min	1_totRD_mean	1_totRD_max	sf1_full_min	sf1_full_mean	sf1_full_max	sf1_all2all_min	sf1_all2all_mean	sf1_all2all_max	sf1_split_min	sf1_split_mean	sf1_split_max
16	1000000	1	1e-06	0	0	0	128	128.688	130	0	0	0	53	55.125	57	475	494.812	504	71	79.375	86	0	0	0	8	17.5	38	695	697.688	699
32	1000000	1	1e-06	0	0	0	137	150.125	180	0	0	0	83	83.9688	86	471	502.281	519	66	75.25	84	0	0	0	8	26.375	59	751	764.344	794
64	1000000	1	1e-06	0	0	0	152	165.156	196	0	0	0	120	120.531	121	476	512.266	532	63	75.9531	84	0	0	0	8	28.2969	65	814	827.703	858
128	1000000	1	1e-06	0	0	0	168	183.555	220	0	0	0	113	114.203	115	474	525.156	555	56	76.3281	88	0	0	0	9	38.0781	89	847	862.602	899
256	1000000	1	1e-06	0	0	0	191	207.68	247	0	0	0	221	221.969	222	471	540.672	572	54	82.1836	98	0	0	0	9	40.3398	110	993	1012.23	1052
512	1000000	1	1e-06	372	391.521	437	89	156.52	190	177	178.818	181	21	29.4414	37	471	540.664	582	41	70.3848	91	0	0	0	8	75.416	211	1176	1195.56	1241	372	391.516	437	177	178.818	181	193	212.697	260
1024	1000000	1	1e-06	484	500.879	549	127	178.192	201	135	212.52	292	30	40.0273	46	474	557.563	599	40	77.1748	95	0	0	0	8	68.5576	194	1330	1347.19	1395	484	500.869	549	135	212.52	292	193	288.35	413
2048	1000000	1	1e-06	547	579.231	601	148	198.916	227	336	344.671	351	34	42.1465	49	471	572.128	610	40	79.6172	96	0	0	0	9	73.9849	214	1437	1468.43	1490	547	579.227	601	336	344.671	351	200	234.556	259
4096	1000000	1	1e-06	669	706.24	732	166	216.956	239	348	450.509	461	42	48.0581	56	477	583.207	621	41	80.8726	96	0	0	0	12	71.0269	217	1590	1627.45	1654	669	706.234	732	348	450.509	461	215	255.725	365
8192	1000000	1	1e-06	675	684.074	748	183	231.249	254	193	443.758	467	60	64.2118	68	470	596.396	637	44	82.4706	97	0	0	0	17	75.0316	250	1644	1652.96	1716	675	684.068	748	193	443.758	467	209	240.31	554
16384	1000000	1	1e-06	785	839.829	891	195	247.874	313	354	483.869	513	73	76.0052	104	477	608.59	669	40	83.0457	125	0	0	0	22	115.669	285	1836	1889.97	1941	785	839.824	891	354	483.869	513	283	355.956	534
