npes	ts_spliter_min	ts_spliter_mean	ts_spliter_max	ss_spliter_min	ss_spliter_mean	ss_spliter_max	ts_all2all_min	ts_all2all_mean	ts_all2all_max	ss_all2all_min	ss_all2all_mean	ss_all2all_max	ts_local_min	ts_local_mean	ts_local_max	ss_local_min	ss_local_mean	ss_local_max	ts_send_min	ts_send_mean	ts_send_max	ts_recv_min	ts_recv_mean	ts_recv_max	ss_send_min	ss_send_mean	ss_send_max	ss_recv_min	ss_recv_mean	ss_recv_max	ts_lb_min	ts_lb_max	ss_lb_min	ss_lb_max	ts_min	ts_mean	ts_max	ss_min	ss_mean	ss_max
16	0.722	0.722	0.722	2.847	2.8615	2.879	1.152	1.23394	1.272	1.186	1.25588	1.284	1.907	1.97156	2.052	2.363	2.4345	2.507	4.68616e+06	4.68759e+06	4.68813e+06	4.68486e+06	4.68759e+06	4.69011e+06	4.68617e+06	4.68759e+06	4.68833e+06	4.67426e+06	4.68759e+06	4.70326e+06	4.99709e+06	5.00304e+06	4.98715e+06	5.01709e+06	3.843	3.92863	4.017	7.105	7.232	7.388
32	0.809	0.809	0.809	2.874	2.88966	2.905	1.171	1.22516	1.256	1.1	1.15138	1.172	1.903	2.00753	2.109	2.34	2.43588	2.525	4.84296e+06	4.84375e+06	4.84429e+06	4.84007e+06	4.84375e+06	4.84836e+06	4.84223e+06	4.84375e+06	4.84448e+06	4.83274e+06	4.84375e+06	4.86543e+06	4.99617e+06	5.00471e+06	4.98833e+06	5.02303e+06	3.96	4.04256	4.101	7.052	7.13875	7.326
64	0.906	0.906	0.906	2.947	2.96208	2.982	1.122	1.24019	1.267	1.111	1.17617	1.199	1.995	2.07377	2.183	2.38	2.46305	2.542	4.92124e+06	4.92185e+06	4.9224e+06	4.9181e+06	4.92185e+06	4.92573e+06	4.92092e+06	4.92185e+06	4.92244e+06	4.90855e+06	4.92185e+06	4.97302e+06	4.99596e+06	5.00397e+06	4.98667e+06	5.05176e+06	4.032	4.22145	4.344	7.182	7.32459	7.502
128	0.996	0.996023	0.997	2.975	2.99656	3.014	1.407	1.51384	1.559	1.31	1.37754	1.407	2.02	2.12602	2.246	2.433	2.50663	2.593	4.9605e+06	4.96094e+06	4.96143e+06	4.9567e+06	4.96094e+06	4.96471e+06	4.96034e+06	4.96094e+06	4.96141e+06	4.93799e+06	4.96094e+06	5.04864e+06	4.99575e+06	5.00404e+06	4.97684e+06	5.08817e+06	4.481	4.63763	4.789	7.468	7.61402	7.868
256	1.104	1.104	1.104	2.933	2.95255	2.991	1.828	1.9155	1.96	1.835	1.90532	1.932	2.061	2.17989	2.307	2.467	2.5515	2.628	4.98006e+06	4.98045e+06	4.98086e+06	4.97581e+06	4.98045e+06	4.98538e+06	4.97992e+06	4.98044e+06	4.9808e+06	4.94855e+06	4.98044e+06	5.1035e+06	4.99529e+06	5.00481e+06	4.96825e+06	5.12353e+06	5.056	5.20014	5.319	7.932	8.12816	8.419
512	1.194	1.19408	1.195	3.11	3.12928	3.154	2.151	2.33818	2.48	2.026	2.20754	2.353	2.086	2.24434	2.414	2.48	2.58943	2.711	4.98995e+06	4.99023e+06	4.99055e+06	4.9857e+06	4.99023e+06	4.99493e+06	4.98979e+06	4.99023e+06	4.99051e+06	4.95833e+06	4.99023e+06	5.13928e+06	4.99547e+06	5.00474e+06	4.96793e+06	5.14927e+06	5.533	5.77812	5.944	8.399	8.70812	9.015
1024	1.349	1.34902	1.35	3.126	3.14465	3.17	2.257	2.45291	2.604	2.22	2.38545	2.503	2.112	2.29468	2.516	2.538	2.62606	2.801	4.99487e+06	4.99512e+06	4.99535e+06	4.99036e+06	4.99512e+06	5.00023e+06	4.99489e+06	4.99512e+06	4.99534e+06	4.95395e+06	4.99512e+06	5.22466e+06	4.99529e+06	5.00492e+06	4.9588e+06	5.22977e+06	5.908	6.09801	6.31	8.699	9.02617	9.277
2048	1.437	1.43717	1.438	3.123	3.14242	3.167	3.634	3.87842	4.007	3.532	3.72757	3.827	2.172	2.33547	2.55	2.561	2.67747	2.84	4.99739e+06	4.99756e+06	4.99774e+06	4.99259e+06	4.99756e+06	5.00225e+06	4.99728e+06	4.99756e+06	4.99773e+06	4.94276e+06	4.99756e+06	5.30155e+06	4.99506e+06	5.00474e+06	4.9452e+06	5.30415e+06	7.384	7.65247	7.846	10.071	10.4346	10.79
4096	1.564	1.564	1.564	3.02	3.07849	3.148	5.08	5.22958	5.416	5.241	5.36539	5.516	2.208	2.37318	2.58	2.609	2.72716	3.016	4.99865e+06	4.99878e+06	4.99889e+06	4.99389e+06	4.99878e+06	5.0037e+06	4.99858e+06	4.99878e+06	4.9989e+06	4.94759e+06	4.99878e+06	5.57057e+06	4.99509e+06	5.0049e+06	4.94873e+06	5.57199e+06	8.926	9.16798	9.487	11.867	12.1943	12.64
8192	2.867	2.87418	2.906	3.262	3.33542	3.416	6.078	6.24163	6.723	6.143	6.26256	6.729	2.217	2.4148	2.6	2.639	2.76821	3.214	4.99929e+06	4.99939e+06	4.99948e+06	4.99445e+06	4.99939e+06	5.00427e+06	4.99929e+06	4.99939e+06	4.99948e+06	4.92494e+06	4.99939e+06	5.8432e+06	4.99507e+06	5.00491e+06	4.92557e+06	5.84386e+06	11.308	11.5319	11.986	13.096	13.553	14.239
16384	3.205	3.22806	3.251	3.535	3.58686	3.66	5.367	5.5701	6.053	5.319	5.51651	6.028	2.292	2.4629	2.654	2.672	2.80662	3.519	4.99963e+06	4.99969e+06	4.99978e+06	4.99477e+06	4.99969e+06	5.00469e+06	4.99963e+06	4.99969e+06	4.99977e+06	4.93321e+06	4.99969e+06	6.41741e+06	4.99508e+06	5.00499e+06	4.93353e+06	6.41778e+06	11.063	11.2899	11.9	12.775	13.3052	14.221
32768	3.851	3.8622	3.903	4.598	4.66781	4.749	6.713	7.07768	8.162	10.83	11.1553	12.244	2.336	2.51384	2.708	2.701	2.83616	3.885	4.99979e+06	4.99985e+06	4.9999e+06	4.99487e+06	4.99985e+06	5.00482e+06	4.99978e+06	4.99985e+06	4.9999e+06	4.9728e+06	4.99985e+06	6.8675e+06	4.99503e+06	5.00498e+06	4.97298e+06	6.86769e+06	13.03	13.4551	14.547	19.373	20.5684	21.991
