NumProcessors	MatVecT_H	MatVecT_M	min_H	max_H	min_M	max_M
16	23260.0	27957.0	19650.0	25927.0	23469.0	32483.0
32	16946.0	23965.0	10886.0	23364.0	17155.0	33699.0
64	16169.0	22360.0	11745.0	23173.0	11100.0	27398.0
128	16762.0	20983.0	9433.0	23322.0	10517.0	30065.0
256	16567.0	21392.0	8586.0	28931.0	9732.0	30171.0
512	16228.0	20631.0	9202.0	25218.0	9571.0	29848.0
1024	16305.0	20351.0	8350.0	27783.0	8981.0	32564.0
2048	16117.0	20546.0	8637.0	27240.0	9021.0	30372.0
4096	16062.0	20363.0	8456.0	26296.0	8927.0	31296.0
