tol	d_max	localSz_max	actual	interpolated	relative_err
1e-05	130274.0	552428.0	1049479.2	1072585.181576454	0.022016616981502948
0.0001	130274.0	552507.0	1097287.112	1074284.233631603	0.02096340886249014
0.001	128109.0	553288.0	959593.72	959262.71939947	0.00034493827297030563
0.01	126776.0	559953.0	1079515.48	1079738.2913007657	0.00020639935683527483
0.1	142617.0	636035.0	1068547.736	1068552.8220917063	4.759817025429015e-06
