tol	d_max	localSz_max	actual	interpolated	relative_err
0.2	128397.0	751415.0	1265778.608	3144775.4813595447	1.4844593371098784
0.3	105080.0	787388.0	818276.776	3381453.18393853	3.1324076194220742
0.4	128692.0	831503.0	954988.648	3101703.3516489957	2.2478955201664297
0.5	158054.0	1052963.0	1254131.744	1068552.8220917063	0.1479740248950222
1e-05	118696.0	551908.0	980700.632	852083.8583586876	0.13114784414792993
0.0001	118696.0	551996.0	989538.664	852083.8583586876	0.13890796857363866
0.001	131891.0	552785.0	981144.992	1180749.6804311988	0.2034405618524513
0.01	135520.0	559848.0	893289.056	1465530.5212728372	0.6406005552505473
0.1	163156.0	655613.0	1276226.48	1068552.8220917063	0.16272476802729688
0.2	130062.0	739032.0	874048.144	2901673.461128817	2.3198096478411117
0.3	134409.0	840154.0	935649.4	2266980.0785804843	1.4228948135706434
0.4	109864.0	894926.0	931011.968	3381453.18393853	2.632019028931033
0.5	122471.0	1070617.0	1110944.464	3381453.18393853	2.0437643766309184
