npes	numPts	option	tol	1_sf_min	1_sf_mean	1_sf_max	1_split_min	1_split_mean	1_split_max	1_a2a1_min	1_a2a1_mean	1_a2a1_max	1_a2a2_min	1_a2a2_mean	1_a2a2_max	1_ls_min	1_ls_mean	1_ls_max	1_sq::rd_min	1_sq::rd_mean	1_sq::rd_max	1_auxBal_min	1_auxBal_mean	1_auxBal_max	1_par::rd_min	1_par::rd_mean	1_par::rd_max	1_totRD_min	1_totRD_mean	1_totRD_max	sf1_full_min	sf1_full_mean	sf1_full_max	sf1_all2all_min	sf1_all2all_mean	sf1_all2all_max	sf1_split_min	sf1_split_mean	sf1_split_max	sf2_full_min	sf2_full_mean	sf2_full_max	sf2_all2all_min	sf2_all2all_mean	sf2_all2all_max	sf2_split_min	sf2_split_mean	sf2_split_max	log_scale
16	1000000	1	0.1	0	0	0	123	127.25	138	0	0	0	55	56.0625	58	418	477.875	522	45	61.6875	82	0	0	0	7	52.25	114	710	715	726	0	0	0	0	0	0	0	0	0	0	0	0	0	0	0	0	0	0	715
32	1000000	1	0.1	0	0	0	128	131.938	142	0	0	0	74	76.0625	77	407	493.156	535	34	64.3125	80	0	0	0	8	51.4688	139	750	753.969	764	0	0	0	0	0	0	0	0	0	0	0	0	0	0	0	0	0	0	893.75
64	1000000	1	0.1	0	0	0	144	148.031	159	0	0	0	99	100.344	101	437	503.25	552	36	65.1094	88	0	0	0	9	56.9688	122	806	809.984	821	0	0	0	0	0	0	0	0	0	0	0	0	0	0	0	0	0	0	1072.5
128	1000000	1	0.1	0	0	0	163	167.461	177	0	0	0	112	112.789	113	449	516.375	578	40	67.8047	87	0	0	0	9	69.8125	138	862	867.789	878	0	0	0	0	0	0	0	0	0	0	0	0	0	0	0	0	0	0	1251.25
256	1000000	1	0.1	0	0	0	173	178.176	190	0	0	0	160	160.98	162	429	527.695	591	35	69.0273	93	0	0	0	8	71.3203	170	934	939.809	951	0	0	0	0	0	0	0	0	0	0	0	0	0	0	0	0	0	0	1430
512	1000000	1	0.1	347	366.84	382	73	153.201	200	170	171.436	172	21	29.0664	39	427	527.166	619	33	55.6758	86	0	0	0	8	133.496	297	1192	1211.84	1227	347	366.836	382	170	171.436	172	176	195.4	210	0	0	0	0	0	0	0	0	0	1608.75
1024	1000000	1	0.1	518	542.085	568	119	173.685	209	256	309.68	332	28	39.71	47	407	542.254	639	32	59.666	89	0	0	0	8	126.301	308	1402	1426.04	1453	518	542.083	568	256	309.68	332	187	232.403	312	0	0	0	0	0	0	0	0	0	1787.5
2048	1000000	1	0.1	633	655.528	672	136	193.589	235	423	437.68	443	35	47.0146	55	414	556.24	670	33	62.0381	100	0	0	0	9	167.366	356	1599	1621.73	1639	633	655.526	672	423	437.68	443	192	217.846	245	0	0	0	0	0	0	0	0	0	1966.25
4096	1000000	1	0.1	693	716.357	733	151	212.345	253	478	491.189	498	45	54.0386	62	425	565.752	684	32	62.5659	97	0	0	0	10	174.03	368	1701	1724.55	1742	693	716.353	733	478	491.189	498	196	225.164	249	0	0	0	0	0	0	0	0	0	2145
8192	1000000	1	0.1	693	717.005	742	168	225.045	264	492	504.56	511	56	64.2528	75	431	579.175	703	32	64.5247	101	0	0	0	14	179.236	377	1743	1766.75	1792	693	717	742	492	504.56	511	183	212.44	241	0	0	0	0	0	0	0	0	0	2323.75
16384	1000000	1	0.1	993	1008.02	1023	180	237.391	301	700	760.47	786	68	77.9666	145	412	590.123	714	32	63.4903	102	0	0	0	16	200.29	429	2101	2115.8	2131	993	1008.01	1023	700	760.47	786	211	247.541	312	0	0	0	0	0	0	0	0	0	2502.5
32768	1000000	1	0.1	1579	1612.45	1649	192	251.845	296	1060	1205.66	1255	80	104.386	302	438	598.067	743	31	62.9748	115	0	0	0	28	280.15	512	2816	2848.91	2866	1579	1612.44	1649	1060	1205.66	1255	328	406.785	558	0	0	0	0	0	0	0	0	0	2681.25
65536	1000000	1	0.1	1364	1380.32	1391	204	262.685	305	1044	1125.06	1156	87	122.88	386	424	609.589	743	32	64.2057	103	0	0	0	37	340.674	605	2700	2718.16	2729	1364	1380.31	1391	1044	1125.06	1156	217	255.258	338	0	0	0	0	0	0	0	0	0	2860
131072	1000000	1	0.1	1907	2063.33	2408	77	238.079	308	112	195.039	528	13	30.2095	45	407	617.58	798	29	58.0857	106	0	0	0	69	495.057	940	3416	3446.26	3482	1571	1600.45	1635	1239	1319.97	1350	223	280.484	386	332	462.348	780	112	195.039	528	207	267.309	314	3038.75
262144	1000000	1	0.1	2574	2740.54	3087	137	262.805	355	157	273.855	632	24	40.0198	81	419	631.585	818	28	61.8788	108	0	0	0	189	673.005	1094	4307	4349.97	4386	2145	2192.07	2215	1475	1628.13	1684	495	563.939	728	413	547.935	878	157	273.855	632	206	274.08	349	3217.5
