\relax 
\providecommand\hyper@newdestlabel[2]{}
\providecommand\HyperFirstAtBeginDocument{\AtBeginDocument}
\HyperFirstAtBeginDocument{\ifx\hyper@anchor\@undefined
\global\let\oldcontentsline\contentsline
\gdef\contentsline#1#2#3#4{\oldcontentsline{#1}{#2}{#3}}
\global\let\oldnewlabel\newlabel
\gdef\newlabel#1#2{\newlabelxx{#1}#2}
\gdef\newlabelxx#1#2#3#4#5#6{\oldnewlabel{#1}{{#2}{#3}}}
\AtEndDocument{\ifx\hyper@anchor\@undefined
\let\contentsline\oldcontentsline
\let\newlabel\oldnewlabel
\fi}
\fi}
\global\let\hyper@last\relax 
\gdef\HyperFirstAtBeginDocument#1{#1}
\providecommand\HyField@AuxAddToFields[1]{}
\providecommand\HyField@AuxAddToCoFields[2]{}
\citation{*}
\bibstyle{plain}
\bibdata{hilbert}
\select@language{english}
\@writefile{toc}{\select@language{english}}
\@writefile{lof}{\select@language{english}}
\@writefile{lot}{\select@language{english}}
\@writefile{lof}{\contentsline {figure}{\numberline {1}{\ignorespaces  Octree partitioned using space filling curve \relax }}{1}{figure.caption.3}}
\providecommand*\caption@xref[2]{\@setref\relax\@undefined{#1}}
\newlabel{usMesh_w_partitioning}{{1}{1}{Octree partitioned using space filling curve \relax }{figure.caption.3}{}}
\@writefile{lof}{\contentsline {figure}{\numberline {2}{\ignorespaces Refined Hilbert curve covering the points $p_1\ and \ p_2$ \relax }}{1}{figure.caption.9}}
\newlabel{nca1}{{2}{1}{Refined Hilbert curve covering the points $p_1\ and \ p_2$ \relax }{figure.caption.9}{}}
\@writefile{lof}{\contentsline {figure}{\numberline {3}{\ignorespaces Ordering of points based on the Rotation pattern inside the NCA \relax }}{1}{figure.caption.10}}
\newlabel{nca2}{{3}{1}{Ordering of points based on the Rotation pattern inside the NCA \relax }{figure.caption.10}{}}
\@writefile{lof}{\contentsline {figure}{\numberline {4}{\ignorespaces 2d ordering of points for Hilbert and Morton baseline, Hilbert and Morton NCA approaches.\relax }}{1}{figure.caption.13}}
\newlabel{2d_NCA}{{4}{1}{2d ordering of points for Hilbert and Morton baseline, Hilbert and Morton NCA approaches.\relax }{figure.caption.13}{}}
\@writefile{lof}{\contentsline {figure}{\numberline {5}{\ignorespaces 3d ordering of points for Hilbert and Morton baseline, Hilbert and Morton NCA approaches.\relax }}{1}{figure.caption.14}}
\newlabel{3d_NCA}{{5}{1}{3d ordering of points for Hilbert and Morton baseline, Hilbert and Morton NCA approaches.\relax }{figure.caption.14}{}}
\@writefile{lof}{\contentsline {figure}{\numberline {6}{\ignorespaces  Flexible partitioning results using Hilbert and Morton ordering \relax }}{1}{figure.caption.15}}
\newlabel{flexibility}{{6}{1}{Flexible partitioning results using Hilbert and Morton ordering \relax }{figure.caption.15}{}}
