[100%] Built target SFCSortBench
[100%] Built target SFCSortBench
Hilbert with + 0.1
Initialized Hcurves for dimention 3
finished generating 3 dimensional points
======================================================================
     Warm Up run  (par)                                
======================================================================
======================================================================
     Warm Up run  End                                
======================================================================
======================================================================
                        TABLE FORMAT                                  
======================================================================
Using Normal distribution
Weak Scaling Results for : 5e+06
npes	ts_spliter_min	ts_spliter_mean	ts_spliter_max	ss_spliter_min	ss_spliter_mean	ss_spliter_max	ts_all2all_min	ts_all2all_mean	ts_all2all_max	ss_all2all_min	ss_all2all_mean	ss_all2all_max	ts_local_min	ts_local_mean	ts_local_max	ss_local_min	ss_local_mean	ss_local_max	ts_send_min	ts_send_mean	ts_send_max	ts_recv_min	ts_recv_mean	ts_recv_max	ss_send_min	ss_send_mean	ss_send_max	ss_recv_min	ss_recv_mean	ss_recv_max	ts_lb_min	ts_lb_max	ss_lb_min	ss_lb_max	ts_min	ts_mean	ts_max	ss_min	ss_mean	ss_max
1	0	0	0	0	0	0	0	0	0	0	0	0	0	0	0	0	0	0	0	0	0	0	0	0	0	0	0	0	0	0	0	0	0	0	1.778	1.778	1.778	11.782	11.782	11.782
2	0.273	0.273	0.273	11.925	11.9255	11.926	0.747	0.762	0.777	0.854	0.855	0.856	1.72	1.824	1.928	23.657	23.9275	24.198	2.3876e+06	2.50015e+06	2.6127e+06	2.3876e+06	2.50015e+06	2.6127e+06	2.5e+06	2.50037e+06	2.50074e+06	2.5e+06	2.50037e+06	2.50074e+06	4.77491e+06	5.22509e+06	4.99926e+06	5.00074e+06	2.742	2.8605	2.979	36.9	37.171	37.442
4	0.274	0.274	0.274	11.963	11.964	11.965	0.896	0.93225	0.976	1.077	1.099	1.121	1.667	1.8325	1.949	15.834	16.3582	17.006	3.68099e+06	3.74921e+06	3.8452e+06	3.46629e+06	3.74921e+06	3.95302e+06	3.74813e+06	3.74907e+06	3.75e+06	3.74599e+06	3.74907e+06	3.75131e+06	4.62109e+06	5.27203e+06	4.99599e+06	5.00187e+06	2.886	3.039	3.174	29.378	29.9225	30.548
8	0.429	0.429	0.429	12.029	12.033	12.041	1.015	1.13075	1.227	1.306	1.35462	1.397	1.761	1.90313	2.053	14.038	14.7615	15.387	4.3165e+06	4.37508e+06	4.43753e+06	3.94019e+06	4.37508e+06	4.77857e+06	4.37424e+06	4.37508e+06	4.3762e+06	4.37163e+06	4.37508e+06	4.38058e+06	4.50266e+06	5.4615e+06	4.99543e+06	5.00592e+06	3.218	3.46388	3.71	28.081	28.7651	29.343
16	0.557	0.557	0.557	11.917	11.9241	11.934	1.131	1.25775	1.333	1.463	1.55763	1.583	1.848	1.95263	2.106	13.66	14.4212	16.08	4.66319e+06	4.68734e+06	4.70429e+06	4.43647e+06	4.68734e+06	5.0578e+06	4.68626e+06	4.68736e+06	4.68829e+06	4.6815e+06	4.68736e+06	4.69888e+06	4.73219e+06	5.39461e+06	4.99466e+06	5.01181e+06	3.621	3.76788	3.996	27.77	28.5048	30.072
32	1.321	1.45013	1.564	12.314	12.3258	12.374	0.827	0.998844	1.181	1.422	1.46738	1.484	1.653	2.00191	2.264	13.31	14.0657	15.075	3.276e+06	3.74972e+06	4.14864e+06	3.07216e+06	3.74972e+06	4.22343e+06	4.8427e+06	4.84372e+06	4.84452e+06	4.83465e+06	4.84372e+06	4.86437e+06	4.09676e+06	5.63267e+06	4.99013e+06	5.02133e+06	3.905	4.45169	4.931	27.714	28.4887	29.498
64	1.633	1.74112	1.82	12.224	12.2343	12.251	0.962	1.12161	1.283	1.498	1.53052	1.549	1.733	2.05991	2.379	13.051	13.9669	15.407	3.90473e+06	4.37514e+06	4.82824e+06	3.76984e+06	4.37514e+06	5.1893e+06	4.92081e+06	4.92185e+06	4.92234e+06	4.90098e+06	4.92185e+06	4.95424e+06	4.30825e+06	5.92956e+06	4.97901e+06	5.03305e+06	4.361	4.92367	5.484	27.42	28.341	29.794
128	1.968	2.06075	2.149	12.155	12.1673	12.187	0.966	1.14082	1.333	1.523	1.58614	1.607	1.871	2.11144	2.376	13.13	13.8516	14.842	4.1008e+06	4.37503e+06	4.75648e+06	3.79072e+06	4.37503e+06	5.01175e+06	4.96008e+06	4.96094e+06	4.96168e+06	4.9385e+06	4.96094e+06	5.02765e+06	4.33159e+06	5.72878e+06	4.97713e+06	5.06757e+06	4.94	5.31395	5.806	27.494	28.2073	29.204
256	2.163	2.22785	2.337	12.171	12.1837	12.203	1.039	1.24197	1.414	1.65	1.71146	1.734	1.91	2.16359	2.522	13.361	13.9831	15.086	4.41045e+06	4.68753e+06	5.08244e+06	4.03996e+06	4.68753e+06	5.44366e+06	4.97993e+06	4.98048e+06	4.98091e+06	4.94972e+06	4.98048e+06	5.08675e+06	4.3094e+06	5.80672e+06	4.96882e+06	5.10682e+06	5.135	5.63441	6.266	27.85	28.4773	29.58
512	2.776	2.92741	3.02	12.329	12.3435	12.367	1.029	1.2473	1.362	3.057	3.17967	3.228	1.866	2.21816	2.56	13.219	14.0286	15.223	4.27679e+06	4.68751e+06	5.09459e+06	3.99945e+06	4.68751e+06	5.39576e+06	4.98978e+06	4.99023e+06	4.99052e+06	4.95748e+06	4.99023e+06	5.15522e+06	4.26578e+06	5.75634e+06	4.96734e+06	5.16529e+06	5.752	6.39383	7.035	29.371	30.1832	31.402
1024	3.017	3.13478	3.242	12.473	12.4897	12.507	0.946	1.15831	1.245	6.655	6.73892	6.789	1.872	2.26372	2.637	13.313	14.0948	15.17	4.42658e+06	4.84372e+06	5.26221e+06	4.14443e+06	4.84372e+06	5.6795e+06	4.99482e+06	4.99512e+06	4.99534e+06	4.95308e+06	4.99512e+06	5.22646e+06	4.2784e+06	5.86285e+06	4.95792e+06	5.23164e+06	5.923	6.55787	7.156	33.149	33.9699	35.06
2048	3.397	3.49916	3.664	12.572	12.585	12.605	0.973	1.16203	1.301	6.8	6.93608	6.976	2.044	2.31833	2.773	13.38	14.1693	15.33	4.56915e+06	4.84376e+06	5.27932e+06	4.2488e+06	4.84376e+06	5.73778e+06	4.99731e+06	4.99756e+06	4.99774e+06	4.94599e+06	4.99756e+06	5.36191e+06	4.38602e+06	5.92245e+06	4.9484e+06	5.36455e+06	6.452	6.98051	7.751	33.572	34.4021	35.57
4096	5.303	5.42064	5.592	12.551	12.601	12.677	0.975	1.17541	1.3	7.56	7.72684	7.822	2.052	2.36779	2.85	13.395	14.276	16.189	4.6438e+06	4.92188e+06	5.35691e+06	4.26544e+06	4.92188e+06	5.86197e+06	4.99865e+06	4.99878e+06	4.9989e+06	4.94444e+06	4.99878e+06	5.58402e+06	4.33315e+06	5.95482e+06	4.94563e+06	5.58532e+06	8.424	8.96481	9.691	34.486	35.3195	37.299
8192	6.216	6.36433	6.513	12.721	12.7659	12.846	0.93	1.15445	1.205	9.238	9.40928	9.552	2.024	2.41725	2.829	13.548	14.4017	16.566	4.45821e+06	4.92188e+06	5.36505e+06	4.11137e+06	4.92188e+06	5.81939e+06	4.9993e+06	4.99939e+06	4.99948e+06	4.95646e+06	4.99939e+06	5.71628e+06	4.17612e+06	5.91177e+06	4.95706e+06	5.71694e+06	9.237	9.93703	10.656	36.493	37.3651	39.563
16384	7.961	8.11167	8.273	13.318	13.3551	13.439	1.01	1.24891	1.377	13.229	13.4173	13.512	2.089	2.46895	2.95	13.614	14.5271	18.61	4.49324e+06	4.96094e+06	5.40415e+06	4.06288e+06	4.96094e+06	5.89002e+06	4.99961e+06	4.99969e+06	4.99976e+06	4.92035e+06	4.99969e+06	6.25504e+06	4.09485e+06	5.9366e+06	4.92064e+06	6.25541e+06	11.093	11.8305	12.61	41.183	42.0985	46.276
32768	10.512	10.7257	10.902	14.57	14.6212	14.687	1.026	1.27151	1.346	15.981	16.1308	16.281	2.101	2.52093	3.049	13.814	14.6478	21.66	4.5195e+06	4.96094e+06	5.45805e+06	4.12279e+06	4.96094e+06	5.9289e+06	4.99978e+06	4.99985e+06	4.9999e+06	4.96429e+06	4.99985e+06	7.16899e+06	4.15504e+06	5.97552e+06	4.96443e+06	7.16921e+06	13.669	14.5192	15.406	45.358	46.2087	53.296
65536	11.521	11.761	12.004	17.518	17.5735	17.651	1.09	1.41839	1.587	13.097	13.2499	13.934	2.069	2.57092	3.103	13.869	14.7573	22.163	4.54063e+06	4.98047e+06	5.47655e+06	4.13976e+06	4.98047e+06	5.97532e+06	4.99988e+06	4.99992e+06	4.99996e+06	4.97281e+06	4.99992e+06	7.32368e+06	4.15598e+06	5.99879e+06	4.9729e+06	7.32378e+06	14.855	15.7513	16.822	45.532	46.4341	53.952
131072	11.341	11.5363	11.768	25.941	26.11	26.259	1.047	1.37419	1.372	14.183	14.3809	15.052	2.14	2.62546	3.133	13.918	14.8584	23.018	4.50841e+06	4.98047e+06	5.42677e+06	4.10036e+06	4.98047e+06	5.90846e+06	4.99993e+06	4.99996e+06	4.99999e+06	4.97064e+06	4.99996e+06	7.42587e+06	4.11642e+06	5.93179e+06	4.97067e+06	7.42592e+06	14.648	15.537	18.147	55.291	56.2674	64.408
Application 11365786 resources: utime ~23061679s, stime ~2047547s, Rss ~741652, inblocks ~284312579, outblocks ~131532424
Morton with + 0.1
Initialized Hcurves for dimention 3
finished generating 3 dimensional points
======================================================================
     Warm Up run  (par)                                
======================================================================
======================================================================
     Warm Up run  End                                
======================================================================
======================================================================
                        TABLE FORMAT                                  
======================================================================
Using Normal distribution
Weak Scaling Results for : 5e+06
npes	ts_spliter_min	ts_spliter_mean	ts_spliter_max	ss_spliter_min	ss_spliter_mean	ss_spliter_max	ts_all2all_min	ts_all2all_mean	ts_all2all_max	ss_all2all_min	ss_all2all_mean	ss_all2all_max	ts_local_min	ts_local_mean	ts_local_max	ss_local_min	ss_local_mean	ss_local_max	ts_send_min	ts_send_mean	ts_send_max	ts_recv_min	ts_recv_mean	ts_recv_max	ss_send_min	ss_send_mean	ss_send_max	ss_recv_min	ss_recv_mean	ss_recv_max	ts_lb_min	ts_lb_max	ss_lb_min	ss_lb_max	ts_min	ts_mean	ts_max	ss_min	ss_mean	ss_max
1	0	0	0	0	0	0	0	0	0	0	0	0	0	0	0	0	0	0	0	0	0	0	0	0	0	0	0	0	0	0	0	0	0	0	1.796	1.796	1.796	2.823	2.823	2.823
2	0.273	0.273	0.273	2.942	2.9425	2.943	0.734	0.746	0.758	0.742	0.7425	0.743	1.776	1.8495	1.923	4.188	4.194	4.2	2.42599e+06	2.4997e+06	2.57342e+06	2.42599e+06	2.4997e+06	2.57342e+06	2.5e+06	2.50007e+06	2.50014e+06	2.5e+06	2.50007e+06	2.50014e+06	4.85258e+06	5.14742e+06	4.99986e+06	5.00014e+06	2.784	2.8695	2.955	8.35	8.3555	8.361
4	0.311	0.311	0.311	2.943	2.94425	2.946	0.88	0.91475	0.953	0.873	0.90225	0.931	1.716	1.837	1.96	2.562	2.7165	2.947	3.70818e+06	3.75076e+06	3.80398e+06	3.59186e+06	3.75076e+06	3.88222e+06	3.74991e+06	3.75085e+06	3.75204e+06	3.74743e+06	3.75085e+06	3.75536e+06	4.78788e+06	5.17404e+06	4.99705e+06	5.00545e+06	2.963	3.064	3.164	6.965	7.0915	7.352
8	0.435	0.435	0.435	3.01	3.01387	3.021	1.069	1.16025	1.243	1.064	1.11888	1.168	1.785	1.924	2.138	2.406	2.43387	2.482	4.31352e+06	4.37514e+06	4.41123e+06	4.12842e+06	4.37514e+06	4.80552e+06	4.37353e+06	4.37522e+06	4.37647e+06	4.36935e+06	4.37522e+06	4.3821e+06	4.7172e+06	5.492e+06	4.99289e+06	5.00855e+06	3.358	3.5205	3.743	7.091	7.17137	7.269
16	0.55	0.55	0.55	2.962	2.97312	2.989	1.123	1.22744	1.3	1.127	1.23819	1.274	1.731	1.96506	2.137	2.334	2.40644	2.468	4.66289e+06	4.68745e+06	4.71434e+06	4.28745e+06	4.68745e+06	5.05076e+06	4.68633e+06	4.68739e+06	4.68828e+06	4.68075e+06	4.68739e+06	4.70295e+06	4.5731e+06	5.38786e+06	4.99307e+06	5.01628e+06	3.514	3.74381	3.941	7.074	7.22012	7.318
32	1.429	1.52363	1.64	3.009	3.02169	3.068	0.898	1.01134	1.055	1.147	1.17481	1.19	1.781	2.02122	2.259	2.337	2.40134	2.464	3.47825e+06	3.75005e+06	4.02895e+06	3.30881e+06	3.75005e+06	4.13458e+06	4.84282e+06	4.84367e+06	4.84449e+06	4.83596e+06	4.84367e+06	4.86657e+06	4.41345e+06	5.51345e+06	4.99163e+06	5.02329e+06	4.128	4.55725	4.952	7.137	7.22781	7.297
64	1.687	1.748	1.849	2.989	2.99859	3.02	0.927	1.12312	1.225	1.163	1.20247	1.219	1.771	2.08308	2.364	2.368	2.44189	2.527	4.10503e+06	4.37509e+06	4.6969e+06	3.82716e+06	4.37509e+06	4.89566e+06	4.92126e+06	4.92188e+06	4.92243e+06	4.90216e+06	4.92188e+06	4.95733e+06	4.37458e+06	5.59583e+06	4.98006e+06	5.03579e+06	4.442	4.9552	5.494	7.155	7.25052	7.343
128	1.916	2.03194	2.114	3.009	3.01929	3.037	0.896	1.13206	1.307	1.186	1.2578	1.281	1.723	2.13523	2.495	2.393	2.48334	2.565	3.94934e+06	4.37497e+06	4.76487e+06	3.65615e+06	4.37497e+06	5.12154e+06	4.96037e+06	4.96096e+06	4.96149e+06	4.93663e+06	4.96096e+06	5.03485e+06	4.1794e+06	5.85429e+06	4.97534e+06	5.07448e+06	4.57	5.30037	5.823	7.246	7.3637	7.444
256	2.146	2.25406	2.362	3.042	3.05184	3.073	1.061	1.24385	1.33	1.275	1.35364	1.369	1.835	2.18361	2.559	2.442	2.51821	2.586	4.26161e+06	4.68745e+06	5.07212e+06	4.04535e+06	4.68745e+06	5.46055e+06	4.97974e+06	4.98046e+06	4.98084e+06	4.94874e+06	4.98046e+06	5.09865e+06	4.31496e+06	5.82492e+06	4.96812e+06	5.1189e+06	5.102	5.68259	6.269	7.429	7.52382	7.603
512	2.616	2.74466	2.832	3.175	3.18633	3.223	1.028	1.24058	1.321	2.664	2.71267	2.742	1.911	2.23505	2.522	2.471	2.55903	2.631	4.32977e+06	4.6875e+06	4.92744e+06	3.96915e+06	4.6875e+06	5.36132e+06	4.98984e+06	4.99023e+06	4.99054e+06	4.94965e+06	4.99023e+06	5.14225e+06	4.23379e+06	5.7192e+06	4.9593e+06	5.15232e+06	5.642	6.22135	6.653	8.955	9.06136	9.135
1024	2.971	3.09133	3.202	3.189	3.20349	3.22	0.959	1.1556	1.235	6.538	6.65273	6.7	1.997	2.28275	2.613	2.512	2.59766	2.731	4.47728e+06	4.84374e+06	5.07147e+06	4.20939e+06	4.84374e+06	5.51226e+06	4.99482e+06	4.99512e+06	4.99533e+06	4.9474e+06	4.99512e+06	5.25108e+06	4.3449e+06	5.68971e+06	4.95224e+06	5.25626e+06	6.028	6.5307	7.036	12.941	13.0724	13.165
2048	3.453	3.56477	3.723	3.212	3.22553	3.247	0.952	1.16013	1.3	6.64	6.77339	6.805	1.966	2.33777	2.771	2.542	2.63952	2.808	4.44978e+06	4.84375e+06	5.27892e+06	4.12722e+06	4.84375e+06	5.67367e+06	4.99732e+06	4.99756e+06	4.99772e+06	4.95211e+06	4.99756e+06	5.36919e+06	4.26016e+06	5.85685e+06	4.95452e+06	5.37173e+06	6.427	7.06365	7.726	13.108	13.2569	13.431
4096	5.207	5.33795	5.481	3.197	3.23752	3.293	0.978	1.16957	1.291	7.409	7.57157	7.68	2.009	2.38879	2.852	2.582	2.68476	2.938	4.52768e+06	4.92187e+06	5.33264e+06	4.12805e+06	4.92187e+06	5.81113e+06	4.99864e+06	4.99878e+06	4.99889e+06	4.93177e+06	4.99878e+06	5.51107e+06	4.19332e+06	5.90355e+06	4.93297e+06	5.51242e+06	8.287	8.89733	9.592	13.959	14.1549	14.499
8192	6.092	6.28807	6.463	3.272	3.30645	3.375	0.948	1.14915	1.238	9.015	9.21012	9.345	2.011	2.43637	2.895	2.597	2.7105	3.208	4.51582e+06	4.92188e+06	5.39765e+06	4.11117e+06	4.92188e+06	5.88907e+06	4.99925e+06	4.99939e+06	4.99948e+06	4.96252e+06	4.99939e+06	5.80938e+06	4.17627e+06	5.98309e+06	4.9631e+06	5.81009e+06	9.055	9.87463	10.566	15.685	15.9197	16.46
16384	7.346	7.51953	7.674	3.6	3.66185	3.726	0.972	1.24315	1.383	12.595	12.7862	12.913	2.015	2.48787	2.939	2.624	2.75041	3.431	4.52097e+06	4.96094e+06	5.43939e+06	4.10417e+06	4.96094e+06	5.88121e+06	4.99959e+06	4.9997e+06	4.99976e+06	4.89571e+06	4.9997e+06	6.20795e+06	4.13651e+06	5.92771e+06	4.89604e+06	6.20834e+06	10.411	11.2515	12.013	19.724	19.9869	20.774
32768	12.799	13.0163	13.228	4.631	4.75504	4.89	0.994	1.27345	1.316	15.055	15.1994	15.365	2.151	2.54128	3.076	2.663	2.78535	3.819	4.55082e+06	4.96094e+06	5.39467e+06	4.12915e+06	4.96094e+06	5.86531e+06	4.99976e+06	4.99985e+06	4.9999e+06	4.97213e+06	4.99985e+06	6.885e+06	4.16171e+06	5.91158e+06	4.97227e+06	6.88523e+06	16.12	16.8321	17.727	23.396	23.5731	24.714
65536	17.114	17.3118	17.52	7.171	7.22959	7.321	1.084	1.40379	1.595	12.133	12.3042	12.997	2.163	2.59023	3.142	2.649	2.80641	4.263	4.52105e+06	4.98047e+06	5.41665e+06	4.12614e+06	4.98047e+06	5.90947e+06	4.99988e+06	4.99992e+06	4.99996e+06	4.96875e+06	4.99992e+06	7.36916e+06	4.1423e+06	5.93249e+06	4.96882e+06	7.36928e+06	20.529	21.3068	22.755	22.997	23.2014	24.813
131072	11.15	11.331	11.553	14.45	14.5807	14.695	1.035	1.37431	1.409	14.287	14.4838	15.15	2.183	2.64073	3.21	2.669	2.82224	4.359	4.52057e+06	4.98047e+06	5.4659e+06	4.08956e+06	4.98047e+06	5.9672e+06	4.99993e+06	4.99996e+06	4.99999e+06	4.97201e+06	4.99996e+06	7.43071e+06	4.10562e+06	5.99046e+06	4.97204e+06	7.43076e+06	14.429	15.347	17.37	32.583	32.8316	34.754
Application 11365828 resources: utime ~16181215s, stime ~1998334s, Rss ~746788, inblocks ~267073748, outblocks ~131529323
