Linking CXX executable SFCSortBench
[100%] Built target SFCSortBench
Linking CXX executable SFCSortBench
[100%] Built target SFCSortBench
Hilbert with + 0.1
Initialized Hcurves for dimention 3
finished generating 3 dimensional points
======================================================================
     Warm Up run  (par)                                
======================================================================
======================================================================
     Warm Up run  End                                
======================================================================
======================================================================
                        TABLE FORMAT                                  
======================================================================
Using Normal distribution
Weak Scaling Results for : 5e+06
npes	ts_spliter_min	ts_spliter_mean	ts_spliter_max	ss_spliter_min	ss_spliter_mean	ss_spliter_max	ts_all2all_min	ts_all2all_mean	ts_all2all_max	ss_all2all_min	ss_all2all_mean	ss_all2all_max	ts_local_min	ts_local_mean	ts_local_max	ss_local_min	ss_local_mean	ss_local_max	ts_send_min	ts_send_mean	ts_send_max	ts_recv_min	ts_recv_mean	ts_recv_max	ss_send_min	ss_send_mean	ss_send_max	ss_recv_min	ss_recv_mean	ss_recv_max	ts_lb_min	ts_lb_max	ss_lb_min	ss_lb_max	ts_min	ts_mean	ts_max	ss_min	ss_mean	ss_max
1	0	0	0	0	0	0	0	0	0	0	0	0	0	0	0	0	0	0	0	0	0	0	0	0	0	0	0	0	0	0	0	0	0	0	1.77	1.77	1.77	14.496	14.496	14.496
2	0.266	0.266	0.266	13.643	13.6435	13.644	0.736	0.7515	0.767	0.879	0.88	0.881	1.733	1.833	1.933	28.284	28.411	28.538	2.3896e+06	2.50045e+06	2.61129e+06	2.3896e+06	2.50045e+06	2.61129e+06	2.5e+06	2.5002e+06	2.5004e+06	2.5e+06	2.5002e+06	2.5004e+06	4.77831e+06	5.22169e+06	4.9996e+06	5.0004e+06	2.736	2.851	2.966	43.269	43.3965	43.524
4	0.266	0.266	0.266	13.63	13.6305	13.631	0.871	0.932	0.983	1.117	1.14	1.162	1.705	1.8335	1.938	18.835	20.0448	21.053	3.68312e+06	3.74954e+06	3.84395e+06	3.46808e+06	3.74954e+06	3.94772e+06	3.74896e+06	3.7494e+06	3.74989e+06	3.74816e+06	3.7494e+06	3.7509e+06	4.62414e+06	5.2646e+06	4.9992e+06	5.00168e+06	2.843	3.0325	3.175	34.128	35.3167	36.302
8	0.433	0.433	0.433	13.807	13.8119	13.821	0.992	1.12288	1.224	1.381	1.44663	1.485	1.792	1.92625	2.075	16.72	17.2198	18.352	4.3174e+06	4.37538e+06	4.43782e+06	3.94195e+06	4.37538e+06	4.77819e+06	4.37382e+06	4.37538e+06	4.37682e+06	4.37076e+06	4.37538e+06	4.38628e+06	4.50414e+06	5.45864e+06	4.99524e+06	5.01182e+06	3.226	3.48337	3.728	32.547	33.1118	34.28
16	0.555	0.555	0.555	14.261	14.2662	14.275	1.125	1.254	1.332	1.557	1.61069	1.629	1.826	1.97194	2.119	15.927	16.5583	17.848	4.66258e+06	4.68728e+06	4.7044e+06	4.4315e+06	4.68728e+06	5.05224e+06	4.68569e+06	4.68731e+06	4.6887e+06	4.68162e+06	4.68731e+06	4.70211e+06	4.7271e+06	5.38966e+06	4.99388e+06	5.01642e+06	3.665	3.78194	4.007	32.42	33.0388	34.338
32	0.447	0.55725	0.666	14.3	14.3118	14.371	0.731	0.952687	0.995	1.522	1.55088	1.562	1.624	1.99006	2.229	14.618	15.8232	16.871	281604	1.54292e+06	3.36484e+06	175001	1.54292e+06	3.43162e+06	4.8425e+06	4.84376e+06	4.84506e+06	4.82988e+06	4.84376e+06	4.86228e+06	4.09802e+06	5.63975e+06	4.98576e+06	5.01943e+06	3.87	4.502	4.884	31.109	32.3285	33.383
64	0.577	0.644125	0.71	14.126	14.1362	14.171	0.891	1.13403	1.331	1.478	1.5753	1.595	1.77	2.06052	2.442	14.855	15.7812	16.706	0	2.59109e+06	4.44139e+06	0	2.59109e+06	4.6882e+06	4.92123e+06	4.92191e+06	4.92272e+06	4.90651e+06	4.92191e+06	4.96076e+06	4.31018e+06	5.85746e+06	4.98446e+06	5.03953e+06	4.427	4.93609	5.455	31.199	32.1167	33.045
128	0.645	0.715625	0.896	14.145	14.1555	14.177	0.922	1.09983	1.22	1.662	1.72634	1.755	1.872	2.10031	2.401	14.914	15.7912	17.037	0	2.05803e+06	3.96539e+06	0	2.05803e+06	4.04714e+06	4.95989e+06	4.96093e+06	4.96142e+06	4.93782e+06	4.96093e+06	5.02079e+06	4.3307e+06	5.72873e+06	4.9764e+06	5.06089e+06	4.91	5.33464	5.916	31.401	32.286	33.529
256	0.703	0.816188	0.98	14.319	14.3282	14.349	1.081	1.27701	1.525	1.729	1.78884	1.81	1.885	2.16279	2.483	14.91	15.7654	16.737	81306	3.00418e+06	4.76607e+06	0	3.00418e+06	5.00155e+06	4.98008e+06	4.98047e+06	4.98099e+06	4.955e+06	4.98047e+06	5.08092e+06	4.30673e+06	5.80488e+06	4.97442e+06	5.10084e+06	5.237	5.74688	6.417	31.649	32.5227	33.491
512	0.68	0.859219	0.939	14.269	14.3121	14.342	1.059	1.28029	1.472	1.846	1.90447	1.938	1.897	2.21825	2.552	14.952	15.7363	17.089	0	3.12252e+06	4.79673e+06	1184	3.12252e+06	5.00254e+06	4.98989e+06	4.99024e+06	4.99058e+06	4.9523e+06	4.99024e+06	5.12356e+06	4.26877e+06	5.7567e+06	4.96189e+06	5.13347e+06	5.49	6.09001	6.611	31.777	32.5671	33.926
1024	0.802	0.941681	1.095	14.329	14.3442	14.365	1.188	1.43848	1.771	3.045	3.14275	3.225	1.876	2.27414	2.667	14.871	15.6919	16.795	172	3.88175e+06	5.04605e+06	571	3.88175e+06	5.35552e+06	4.99482e+06	4.99512e+06	4.99536e+06	4.95133e+06	4.99512e+06	5.22158e+06	4.2778e+06	5.8672e+06	4.9562e+06	5.22675e+06	6.823	7.47025	8.009	32.988	33.795	34.907
2048	0.849	0.980283	1.156	14.485	14.5006	14.534	1.102	1.40471	1.611	3.499	3.67191	3.716	2.022	2.32772	2.791	14.94	15.72	17.043	0	3.95564e+06	5.19477e+06	108518	3.95564e+06	5.61105e+06	4.99738e+06	4.99756e+06	4.99775e+06	4.93906e+06	4.99756e+06	5.35e+06	4.20082e+06	5.94924e+06	4.94143e+06	5.35251e+06	7.328	7.99906	8.874	33.81	34.5819	35.89
4096	0.892	1.05117	1.197	14.801	14.8173	14.847	1.154	1.52604	1.757	5.755	5.92337	6.048	2.047	2.38429	2.842	14.914	15.7798	17.948	15992	4.43144e+06	5.29329e+06	92251	4.43144e+06	5.76001e+06	4.99866e+06	4.99878e+06	4.9989e+06	4.9569e+06	4.99878e+06	5.56595e+06	4.2581e+06	5.96417e+06	4.95805e+06	5.56724e+06	9.56	10.2642	11.025	36.374	37.2548	39.363
8192	0.933	1.0856	1.272	14.823	14.8387	14.866	1.176	1.53571	1.655	5.851	6.0153	6.145	2.019	2.43465	2.894	14.971	15.8578	18.461	431041	4.41086e+06	5.30822e+06	509321	4.41086e+06	5.59624e+06	4.9993e+06	4.99939e+06	4.99948e+06	4.95726e+06	4.99939e+06	5.7814e+06	4.17714e+06	5.91341e+06	4.95787e+06	5.78208e+06	11.648	12.4337	13.36	36.526	37.4824	40.061
16384	0.972	1.14545	1.367	15.538	15.57	15.609	1.102	1.58251	1.676	7.257	7.44743	7.543	2.065	2.4897	2.967	15.133	15.9195	19.53	2.35453e+06	4.6941e+06	5.39188e+06	2.39421e+06	4.6941e+06	5.7793e+06	4.99961e+06	4.99969e+06	4.99977e+06	4.96607e+06	4.99969e+06	6.14692e+06	4.09535e+06	5.9202e+06	4.96636e+06	6.14731e+06	18.154	19.1132	20.11	38.83	39.7479	43.459
32768	0.978	1.19852	1.389	16.899	16.9373	17.018	1.017	1.5667	1.802	9.081	9.19277	9.373	2.077	2.53963	3.026	15.116	15.9851	22.25	2.02694e+06	4.71152e+06	5.44001e+06	1.96141e+06	4.71152e+06	5.93868e+06	4.99979e+06	4.99985e+06	4.9999e+06	4.97276e+06	4.99985e+06	6.79946e+06	4.15724e+06	6.00563e+06	4.97292e+06	6.79967e+06	30.694	31.7112	32.835	42.066	42.939	49.274
Application 11351928 resources: utime ~7766438s, stime ~310017s, Rss ~648440, inblocks ~45093595, outblocks ~40225011
Morton with + 0.1
Initialized Hcurves for dimention 3
finished generating 3 dimensional points
======================================================================
     Warm Up run  (par)                                
======================================================================
======================================================================
     Warm Up run  End                                
======================================================================
======================================================================
                        TABLE FORMAT                                  
======================================================================
Using Normal distribution
Weak Scaling Results for : 5e+06
npes	ts_spliter_min	ts_spliter_mean	ts_spliter_max	ss_spliter_min	ss_spliter_mean	ss_spliter_max	ts_all2all_min	ts_all2all_mean	ts_all2all_max	ss_all2all_min	ss_all2all_mean	ss_all2all_max	ts_local_min	ts_local_mean	ts_local_max	ss_local_min	ss_local_mean	ss_local_max	ts_send_min	ts_send_mean	ts_send_max	ts_recv_min	ts_recv_mean	ts_recv_max	ss_send_min	ss_send_mean	ss_send_max	ss_recv_min	ss_recv_mean	ss_recv_max	ts_lb_min	ts_lb_max	ss_lb_min	ss_lb_max	ts_min	ts_mean	ts_max	ss_min	ss_mean	ss_max
1	0	0	0	0	0	0	0	0	0	0	0	0	0	0	0	0	0	0	0	0	0	0	0	0	0	0	0	0	0	0	0	0	0	0	1.789	1.789	1.789	1.719	1.719	1.719
2	0.272	0.272	0.272	2.956	2.9565	2.957	0.722	0.7325	0.743	0.732	0.7325	0.733	1.771	1.8435	1.916	3.989	3.9915	3.994	2.42714e+06	2.50061e+06	2.57408e+06	2.42714e+06	2.50061e+06	2.57408e+06	2.5e+06	2.50051e+06	2.50102e+06	2.5e+06	2.50051e+06	2.50102e+06	4.85306e+06	5.14694e+06	4.99898e+06	5.00102e+06	2.766	2.849	2.932	8.159	8.1605	8.162
4	0.309	0.309	0.309	2.971	2.9715	2.973	0.879	0.91825	0.96	0.925	0.92875	0.931	1.706	1.8275	1.947	2.69	2.7265	2.813	3.70475e+06	3.74976e+06	3.80393e+06	3.5911e+06	3.74976e+06	3.88368e+06	3.74852e+06	3.74994e+06	3.75087e+06	3.74606e+06	3.74994e+06	3.75302e+06	4.78717e+06	5.17893e+06	4.9957e+06	5.00354e+06	2.957	3.055	3.149	7.113	7.153	7.24
8	0.442	0.442	0.442	3.011	3.01562	3.024	1.003	1.14088	1.239	1.17	1.19313	1.215	1.796	1.91138	2.067	2.429	2.50237	2.561	4.3136e+06	4.37564e+06	4.41175e+06	4.12794e+06	4.37564e+06	4.80585e+06	4.37429e+06	4.37562e+06	4.37726e+06	4.3699e+06	4.37562e+06	4.38652e+06	4.71619e+06	5.49226e+06	4.99264e+06	5.01152e+06	3.296	3.495	3.749	7.26	7.3195	7.396
16	0.55	0.55	0.55	2.935	2.94244	2.954	1.174	1.2745	1.329	1.187	1.24775	1.273	1.769	1.94719	2.083	2.368	2.40994	2.501	4.67139e+06	4.68759e+06	4.71397e+06	4.28622e+06	4.68759e+06	4.9397e+06	4.68619e+06	4.68752e+06	4.68859e+06	4.67842e+06	4.68752e+06	4.69989e+06	4.57226e+06	5.2683e+06	4.99096e+06	5.0137e+06	3.494	3.77219	3.928	7.143	7.205	7.318
32	0.466	0.54625	0.644	2.982	2.99562	3.04	0.79	0.955562	0.842	1.121	1.17362	1.193	1.68	1.96131	2.233	2.356	2.41841	2.475	0	1.36113e+06	3.37913e+06	0	1.36113e+06	3.25206e+06	4.84275e+06	4.84378e+06	4.84487e+06	4.82671e+06	4.84378e+06	4.87436e+06	4.41174e+06	5.88728e+06	4.98241e+06	5.03137e+06	4.136	4.49109	5.128	7.143	7.22672	7.29
64	0.582	0.643125	0.71	3.012	3.01953	3.051	0.945	1.14984	1.208	1.12	1.19533	1.209	1.759	2.03497	2.316	2.37	2.44283	2.515	0	2.37718e+06	4.44299e+06	0	2.37718e+06	4.47823e+06	4.92112e+06	4.92189e+06	4.92273e+06	4.90476e+06	4.92189e+06	4.96727e+06	4.37489e+06	5.59116e+06	4.98272e+06	5.04577e+06	4.647	4.95722	5.603	7.202	7.28147	7.354
128	0.587	0.695812	0.8	2.997	3.00945	3.029	0.872	1.09776	1.234	1.271	1.33934	1.361	1.655	2.07779	2.407	2.417	2.47947	2.56	0	2.18414e+06	4.15881e+06	183778	2.18414e+06	4.11348e+06	4.96021e+06	4.96094e+06	4.96162e+06	4.93908e+06	4.96094e+06	5.0356e+06	4.17709e+06	5.85324e+06	4.97832e+06	5.07539e+06	4.538	5.27745	5.636	7.363	7.44208	7.511
256	0.602	0.789563	0.927	3.023	3.03252	3.05	0.998	1.26779	1.453	1.296	1.36632	1.387	1.816	2.14194	2.47	2.444	2.51936	2.586	0	3.14324e+06	4.66129e+06	15678	3.14324e+06	4.81883e+06	4.98002e+06	4.98047e+06	4.98085e+06	4.9577e+06	4.98047e+06	5.08344e+06	4.31188e+06	5.82233e+06	4.97712e+06	5.10339e+06	4.89	5.67123	6.182	7.432	7.52709	7.594
512	0.71	0.851094	1.003	3.169	3.17886	3.199	1.023	1.28183	1.518	1.465	1.54488	1.602	1.888	2.19883	2.506	2.479	2.56147	2.645	0	3.24391e+06	4.87881e+06	3519	3.24391e+06	5.3003e+06	4.98994e+06	4.99024e+06	4.9905e+06	4.95526e+06	4.99024e+06	5.1411e+06	4.23956e+06	5.72134e+06	4.96503e+06	5.15104e+06	5.54	6.07293	6.576	7.866	7.97837	8.076
1024	0.806	0.937498	1.156	3.2	3.21219	3.239	1.027	1.42697	1.693	2.656	2.80409	2.857	1.95	2.25748	2.58	2.504	2.59815	2.701	224379	3.95883e+06	5.02128e+06	0	3.95883e+06	5.44813e+06	4.99482e+06	4.99512e+06	4.9954e+06	4.93482e+06	4.99512e+06	5.23201e+06	4.34805e+06	5.7048e+06	4.93959e+06	5.2372e+06	6.74	7.31729	7.871	9.178	9.29451	9.412
2048	0.831	0.968274	1.108	3.208	3.22081	3.249	1.079	1.38939	1.564	3.067	3.22931	3.293	1.906	2.3105	2.793	2.531	2.64059	2.845	1184	3.89299e+06	5.18659e+06	77	3.89299e+06	5.55856e+06	4.99739e+06	4.99756e+06	4.99771e+06	4.94778e+06	4.99756e+06	5.34858e+06	4.22735e+06	5.89708e+06	4.95028e+06	5.35114e+06	7.192	7.89916	8.692	9.607	9.81546	10.03
4096	0.873	1.04465	1.217	3.229	3.24674	3.282	1.137	1.5219	1.702	5.524	5.70031	5.849	2.018	2.3695	2.842	2.59	2.68686	2.996	605	4.39122e+06	5.28393e+06	35	4.39122e+06	5.70679e+06	4.99863e+06	4.99878e+06	4.99893e+06	4.93097e+06	4.99878e+06	5.51958e+06	4.19104e+06	5.89723e+06	4.93215e+06	5.52091e+06	8.906	9.60909	10.461	12.186	12.4062	12.69
8192	0.833	1.06513	1.25	3.32	3.36881	3.433	1.132	1.52026	1.72	5.575	5.75967	5.883	1.99	2.41964	2.858	2.614	2.71238	3.169	115209	4.38705e+06	5.28662e+06	144127	4.38705e+06	5.6432e+06	4.9993e+06	4.99939e+06	4.99948e+06	4.9478e+06	4.99939e+06	5.7385e+06	4.17783e+06	5.97988e+06	4.94841e+06	5.73921e+06	9.078	10.1096	10.982	12.372	12.6105	13.023
16384	0.907	1.14415	1.346	3.703	3.74077	3.813	1.052	1.58129	1.73	6.62	6.8269	6.935	2.013	2.47372	2.934	2.629	2.75551	3.435	1.60514e+06	4.67942e+06	5.38003e+06	1.66485e+06	4.67942e+06	5.78543e+06	4.99961e+06	4.99969e+06	4.99976e+06	4.96665e+06	4.99969e+06	6.25479e+06	4.16945e+06	5.92598e+06	4.96695e+06	6.25516e+06	17.756	18.7597	19.748	13.802	14.0698	14.859
32768	0.967	1.19013	1.413	4.65	4.67707	4.729	1.004	1.56288	1.789	8.754	8.88699	9.072	2.12	2.52579	3.026	2.651	2.78847	3.838	1.90711e+06	4.69793e+06	5.36813e+06	1.83149e+06	4.69793e+06	5.87386e+06	4.9998e+06	4.99985e+06	4.9999e+06	4.86437e+06	4.99985e+06	6.76987e+06	4.14048e+06	5.94482e+06	4.86452e+06	6.77006e+06	30.354	31.3583	32.437	16.985	17.1594	18.326
Application 11351949 resources: utime ~5796406s, stime ~312976s, Rss ~645088, inblocks ~44576087, outblocks ~40233159
