[1:c405-202][../../src/mpid/ch3/channels/nemesis/netmod/dapl/dapl_conn_rc.c:504] error(0x30000): ofa-v2-mlx4_0-1u: could not create vc: DAT_INSUFFICIENT_RESOURCES()
Assertion failed in file ../../src/mpid/ch3/channels/nemesis/netmod/dapl/dapl_conn_rc.c at line 504: 0
internal ABORT - process 1
[4:c405-202][../../src/mpid/ch3/channels/nemesis/netmod/dapl/dapl_conn_rc.c:504] error(0x30000): ofa-v2-mlx4_0-1u: could not create vc: DAT_INSUFFICIENT_RESOURCES()
Assertion failed in file ../../src/mpid/ch3/channels/nemesis/netmod/dapl/dapl_conn_rc.c at line 504: 0
internal ABORT - process 4
[7:c405-202][../../src/mpid/ch3/channels/nemesis/netmod/dapl/dapl_conn_rc.c:504] error(0x30000): ofa-v2-mlx4_0-1u: could not create vc: DAT_INSUFFICIENT_RESOURCES()
Assertion failed in file ../../src/mpid/ch3/channels/nemesis/netmod/dapl/dapl_conn_rc.c at line 504: 0
internal ABORT - process 7
[9:c405-202][../../src/mpid/ch3/channels/nemesis/netmod/dapl/dapl_conn_rc.c:504] error(0x30000): ofa-v2-mlx4_0-1u: could not create vc: DAT_INSUFFICIENT_RESOURCES()
Assertion failed in file ../../src/mpid/ch3/channels/nemesis/netmod/dapl/dapl_conn_rc.c at line 504: 0
internal ABORT - process 9
[5:c405-202][../../src/mpid/ch3/channels/nemesis/netmod/dapl/dapl_conn_rc.c:493] error(0x30000): ofa-v2-mlx4_0-1u: could not create DAPL endpoint: DAT_INSUFFICIENT_RESOURCES()
Assertion failed in file ../../src/mpid/ch3/channels/nemesis/netmod/dapl/dapl_conn_rc.c at line 493: 0
[8:c405-202][../../src/mpid/ch3/channels/nemesis/netmod/dapl/dapl_conn_rc.c:493] error(0x30000): ofa-v2-mlx4_0-1u: could not create DAPL endpoint: DAT_INSUFFICIENT_RESOURCES()
Assertion failed in file ../../src/mpid/ch3/channels/nemesis/netmod/dapl/dapl_conn_rc.c at line 493: 0
internal ABORT - process 8
internal ABORT - process 5
[6:c405-202][../../src/mpid/ch3/channels/nemesis/netmod/dapl/dapl_conn_rc.c:493] error(0x30000): ofa-v2-mlx4_0-1u: could not create DAPL endpoint: DAT_INSUFFICIENT_RESOURCES()
Assertion failed in file ../../src/mpid/ch3/channels/nemesis/netmod/dapl/dapl_conn_rc.c at line 493: 0
internal ABORT - process 6
[2:c405-202][../../src/mpid/ch3/channels/nemesis/netmod/dapl/dapl_conn_rc.c:493] error(0x30000): ofa-v2-mlx4_0-1u: could not create DAPL endpoint: DAT_INSUFFICIENT_RESOURCES()
Assertion failed in file ../../src/mpid/ch3/channels/nemesis/netmod/dapl/dapl_conn_rc.c at line 493: 0
internal ABORT - process 2
[3:c405-202][../../src/mpid/ch3/channels/nemesis/netmod/dapl/dapl_conn_rc.c:493] error(0x30000): ofa-v2-mlx4_0-1u: could not create DAPL endpoint: DAT_INSUFFICIENT_RESOURCES()
Assertion failed in file ../../src/mpid/ch3/channels/nemesis/netmod/dapl/dapl_conn_rc.c at line 493: 0
internal ABORT - process 3
[16:c405-402][../../src/mpid/ch3/channels/nemesis/netmod/dapl/dapl_conn_rc.c:504] error(0x30000): ofa-v2-mlx4_0-1u: could not create vc: DAT_INSUFFICIENT_RESOURCES()
Assertion failed in file ../../src/mpid/ch3/channels/nemesis/netmod/dapl/dapl_conn_rc.c at line 504: 0
[17:c405-402][../../src/mpid/ch3/channels/nemesis/netmod/dapl/dapl_conn_rc.c:504] error(0x30000): ofa-v2-mlx4_0-1u: could not create vc: DAT_INSUFFICIENT_RESOURCES()
Assertion failed in file ../../src/mpid/ch3/channels/nemesis/netmod/dapl/dapl_conn_rc.c at line 504: 0
[20:c405-402][../../src/mpid/ch3/channels/nemesis/netmod/dapl/dapl_conn_rc.c:504] error(0x30000): ofa-v2-mlx4_0-1u: could not create vc: DAT_INSUFFICIENT_RESOURCES()
Assertion failed in file ../../src/mpid/ch3/channels/nemesis/netmod/dapl/dapl_conn_rc.c at line 504: 0
[21:c405-402][../../src/mpid/ch3/channels/nemesis/netmod/dapl/dapl_conn_rc.c:504] error(0x30000): ofa-v2-mlx4_0-1u: could not create vc: DAT_INSUFFICIENT_RESOURCES()
Assertion failed in file ../../src/mpid/ch3/channels/nemesis/netmod/dapl/dapl_conn_rc.c at line 504: 0
[18:c405-402][../../src/mpid/ch3/channels/nemesis/netmod/dapl/dapl_conn_rc.c:493] error(0x30000): ofa-v2-mlx4_0-1u: could not create DAPL endpoint: DAT_INSUFFICIENT_RESOURCES()
Assertion failed in file ../../src/mpid/ch3/channels/nemesis/netmod/dapl/dapl_conn_rc.c at line 493: 0
[19:c405-402][../../src/mpid/ch3/channels/nemesis/netmod/dapl/dapl_conn_rc.c:493] error(0x30000): ofa-v2-mlx4_0-1u: could not create DAPL endpoint: DAT_INSUFFICIENT_RESOURCES()
Assertion failed in file ../../src/mpid/ch3/channels/nemesis/netmod/dapl/dapl_conn_rc.c at line 493: 0
[22:c405-402][../../src/mpid/ch3/channels/nemesis/netmod/dapl/dapl_conn_rc.c:493] error(0x30000): ofa-v2-mlx4_0-1u: could not create DAPL endpoint: DAT_INSUFFICIENT_RESOURCES()
Assertion failed in file ../../src/mpid/ch3/channels/nemesis/netmod/dapl/dapl_conn_rc.c at line 493: 0
[23:c405-402][../../src/mpid/ch3/channels/nemesis/netmod/dapl/dapl_conn_rc.c:493] error(0x30000): ofa-v2-mlx4_0-1u: could not create DAPL endpoint: DAT_INSUFFICIENT_RESOURCES()
Assertion failed in file ../../src/mpid/ch3/channels/nemesis/netmod/dapl/dapl_conn_rc.c at line 493: 0
internal ABORT - process 16
internal ABORT - process 17
internal ABORT - process 18
internal ABORT - process 19
internal ABORT - process 20
internal ABORT - process 21
internal ABORT - process 22
internal ABORT - process 23
[proxy:0:102@c463-304.stampede.tacc.utexas.edu] HYDU_sock_write (../../utils/sock/sock.c:417): write error (Broken pipe)
[proxy:0:102@c463-304.stampede.tacc.utexas.edu] handle_pmi_response (../../pm/pmiserv/pmip_cb.c:1425): unable to forward PMI response to MPI process
[proxy:0:102@c463-304.stampede.tacc.utexas.edu] HYD_pmcd_pmip_control_cmd_cb (../../pm/pmiserv/pmip_cb.c:3270): unable to handle PMI response
[proxy:0:102@c463-304.stampede.tacc.utexas.edu] HYDT_dmxu_poll_wait_for_event (../../tools/demux/demux_poll.c:76): callback returned error status
[proxy:0:102@c463-304.stampede.tacc.utexas.edu] main (../../pm/pmiserv/pmip.c:489): demux engine error waiting for event
[1967:c472-801][../../src/mpid/ch3/channels/nemesis/netmod/dapl/dapl_conn_rc.c:504] error(0x30000): ofa-v2-mlx4_0-1u: could not create vc: DAT_INSUFFICIENT_RESOURCES()
Assertion failed in file ../../src/mpid/ch3/channels/nemesis/netmod/dapl/dapl_conn_rc.c at line 504: 0
[1961:c472-801][../../src/mpid/ch3/channels/nemesis/netmod/dapl/dapl_conn_rc.c:141] error(0x30000): ofa-v2-mlx4_0-1u: could not create DAPL endpoint: DAT_INSUFFICIENT_RESOURCES()
[1962:c472-801][../../src/mpid/ch3/channels/nemesis/netmod/dapl/dapl_conn_rc.c:141] error(0x30000): ofa-v2-mlx4_0-1u: could not create DAPL endpoint: DAT_INSUFFICIENT_RESOURCES()
[1963:c472-801][../../src/mpid/ch3/channels/nemesis/netmod/dapl/dapl_conn_rc.c:141] error(0x30000): ofa-v2-mlx4_0-1u: could not create DAPL endpoint: DAT_INSUFFICIENT_RESOURCES()
Assertion failed in file ../../src/mpid/ch3/channels/nemesis/netmod/dapl/dapl_conn_rc.c at line 141: 0
Assertion failed in file ../../src/mpid/ch3/channels/nemesis/netmod/dapl/dapl_conn_rc.c at line 141: 0
Assertion failed in file ../../src/mpid/ch3/channels/nemesis/netmod/dapl/dapl_conn_rc.c at line 141: 0
internal ABORT - process 1961
internal ABORT - process 1962
internal ABORT - process 1963
internal ABORT - process 1967
[proxy:0:10@c408-602.stampede.tacc.utexas.edu] HYDT_bscu_wait_for_completion (../../tools/bootstrap/utils/bscu_wait.c:113): one of the processes terminated badly; aborting
[proxy:0:10@c408-602.stampede.tacc.utexas.edu] HYDT_bsci_wait_for_completion (../../tools/bootstrap/src/bsci_wait.c:23): launcher returned error waiting for completion
[proxy:0:10@c408-602.stampede.tacc.utexas.edu] HYD_pmci_wait_for_childs_completion (../../pm/pmiserv/pmip_utils.c:1718): bootstrap server returned error waiting for completion
[proxy:0:10@c408-602.stampede.tacc.utexas.edu] main (../../pm/pmiserv/pmip.c:454): error waiting for event children completion
[mpiexec@c405-202.stampede.tacc.utexas.edu] control_cb (../../pm/pmiserv/pmiserv_cb.c:823): connection to proxy 10 at host c408-602 failed
[mpiexec@c405-202.stampede.tacc.utexas.edu] HYDT_dmxu_poll_wait_for_event (../../tools/demux/demux_poll.c:76): callback returned error status
[mpiexec@c405-202.stampede.tacc.utexas.edu] HYD_pmci_wait_for_completion (../../pm/pmiserv/pmiserv_pmci.c:495): error waiting for event
[mpiexec@c405-202.stampede.tacc.utexas.edu] main (../../ui/mpich/mpiexec.c:1011): process manager error waiting for completion
