Weak Scaling Results for  HILBERT,1000000,,,,,,,,,,,,,,,,,,,,,,,
npes,ts_spliter_min,ts_spliter_mean,ts_spliter_max,ss_spliter_min,ss_spliter_mean,ss_spliter_max,ts_all2all_min,ts_all2all_mean,ts_all2all_max,ss_all2all_min,ss_all2all_mean,ss_all2all_max,ts_local_min,ts_local_mean,ts_local_max,ss_local_min,ss_local_mean,ss_local_max,ts_min,ts_mean,ts_max,ss_min,ss_mean,ss_max
1,0,0,0,0,0,0,0,0,0,0,0,0,0,0,0,0,0,0,0.194,0.194,0.194,1.493,1.493,1.493
2,0.027,0.027,0.027,1.476,1.4765,1.477,0.021,0.021,0.021,0.032,0.0325,0.033,0.194,0.197,0.2,2.579,2.6315,2.684,0.243,0.246,0.249,4.122,4.1715,4.221
4,0.035,0.035,0.035,1.491,1.491,1.491,0.026,0.026,0.026,0.049,0.049,0.049,0.2,0.20725,0.222,1.861,1.92275,2.009,0.263,0.26975,0.284,3.447,3.50475,3.578
8,0.047,0.047,0.047,1.546,1.54612,1.547,0.033,0.03425,0.035,0.062,0.062875,0.063,0.205,0.212125,0.222,1.683,1.73887,1.773,0.288,0.295125,0.304,3.337,3.392,3.426
16,0.057,0.057,0.057,1.525,1.52569,1.527,0.038,0.0395625,0.04,0.071,0.07175,0.073,0.211,0.220188,0.23,1.608,1.70725,1.806,0.309,0.318188,0.328,3.246,3.34763,3.445
32,0.07,0.07,0.07,1.535,1.53569,1.538,0.065,0.0663125,0.067,0.101,0.101687,0.102,0.216,0.228563,0.243,1.611,1.69175,1.784,0.354,0.366531,0.381,3.298,3.3815,3.47
64,0.081,0.0815,0.082,1.553,1.55397,1.557,0.084,0.0880156,0.09,0.124,0.125625,0.126,0.222,0.235172,0.251,1.624,1.69811,1.797,0.394,0.406531,0.421,3.364,3.43905,3.57
128,0.092,0.0925,0.093,1.555,1.55705,1.562,0.122,0.126484,0.131,0.153,0.154539,0.156,0.227,0.24275,0.261,1.629,1.70293,1.824,0.445,0.463367,0.485,3.428,3.50846,3.641
256,0.105,0.105,0.105,1.571,1.5717,1.573,0.126,0.140348,0.154,0.153,0.16041,0.169,0.231,0.250234,0.269,1.641,1.71712,1.801,0.473,0.497379,0.522,3.42,3.50262,3.605
512,0.114,0.114984,0.115,1.554,1.55417,1.555,0.135,0.146369,0.153,0.177,0.181318,0.184,0.24,0.257689,0.278,1.63,1.7272,1.851,0.502,0.520314,0.544,3.418,3.51623,3.642
1024,0.132,0.132,0.132,1.595,1.59529,1.597,0.18,0.18603,0.192,0.22,0.223656,0.228,0.247,0.265552,0.297,1.651,1.74463,1.932,0.57,0.584977,0.612,3.528,3.61995,3.807
2048,0.282,0.282001,0.284,1.956,1.9571,1.958,0.291,0.296318,0.306,0.37,0.373532,0.378,0.251,0.273188,0.424,1.677,1.76425,2.175,0.836,0.854809,1.006,4.083,4.21034,4.633
4096,0.345,0.349987,0.35,2.119,2.12981,2.136,0.438,0.448458,0.457,0.543,0.553351,0.56,0.257,0.2807,0.375,1.667,1.7827,2.189,1.054,1.08067,1.183,4.49,4.62985,4.986
,,,,,,,,,,,,,,,,,,,,,,,,
,,,,,,,,,,,,,,,,,,,,,,,,
,,,,,,,,,,,,,,,,,,,,,,,,
Using Normal distribution MORTON,,,,,,,,,,,,,,,,,,,,,,,,
Weak Scaling Results for : 1e+06,,,,,,,,,,,,,,,,,,,,,,,,
npes,ts_spliter_min,ts_spliter_mean,ts_spliter_max,ss_spliter_min,ss_spliter_mean,ss_spliter_max,ts_all2all_min,ts_all2all_mean,ts_all2all_max,ss_all2all_min,ss_all2all_mean,ss_all2all_max,ts_local_min,ts_local_mean,ts_local_max,ss_local_min,ss_local_mean,ss_local_max,ts_min,ts_mean,ts_max,ss_min,ss_mean,ss_max
1,0,0,0,0,0,0,0,0,0,0,0,0,0,0,0,0,0,0,0.195,0.195,0.195,0.296,0.296,0.296
2,0.027,0.027,0.027,0.326,0.326,0.326,0.018,0.018,0.018,0.018,0.018,0.018,0.196,0.1985,0.201,0.366,0.371,0.376,0.242,0.2445,0.247,0.751,0.7565,0.762
4,0.039,0.039,0.039,0.326,0.326,0.326,0.025,0.025,0.025,0.023,0.0235,0.024,0.197,0.20375,0.211,0.254,0.25575,0.259,0.262,0.2685,0.275,0.645,0.64725,0.651
8,0.051,0.051875,0.052,0.317,0.317,0.317,0.032,0.03325,0.034,0.03,0.03,0.03,0.203,0.212375,0.223,0.238,0.246125,0.259,0.29,0.299125,0.31,0.637,0.645125,0.659
16,0.058,0.058,0.058,0.316,0.316563,0.317,0.033,0.03375,0.034,0.031,0.031125,0.032,0.208,0.22025,0.23,0.239,0.246,0.257,0.3,0.3135,0.324,0.64,0.646062,0.657
32,0.065,0.065,0.065,0.321,0.321969,0.324,0.064,0.0648438,0.066,0.064,0.064,0.064,0.214,0.228594,0.247,0.242,0.251,0.261,0.345,0.359719,0.378,0.683,0.692437,0.702
64,0.074,0.074,0.074,0.323,0.324625,0.328,0.084,0.0856563,0.086,0.081,0.0816875,0.082,0.222,0.235156,0.251,0.252,0.257031,0.263,0.383,0.396063,0.411,0.722,0.728187,0.734
128,0.082,0.082,0.082,0.322,0.323523,0.329,0.1,0.100703,0.101,0.098,0.0988203,0.099,0.226,0.242758,0.262,0.257,0.264008,0.274,0.41,0.427094,0.446,0.766,0.773516,0.783
256,0.127,0.127,0.127,0.441,0.443121,0.45,0.154,0.161562,0.183,0.169,0.176656,0.184,0.232,0.251082,0.345,0.262,0.27109,0.355,0.521,0.540797,0.646,1.036,1.05102,1.136
512,0.108,0.108,0.108,0.334,0.337803,0.348,0.24,0.242457,0.244,0.235,0.235475,0.236,0.24,0.257656,0.28,0.268,0.276775,0.3,0.592,0.609383,0.631,1.061,1.07106,1.095
1024,0.122,0.122,0.122,0.332,0.339035,0.348,0.437,0.44141,0.444,0.438,0.439532,0.441,0.247,0.265499,0.297,0.274,0.283072,0.315,0.809,0.830364,0.863,1.451,1.46721,1.497
2048,0.246,0.252989,0.253,0.503,0.515358,0.531,0.231,0.24165,0.257,0.238,0.266855,0.301,0.252,0.273266,0.366,0.279,0.289345,0.385,0.744,0.776326,0.884,1.223,1.25094,1.37
4096,0.423,0.423709,0.424,0.693,0.701676,0.715,0.32,0.329009,0.353,0.316,0.338914,0.36,0.257,0.280795,0.532,0.285,0.295313,0.545,1.012,1.04479,1.32,1.641,1.66446,1.927
,,,,,,,,,,,,,,,,,,,,,,,,
,,,,,,,,,,,,,,,,,,,,,,,,
,,,,,,,,,,,,,,,,,,,,,,,,
,,,,,,,,,,,,,,,,,,,,,,,,
,,,,,,,,,,,,,,,,,,,,,,,,
,,,,,,,,,,,,,,,,,,,,,,,,
,,,,,,,,,,,,,,,,,,,,,,,,
,,,,,,,,,,,,,,,,,,,,,,,,
,,,,,,,,,,,,,,,,,,,,,,,,
,,,,,,,,,,,,,,,,,,,,,,,,
,,,,,,,,,,,,,,,,,,,,,,,,
,,,,,,,,,,,,,,,,,,,,,,,,
,,,,,,,,,,,,,,,,,,,,,,,,
,,,,,,,,,,,,,,,,,,,,,,,,
,,,,,,,,,,,,,,,,,,,,,,,,
,,,,,,,,,,,,,,,,,,,,,,,,
,,,,,,,,,,,,,,,,,,,,,,,,
,,,,,,,,,,,,,,,,,,,,,,,,
,,,,,,,,,,,,,,,,,,,,,,,,
,,,,,,,,,,,,,,,,,,,,,,,,
,,,,,,,,,,,,,,,,,,,,,,,,
,,,,,,,,,,,,,,,,,,,,,,,,
,,,,,,,,,,,,,,,,,,,,,,,,
,,,,,,,,,,,,,,,,,,,,,,,,
,,,,,,,,,,,,,,,,,,,,,,,,
,,,,,,,,,,,,,,,,,,,,,,,,
,,,,,,,,,,,,,,,,,,,,,,,,
,,,,,,,,,,,,,,,,,,,,,,,,
,,,,,,,,,,,,,,,,,,,,,,,,
,,,,,,,,,,,,,,,,,,,,,,,,
,,,,,,,,,,,,,,,,,,,,,,,,
,,,,,,,,,,,,,,,,,,,,,,,,
,,,,,,,,,,,,,,,,,,,,,,,,
,,,,,,,,,,,,,,,,,,,,,,,,
,,,,,,,,,,,,,,,,,,,,,,,,
,,,,,,,,,,,,,,,,,,,,,,,,
,,,,,,,,,,,,,,,,,,,,,,,,
,,,,,,,,,,,,,,,,,,,,,,,,
,,,,,,,,,,,,,,,,,,,,,,,,
,,,,,,,,,,,,,,,,,,,,,,,,
,,,,,,,,,,,,,,,,,,,,,,,,
,,,,,,,,,,,,,,,,,,,,,,,,
,,,,,,,,,,,,,,,,,,,,,,,,
,,,,,,,,,,,,,,,,,,,,,,,,
,,,,,,,,,,,,,,,,,,,,,,,,
,,,,,,,,,,,,,,,,,,,,,,,,
,,,,,,,,,,,,,,,,,,,,,,,,
,,,,,,,,,,,,,,,,,,,,,,,,
,,,,,,,,,,,,,,,,,,,,,,,,
,,,,,,,,,,,,,,,,,,,,,,,,
,,,,,,,,,,,,,,,,,,,,,,,,
,,,,,,,,,,,,,,,,,,,,,,,,
,,,,,,,,,,,,,,,,,,,,,,,,
,,,,,,,,,,,,,,,,,,,,,,,,
,,,,,,,,,,,,,,,,,,,,,,,,
,,,,,,,,,,,,,,,,,,,,,,,,
,,,,,,,,,,,,,,,,,,,,,,,,
,,,,,,,,,,,,,,,,,,,,,,,,
,,,,,,,,,,,,,,,,,,,,,,,,
,,,,,,,,,,,,,,,,,,,,,,,,
,,,,,,,,,,,,,,,,,,,,,,,,
,,,,,,,,,,,,,,,,,,,,,,,,
,,,,,,,,,,,,,,,,,,,,,,,,
,,,,,,,,,,,,,,,,,,,,,,,,
,,,,,,,,,,,,,,,,,,,,,,,,
,,,,,,,,,,,,,,,,,,,,,,,,
,,,,,,,,,,,,,,,,,,,,,,,,
,,,,,,,,,,,,,,,,,,,,,,,,
,,,,,,,,,,,,,,,,,,,,,,,,
,,,,,,,,,,,,,,,,,,,,,,,,
,,,,,,,,,,,,,,,,,,,,,,,,
,,,,,,,,,,,,,,,,,,,,,,,,
,,,,,,,,,,,,,,,,,,,,,,,,
,,,,,,,,,,,,,,,,,,,,,,,,
,,,,,,,,,,,,,,,,,,,,,,,,
,,,,,,,,,,,,,,,,,,,,,,,,
,,,,,,,,,,,,,,,,,,,,,,,,
,,,,,,,,,,,,,,,,,,,,,,,,
,,,,,,,,,,,,,,,,,,,,,,,,
,,,,,,,,,,,,,,,,,,,,,,,,
,,,,,,,,,,,,,,,,,,,,,,,,
,,,,,,,,,,,,,,,,,,,,,,,,
,,,,,,,,,,,,,,,,,,,,,,,,
,,,,,,,,,,,,,,,,,,,,,,,,
,,,,,,,,,,,,,,,,,,,,,,,,
,,,,,,,,,,,,,,,,,,,,,,,,
,,,,,,,,,,,,,,,,,,,,,,,,
,,,,,,,,,,,,,,,,,,,,,,,,
,,,,,,,,,,,,,,,,,,,,,,,,
,,,,,,,,,,,,,,,,,,,,,,,,
,,,,,,,,,,,,,,,,,,,,,,,,
,,,,,,,,,,,,,,,,,,,,,,,,
,,,,,,,,,,,,,,,,,,,,,,,,
,,,,,,,,,,,,,,,,,,,,,,,,
,,,,,,,,,,,,,,,,,,,,,,,,
,,,,,,,,,,,,,,,,,,,,,,,,
,,,,,,,,,,,,,,,,,,,,,,,,
,,,,,,,,,,,,,,,,,,,,,,,,
,,,,,,,,,,,,,,,,,,,,,,,,
,,,,,,,,,,,,,,,,,,,,,,,,
,,,,,,,,,,,,,,,,,,,,,,,,
,,,,,,,,,,,,,,,,,,,,,,,,
,,,,,,,,,,,,,,,,,,,,,,,,
,,,,,,,,,,,,,,,,,,,,,,,,
,,,,,,,,,,,,,,,,,,,,,,,,
,,,,,,,,,,,,,,,,,,,,,,,,
,,,,,,,,,,,,,,,,,,,,,,,,
,,,,,,,,,,,,,,,,,,,,,,,,
,,,,,,,,,,,,,,,,,,,,,,,,
,,,,,,,,,,,,,,,,,,,,,,,,
,,,,,,,,,,,,,,,,,,,,,,,,
,,,,,,,,,,,,,,,,,,,,,,,,
,,,,,,,,,,,,,,,,,,,,,,,,
,,,,,,,,,,,,,,,,,,,,,,,,
,,,,,,,,,,,,,,,,,,,,,,,,
,,,,,,,,,,,,,,,,,,,,,,,,
,,,,,,,,,,,,,,,,,,,,,,,,
,,,,,,,,,,,,,,,,,,,,,,,,
,,,,,,,,,,,,,,,,,,,,,,,,
,,,,,,,,,,,,,,,,,,,,,,,,
,,,,,,,,,,,,,,,,,,,,,,,,
,,,,,,,,,,,,,,,,,,,,,,,,
,,,,,,,,,,,,,,,,,,,,,,,,
,,,,,,,,,,,,,,,,,,,,,,,,
,,,,,,,,,,,,,,,,,,,,,,,,
,,,,,,,,,,,,,,,,,,,,,,,,
,,,,,,,,,,,,,,,,,,,,,,,,
,,,,,,,,,,,,,,,,,,,,,,,,
,,,,,,,,,,,,,,,,,,,,,,,,
,,,,,,,,,,,,,,,,,,,,,,,,
,,,,,,,,,,,,,,,,,,,,,,,,
,,,,,,,,,,,,,,,,,,,,,,,,
,,,,,,,,,,,,,,,,,,,,,,,,
,,,,,,,,,,,,,,,,,,,,,,,,
,,,,,,,,,,,,,,,,,,,,,,,,
,,,,,,,,,,,,,,,,,,,,,,,,
,,,,,,,,,,,,,,,,,,,,,,,,
,,,,,,,,,,,,,,,,,,,,,,,,
,,,,,,,,,,,,,,,,,,,,,,,,
,,,,,,,,,,,,,,,,,,,,,,,,
,,,,,,,,,,,,,,,,,,,,,,,,
,,,,,,,,,,,,,,,,,,,,,,,,
,,,,,,,,,,,,,,,,,,,,,,,,
,,,,,,,,,,,,,,,,,,,,,,,,
,,,,,,,,,,,,,,,,,,,,,,,,
,,,,,,,,,,,,,,,,,,,,,,,,
,,,,,,,,,,,,,,,,,,,,,,,,
,,,,,,,,,,,,,,,,,,,,,,,,
,,,,,,,,,,,,,,,,,,,,,,,,
,,,,,,,,,,,,,,,,,,,,,,,,
,,,,,,,,,,,,,,,,,,,,,,,,
,,,,,,,,,,,,,,,,,,,,,,,,
,,,,,,,,,,,,,,,,,,,,,,,,
,,,,,,,,,,,,,,,,,,,,,,,,
,,,,,,,,,,,,,,,,,,,,,,,,
,,,,,,,,,,,,,,,,,,,,,,,,
,,,,,,,,,,,,,,,,,,,,,,,,
,,,,,,,,,,,,,,,,,,,,,,,,
,,,,,,,,,,,,,,,,,,,,,,,,
,,,,,,,,,,,,,,,,,,,,,,,,
,,,,,,,,,,,,,,,,,,,,,,,,
,,,,,,,,,,,,,,,,,,,,,,,,
,,,,,,,,,,,,,,,,,,,,,,,,
,,,,,,,,,,,,,,,,,,,,,,,,
,,,,,,,,,,,,,,,,,,,,,,,,
,,,,,,,,,,,,,,,,,,,,,,,,
,,,,,,,,,,,,,,,,,,,,,,,,
,,,,,,,,,,,,,,,,,,,,,,,,
,,,,,,,,,,,,,,,,,,,,,,,,
,,,,,,,,,,,,,,,,,,,,,,,,
,,,,,,,,,,,,,,,,,,,,,,,,
,,,,,,,,,,,,,,,,,,,,,,,,
,,,,,,,,,,,,,,,,,,,,,,,,
,,,,,,,,,,,,,,,,,,,,,,,,
,,,,,,,,,,,,,,,,,,,,,,,,
,,,,,,,,,,,,,,,,,,,,,,,,
,,,,,,,,,,,,,,,,,,,,,,,,
,,,,,,,,,,,,,,,,,,,,,,,,
,,,,,,,,,,,,,,,,,,,,,,,,
,,,,,,,,,,,,,,,,,,,,,,,,
,,,,,,,,,,,,,,,,,,,,,,,,
,,,,,,,,,,,,,,,,,,,,,,,,
,,,,,,,,,,,,,,,,,,,,,,,,
,,,,,,,,,,,,,,,,,,,,,,,,
,,,,,,,,,,,,,,,,,,,,,,,,
,,,,,,,,,,,,,,,,,,,,,,,,
,,,,,,,,,,,,,,,,,,,,,,,,
,,,,,,,,,,,,,,,,,,,,,,,,
,,,,,,,,,,,,,,,,,,,,,,,,
,,,,,,,,,,,,,,,,,,,,,,,,
,,,,,,,,,,,,,,,,,,,,,,,,
,,,,,,,,,,,,,,,,,,,,,,,,
,,,,,,,,,,,,,,,,,,,,,,,,
,,,,,,,,,,,,,,,,,,,,,,,,
,,,,,,,,,,,,,,,,,,,,,,,,
,,,,,,,,,,,,,,,,,,,,,,,,
,,,,,,,,,,,,,,,,,,,,,,,,
,,,,,,,,,,,,,,,,,,,,,,,,
,,,,,,,,,,,,,,,,,,,,,,,,
,,,,,,,,,,,,,,,,,,,,,,,,
,,,,,,,,,,,,,,,,,,,,,,,,
,,,,,,,,,,,,,,,,,,,,,,,,
,,,,,,,,,,,,,,,,,,,,,,,,
,,,,,,,,,,,,,,,,,,,,,,,,
,,,,,,,,,,,,,,,,,,,,,,,,
 ,,,,,,,,,,,,,,,,,,,,,,,,
