alltoall fix off
splitter fix off 64
allto all fix off
morton
TACC: Starting up job 6862742
TACC: Starting parallel tasks...
Initialized Hcurves
finished generating points
======================================================================
     Warm Up run  (par)                                
======================================================================
======================================================================
     Warm Up run  End                                
======================================================================
======================================================================
                        TABLE FORMAT                                  
======================================================================
Using Normal distribution
Weak Scaling Results for : 1e+06
npes	ts_spliter_min	ts_spliter_mean	ts_spliter_max	ss_spliter_min	ss_spliter_mean	ss_spliter_max	ts_all2all_min	ts_all2all_mean	ts_all2all_max	ss_all2all_min	ss_all2all_mean	ss_all2all_max	ts_local_min	ts_local_mean	ts_local_max	ss_local_min	ss_local_mean	ss_local_max	ts_send_min	ts_send_mean	ts_send_max	ts_recv_min	ts_recv_mean	ts_recv_max	ss_send_min	ss_send_mean	ss_send_max	ss_recv_min	ss_recv_mean	ss_recv_max	ts_lb_min	ts_lb_max	ss_lb_min	ss_lb_max	ts_min	ts_mean	ts_max	ss_min	ss_mean	ss_max
1	0	0	0	0	0	0	0	0	0	0	0	0	0	0	0	0	0	0	0	0	0	0	0	0	0	0	0	0	0	0	0	0	0	0	0.145	0.145	0.145	0.292	0.292	0.292
2	0.024	0.024	0.024	0.301	0.3015	0.302	0.013	0.013	0.013	0.011	0.011	0.011	0.14	0.1465	0.153	0.348	0.3515	0.355	485972	500460	514948	485972	500460	514948	500001	500430	500859	500001	500430	500859	971024	1.02898e+06	999142	1.00086e+06	0.178	0.1845	0.191	0.691	0.7015	0.712
4	0.027	0.027	0.027	0.304	0.304	0.304	0.021	0.02175	0.022	0.015	0.015	0.015	0.14	0.15025	0.159	0.236	0.24125	0.247	741367	749605	760092	718924	749605	775111	749554	749641	749786	748715	749641	750654	958832	1.03374e+06	999072	1.00107e+06	0.19	0.20025	0.209	0.592	0.59575	0.602
8	0.041	0.041	0.041	0.31	0.310125	0.311	0.027	0.02875	0.033	0.022	0.022	0.022	0.145	0.154875	0.171	0.225	0.2335	0.241	862758	874861	881761	824436	874861	959868	874182	874809	875397	872057	874809	878500	942675	1.09711e+06	996660	1.00416e+06	0.214	0.225125	0.246	0.598	0.60675	0.614
16	0.052	0.052	0.052	0.306	0.306125	0.307	0.032	0.03325	0.037	0.026	0.027125	0.028	0.141	0.15925	0.173	0.228	0.237687	0.249	934343	937579	943129	856953	937579	988185	937015	937582	938265	933887	937582	948409	913824	1.05384e+06	996661	1.01124e+06	0.226	0.245313	0.263	0.604	0.616312	0.637
32	0.058	0.058	0.058	0.308	0.308312	0.31	0.047	0.0527188	0.054	0.045	0.0465313	0.047	0.149	0.164031	0.173	0.235	0.239969	0.251	967169	968771	971130	897117	968771	1.01382e+06	968230	968760	969255	963678	968760	980363	926046	1.04622e+06	994945	1.01213e+06	0.26	0.276094	0.286	0.639	0.644813	0.656
64	0.066	0.06625	0.067	0.317	0.320188	0.331	0.071	0.0735	0.08	0.067	0.0697031	0.071	0.154	0.1685	0.188	0.241	0.245937	0.255	982975	984375	985730	907835	984375	1.06429e+06	983893	984378	984676	973110	984378	1.00482e+06	922105	1.08129e+06	988524	1.0206e+06	0.293	0.309703	0.331	0.689	0.701984	0.744
128	0.078	0.078	0.078	0.317	0.318586	0.321	0.086	0.0938906	0.101	0.085	0.0888047	0.092	0.152	0.173148	0.191	0.245	0.252766	0.264	991420	992187	992991	905334	992187	1.08598e+06	991842	992185	992444	983719	992185	1.01909e+06	912343	1.09455e+06	991463	1.02725e+06	0.325	0.345938	0.368	0.703	0.715359	0.743
256	0.085	0.085	0.085	0.323	0.324074	0.325	0.101	0.109746	0.119	0.101	0.110273	0.116	0.157	0.178027	0.201	0.251	0.259176	0.276	995691	996091	996487	907908	996091	1.08343e+06	995853	996089	996265	983474	996089	1.03462e+06	911421	1.0877e+06	987437	1.03867e+06	0.351	0.374027	0.406	0.732	0.745895	0.794
512	0.096	0.0965625	0.097	0.326	0.326057	0.327	0.111	0.117691	0.124	0.106	0.109414	0.113	0.162	0.182367	0.204	0.257	0.265217	0.288	997814	998045	998322	905499	998045	1.09028e+06	997867	998045	998164	981788	998045	1.07396e+06	907300	1.09238e+06	983686	1.07609e+06	0.379	0.398203	0.424	0.741	0.75292	0.784
1024	0.159	0.159	0.159	0.4	0.400065	0.401	0.152	0.156675	0.165	0.144	0.146856	0.149	0.165	0.187117	0.311	0.262	0.271265	0.321	998867	999021	999168	903163	999021	1.09707e+06	998900	999020	999114	983948	999020	1.10717e+06	904046	1.09815e+06	984916	1.10827e+06	0.479	0.504284	0.631	0.887	0.983976	1.037
2048	0.113	0.113668	0.116	0.34	0.341275	0.342	0.227	0.233438	0.24	0.147	0.148484	0.15	0.164	0.191826	0.218	0.266	0.277231	0.328	999421	999511	999591	902961	999511	1.0988e+06	999420	999511	999583	984173	999511	1.18198e+06	903411	1.09935e+06	984661	1.18252e+06	0.512	0.540671	0.572	0.815	0.835019	0.882
4096	0.224	0.225025	0.226	0.443	0.443911	0.45	0.409	0.417882	0.426	0.407	0.417812	0.423	0.17	0.196245	0.273	0.271	0.282969	0.379	999702	999755	999817	901647	999755	1.09776e+06	999688	999755	999809	988731	999755	1.27927e+06	901853	1.09803e+06	988980	1.27958e+06	0.813	0.841532	0.924	1.262	1.31172	1.399
 
TACC: Shutdown complete. Exiting.
hilbert
TACC: Starting up job 6862742
TACC: Starting parallel tasks...
Initialized Hcurves
finished generating points
======================================================================
     Warm Up run  (par)                                
======================================================================
======================================================================
     Warm Up run  End                                
======================================================================
======================================================================
                        TABLE FORMAT                                  
======================================================================
Using Normal distribution
Weak Scaling Results for : 1e+06
npes	ts_spliter_min	ts_spliter_mean	ts_spliter_max	ss_spliter_min	ss_spliter_mean	ss_spliter_max	ts_all2all_min	ts_all2all_mean	ts_all2all_max	ss_all2all_min	ss_all2all_mean	ss_all2all_max	ts_local_min	ts_local_mean	ts_local_max	ss_local_min	ss_local_mean	ss_local_max	ts_send_min	ts_send_mean	ts_send_max	ts_recv_min	ts_recv_mean	ts_recv_max	ss_send_min	ss_send_mean	ss_send_max	ss_recv_min	ss_recv_mean	ss_recv_max	ts_lb_min	ts_lb_max	ss_lb_min	ss_lb_max	ts_min	ts_mean	ts_max	ss_min	ss_mean	ss_max
1	0	0	0	0	0	0	0	0	0	0	0	0	0	0	0	0	0	0	0	0	0	0	0	0	0	0	0	0	0	0	0	0	0	0	0.143	0.143	0.143	1.387	1.387	1.387
2	0.024	0.024	0.024	1.378	1.378	1.378	0.014	0.0145	0.015	0.03	0.03	0.03	0.138	0.147	0.156	2.409	2.431	2.453	477935	500424	522914	477935	500424	522914	500001	500433	500865	500001	500433	500865	955021	1.04498e+06	999136	1.00086e+06	0.178	0.187	0.196	3.866	3.879	3.892
4	0.024	0.024	0.024	1.458	1.45875	1.459	0.021	0.02275	0.027	0.044	0.044	0.044	0.138	0.15025	0.16	1.722	1.87325	1.967	736768	750150	769233	693404	750150	790897	749828	750125	750421	748589	750125	751993	924171	1.05413e+06	998336	1.00216e+06	0.184	0.19825	0.21	3.258	3.40875	3.503
8	0.041	0.041	0.041	1.399	1.3995	1.4	0.024	0.02725	0.031	0.057	0.057	0.057	0.14	0.15525	0.172	1.506	1.6465	1.846	863395	875174	887829	788154	875174	957032	874712	875146	875570	871230	875146	878359	900325	1.09364e+06	995874	1.00365e+06	0.207	0.224	0.244	3.006	3.15275	3.345
16	0.051	0.051	0.051	1.418	1.418	1.418	0.031	0.0329375	0.038	0.065	0.065875	0.066	0.15	0.159625	0.175	1.532	1.6155	1.716	932368	937484	941023	888766	937484	1.01224e+06	937023	937515	938010	934485	937515	945501	947743	1.07987e+06	996798	1.008e+06	0.233	0.243938	0.264	3.077	3.14756	3.243
32	0.06	0.0605	0.061	1.44	1.44131	1.445	0.049	0.0515313	0.057	0.089	0.0896562	0.09	0.145	0.164594	0.18	1.53	1.60122	1.741	966041	968735	971354	885957	968735	1.05127e+06	968182	968722	969156	959425	968722	981068	914603	1.08523e+06	990452	1.01281e+06	0.258	0.278281	0.299	3.108	3.18503	3.327
64	0.066	0.066	0.066	1.433	1.43692	1.447	0.067	0.0739219	0.081	0.112	0.112781	0.113	0.155	0.169266	0.187	1.545	1.60637	1.672	983009	984358	985633	912862	984358	1.07038e+06	984024	984350	984679	978901	984350	1.00035e+06	927229	1.08728e+06	994666	1.01625e+06	0.294	0.310437	0.335	3.156	3.22109	3.313
128	0.076	0.07675	0.077	1.477	1.47779	1.48	0.086	0.0926094	0.1	0.135	0.149695	0.155	0.156	0.173805	0.193	1.522	1.6137	1.708	991452	992195	992878	913092	992195	1.07976e+06	991933	992193	992433	981756	992193	1.01903e+06	920214	1.08831e+06	989645	1.02689e+06	0.325	0.344461	0.368	3.205	3.29506	3.384
256	0.085	0.085	0.085	1.442	1.44303	1.444	0.11	0.120906	0.134	0.168	0.177105	0.186	0.156	0.178461	0.203	1.547	1.6238	1.734	995728	996092	996524	902094	996092	1.08894e+06	995895	996093	996324	984044	996093	1.03629e+06	905664	1.09316e+06	987808	1.0404e+06	0.363	0.385746	0.414	3.224	3.29833	3.404
512	0.094	0.0940625	0.095	1.452	1.45214	1.453	0.106	0.110961	0.12	0.155	0.159121	0.164	0.161	0.182801	0.206	1.561	1.63354	1.763	997801	998045	998312	900541	998045	1.09628e+06	997906	998045	998178	982191	998045	1.07171e+06	902348	1.09842e+06	984082	1.0738e+06	0.364	0.389678	0.418	3.22	3.29682	3.429
1024	0.102	0.102951	0.103	1.457	1.45708	1.458	0.139	0.145276	0.154	0.172	0.175268	0.179	0.164	0.187375	0.212	1.561	1.64784	1.859	998869	999023	999153	905451	999023	1.09177e+06	998898	999022	999124	980917	999022	1.11922e+06	906327	1.09284e+06	981864	1.1203e+06	0.412	0.436813	0.467	3.247	3.33316	3.54
2048	0.113	0.113923	0.114	1.497	1.49804	1.499	0.214	0.21987	0.228	0.269	0.271607	0.274	0.167	0.192253	0.216	1.569	1.66341	2.048	999425	999511	999605	906117	999511	1.09633e+06	999394	999511	999599	984394	999511	1.22884e+06	906554	1.09685e+06	984860	1.22945e+06	0.498	0.527702	0.555	3.395	3.49592	3.872
4096	0.127	0.127976	0.137	1.569	1.56933	1.57	0.412	0.42279	0.435	0.259	0.266361	0.274	0.169	0.196652	0.224	1.59	1.68078	2.091	999697	999755	999817	901761	999755	1.0982e+06	999667	999755	999817	978464	999755	1.22558e+06	901976	1.09849e+06	978698	1.22592e+06	0.721	0.749289	0.778	3.487	3.5843	3.977
 
TACC: Shutdown complete. Exiting.
