TACC: Starting up job 6735223
TACC: Starting parallel tasks...
32	320000
SplitterComp. 	0.00126505	0.00144269	0.00167799
All2All	0.00199819	0.00204268	0.00206804
Local Sort 	0.0017159	0.0018518	0.00199413
par::test::isSorted.................PASSED 
SS (min mean max) 	 TS (min mean max)
0.0100482	0.0104093	0.0107491	0.00699401	0.00775675	0.00922894
 
TACC: Shutdown complete. Exiting.
TACC: Starting up job 6735223
TACC: Starting parallel tasks...
32	3200000
SplitterComp. 	0.00726604	0.00730665	0.00738502
All2All	0.00780511	0.00864269	0.00956798
Local Sort 	0.0197861	0.0213059	0.0228641
par::test::isSorted.................PASSED 
SS (min mean max) 	 TS (min mean max)
0.06428	0.0658388	0.0677631	0.037961	0.0391563	0.039865
 
TACC: Shutdown complete. Exiting.
TACC: Starting up job 6735223
TACC: Starting parallel tasks...
32	32000000
SplitterComp. 	0.0757811	0.0758345	0.075918
All2All	0.0734069	0.0753534	0.0759411
Local Sort 	0.226368	0.240657	0.255803
par::test::isSorted.................PASSED 
SS (min mean max) 	 TS (min mean max)
0.697558	0.706418	0.71511	0.394743	0.412484	0.417373
 
TACC: Shutdown complete. Exiting.
TACC: Starting up job 6735223
TACC: Starting parallel tasks...
32	320000000
SplitterComp. 	0.70436	0.704432	0.704525
All2All	0.728558	0.73325	0.736068
Local Sort 	2.54732	2.67257	2.83392
par::test::isSorted.................PASSED 
SS (min mean max) 	 TS (min mean max)
7.78191	7.89227	8.02637	4.14713	4.30409	4.34776
 
TACC: Shutdown complete. Exiting.
