TACC: Starting up job 6735249
TACC: Starting parallel tasks...
128	1280000
SplitterComp. 	0.00215602	0.00304526	0.00392699
All2All	0.42386	0.424495	0.424885
Local Sort 	0.00183201	0.00199363	0.00216198
par::test::isSorted.................PASSED 
SS (min mean max) 	 TS (min mean max)
0.04548	0.0456936	0.046376	0.431674	0.437159	0.441232
 
TACC: Shutdown complete. Exiting.
TACC: Starting up job 6735249
TACC: Starting parallel tasks...
128	12800000
SplitterComp. 	0.00963497	0.00977185	0.00987697
All2All	0.427827	0.430088	0.431421
Local Sort 	0.0211909	0.022653	0.024266
par::test::isSorted.................PASSED 
SS (min mean max) 	 TS (min mean max)
0.0725441	0.0743363	0.0775161	0.463325	0.466126	0.467297
 
TACC: Shutdown complete. Exiting.
TACC: Starting up job 6735249
TACC: Starting parallel tasks...
128	128000000
SplitterComp. 	0.0882668	0.0883567	0.088438
All2All	0.527737	0.538406	0.543469
Local Sort 	0.2373	0.255688	0.274339
par::test::isSorted.................PASSED 
SS (min mean max) 	 TS (min mean max)
0.817049	0.8291	0.841924	0.886622	0.92813	0.9405
 
TACC: Shutdown complete. Exiting.
TACC: Starting up job 6735249
TACC: Starting parallel tasks...
128	1280000000
SplitterComp. 	0.876716	0.87679	0.876884
All2All	1.47596	1.49755	1.5032
Local Sort 	2.64073	2.82007	3.02232
par::test::isSorted.................PASSED 
SS (min mean max) 	 TS (min mean max)
8.26679	8.37011	8.50042	5.20723	5.46339	5.52902
 
TACC: Shutdown complete. Exiting.
