TACC: Starting up job 6735278
TACC: Starting parallel tasks...
512	5120000
SplitterComp. 	0.00465512	0.00600052	0.00727606
All2All	1.95288	1.95334	1.95371
Local Sort 	0.00196099	0.00214868	0.00241303
par::test::isSorted.................PASSED 
SS (min mean max) 	 TS (min mean max)
0.0614388	0.0619211	0.064348	1.97061	1.98246	1.99001
 
TACC: Shutdown complete. Exiting.
TACC: Starting up job 6735278
TACC: Starting parallel tasks...
512	51200000
SplitterComp. 	0.013757	0.0138409	0.0139308
All2All	2.00322	2.00415	2.0054
Local Sort 	0.022383	0.0241414	0.026664
par::test::isSorted.................PASSED 
SS (min mean max) 	 TS (min mean max)
0.0902898	0.0921293	0.0989192	2.04221	2.04628	2.04815
 
TACC: Shutdown complete. Exiting.
TACC: Starting up job 6735278
TACC: Starting parallel tasks...
512	512000000
SplitterComp. 	0.10775	0.107828	0.107916
All2All	2.03966	2.04706	2.05477
Local Sort 	0.252291	0.271774	0.297663
par::test::isSorted.................PASSED 
SS (min mean max) 	 TS (min mean max)
0.815509	0.83066	0.856008	2.43198	2.45148	2.45933
 
TACC: Shutdown complete. Exiting.
TACC: Starting up job 6735278
TACC: Starting parallel tasks...
APPLICATION TERMINATED WITH THE EXIT STRING: Segmentation fault (signal 11)
TACC: MPI job exited with code: 11
 
TACC: Shutdown complete. Exiting.
