\relax 
\providecommand\hyper@newdestlabel[2]{}
\providecommand\HyperFirstAtBeginDocument{\AtBeginDocument}
\HyperFirstAtBeginDocument{\ifx\hyper@anchor\@undefined
\global\let\oldcontentsline\contentsline
\gdef\contentsline#1#2#3#4{\oldcontentsline{#1}{#2}{#3}}
\global\let\oldnewlabel\newlabel
\gdef\newlabel#1#2{\newlabelxx{#1}#2}
\gdef\newlabelxx#1#2#3#4#5#6{\oldnewlabel{#1}{{#2}{#3}}}
\AtEndDocument{\ifx\hyper@anchor\@undefined
\let\contentsline\oldcontentsline
\let\newlabel\oldnewlabel
\fi}
\fi}
\global\let\hyper@last\relax 
\gdef\HyperFirstAtBeginDocument#1{#1}
\providecommand\HyField@AuxAddToFields[1]{}
\providecommand\HyField@AuxAddToCoFields[2]{}
\@writefile{lof}{\contentsline {figure}{\numberline {1}{\ignorespaces Weak Scaling results for 16 mpi tasks\relax }}{1}{figure.caption.1}}
\@writefile{lof}{\contentsline {figure}{\numberline {2}{\ignorespaces Weak Scaling results for 32 mpi tasks\relax }}{1}{figure.caption.2}}
\@writefile{lof}{\contentsline {figure}{\numberline {3}{\ignorespaces Weak Scaling results for 64 mpi tasks\relax }}{2}{figure.caption.3}}
\@writefile{lof}{\contentsline {figure}{\numberline {4}{\ignorespaces Weak Scaling results for 128 mpi tasks\relax }}{2}{figure.caption.4}}
\@writefile{lof}{\contentsline {figure}{\numberline {5}{\ignorespaces Weak Scaling results for 256 mpi tasks\relax }}{3}{figure.caption.5}}
\@writefile{lof}{\contentsline {figure}{\numberline {6}{\ignorespaces Weak Scaling results for 512 mpi tasks\relax }}{3}{figure.caption.6}}
\@writefile{toc}{\contentsline {section}{\numberline {1}Morton and Hilbert comparison for tree sort}{4}{section.1}}
\@writefile{lof}{\contentsline {figure}{\numberline {7}{\ignorespaces Weak Scaling results for 16 mpi tasks\relax }}{4}{figure.caption.7}}
\@writefile{lof}{\contentsline {figure}{\numberline {8}{\ignorespaces Weak Scaling results for 32 mpi tasks\relax }}{4}{figure.caption.8}}
\@writefile{lof}{\contentsline {figure}{\numberline {9}{\ignorespaces Weak Scaling results for 64 mpi tasks\relax }}{5}{figure.caption.9}}
\@writefile{lof}{\contentsline {figure}{\numberline {10}{\ignorespaces Weak Scaling results for 128 mpi tasks\relax }}{5}{figure.caption.10}}
\@writefile{lof}{\contentsline {figure}{\numberline {11}{\ignorespaces Weak Scaling results for 256 mpi tasks\relax }}{6}{figure.caption.11}}
\@writefile{lof}{\contentsline {figure}{\numberline {12}{\ignorespaces Weak Scaling results for 512 mpi tasks\relax }}{6}{figure.caption.12}}
\@writefile{toc}{\contentsline {section}{\numberline {2}Tree sort stages brake down(Splitter computation, All2All communication, local sort)}{7}{section.2}}
\@writefile{lof}{\contentsline {figure}{\numberline {13}{\ignorespaces Weak Scaling results for 16 mpi tasks\relax }}{7}{figure.caption.13}}
\@writefile{lof}{\contentsline {figure}{\numberline {14}{\ignorespaces Weak Scaling results for 32 mpi tasks\relax }}{7}{figure.caption.14}}
\@writefile{lof}{\contentsline {figure}{\numberline {15}{\ignorespaces Weak Scaling results for 64 mpi tasks\relax }}{8}{figure.caption.15}}
\@writefile{lof}{\contentsline {figure}{\numberline {16}{\ignorespaces Weak Scaling results for 128 mpi tasks\relax }}{8}{figure.caption.16}}
\@writefile{lof}{\contentsline {figure}{\numberline {17}{\ignorespaces Weak Scaling results for 256 mpi tasks\relax }}{9}{figure.caption.17}}
\@writefile{lof}{\contentsline {figure}{\numberline {18}{\ignorespaces Weak Scaling results for 512 mpi tasks\relax }}{9}{figure.caption.18}}
\gdef\exam@lastpage{9}
\gdef\exam@lastcoverpage{0}
\gdef\exam@totalpages{9}
\gdef\exam@numpoints{0}
\gdef\exam@numbonuspoints{0}
\gdef\exam@numquestions{0}
\gdef\exam@numparts{0}
\gdef\exam@numsubparts{0}
\gdef\exam@numsubsubparts{0}
\gdef\lastpage@withpoints{0}
\gdef\lastpage@withbonuspoints{0}
