testPartition: /home1/03727/tg830270/dendro/src/TreeNode.cpp:564: ot::TreeNode::TreeNode(unsigned int, unsigned int): Assertion `(m_uiDim == 1) || (m_uiDim == 2) || (m_uiDim == 3)' failed.
[c559-403.stampede.tacc.utexas.edu:mpi_rank_86][error_sighandler] Caught error: Aborted (signal 6)
testPartition: /home1/03727/tg830270/dendro/src/TreeNode.cpp:564: ot::TreeNode::TreeNode(unsigned int, unsigned int): Assertion `(m_uiDim == 1) || (m_uiDim == 2) || (m_uiDim == 3)' failed.
[c559-601.stampede.tacc.utexas.edu:mpi_rank_150][error_sighandler] Caught error: Aborted (signal 6)
[c559-403.stampede.tacc.utexas.edu:mpispawn_5][readline] Unexpected End-Of-File on file descriptor 7. MPI process died?
[c559-403.stampede.tacc.utexas.edu:mpispawn_5][mtpmi_processops] Error while reading PMI socket. MPI process died?
testPartition: /home1/03727/tg830270/dendro/src/TreeNode.cpp:564: ot::TreeNode::TreeNode(unsigned int, unsigned int): Assertion `(m_uiDim == 1) || (m_uiDim == 2) || (m_uiDim == 3)' failed.
[c559-401.stampede.tacc.utexas.edu:mpi_rank_50][error_sighandler] Caught error: Aborted (signal 6)
[c559-601.stampede.tacc.utexas.edu:mpispawn_9][readline] Unexpected End-Of-File on file descriptor 5. MPI process died?
[c559-601.stampede.tacc.utexas.edu:mpispawn_9][mtpmi_processops] Error while reading PMI socket. MPI process died?
testPartition: /home1/03727/tg830270/dendro/src/TreeNode.cpp:564: ot::TreeNode::TreeNode(unsigned int, unsigned int): Assertion `(m_uiDim == 1) || (m_uiDim == 2) || (m_uiDim == 3)' failed.
[c559-702.stampede.tacc.utexas.edu:mpi_rank_204][error_sighandler] Caught error: Aborted (signal 6)
testPartition: /home1/03727/tg830270/dendro/src/TreeNode.cpp:564: ot::TreeNode::TreeNode(unsigned int, unsigned int): Assertion `(m_uiDim == 1) || (m_uiDim == 2) || (m_uiDim == 3)' failed.
[c559-502.stampede.tacc.utexas.edu:mpi_rank_140][error_sighandler] Caught error: Aborted (signal 6)
[c559-702.stampede.tacc.utexas.edu:mpispawn_12][readline] Unexpected End-Of-File on file descriptor 18. MPI process died?
[c559-702.stampede.tacc.utexas.edu:mpispawn_12][mtpmi_processops] Error while reading PMI socket. MPI process died?
testPartition: /home1/03727/tg830270/dendro/src/TreeNode.cpp:564: ot::TreeNode::TreeNode(unsigned int, unsigned int): Assertion `(m_uiDim == 1) || (m_uiDim == 2) || (m_uiDim == 3)' failed.
[c559-903.stampede.tacc.utexas.edu:mpi_rank_237][error_sighandler] Caught error: Aborted (signal 6)
[c559-903.stampede.tacc.utexas.edu:mpispawn_14][readline] Unexpected End-Of-File on file descriptor 6. MPI process died?
[c559-903.stampede.tacc.utexas.edu:mpispawn_14][mtpmi_processops] Error while reading PMI socket. MPI process died?
[c559-502.stampede.tacc.utexas.edu:mpispawn_8][readline] Unexpected End-Of-File on file descriptor 15. MPI process died?
[c559-502.stampede.tacc.utexas.edu:mpispawn_8][mtpmi_processops] Error while reading PMI socket. MPI process died?
[c559-403.stampede.tacc.utexas.edu:mpispawn_5][child_handler] MPI process (rank: 86, pid: 56429) terminated with signal 6 -> abort job
[c559-601.stampede.tacc.utexas.edu:mpispawn_9][child_handler] MPI process (rank: 150, pid: 17549) terminated with signal 6 -> abort job
[c559-702.stampede.tacc.utexas.edu:mpispawn_12][child_handler] MPI process (rank: 204, pid: 36702) terminated with signal 6 -> abort job
[c559-903.stampede.tacc.utexas.edu:mpispawn_14][child_handler] MPI process (rank: 237, pid: 12913) terminated with signal 6 -> abort job
[c559-502.stampede.tacc.utexas.edu:mpispawn_8][child_handler] MPI process (rank: 140, pid: 117991) terminated with signal 6 -> abort job
[c559-401.stampede.tacc.utexas.edu:mpispawn_3][readline] Unexpected End-Of-File on file descriptor 5. MPI process died?
[c559-401.stampede.tacc.utexas.edu:mpispawn_3][mtpmi_processops] Error while reading PMI socket. MPI process died?
[c559-401.stampede.tacc.utexas.edu:mpispawn_3][child_handler] MPI process (rank: 50, pid: 63992) terminated with signal 6 -> abort job
[c559-302.stampede.tacc.utexas.edu:mpispawn_0][read_size] Unexpected End-Of-File on file descriptor 30. MPI process died?
[c559-302.stampede.tacc.utexas.edu:mpispawn_0][read_size] Unexpected End-Of-File on file descriptor 30. MPI process died?
[c559-302.stampede.tacc.utexas.edu:mpispawn_0][handle_mt_peer] Error while reading PMI socket. MPI process died?
[c559-302.stampede.tacc.utexas.edu:mpirun_rsh][process_mpispawn_connection] mpispawn_5 from node c559-403 aborted: Error while reading a PMI socket (4)
[c559-304.stampede.tacc.utexas.edu:mpispawn_2][read_size] Unexpected End-Of-File on file descriptor 21. MPI process died?
[c559-304.stampede.tacc.utexas.edu:mpispawn_2][read_size] Unexpected End-Of-File on file descriptor 21. MPI process died?
[c559-304.stampede.tacc.utexas.edu:mpispawn_2][handle_mt_peer] Error while reading PMI socket. MPI process died?
[c559-404.stampede.tacc.utexas.edu:mpispawn_6][read_size] Unexpected End-Of-File on file descriptor 21. MPI process died?
[c559-404.stampede.tacc.utexas.edu:mpispawn_6][read_size] Unexpected End-Of-File on file descriptor 21. MPI process died?
[c559-404.stampede.tacc.utexas.edu:mpispawn_6][handle_mt_peer] Error while reading PMI socket. MPI process died?
[c559-501.stampede.tacc.utexas.edu:mpispawn_7][read_size] Unexpected End-Of-File on file descriptor 21. MPI process died?
[c559-501.stampede.tacc.utexas.edu:mpispawn_7][read_size] Unexpected End-Of-File on file descriptor 21. MPI process died?
[c559-501.stampede.tacc.utexas.edu:mpispawn_7][handle_mt_peer] Error while reading PMI socket. MPI process died?
[c559-603.stampede.tacc.utexas.edu:mpispawn_10][read_size] Unexpected End-Of-File on file descriptor 21. MPI process died?
[c559-603.stampede.tacc.utexas.edu:mpispawn_10][read_size] Unexpected End-Of-File on file descriptor 21. MPI process died?
[c559-603.stampede.tacc.utexas.edu:mpispawn_10][handle_mt_peer] Error while reading PMI socket. MPI process died?
[c559-402.stampede.tacc.utexas.edu:mpispawn_4][read_size] Unexpected End-Of-File on file descriptor 21. MPI process died?
[c559-402.stampede.tacc.utexas.edu:mpispawn_4][read_size] Unexpected End-Of-File on file descriptor 21. MPI process died?
[c559-402.stampede.tacc.utexas.edu:mpispawn_4][handle_mt_peer] Error while reading PMI socket. MPI process died?
[c559-701.stampede.tacc.utexas.edu:mpispawn_11][read_size] Unexpected End-Of-File on file descriptor 21. MPI process died?
[c559-701.stampede.tacc.utexas.edu:mpispawn_11][read_size] Unexpected End-Of-File on file descriptor 21. MPI process died?
[c559-701.stampede.tacc.utexas.edu:mpispawn_11][handle_mt_peer] Error while reading PMI socket. MPI process died?
[c559-904.stampede.tacc.utexas.edu:mpispawn_15][read_size] Unexpected End-Of-File on file descriptor 21. MPI process died?
[c559-904.stampede.tacc.utexas.edu:mpispawn_15][read_size] Unexpected End-Of-File on file descriptor 21. MPI process died?
[c559-904.stampede.tacc.utexas.edu:mpispawn_15][handle_mt_peer] Error while reading PMI socket. MPI process died?
[c559-703.stampede.tacc.utexas.edu:mpispawn_13][read_size] Unexpected End-Of-File on file descriptor 21. MPI process died?
[c559-703.stampede.tacc.utexas.edu:mpispawn_13][read_size] Unexpected End-Of-File on file descriptor 21. MPI process died?
[c559-703.stampede.tacc.utexas.edu:mpispawn_13][handle_mt_peer] Error while reading PMI socket. MPI process died?
[c559-303.stampede.tacc.utexas.edu:mpispawn_1][read_size] Unexpected End-Of-File on file descriptor 21. MPI process died?
[c559-303.stampede.tacc.utexas.edu:mpispawn_1][read_size] Unexpected End-Of-File on file descriptor 21. MPI process died?
[c559-303.stampede.tacc.utexas.edu:mpispawn_1][handle_mt_peer] Error while reading PMI socket. MPI process died?
[c559-404.stampede.tacc.utexas.edu:mpispawn_6][report_error] connect() failed: Connection refused (111)
[c559-703.stampede.tacc.utexas.edu:mpispawn_13][report_error] connect() failed: Connection refused (111)
[c559-701.stampede.tacc.utexas.edu:mpispawn_11][report_error] connect() failed: Connection refused (111)
[c559-904.stampede.tacc.utexas.edu:mpispawn_15][report_error] connect() failed: Connection refused (111)
[c559-603.stampede.tacc.utexas.edu:mpispawn_10][report_error] connect() failed: Connection refused (111)
[c559-303.stampede.tacc.utexas.edu:mpispawn_1][report_error] connect() failed: Connection refused (111)
[c559-501.stampede.tacc.utexas.edu:mpispawn_7][report_error] connect() failed: Connection refused (111)
[c559-402.stampede.tacc.utexas.edu:mpispawn_4][report_error] connect() failed: Connection refused (111)
[c559-304.stampede.tacc.utexas.edu:mpispawn_2][report_error] connect() failed: Connection refused (111)
