TACC: Starting up job 6043995
TACC: Setting up parallel environment for MVAPICH2+mpispawn.
TACC: Starting parallel tasks...
[2;34m===============================================[0m
 Input Parameters
 Input File Prefix:pts_dev
 Slack Parameter::0.1
 Gen Pts files:: 0
 Total Number of Points:: 1000000
 Number of psuedo Processors:: 20
[2;34m===============================================[0m
[1;31m Reading  pts_dev[0m
[0;32m Finished reading  pts_dev[0m
[2;34m===============================================[0m
[1;31m Starting Points to Octree[0m
[2;34m===============================================[0m
[2;34m===============================================[0m
[1;31m Ended Points to Octree[0m
[2;34m===============================================[0m
[0;32m P2n Time: [0;33m0.0760522[0m
[2;34m===============================================[0m
[1;31m Mesh Statistics Calculation Before Balancing[0m
[2;34m===============================================[0m
[2;34m===============================================[0m
[1;31m Boundary Surfaces (min):116[0m
[1;31m Boundary Surfaces (max):700[0m
[1;31m Boundary Surfaces (mean):387.92[0m
[2;34m===============================================[0m
[0;32m # of Unbalanced Octants: [0;33m2133383[0m
[2;34m===============================================[0m
[1;31m Surface to Volume ratio:1554454/2133383=0.728633[0m
[2;34m===============================================[0m
[2;34m===============================================[0m
[1;31m Starting 2:1 Balance[0m
[2;34m===============================================[0m
Balance Octree. inpSize: 2133383 activeNpes: 256
# of Balanced Octants: 2256816
bal Time: 0.431049
[2;34m===============================================[0m
[1;31m Boundary Surfaces (min):251[0m
[1;31m Boundary Surfaces (max):624[0m
[1;31m Boundary Surfaces (mean):407.128[0m
[2;34m===============================================[0m
slack size is 44 octants
Flexible part calculation completed
[2;34m===============================================[0m
[1;31m Boundary Surfaces (min):1584[0m
[1;31m Boundary Surfaces (max):4290[0m
[1;31m Boundary Surfaces (mean):2696.23[0m
[2;34m===============================================[0m
[0;32mFinalizing ...[0m
[0;32mFinalizing ...[0m
 
TACC: Shutdown complete. Exiting.
TACC: Starting up job 6043995
TACC: Setting up parallel environment for MVAPICH2+mpispawn.
TACC: Starting parallel tasks...
[2;34m===============================================[0m
 Input Parameters
 Input File Prefix:pts_dev
 Slack Parameter::0.2
 Gen Pts files:: 0
 Total Number of Points:: 1000000
 Number of psuedo Processors:: 20
[2;34m===============================================[0m
[1;31m Reading  pts_dev[0m
[0;32m Finished reading  pts_dev[0m
[2;34m===============================================[0m
[1;31m Starting Points to Octree[0m
[2;34m===============================================[0m
[2;34m===============================================[0m
[1;31m Ended Points to Octree[0m
[2;34m===============================================[0m
[0;32m P2n Time: [0;33m0.0541899[0m
[2;34m===============================================[0m
[1;31m Mesh Statistics Calculation Before Balancing[0m
[2;34m===============================================[0m
[2;34m===============================================[0m
[1;31m Boundary Surfaces (min):116[0m
[1;31m Boundary Surfaces (max):700[0m
[1;31m Boundary Surfaces (mean):387.92[0m
[2;34m===============================================[0m
[0;32m # of Unbalanced Octants: [0;33m2133383[0m
[2;34m===============================================[0m
[1;31m Surface to Volume ratio:1554454/2133383=0.728633[0m
[2;34m===============================================[0m
[2;34m===============================================[0m
[1;31m Starting 2:1 Balance[0m
[2;34m===============================================[0m
Balance Octree. inpSize: 2133383 activeNpes: 256
# of Balanced Octants: 2256816
bal Time: 0.426296
[2;34m===============================================[0m
[1;31m Boundary Surfaces (min):251[0m
[1;31m Boundary Surfaces (max):624[0m
[1;31m Boundary Surfaces (mean):407.128[0m
[2;34m===============================================[0m
slack size is 88 octants
Flexible part calculation completed
[2;34m===============================================[0m
[1;31m Boundary Surfaces (min):1584[0m
[1;31m Boundary Surfaces (max):4290[0m
[1;31m Boundary Surfaces (mean):2696.23[0m
[2;34m===============================================[0m
[0;32mFinalizing ...[0m
[0;32mFinalizing ...[0m
 
TACC: Shutdown complete. Exiting.
TACC: Starting up job 6043995
TACC: Setting up parallel environment for MVAPICH2+mpispawn.
TACC: Starting parallel tasks...
[2;34m===============================================[0m
 Input Parameters
 Input File Prefix:pts_dev
 Slack Parameter::0.2
 Gen Pts files:: 0
 Total Number of Points:: 1000000
 Number of psuedo Processors:: 20
[2;34m===============================================[0m
[1;31m Reading  pts_dev[0m
[0;32m Finished reading  pts_dev[0m
[2;34m===============================================[0m
[1;31m Starting Points to Octree[0m
[2;34m===============================================[0m
[2;34m===============================================[0m
[1;31m Ended Points to Octree[0m
[2;34m===============================================[0m
[0;32m P2n Time: [0;33m0.0547149[0m
[2;34m===============================================[0m
[1;31m Mesh Statistics Calculation Before Balancing[0m
[2;34m===============================================[0m
[2;34m===============================================[0m
[1;31m Boundary Surfaces (min):116[0m
[1;31m Boundary Surfaces (max):700[0m
[1;31m Boundary Surfaces (mean):387.92[0m
[2;34m===============================================[0m
[0;32m # of Unbalanced Octants: [0;33m2133383[0m
[2;34m===============================================[0m
[1;31m Surface to Volume ratio:1554454/2133383=0.728633[0m
[2;34m===============================================[0m
[2;34m===============================================[0m
[1;31m Starting 2:1 Balance[0m
[2;34m===============================================[0m
Balance Octree. inpSize: 2133383 activeNpes: 256
# of Balanced Octants: 2256816
bal Time: 0.427319
[2;34m===============================================[0m
[1;31m Boundary Surfaces (min):251[0m
[1;31m Boundary Surfaces (max):624[0m
[1;31m Boundary Surfaces (mean):407.128[0m
[2;34m===============================================[0m
slack size is 88 octants
Flexible part calculation completed
[2;34m===============================================[0m
[1;31m Boundary Surfaces (min):1584[0m
[1;31m Boundary Surfaces (max):4290[0m
[1;31m Boundary Surfaces (mean):2696.23[0m
[2;34m===============================================[0m
[0;32mFinalizing ...[0m
[0;32mFinalizing ...[0m
 
TACC: Shutdown complete. Exiting.
TACC: Starting up job 6043995
TACC: Setting up parallel environment for MVAPICH2+mpispawn.
TACC: Starting parallel tasks...
[2;34m===============================================[0m
 Input Parameters
 Input File Prefix:pts_dev
 Slack Parameter::0.4
 Gen Pts files:: 0
 Total Number of Points:: 1000000
 Number of psuedo Processors:: 20
[2;34m===============================================[0m
[1;31m Reading  pts_dev[0m
[0;32m Finished reading  pts_dev[0m
[2;34m===============================================[0m
[1;31m Starting Points to Octree[0m
[2;34m===============================================[0m
[2;34m===============================================[0m
[1;31m Ended Points to Octree[0m
[2;34m===============================================[0m
[0;32m P2n Time: [0;33m0.054914[0m
[2;34m===============================================[0m
[1;31m Mesh Statistics Calculation Before Balancing[0m
[2;34m===============================================[0m
[2;34m===============================================[0m
[1;31m Boundary Surfaces (min):116[0m
[1;31m Boundary Surfaces (max):700[0m
[1;31m Boundary Surfaces (mean):387.92[0m
[2;34m===============================================[0m
[0;32m # of Unbalanced Octants: [0;33m2133383[0m
[2;34m===============================================[0m
[1;31m Surface to Volume ratio:1554454/2133383=0.728633[0m
[2;34m===============================================[0m
[2;34m===============================================[0m
[1;31m Starting 2:1 Balance[0m
[2;34m===============================================[0m
Balance Octree. inpSize: 2133383 activeNpes: 256
# of Balanced Octants: 2256816
bal Time: 0.428873
[2;34m===============================================[0m
[1;31m Boundary Surfaces (min):251[0m
[1;31m Boundary Surfaces (max):624[0m
[1;31m Boundary Surfaces (mean):407.128[0m
[2;34m===============================================[0m
slack size is 176 octants
Flexible part calculation completed
[2;34m===============================================[0m
[1;31m Boundary Surfaces (min):1584[0m
[1;31m Boundary Surfaces (max):4290[0m
[1;31m Boundary Surfaces (mean):2696.23[0m
[2;34m===============================================[0m
[0;32mFinalizing ...[0m
[0;32mFinalizing ...[0m
 
TACC: Shutdown complete. Exiting.
TACC: Starting up job 6043995
TACC: Setting up parallel environment for MVAPICH2+mpispawn.
TACC: Starting parallel tasks...
[2;34m===============================================[0m
 Input Parameters
 Input File Prefix:pts_dev
 Slack Parameter::0.5
 Gen Pts files:: 0
 Total Number of Points:: 1000000
 Number of psuedo Processors:: 20
[2;34m===============================================[0m
[1;31m Reading  pts_dev[0m
[0;32m Finished reading  pts_dev[0m
[2;34m===============================================[0m
[1;31m Starting Points to Octree[0m
[2;34m===============================================[0m
[2;34m===============================================[0m
[1;31m Ended Points to Octree[0m
[2;34m===============================================[0m
[0;32m P2n Time: [0;33m0.0546911[0m
[2;34m===============================================[0m
[1;31m Mesh Statistics Calculation Before Balancing[0m
[2;34m===============================================[0m
[2;34m===============================================[0m
[1;31m Boundary Surfaces (min):116[0m
[1;31m Boundary Surfaces (max):700[0m
[1;31m Boundary Surfaces (mean):387.92[0m
[2;34m===============================================[0m
[0;32m # of Unbalanced Octants: [0;33m2133383[0m
[2;34m===============================================[0m
[1;31m Surface to Volume ratio:1554454/2133383=0.728633[0m
[2;34m===============================================[0m
[2;34m===============================================[0m
[1;31m Starting 2:1 Balance[0m
[2;34m===============================================[0m
Balance Octree. inpSize: 2133383 activeNpes: 256
# of Balanced Octants: 2256816
bal Time: 0.427176
[2;34m===============================================[0m
[1;31m Boundary Surfaces (min):251[0m
[1;31m Boundary Surfaces (max):624[0m
[1;31m Boundary Surfaces (mean):407.128[0m
[2;34m===============================================[0m
slack size is 220 octants
Flexible part calculation completed
[2;34m===============================================[0m
[1;31m Boundary Surfaces (min):1584[0m
[1;31m Boundary Surfaces (max):4290[0m
[1;31m Boundary Surfaces (mean):2696.23[0m
[2;34m===============================================[0m
[0;32mFinalizing ...[0m
[0;32mFinalizing ...[0m
 
TACC: Shutdown complete. Exiting.
TACC: Starting up job 6043995
TACC: Setting up parallel environment for MVAPICH2+mpispawn.
TACC: Starting parallel tasks...
[2;34m===============================================[0m
 Input Parameters
 Input File Prefix:pts_dev
 Slack Parameter::0.6
 Gen Pts files:: 0
 Total Number of Points:: 1000000
 Number of psuedo Processors:: 20
[2;34m===============================================[0m
[1;31m Reading  pts_dev[0m
[0;32m Finished reading  pts_dev[0m
[2;34m===============================================[0m
[1;31m Starting Points to Octree[0m
[2;34m===============================================[0m
[2;34m===============================================[0m
[1;31m Ended Points to Octree[0m
[2;34m===============================================[0m
[0;32m P2n Time: [0;33m0.0545418[0m
[2;34m===============================================[0m
[1;31m Mesh Statistics Calculation Before Balancing[0m
[2;34m===============================================[0m
[2;34m===============================================[0m
[1;31m Boundary Surfaces (min):116[0m
[1;31m Boundary Surfaces (max):700[0m
[1;31m Boundary Surfaces (mean):387.92[0m
[2;34m===============================================[0m
[0;32m # of Unbalanced Octants: [0;33m2133383[0m
[2;34m===============================================[0m
[1;31m Surface to Volume ratio:1554454/2133383=0.728633[0m
[2;34m===============================================[0m
[2;34m===============================================[0m
[1;31m Starting 2:1 Balance[0m
[2;34m===============================================[0m
Balance Octree. inpSize: 2133383 activeNpes: 256
# of Balanced Octants: 2256816
bal Time: 0.432406
[2;34m===============================================[0m
[1;31m Boundary Surfaces (min):251[0m
[1;31m Boundary Surfaces (max):624[0m
[1;31m Boundary Surfaces (mean):407.128[0m
[2;34m===============================================[0m
slack size is 264 octants
Dim Error:106
TACC: MPI job exited with code: 1
 
TACC: Shutdown complete. Exiting.
TACC: Starting up job 6043995
TACC: Setting up parallel environment for MVAPICH2+mpispawn.
TACC: Starting parallel tasks...
[2;34m===============================================[0m
 Input Parameters
 Input File Prefix:pts_dev
 Slack Parameter::0.7
 Gen Pts files:: 0
 Total Number of Points:: 1000000
 Number of psuedo Processors:: 20
[2;34m===============================================[0m
[1;31m Reading  pts_dev[0m
[0;32m Finished reading  pts_dev[0m
[2;34m===============================================[0m
[1;31m Starting Points to Octree[0m
[2;34m===============================================[0m
[2;34m===============================================[0m
[1;31m Ended Points to Octree[0m
[2;34m===============================================[0m
[0;32m P2n Time: [0;33m0.0546501[0m
[2;34m===============================================[0m
[1;31m Mesh Statistics Calculation Before Balancing[0m
[2;34m===============================================[0m
[2;34m===============================================[0m
[1;31m Boundary Surfaces (min):116[0m
[1;31m Boundary Surfaces (max):700[0m
[1;31m Boundary Surfaces (mean):387.92[0m
[2;34m===============================================[0m
[0;32m # of Unbalanced Octants: [0;33m2133383[0m
[2;34m===============================================[0m
[1;31m Surface to Volume ratio:1554454/2133383=0.728633[0m
[2;34m===============================================[0m
[2;34m===============================================[0m
[1;31m Starting 2:1 Balance[0m
[2;34m===============================================[0m
Balance Octree. inpSize: 2133383 activeNpes: 256
# of Balanced Octants: 2256816
bal Time: 0.432328
[2;34m===============================================[0m
[1;31m Boundary Surfaces (min):251[0m
[1;31m Boundary Surfaces (max):624[0m
[1;31m Boundary Surfaces (mean):407.128[0m
[2;34m===============================================[0m
slack size is 308 octants
Dim Error:172432
Dim Error:95
Dim Error:162
Dim Error:142
Dim Error:175
Dim Error:Dim Error:11004
8
TACC: MPI job exited with code: 1
 
TACC: Shutdown complete. Exiting.
