TACC: Starting up job 6043044
TACC: Setting up parallel environment for MVAPICH2+mpispawn.
TACC: Starting parallel tasks...
[2;34m===============================================[0m
 Input Parameters
 Input File Prefix:pts_dev
 Slack Parameter::0.02
 Gen Pts files:: 1
 Total Number of Points:: 1000000
 Number of psuedo Processors:: 10
[2;34m===============================================[0m
[1;31m Reading  pts_dev[0m
[0;32m Finished reading  pts_dev[0m
[2;34m===============================================[0m
[1;31m Starting Points to Octree[0m
[2;34m===============================================[0m
[2;34m===============================================[0m
[1;31m Ended Points to Octree[0m
[2;34m===============================================[0m
[0;32m P2n Time: [0;33m0.077724[0m
[2;34m===============================================[0m
[1;31m Mesh Statistics Calculation Before Balancing[0m
[2;34m===============================================[0m
[2;34m===============================================[0m
[1;31m Boundary Surfaces (min):226[0m
[1;31m Boundary Surfaces (max):1022[0m
[1;31m Boundary Surfaces (mean):607.209[0m
[2;34m===============================================[0m
[0;32m # of Unbalanced Octants: [0;33m2133383[0m
[2;34m===============================================[0m
[1;31m Surface to Volume ratio:1554454/2133383=0.728633[0m
[2;34m===============================================[0m
[2;34m===============================================[0m
[1;31m Starting 2:1 Balance[0m
[2;34m===============================================[0m
Balance Octree. inpSize: 2133383 activeNpes: 256
# of Balanced Octants: 2256816
bal Time: 0.427825
[2;34m===============================================[0m
[1;31m Boundary Surfaces (min):374[0m
[1;31m Boundary Surfaces (max):1012[0m
[1;31m Boundary Surfaces (mean):635.826[0m
[2;34m===============================================[0m
slack size is 17 octants
Flexible part calculation completed
[2;34m===============================================[0m
[1;31m Boundary Surfaces (min):3120[0m
[1;31m Boundary Surfaces (max):8592[0m
[1;31m Boundary Surfaces (mean):5304.38[0m
[2;34m===============================================[0m
[0;32mFinalizing ...[0m
[0;32mFinalizing ...[0m
 
TACC: Shutdown complete. Exiting.
