TACC: Starting up job 6058561
TACC: Setting up parallel environment for MVAPICH2+mpispawn.
TACC: Starting parallel tasks...
[2;34m===============================================[0m
 Input Parameters
 Input File Prefix:pts_h_ws
 Slack Parameter::0.1
 Gen Pts files:: 1
 Total Number of Points:: 8000
 Number of psuedo Processors:: 10
[2;34m===============================================[0m
[1;31m Reading  pts_h_ws[0m
[0;32m Finished reading  pts_h_ws[0m
[2;34m===============================================[0m
[1;31m Starting Points to Octree[0m
[2;34m===============================================[0m
[2;34m===============================================[0m
[1;31m Ended Points to Octree[0m
[2;34m===============================================[0m
[0;32m P2n Time: [0;33m0.00667906[0m
[2;34m===============================================[0m
[1;31m Mesh Statistics Calculation Before Balancing[0m
[2;34m===============================================[0m
[2;34m===============================================[0m
[1;31m Boundary Surfaces (min):114[0m
[1;31m Boundary Surfaces (max):471[0m
[1;31m Boundary Surfaces (mean):301.3[0m
[2;34m===============================================[0m
[0;32m # of Unbalanced Octants: [0;33m26867[0m
[2;34m===============================================[0m
[1;31m Surface to Volume ratio:24104/26867=0.89716[0m
[2;34m===============================================[0m
[2;34m===============================================[0m
[1;31m Starting 2:1 Balance[0m
[2;34m===============================================[0m
Balance Octree. inpSize: 26867 activeNpes: 8
# of Balanced Octants: 42274
bal Time: 0.134601
[2;34m===============================================[0m
[1;31m Boundary Surfaces (min):297[0m
[1;31m Boundary Surfaces (max):549[0m
[1;31m Boundary Surfaces (mean):424.3[0m
[2;34m===============================================[0m
[0;33mSlack Parameter:0.1[0m
slack size is 52 octants
Flexible part calculation completed
[2;34m===============================================[0m
[1;31m Boundary Surfaces (min):2076[0m
[1;31m Boundary Surfaces (max):3612[0m
[1;31m Boundary Surfaces (mean):303.825[0m
[1;31m Boundary Surfaces (max/min parition wise):1.20641[0m
[0;33m Partition elements (min):0[0m
[0;33m Partition elements (max):602[0m
[0;33m Partition elements (mean):52.7875[0m
[2;34m===============================================[0m
[0;32mFinalizing ...[0m
[0;33mSlack Parameter:0.15[0m
slack size is 79 octants
Flexible part calculation completed
[2;34m===============================================[0m
[1;31m Boundary Surfaces (min):1770[0m
[1;31m Boundary Surfaces (max):3612[0m
[1;31m Boundary Surfaces (mean):303.825[0m
[1;31m Boundary Surfaces (max/min parition wise):1.35281[0m
[0;33m Partition elements (min):0[0m
[0;33m Partition elements (max):602[0m
[0;33m Partition elements (mean):52.7875[0m
[2;34m===============================================[0m
[0;32mFinalizing ...[0m
[0;33mSlack Parameter:0.2[0m
slack size is 105 octants
Flexible part calculation completed
[2;34m===============================================[0m
[1;31m Boundary Surfaces (min):1458[0m
[1;31m Boundary Surfaces (max):3612[0m
[1;31m Boundary Surfaces (mean):304.275[0m
[1;31m Boundary Surfaces (max/min parition wise):1.53181[0m
[0;33m Partition elements (min):0[0m
[0;33m Partition elements (max):602[0m
[0;33m Partition elements (mean):52.7875[0m
[2;34m===============================================[0m
[0;32mFinalizing ...[0m
[0;33mSlack Parameter:0.25[0m
slack size is 132 octants
Flexible part calculation completed
[2;34m===============================================[0m
[1;31m Boundary Surfaces (min):1134[0m
[1;31m Boundary Surfaces (max):3612[0m
[1;31m Boundary Surfaces (mean):307.125[0m
[1;31m Boundary Surfaces (max/min parition wise):1.77581[0m
[0;33m Partition elements (min):0[0m
[0;33m Partition elements (max):602[0m
[0;33m Partition elements (mean):52.7875[0m
[2;34m===============================================[0m
[0;32mFinalizing ...[0m
[0;33mSlack Parameter:0.3[0m
slack size is 158 octants
Flexible part calculation completed
[2;34m===============================================[0m
[1;31m Boundary Surfaces (min):822[0m
[1;31m Boundary Surfaces (max):3612[0m
[1;31m Boundary Surfaces (mean):308.175[0m
[1;31m Boundary Surfaces (max/min parition wise):2.09756[0m
[0;33m Partition elements (min):0[0m
[0;33m Partition elements (max):602[0m
[0;33m Partition elements (mean):52.7875[0m
[2;34m===============================================[0m
[0;32mFinalizing ...[0m
[0;33mSlack Parameter:0.35[0m
slack size is 184 octants
Flexible part calculation completed
[2;34m===============================================[0m
[1;31m Boundary Surfaces (min):510[0m
[1;31m Boundary Surfaces (max):3612[0m
[1;31m Boundary Surfaces (mean):309.225[0m
[1;31m Boundary Surfaces (max/min parition wise):2.5617[0m
[0;33m Partition elements (min):0[0m
[0;33m Partition elements (max):602[0m
[0;33m Partition elements (mean):52.7875[0m
[2;34m===============================================[0m
[0;32mFinalizing ...[0m
[0;33mSlack Parameter:0.4[0m
slack size is 211 octants
Flexible part calculation completed
[2;34m===============================================[0m
[1;31m Boundary Surfaces (min):186[0m
[1;31m Boundary Surfaces (max):3612[0m
[1;31m Boundary Surfaces (mean):310.5[0m
[1;31m Boundary Surfaces (max/min parition wise):3.32597[0m
[0;33m Partition elements (min):0[0m
[0;33m Partition elements (max):602[0m
[0;33m Partition elements (mean):52.7875[0m
[2;34m===============================================[0m
[0;32mFinalizing ...[0m
[0;33mSlack Parameter:0.45[0m
slack size is 237 octants
TACC: MPI job exited with code: 1
 
TACC: Shutdown complete. Exiting.
TACC: Starting up job 6058561
TACC: Setting up parallel environment for MVAPICH2+mpispawn.
TACC: Starting parallel tasks...
[2;34m===============================================[0m
 Input Parameters
 Input File Prefix:pts_h_ws
 Slack Parameter::0.1
 Gen Pts files:: 1
 Total Number of Points:: 16000
 Number of psuedo Processors:: 10
[2;34m===============================================[0m
[1;31m Reading  pts_h_ws[0m
[0;32m Finished reading  pts_h_ws[0m
[2;34m===============================================[0m
[1;31m Starting Points to Octree[0m
[2;34m===============================================[0m
[2;34m===============================================[0m
[1;31m Ended Points to Octree[0m
[2;34m===============================================[0m
[0;32m P2n Time: [0;33m0.00983906[0m
[2;34m===============================================[0m
[1;31m Mesh Statistics Calculation Before Balancing[0m
[2;34m===============================================[0m
[2;34m===============================================[0m
[1;31m Boundary Surfaces (min):75[0m
[1;31m Boundary Surfaces (max):534[0m
[1;31m Boundary Surfaces (mean):295.294[0m
[2;34m===============================================[0m
[0;32m # of Unbalanced Octants: [0;33m52781[0m
[2;34m===============================================[0m
[1;31m Surface to Volume ratio:47247/52781=0.895152[0m
[2;34m===============================================[0m
[2;34m===============================================[0m
[1;31m Starting 2:1 Balance[0m
[2;34m===============================================[0m
Balance Octree. inpSize: 52781 activeNpes: 16
# of Balanced Octants: 77477
bal Time: 0.143386
[2;34m===============================================[0m
[1;31m Boundary Surfaces (min):254[0m
[1;31m Boundary Surfaces (max):548[0m
[1;31m Boundary Surfaces (mean):407[0m
[2;34m===============================================[0m
[0;33mSlack Parameter:0.1[0m
slack size is 48 octants
Flexible part calculation completed
[2;34m===============================================[0m
[1;31m Boundary Surfaces (min):1212[0m
[1;31m Boundary Surfaces (max):3798[0m
[1;31m Boundary Surfaces (mean):287.738[0m
[1;31m Boundary Surfaces (max/min parition wise):1.17658[0m
[0;33m Partition elements (min):0[0m
[0;33m Partition elements (max):633[0m
[0;33m Partition elements (mean):48.375[0m
[2;34m===============================================[0m
[0;32mFinalizing ...[0m
[0;33mSlack Parameter:0.15[0m
slack size is 72 octants
Flexible part calculation completed
[2;34m===============================================[0m
[1;31m Boundary Surfaces (min):924[0m
[1;31m Boundary Surfaces (max):3798[0m
[1;31m Boundary Surfaces (mean):287.738[0m
[1;31m Boundary Surfaces (max/min parition wise):1.29184[0m
[0;33m Partition elements (min):0[0m
[0;33m Partition elements (max):633[0m
[0;33m Partition elements (mean):48.375[0m
[2;34m===============================================[0m
[0;32mFinalizing ...[0m
[0;33mSlack Parameter:0.2[0m
slack size is 96 octants
Flexible part calculation completed
[2;34m===============================================[0m
[1;31m Boundary Surfaces (min):636[0m
[1;31m Boundary Surfaces (max):3798[0m
[1;31m Boundary Surfaces (mean):287.925[0m
[1;31m Boundary Surfaces (max/min parition wise):1.43213[0m
[0;33m Partition elements (min):0[0m
[0;33m Partition elements (max):633[0m
[0;33m Partition elements (mean):48.375[0m
[2;34m===============================================[0m
[0;32mFinalizing ...[0m
[0;33mSlack Parameter:0.25[0m
slack size is 121 octants
Flexible part calculation completed
[2;34m===============================================[0m
[1;31m Boundary Surfaces (min):336[0m
[1;31m Boundary Surfaces (max):3798[0m
[1;31m Boundary Surfaces (mean):288.262[0m
[1;31m Boundary Surfaces (max/min parition wise):1.6148[0m
[0;33m Partition elements (min):0[0m
[0;33m Partition elements (max):633[0m
[0;33m Partition elements (mean):48.375[0m
[2;34m===============================================[0m
[0;32mFinalizing ...[0m
[0;33mSlack Parameter:0.3[0m
slack size is 145 octants
Flexible part calculation completed
[2;34m===============================================[0m
[1;31m Boundary Surfaces (min):48[0m
[1;31m Boundary Surfaces (max):3798[0m
[1;31m Boundary Surfaces (mean):288.712[0m
[1;31m Boundary Surfaces (max/min parition wise):1.84012[0m
[0;33m Partition elements (min):0[0m
[0;33m Partition elements (max):633[0m
[0;33m Partition elements (mean):48.375[0m
[2;34m===============================================[0m
[0;32mFinalizing ...[0m
[0;33mSlack Parameter:0.35[0m
slack size is 169 octants
TACC: MPI job exited with code: 1
 
TACC: Shutdown complete. Exiting.
TACC: Starting up job 6058561
TACC: Setting up parallel environment for MVAPICH2+mpispawn.
TACC: Starting parallel tasks...
[2;34m===============================================[0m
 Input Parameters
 Input File Prefix:pts_h_ws
 Slack Parameter::0.1
 Gen Pts files:: 1
 Total Number of Points:: 32000
 Number of psuedo Processors:: 10
[2;34m===============================================[0m
[1;31m Reading  pts_h_ws[0m
[0;32m Finished reading  pts_h_ws[0m
[2;34m===============================================[0m
[1;31m Starting Points to Octree[0m
[2;34m===============================================[0m
[2;34m===============================================[0m
[1;31m Ended Points to Octree[0m
[2;34m===============================================[0m
[0;32m P2n Time: [0;33m0.0150239[0m
[2;34m===============================================[0m
[1;31m Mesh Statistics Calculation Before Balancing[0m
[2;34m===============================================[0m
[2;34m===============================================[0m
[1;31m Boundary Surfaces (min):171[0m
[1;31m Boundary Surfaces (max):390[0m
[1;31m Boundary Surfaces (mean):306.144[0m
[2;34m===============================================[0m
[0;32m # of Unbalanced Octants: [0;33m104812[0m
[2;34m===============================================[0m
[1;31m Surface to Volume ratio:97966/104812=0.934683[0m
[2;34m===============================================[0m
[2;34m===============================================[0m
[1;31m Starting 2:1 Balance[0m
[2;34m===============================================[0m
Balance Octree. inpSize: 104812 activeNpes: 32
# of Balanced Octants: 151516
bal Time: 0.160891
[2;34m===============================================[0m
[1;31m Boundary Surfaces (min):162[0m
[1;31m Boundary Surfaces (max):586[0m
[1;31m Boundary Surfaces (mean):401.528[0m
[2;34m===============================================[0m
[0;33mSlack Parameter:0.1[0m
slack size is 47 octants
Flexible part calculation completed
[2;34m===============================================[0m
[1;31m Boundary Surfaces (min):1248[0m
[1;31m Boundary Surfaces (max):3552[0m
[1;31m Boundary Surfaces (mean):281.681[0m
[1;31m Boundary Surfaces (max/min parition wise):1.18637[0m
[0;33m Partition elements (min):0[0m
[0;33m Partition elements (max):592[0m
[0;33m Partition elements (mean):47.3062[0m
[2;34m===============================================[0m
[0;32mFinalizing ...[0m
[0;33mSlack Parameter:0.15[0m
slack size is 71 octants
Flexible part calculation completed
[2;34m===============================================[0m
[1;31m Boundary Surfaces (min):996[0m
[1;31m Boundary Surfaces (max):3552[0m
[1;31m Boundary Surfaces (mean):281.681[0m
[1;31m Boundary Surfaces (max/min parition wise):1.31264[0m
[0;33m Partition elements (min):0[0m
[0;33m Partition elements (max):592[0m
[0;33m Partition elements (mean):47.3062[0m
[2;34m===============================================[0m
[0;32mFinalizing ...[0m
[0;33mSlack Parameter:0.2[0m
slack size is 94 octants
Flexible part calculation completed
[2;34m===============================================[0m
[1;31m Boundary Surfaces (min):768[0m
[1;31m Boundary Surfaces (max):3552[0m
[1;31m Boundary Surfaces (mean):281.719[0m
[1;31m Boundary Surfaces (max/min parition wise):1.46173[0m
[0;33m Partition elements (min):0[0m
[0;33m Partition elements (max):592[0m
[0;33m Partition elements (mean):47.3062[0m
[2;34m===============================================[0m
[0;32mFinalizing ...[0m
[0;33mSlack Parameter:0.25[0m
slack size is 118 octants
Flexible part calculation completed
[2;34m===============================================[0m
[1;31m Boundary Surfaces (min):516[0m
[1;31m Boundary Surfaces (max):3552[0m
[1;31m Boundary Surfaces (mean):281.887[0m
[1;31m Boundary Surfaces (max/min parition wise):1.65826[0m
[0;33m Partition elements (min):0[0m
[0;33m Partition elements (max):592[0m
[0;33m Partition elements (mean):47.3062[0m
[2;34m===============================================[0m
[0;32mFinalizing ...[0m
[0;33mSlack Parameter:0.3[0m
slack size is 142 octants
Flexible part calculation completed
[2;34m===============================================[0m
[1;31m Boundary Surfaces (min):228[0m
[1;31m Boundary Surfaces (max):3552[0m
[1;31m Boundary Surfaces (mean):282.319[0m
[1;31m Boundary Surfaces (max/min parition wise):1.91586[0m
[0;33m Partition elements (min):0[0m
[0;33m Partition elements (max):592[0m
[0;33m Partition elements (mean):47.3062[0m
[2;34m===============================================[0m
[0;32mFinalizing ...[0m
[0;33mSlack Parameter:0.35[0m
slack size is 165 octants
TACC: MPI job exited with code: 1
 
TACC: Shutdown complete. Exiting.
TACC: Starting up job 6058561
TACC: Setting up parallel environment for MVAPICH2+mpispawn.
TACC: Starting parallel tasks...
[2;34m===============================================[0m
 Input Parameters
 Input File Prefix:pts_h_ws
 Slack Parameter::0.1
 Gen Pts files:: 1
 Total Number of Points:: 64000
 Number of psuedo Processors:: 10
[2;34m===============================================[0m
[1;31m Reading  pts_h_ws[0m
[0;32m Finished reading  pts_h_ws[0m
[2;34m===============================================[0m
[1;31m Starting Points to Octree[0m
[2;34m===============================================[0m
[2;34m===============================================[0m
[1;31m Ended Points to Octree[0m
[2;34m===============================================[0m
[0;32m P2n Time: [0;33m0.0214689[0m
[2;34m===============================================[0m
[1;31m Mesh Statistics Calculation Before Balancing[0m
[2;34m===============================================[0m
[2;34m===============================================[0m
[1;31m Boundary Surfaces (min):153[0m
[1;31m Boundary Surfaces (max):485[0m
[1;31m Boundary Surfaces (mean):305.997[0m
[2;34m===============================================[0m
[0;32m # of Unbalanced Octants: [0;33m205546[0m
[2;34m===============================================[0m
[1;31m Surface to Volume ratio:195838/205546=0.95277[0m
[2;34m===============================================[0m
[2;34m===============================================[0m
[1;31m Starting 2:1 Balance[0m
[2;34m===============================================[0m
Balance Octree. inpSize: 205546 activeNpes: 64
# of Balanced Octants: 274429
bal Time: 0.195157
[2;34m===============================================[0m
[1;31m Boundary Surfaces (min):230[0m
[1;31m Boundary Surfaces (max):543[0m
[1;31m Boundary Surfaces (mean):382.156[0m
[2;34m===============================================[0m
[0;33mSlack Parameter:0.1[0m
slack size is 42 octants
Flexible part calculation completed
[2;34m===============================================[0m
[1;31m Boundary Surfaces (min):1374[0m
[1;31m Boundary Surfaces (max):3288[0m
[1;31m Boundary Surfaces (mean):255.619[0m
[1;31m Boundary Surfaces (max/min parition wise):1.17849[0m
[0;33m Partition elements (min):0[0m
[0;33m Partition elements (max):548[0m
[0;33m Partition elements (mean):42.8297[0m
[2;34m===============================================[0m
[0;32mFinalizing ...[0m
[0;33mSlack Parameter:0.15[0m
slack size is 64 octants
Flexible part calculation completed
[2;34m===============================================[0m
[1;31m Boundary Surfaces (min):1110[0m
[1;31m Boundary Surfaces (max):3288[0m
[1;31m Boundary Surfaces (mean):255.881[0m
[1;31m Boundary Surfaces (max/min parition wise):1.30166[0m
[0;33m Partition elements (min):0[0m
[0;33m Partition elements (max):548[0m
[0;33m Partition elements (mean):42.8297[0m
[2;34m===============================================[0m
[0;32mFinalizing ...[0m
[0;33mSlack Parameter:0.2[0m
slack size is 85 octants
Flexible part calculation completed
[2;34m===============================================[0m
[1;31m Boundary Surfaces (min):858[0m
[1;31m Boundary Surfaces (max):3288[0m
[1;31m Boundary Surfaces (mean):255.844[0m
[1;31m Boundary Surfaces (max/min parition wise):1.44591[0m
[0;33m Partition elements (min):0[0m
[0;33m Partition elements (max):548[0m
[0;33m Partition elements (mean):42.8297[0m
[2;34m===============================================[0m
[0;32mFinalizing ...[0m
[0;33mSlack Parameter:0.25[0m
slack size is 107 octants
Flexible part calculation completed
[2;34m===============================================[0m
[1;31m Boundary Surfaces (min):594[0m
[1;31m Boundary Surfaces (max):3288[0m
[1;31m Boundary Surfaces (mean):255.9[0m
[1;31m Boundary Surfaces (max/min parition wise):1.63582[0m
[0;33m Partition elements (min):0[0m
[0;33m Partition elements (max):548[0m
[0;33m Partition elements (mean):42.8297[0m
[2;34m===============================================[0m
[0;32mFinalizing ...[0m
[0;33mSlack Parameter:0.3[0m
slack size is 128 octants
Flexible part calculation completed
[2;34m===============================================[0m
[1;31m Boundary Surfaces (min):342[0m
[1;31m Boundary Surfaces (max):3288[0m
[1;31m Boundary Surfaces (mean):255.844[0m
[1;31m Boundary Surfaces (max/min parition wise):1.87031[0m
[0;33m Partition elements (min):0[0m
[0;33m Partition elements (max):548[0m
[0;33m Partition elements (mean):42.8297[0m
[2;34m===============================================[0m
[0;32mFinalizing ...[0m
[0;33mSlack Parameter:0.35[0m
slack size is 150 octants
Flexible part calculation completed
[2;34m===============================================[0m
[1;31m Boundary Surfaces (min):78[0m
[1;31m Boundary Surfaces (max):3288[0m
[1;31m Boundary Surfaces (mean):255.825[0m
[1;31m Boundary Surfaces (max/min parition wise):2.2008[0m
[0;33m Partition elements (min):0[0m
[0;33m Partition elements (max):548[0m
[0;33m Partition elements (mean):42.8297[0m
[2;34m===============================================[0m
[0;32mFinalizing ...[0m
[0;33mSlack Parameter:0.4[0m
slack size is 171 octants
TACC: MPI job exited with code: 1
 
TACC: Shutdown complete. Exiting.
TACC: Starting up job 6058561
TACC: Setting up parallel environment for MVAPICH2+mpispawn.
TACC: Starting parallel tasks...
[2;34m===============================================[0m
 Input Parameters
 Input File Prefix:pts_h_ws
 Slack Parameter::0.1
 Gen Pts files:: 1
 Total Number of Points:: 128000
 Number of psuedo Processors:: 10
[2;34m===============================================[0m
[1;31m Reading  pts_h_ws[0m
[0;32m Finished reading  pts_h_ws[0m
[2;34m===============================================[0m
[1;31m Starting Points to Octree[0m
[2;34m===============================================[0m
[2;34m===============================================[0m
[1;31m Ended Points to Octree[0m
[2;34m===============================================[0m
[0;32m P2n Time: [0;33m0.0305409[0m
[2;34m===============================================[0m
[1;31m Mesh Statistics Calculation Before Balancing[0m
[2;34m===============================================[0m
[2;34m===============================================[0m
[1;31m Boundary Surfaces (min):56[0m
[1;31m Boundary Surfaces (max):482[0m
[1;31m Boundary Surfaces (mean):300.866[0m
[2;34m===============================================[0m
[0;32m # of Unbalanced Octants: [0;33m391236[0m
[2;34m===============================================[0m
[1;31m Surface to Volume ratio:385109/391236=0.984339[0m
[2;34m===============================================[0m
[2;34m===============================================[0m
[1;31m Starting 2:1 Balance[0m
[2;34m===============================================[0m
Balance Octree. inpSize: 391236 activeNpes: 128
# of Balanced Octants: 475864
bal Time: 0.203294
[2;34m===============================================[0m
[1;31m Boundary Surfaces (min):226[0m
[1;31m Boundary Surfaces (max):506[0m
[1;31m Boundary Surfaces (mean):351.438[0m
[2;34m===============================================[0m
[0;33mSlack Parameter:0.1[0m
slack size is 37 octants
Flexible part calculation completed
[2;34m===============================================[0m
[1;31m Boundary Surfaces (min):978[0m
[1;31m Boundary Surfaces (max):3336[0m
[1;31m Boundary Surfaces (mean):221.695[0m
[1;31m Boundary Surfaces (max/min parition wise):1.15114[0m
[0;33m Partition elements (min):0[0m
[0;33m Partition elements (max):556[0m
[0;33m Partition elements (mean):37.1359[0m
[2;34m===============================================[0m
[0;32mFinalizing ...[0m
[0;33mSlack Parameter:0.15[0m
slack size is 55 octants
Flexible part calculation completed
[2;34m===============================================[0m
[1;31m Boundary Surfaces (min):762[0m
[1;31m Boundary Surfaces (max):3336[0m
[1;31m Boundary Surfaces (mean):221.766[0m
[1;31m Boundary Surfaces (max/min parition wise):1.24385[0m
[0;33m Partition elements (min):0[0m
[0;33m Partition elements (max):556[0m
[0;33m Partition elements (mean):37.1359[0m
[2;34m===============================================[0m
[0;32mFinalizing ...[0m
[0;33mSlack Parameter:0.2[0m
slack size is 74 octants
Flexible part calculation completed
[2;34m===============================================[0m
[1;31m Boundary Surfaces (min):534[0m
[1;31m Boundary Surfaces (max):3336[0m
[1;31m Boundary Surfaces (mean):221.803[0m
[1;31m Boundary Surfaces (max/min parition wise):1.35941[0m
[0;33m Partition elements (min):0[0m
[0;33m Partition elements (max):556[0m
[0;33m Partition elements (mean):37.1359[0m
[2;34m===============================================[0m
[0;32mFinalizing ...[0m
[0;33mSlack Parameter:0.25[0m
slack size is 92 octants
Flexible part calculation completed
[2;34m===============================================[0m
[1;31m Boundary Surfaces (min):318[0m
[1;31m Boundary Surfaces (max):3336[0m
[1;31m Boundary Surfaces (mean):221.902[0m
[1;31m Boundary Surfaces (max/min parition wise):1.49062[0m
[0;33m Partition elements (min):0[0m
[0;33m Partition elements (max):556[0m
[0;33m Partition elements (mean):37.1359[0m
[2;34m===============================================[0m
[0;32mFinalizing ...[0m
[0;33mSlack Parameter:0.3[0m
slack size is 111 octants
Flexible part calculation completed
[2;34m===============================================[0m
[1;31m Boundary Surfaces (min):90[0m
[1;31m Boundary Surfaces (max):3336[0m
[1;31m Boundary Surfaces (mean):222.009[0m
[1;31m Boundary Surfaces (max/min parition wise):1.6597[0m
[0;33m Partition elements (min):0[0m
[0;33m Partition elements (max):556[0m
[0;33m Partition elements (mean):37.1359[0m
[2;34m===============================================[0m
[0;32mFinalizing ...[0m
[0;33mSlack Parameter:0.35[0m
slack size is 130 octants
TACC: MPI job exited with code: 1
 
TACC: Shutdown complete. Exiting.
TACC: Starting up job 6058561
TACC: Setting up parallel environment for MVAPICH2+mpispawn.
TACC: Starting parallel tasks...
[2;34m===============================================[0m
 Input Parameters
 Input File Prefix:pts_h_ws
 Slack Parameter::0.1
 Gen Pts files:: 1
 Total Number of Points:: 256000
 Number of psuedo Processors:: 10
[2;34m===============================================[0m
[1;31m Reading  pts_h_ws[0m
[0;32m Finished reading  pts_h_ws[0m
 Using bitonic sort since totSize < (5*(npes^2)). totSize: 256000 npes: 256
[2;34m===============================================[0m
[1;31m Starting Points to Octree[0m
[2;34m===============================================[0m
 Using bitonic sort since totSize < (5*(npes^2)). totSize: 243743 npes: 256
[2;34m===============================================[0m
[1;31m Ended Points to Octree[0m
[2;34m===============================================[0m
[0;32m P2n Time: [0;33m0.056006[0m
[2;34m===============================================[0m
[1;31m Mesh Statistics Calculation Before Balancing[0m
[2;34m===============================================[0m
[2;34m===============================================[0m
[1;31m Boundary Surfaces (min):105[0m
[1;31m Boundary Surfaces (max):489[0m
[1;31m Boundary Surfaces (mean):291.576[0m
[2;34m===============================================[0m
[0;32m # of Unbalanced Octants: [0;33m735214[0m
[2;34m===============================================[0m
[1;31m Surface to Volume ratio:746434/735214=1.01526[0m
[2;34m===============================================[0m
[2;34m===============================================[0m
[1;31m Starting 2:1 Balance[0m
[2;34m===============================================[0m
Balance Octree. inpSize: 735214 activeNpes: 256
# of Balanced Octants: 833349
bal Time: 0.214804
[2;34m===============================================[0m
[1;31m Boundary Surfaces (min):180[0m
[1;31m Boundary Surfaces (max):518[0m
[1;31m Boundary Surfaces (mean):320.572[0m
[2;34m===============================================[0m
[0;33mSlack Parameter:0.1[0m
slack size is 32 octants
Flexible part calculation completed
[2;34m===============================================[0m
[1;31m Boundary Surfaces (min):720[0m
[1;31m Boundary Surfaces (max):3426[0m
[1;31m Boundary Surfaces (mean):194.433[0m
[1;31m Boundary Surfaces (max/min parition wise):1.12402[0m
[0;33m Partition elements (min):0[0m
[0;33m Partition elements (max):571[0m
[0;33m Partition elements (mean):32.5098[0m
[2;34m===============================================[0m
[0;32mFinalizing ...[0m
[0;33mSlack Parameter:0.15[0m
slack size is 48 octants
Flexible part calculation completed
[2;34m===============================================[0m
[1;31m Boundary Surfaces (min):528[0m
[1;31m Boundary Surfaces (max):3426[0m
[1;31m Boundary Surfaces (mean):194.435[0m
[1;31m Boundary Surfaces (max/min parition wise):1.19958[0m
[0;33m Partition elements (min):0[0m
[0;33m Partition elements (max):571[0m
[0;33m Partition elements (mean):32.5098[0m
[2;34m===============================================[0m
[0;32mFinalizing ...[0m
[0;33mSlack Parameter:0.2[0m
slack size is 65 octants
Flexible part calculation completed
[2;34m===============================================[0m
[1;31m Boundary Surfaces (min):324[0m
[1;31m Boundary Surfaces (max):3426[0m
[1;31m Boundary Surfaces (mean):194.447[0m
[1;31m Boundary Surfaces (max/min parition wise):1.29186[0m
[0;33m Partition elements (min):0[0m
[0;33m Partition elements (max):571[0m
[0;33m Partition elements (mean):32.5098[0m
[2;34m===============================================[0m
[0;32mFinalizing ...[0m
[0;33mSlack Parameter:0.25[0m
slack size is 81 octants
Flexible part calculation completed
[2;34m===============================================[0m
[1;31m Boundary Surfaces (min):132[0m
[1;31m Boundary Surfaces (max):3426[0m
[1;31m Boundary Surfaces (mean):194.48[0m
[1;31m Boundary Surfaces (max/min parition wise):1.39268[0m
[0;33m Partition elements (min):0[0m
[0;33m Partition elements (max):571[0m
[0;33m Partition elements (mean):32.5098[0m
[2;34m===============================================[0m
[0;32mFinalizing ...[0m
[0;33mSlack Parameter:0.3[0m
slack size is 97 octants
Flexible part calculation completed
[2;34m===============================================[0m
[1;31m Boundary Surfaces (min):0[0m
[1;31m Boundary Surfaces (max):3426[0m
[1;31m Boundary Surfaces (mean):194.473[0m
[1;31m Boundary Surfaces (max/min parition wise):1.51058[0m
[0;33m Partition elements (min):0[0m
[0;33m Partition elements (max):571[0m
[0;33m Partition elements (mean):32.5098[0m
[2;34m===============================================[0m
[0;32mFinalizing ...[0m
[0;33mSlack Parameter:0.35[0m
slack size is 113 octants
TACC: MPI job exited with code: 1
 
TACC: Shutdown complete. Exiting.
TACC: Starting up job 6058561
TACC: Setting up parallel environment for MVAPICH2+mpispawn.
TACC: Starting parallel tasks...
[2;34m===============================================[0m
 Input Parameters
 Input File Prefix:pts_h_ws
 Slack Parameter::0.1
 Gen Pts files:: 1
 Total Number of Points:: 512000
 Number of psuedo Processors:: 10
[2;34m===============================================[0m
[1;31m Reading  pts_h_ws[0m
[0;32m Finished reading  pts_h_ws[0m
 Using bitonic sort since totSize < (5*(npes^2)). totSize: 512000 npes: 512
[2;34m===============================================[0m
[1;31m Starting Points to Octree[0m
[2;34m===============================================[0m
 Using bitonic sort since totSize < (5*(npes^2)). totSize: 464572 npes: 512
[2;34m===============================================[0m
[1;31m Ended Points to Octree[0m
[2;34m===============================================[0m
[0;32m P2n Time: [0;33m0.0869091[0m
[2;34m===============================================[0m
[1;31m Mesh Statistics Calculation Before Balancing[0m
[2;34m===============================================[0m
[2;34m===============================================[0m
[1;31m Boundary Surfaces (min):92[0m
[1;31m Boundary Surfaces (max):463[0m
[1;31m Boundary Surfaces (mean):277.235[0m
[2;34m===============================================[0m
[0;32m # of Unbalanced Octants: [0;33m1321750[0m
[2;34m===============================================[0m
[1;31m Surface to Volume ratio:1419444/1321750=1.07391[0m
[2;34m===============================================[0m
[2;34m===============================================[0m
[1;31m Starting 2:1 Balance[0m
[2;34m===============================================[0m
Balance Octree. inpSize: 1321750 activeNpes: 512
# of Balanced Octants: 1428521
bal Time: 0.236711
[2;34m===============================================[0m
[1;31m Boundary Surfaces (min):158[0m
[1;31m Boundary Surfaces (max):496[0m
[1;31m Boundary Surfaces (mean):294.558[0m
[2;34m===============================================[0m
[0;33mSlack Parameter:0.1[0m
slack size is 27 octants
Flexible part calculation completed
[2;34m===============================================[0m
[1;31m Boundary Surfaces (min):642[0m
[1;31m Boundary Surfaces (max):2820[0m
[1;31m Boundary Surfaces (mean):166.623[0m
[1;31m Boundary Surfaces (max/min parition wise):1.1271[0m
[0;33m Partition elements (min):0[0m
[0;33m Partition elements (max):470[0m
[0;33m Partition elements (mean):27.8551[0m
[2;34m===============================================[0m
[0;32mFinalizing ...[0m
[0;33mSlack Parameter:0.15[0m
slack size is 41 octants
Flexible part calculation completed
[2;34m===============================================[0m
[1;31m Boundary Surfaces (min):474[0m
[1;31m Boundary Surfaces (max):2820[0m
[1;31m Boundary Surfaces (mean):166.634[0m
[1;31m Boundary Surfaces (max/min parition wise):1.20823[0m
[0;33m Partition elements (min):0[0m
[0;33m Partition elements (max):470[0m
[0;33m Partition elements (mean):27.8551[0m
[2;34m===============================================[0m
[0;32mFinalizing ...[0m
[0;33mSlack Parameter:0.2[0m
slack size is 55 octants
Flexible part calculation completed
[2;34m===============================================[0m
[1;31m Boundary Surfaces (min):306[0m
[1;31m Boundary Surfaces (max):2820[0m
[1;31m Boundary Surfaces (mean):166.624[0m
[1;31m Boundary Surfaces (max/min parition wise):1.30194[0m
[0;33m Partition elements (min):0[0m
[0;33m Partition elements (max):470[0m
[0;33m Partition elements (mean):27.8551[0m
[2;34m===============================================[0m
[0;32mFinalizing ...[0m
[0;33mSlack Parameter:0.25[0m
slack size is 69 octants
Flexible part calculation completed
[2;34m===============================================[0m
[1;31m Boundary Surfaces (min):138[0m
[1;31m Boundary Surfaces (max):2820[0m
[1;31m Boundary Surfaces (mean):166.624[0m
[1;31m Boundary Surfaces (max/min parition wise):1.41141[0m
[0;33m Partition elements (min):0[0m
[0;33m Partition elements (max):470[0m
[0;33m Partition elements (mean):27.8551[0m
[2;34m===============================================[0m
[0;32mFinalizing ...[0m
[0;33mSlack Parameter:0.3[0m
slack size is 83 octants
Flexible part calculation completed
TACC: MPI job exited with code: 1
 
TACC: Shutdown complete. Exiting.
TACC: Starting up job 6058561
TACC: Setting up parallel environment for MVAPICH2+mpispawn.
TACC: Starting parallel tasks...
[2;34m===============================================[0m
 Input Parameters
 Input File Prefix:pts_h_ws
 Slack Parameter::0.1
 Gen Pts files:: 1
 Total Number of Points:: 1024000
 Number of psuedo Processors:: 10
[2;34m===============================================[0m
[1;31m Reading  pts_h_ws[0m
[0;32m Finished reading  pts_h_ws[0m
 Using bitonic sort since totSize < (5*(npes^2)). totSize: 1024000 npes: 1024
[2;34m===============================================[0m
[1;31m Starting Points to Octree[0m
[2;34m===============================================[0m
 Using bitonic sort since totSize < (5*(npes^2)). totSize: 852029 npes: 1024
[2;34m===============================================[0m
[1;31m Ended Points to Octree[0m
[2;34m===============================================[0m
[0;32m P2n Time: [0;33m0.173896[0m
[2;34m===============================================[0m
[1;31m Mesh Statistics Calculation Before Balancing[0m
[2;34m===============================================[0m
[2;34m===============================================[0m
[1;31m Boundary Surfaces (min):92[0m
[1;31m Boundary Surfaces (max):438[0m
[1;31m Boundary Surfaces (mean):247.945[0m
[2;34m===============================================[0m
[0;32m # of Unbalanced Octants: [0;33m2168391[0m
[2;34m===============================================[0m
[1;31m Surface to Volume ratio:2538952/2168391=1.17089[0m
[2;34m===============================================[0m
[2;34m===============================================[0m
[1;31m Starting 2:1 Balance[0m
[2;34m===============================================[0m
Balance Octree. inpSize: 2168391 activeNpes: 1024
# of Balanced Octants: 2284975
bal Time: 0.263801
[2;34m===============================================[0m
[1;31m Boundary Surfaces (min):144[0m
[1;31m Boundary Surfaces (max):403[0m
[1;31m Boundary Surfaces (mean):257.445[0m
[2;34m===============================================[0m
[0;33mSlack Parameter:0.1[0m
slack size is 22 octants
Flexible part calculation completed
[2;34m===============================================[0m
[1;31m Boundary Surfaces (min):546[0m
[1;31m Boundary Surfaces (max):2160[0m
[1;31m Boundary Surfaces (mean):133.252[0m
[1;31m Boundary Surfaces (max/min parition wise):1.14527[0m
[0;33m Partition elements (min):0[0m
[0;33m Partition elements (max):360[0m
[0;33m Partition elements (mean):22.2693[0m
[2;34m===============================================[0m
[0;32mFinalizing ...[0m
[0;33mSlack Parameter:0.15[0m
slack size is 33 octants
Flexible part calculation completed
[2;34m===============================================[0m
[1;31m Boundary Surfaces (min):414[0m
[1;31m Boundary Surfaces (max):2160[0m
[1;31m Boundary Surfaces (mean):133.26[0m
[1;31m Boundary Surfaces (max/min parition wise):1.22034[0m
[0;33m Partition elements (min):0[0m
[0;33m Partition elements (max):360[0m
[0;33m Partition elements (mean):22.2693[0m
[2;34m===============================================[0m
[0;32mFinalizing ...[0m
[0;33mSlack Parameter:0.2[0m
slack size is 44 octants
Flexible part calculation completed
[2;34m===============================================[0m
[1;31m Boundary Surfaces (min):282[0m
[1;31m Boundary Surfaces (max):2160[0m
[1;31m Boundary Surfaces (mean):133.251[0m
[1;31m Boundary Surfaces (max/min parition wise):1.31868[0m
[0;33m Partition elements (min):0[0m
[0;33m Partition elements (max):360[0m
[0;33m Partition elements (mean):22.2693[0m
[2;34m===============================================[0m
[0;32mFinalizing ...[0m
[0;33mSlack Parameter:0.25[0m
slack size is 55 octants
Flexible part calculation completed
[2;34m===============================================[0m
[1;31m Boundary Surfaces (min):150[0m
[1;31m Boundary Surfaces (max):2160[0m
[1;31m Boundary Surfaces (mean):133.243[0m
[1;31m Boundary Surfaces (max/min parition wise):1.43426[0m
[0;33m Partition elements (min):0[0m
[0;33m Partition elements (max):360[0m
[0;33m Partition elements (mean):22.2693[0m
[2;34m===============================================[0m
[0;32mFinalizing ...[0m
[0;33mSlack Parameter:0.3[0m
slack size is 66 octants
Flexible part calculation completed
[2;34m===============================================[0m
[1;31m Boundary Surfaces (min):18[0m
[1;31m Boundary Surfaces (max):2160[0m
[1;31m Boundary Surfaces (mean):133.232[0m
[1;31m Boundary Surfaces (max/min parition wise):1.57205[0m
[0;33m Partition elements (min):0[0m
[0;33m Partition elements (max):360[0m
[0;33m Partition elements (mean):22.2693[0m
[2;34m===============================================[0m
[0;32mFinalizing ...[0m
[0;33mSlack Parameter:0.35[0m
slack size is 78 octants
Flexible part calculation completed
TACC: MPI job exited with code: 1
 
TACC: Shutdown complete. Exiting.
TACC: Starting up job 6058561
TACC: Setting up parallel environment for MVAPICH2+mpispawn.
TACC: Starting parallel tasks...
[2;34m===============================================[0m
 Input Parameters
 Input File Prefix:pts_h_ws
 Slack Parameter::0.1
 Gen Pts files:: 1
 Total Number of Points:: 2048000
 Number of psuedo Processors:: 10
[2;34m===============================================[0m
[1;31m Reading  pts_h_ws[0m
[0;32m Finished reading  pts_h_ws[0m
 Using bitonic sort since totSize < (5*(npes^2)). totSize: 2048000 npes: 2048
[2;34m===============================================[0m
[1;31m Starting Points to Octree[0m
[2;34m===============================================[0m
 Using bitonic sort since totSize < (5*(npes^2)). totSize: 1464394 npes: 2048
[2;34m===============================================[0m
[1;31m Ended Points to Octree[0m
[2;34m===============================================[0m
[0;32m P2n Time: [0;33m0.381484[0m
[2;34m===============================================[0m
[1;31m Mesh Statistics Calculation Before Balancing[0m
[2;34m===============================================[0m
[2;34m===============================================[0m
[1;31m Boundary Surfaces (min):64[0m
[1;31m Boundary Surfaces (max):396[0m
[1;31m Boundary Surfaces (mean):204.6[0m
[2;34m===============================================[0m
[0;32m # of Unbalanced Octants: [0;33m3207151[0m
[2;34m===============================================[0m
[1;31m Surface to Volume ratio:4190212/3207151=1.30652[0m
[2;34m===============================================[0m
[2;34m===============================================[0m
[1;31m Starting 2:1 Balance[0m
[2;34m===============================================[0m
Balance Octree. inpSize: 3207151 activeNpes: 2048
# of Balanced Octants: 3326988
bal Time: 0.372298
[2;34m===============================================[0m
[1;31m Boundary Surfaces (min):96[0m
[1;31m Boundary Surfaces (max):348[0m
[1;31m Boundary Surfaces (mean):212.974[0m
[2;34m===============================================[0m
[0;33mSlack Parameter:0.1[0m
slack size is 16 octants
Flexible part calculation completed
[2;34m===============================================[0m
[1;31m Boundary Surfaces (min):402[0m
[1;31m Boundary Surfaces (max):1794[0m
[1;31m Boundary Surfaces (mean):96.9475[0m
[1;31m Boundary Surfaces (max/min parition wise):1.11877[0m
[0;33m Partition elements (min):0[0m
[0;33m Partition elements (max):299[0m
[0;33m Partition elements (mean):16.2[0m
[2;34m===============================================[0m
[0;32mFinalizing ...[0m
[0;33mSlack Parameter:0.15[0m
slack size is 24 octants
Flexible part calculation completed
[2;34m===============================================[0m
[1;31m Boundary Surfaces (min):306[0m
[1;31m Boundary Surfaces (max):1794[0m
[1;31m Boundary Surfaces (mean):96.9492[0m
[1;31m Boundary Surfaces (max/min parition wise):1.19184[0m
[0;33m Partition elements (min):0[0m
[0;33m Partition elements (max):299[0m
[0;33m Partition elements (mean):16.2[0m
[2;34m===============================================[0m
[0;32mFinalizing ...[0m
[0;33mSlack Parameter:0.2[0m
slack size is 32 octants
Flexible part calculation completed
[2;34m===============================================[0m
[1;31m Boundary Surfaces (min):210[0m
[1;31m Boundary Surfaces (max):1794[0m
[1;31m Boundary Surfaces (mean):96.951[0m
[1;31m Boundary Surfaces (max/min parition wise):1.27511[0m
[0;33m Partition elements (min):0[0m
[0;33m Partition elements (max):299[0m
[0;33m Partition elements (mean):16.2[0m
[2;34m===============================================[0m
[0;32mFinalizing ...[0m
[0;33mSlack Parameter:0.25[0m
slack size is 40 octants
Flexible part calculation completed
[2;34m===============================================[0m
[1;31m Boundary Surfaces (min):114[0m
[1;31m Boundary Surfaces (max):1794[0m
[1;31m Boundary Surfaces (mean):96.956[0m
[1;31m Boundary Surfaces (max/min parition wise):1.35909[0m
[0;33m Partition elements (min):0[0m
[0;33m Partition elements (max):299[0m
[0;33m Partition elements (mean):16.2[0m
[2;34m===============================================[0m
[0;32mFinalizing ...[0m
[0;33mSlack Parameter:0.3[0m
slack size is 48 octants
Flexible part calculation completed
[2;34m===============================================[0m
[1;31m Boundary Surfaces (min):18[0m
[1;31m Boundary Surfaces (max):1794[0m
[1;31m Boundary Surfaces (mean):96.9645[0m
[1;31m Boundary Surfaces (max/min parition wise):1.46569[0m
[0;33m Partition elements (min):0[0m
[0;33m Partition elements (max):299[0m
[0;33m Partition elements (mean):16.2[0m
[2;34m===============================================[0m
[0;32mFinalizing ...[0m
[0;33mSlack Parameter:0.35[0m
slack size is 56 octants
Flexible part calculation completed
TACC: MPI job exited with code: 1
 
TACC: Shutdown complete. Exiting.
TACC: Starting up job 6058561
TACC: Setting up parallel environment for MVAPICH2+mpispawn.
TACC: Starting parallel tasks...
[2;34m===============================================[0m
 Input Parameters
 Input File Prefix:pts_h_ws
 Slack Parameter::0.1
 Gen Pts files:: 1
 Total Number of Points:: 4096000
 Number of psuedo Processors:: 10
[2;34m===============================================[0m
[1;31m Reading  pts_h_ws[0m
[0;32m Finished reading  pts_h_ws[0m
 Using bitonic sort since totSize < (5*(npes^2)). totSize: 4096000 npes: 4096
[2;34m===============================================[0m
[1;31m Starting Points to Octree[0m
[2;34m===============================================[0m
 Using bitonic sort since totSize < (5*(npes^2)). totSize: 2314854 npes: 4096
[2;34m===============================================[0m
[1;31m Ended Points to Octree[0m
[2;34m===============================================[0m
[0;32m P2n Time: [0;33m0.68754[0m
[2;34m===============================================[0m
[1;31m Mesh Statistics Calculation Before Balancing[0m
[2;34m===============================================[0m
[2;34m===============================================[0m
[1;31m Boundary Surfaces (min):60[0m
[1;31m Boundary Surfaces (max):320[0m
[1;31m Boundary Surfaces (mean):159.982[0m
[2;34m===============================================[0m
[0;32m # of Unbalanced Octants: [0;33m4397442[0m
[2;34m===============================================[0m
[1;31m Surface to Volume ratio:6552856/4397442=1.49015[0m
[2;34m===============================================[0m
[2;34m===============================================[0m
[1;31m Starting 2:1 Balance[0m
[2;34m===============================================[0m
Balance Octree. inpSize: 4397442 activeNpes: 4096
# of Balanced Octants: 4519753
bal Time: 0.603507
[2;34m===============================================[0m
[1;31m Boundary Surfaces (min):67[0m
[1;31m Boundary Surfaces (max):281[0m
[1;31m Boundary Surfaces (mean):166.588[0m
[2;34m===============================================[0m
[0;33mSlack Parameter:0.1[0m
slack size is 11 octants
Flexible part calculation completed
[2;34m===============================================[0m
[1;31m Boundary Surfaces (min):240[0m
[1;31m Boundary Surfaces (max):1176[0m
[1;31m Boundary Surfaces (mean):65.748[0m
[1;31m Boundary Surfaces (max/min parition wise):1.13043[0m
[0;33m Partition elements (min):0[0m
[0;33m Partition elements (max):196[0m
[0;33m Partition elements (mean):10.9884[0m
[2;34m===============================================[0m
[0;32mFinalizing ...[0m
[0;33mSlack Parameter:0.15[0m
slack size is 16 octants
Flexible part calculation completed
[2;34m===============================================[0m
[1;31m Boundary Surfaces (min):180[0m
[1;31m Boundary Surfaces (max):1176[0m
[1;31m Boundary Surfaces (mean):65.7458[0m
[1;31m Boundary Surfaces (max/min parition wise):1.19497[0m
[0;33m Partition elements (min):0[0m
[0;33m Partition elements (max):196[0m
[0;33m Partition elements (mean):10.9884[0m
[2;34m===============================================[0m
[0;32mFinalizing ...[0m
[0;33mSlack Parameter:0.2[0m
slack size is 22 octants
Flexible part calculation completed
[2;34m===============================================[0m
[1;31m Boundary Surfaces (min):108[0m
[1;31m Boundary Surfaces (max):1176[0m
[1;31m Boundary Surfaces (mean):65.7466[0m
[1;31m Boundary Surfaces (max/min parition wise):1.28105[0m
[0;33m Partition elements (min):0[0m
[0;33m Partition elements (max):196[0m
[0;33m Partition elements (mean):10.9884[0m
[2;34m===============================================[0m
[0;32mFinalizing ...[0m
[0;33mSlack Parameter:0.25[0m
slack size is 27 octants
Flexible part calculation completed
[2;34m===============================================[0m
[1;31m Boundary Surfaces (min):48[0m
[1;31m Boundary Surfaces (max):1176[0m
[1;31m Boundary Surfaces (mean):65.7479[0m
[1;31m Boundary Surfaces (max/min parition wise):1.37063[0m
[0;33m Partition elements (min):0[0m
[0;33m Partition elements (max):196[0m
[0;33m Partition elements (mean):10.9884[0m
[2;34m===============================================[0m
[0;32mFinalizing ...[0m
[0;33mSlack Parameter:0.3[0m
slack size is 33 octants
Flexible part calculation completed
TACC: MPI job exited with code: 1
 
TACC: Shutdown complete. Exiting.
