P29 0 648 fill_color=colorp30
P29 648 1207 fill_color=colorp28
P29 1207 1591 fill_color=colorp3
P29 1591 1825 fill_color=colorp2
P29 1825 2035 fill_color=colorp19
P29 2035 2231 fill_color=colorp26
P29 2231 2280 fill_color=colorp1
P29 2280 2297 fill_color=colorp25
P29 2297 2314 fill_color=colorp12
P29 2314 2329 fill_color=colorp5
P29 2329 2343 fill_color=colorp17
P29 2343 2348 fill_color=colorp20
P29 2348 2349 fill_color=colorp21
P29 2349 2350 fill_color=colorp11
P29 2350 2351 fill_color=colorp13
P29 2351 2352 fill_color=colorp6
P29 2352 2353 fill_color=colorp18
P29 2353 2353 fill_color=colorp29
P29 2353 2353 fill_color=colorp16
P29 2353 2353 fill_color=colorp9
P29 2353 2353 fill_color=colorp22
P29 2353 2353 fill_color=colorp7
P29 2353 2353 fill_color=colorp14
P29 2353 2353 fill_color=colorp23
P29 2353 2353 fill_color=colorp4
P29 2353 2353 fill_color=colorp0
P29 2353 2353 fill_color=colorp27
P29 2353 2353 fill_color=colorp10
P29 2353 2353 fill_color=colorp15
P29 2353 2353 fill_color=colorp31
P29 2353 2353 fill_color=colorp24
P29 2353 2353 fill_color=colorp8
P17 0 590 fill_color=colorp16
P17 590 1165 fill_color=colorp18
P17 1165 1698 fill_color=colorp30
P17 1698 2194 fill_color=colorp19
P17 2194 2365 fill_color=colorp21
P17 2365 2423 fill_color=colorp29
P17 2423 2452 fill_color=colorp31
P17 2452 2472 fill_color=colorp23
P17 2472 2472 fill_color=colorp17
P17 2472 2472 fill_color=colorp2
P17 2472 2472 fill_color=colorp25
P17 2472 2472 fill_color=colorp12
P17 2472 2472 fill_color=colorp9
P17 2472 2472 fill_color=colorp3
P17 2472 2472 fill_color=colorp22
P17 2472 2472 fill_color=colorp11
P17 2472 2472 fill_color=colorp5
P17 2472 2472 fill_color=colorp7
P17 2472 2472 fill_color=colorp13
P17 2472 2472 fill_color=colorp14
P17 2472 2472 fill_color=colorp4
P17 2472 2472 fill_color=colorp20
P17 2472 2472 fill_color=colorp1
P17 2472 2472 fill_color=colorp0
P17 2472 2472 fill_color=colorp6
P17 2472 2472 fill_color=colorp27
P17 2472 2472 fill_color=colorp10
P17 2472 2472 fill_color=colorp15
P17 2472 2472 fill_color=colorp28
P17 2472 2472 fill_color=colorp24
P17 2472 2472 fill_color=colorp8
P17 2472 2472 fill_color=colorp26
P2 0 706 fill_color=colorp3
P2 706 1383 fill_color=colorp1
P2 1383 1681 fill_color=colorp0
P2 1681 1828 fill_color=colorp12
P2 1828 1942 fill_color=colorp14
P2 1942 2049 fill_color=colorp29
P2 2049 2130 fill_color=colorp5
P2 2130 2208 fill_color=colorp6
P2 2208 2242 fill_color=colorp7
P2 2242 2273 fill_color=colorp13
P2 2273 2289 fill_color=colorp30
P2 2289 2299 fill_color=colorp10
P2 2299 2308 fill_color=colorp11
P2 2308 2317 fill_color=colorp15
P2 2317 2324 fill_color=colorp19
P2 2324 2325 fill_color=colorp18
P2 2325 2326 fill_color=colorp28
P2 2326 2327 fill_color=colorp8
P2 2327 2327 fill_color=colorp17
P2 2327 2327 fill_color=colorp2
P2 2327 2327 fill_color=colorp25
P2 2327 2327 fill_color=colorp16
P2 2327 2327 fill_color=colorp21
P2 2327 2327 fill_color=colorp9
P2 2327 2327 fill_color=colorp22
P2 2327 2327 fill_color=colorp23
P2 2327 2327 fill_color=colorp4
P2 2327 2327 fill_color=colorp20
P2 2327 2327 fill_color=colorp27
P2 2327 2327 fill_color=colorp31
P2 2327 2327 fill_color=colorp24
P2 2327 2327 fill_color=colorp26
P20 0 965 fill_color=colorp19
P20 965 1411 fill_color=colorp26
P20 1411 1775 fill_color=colorp11
P20 1775 2108 fill_color=colorp21
P20 2108 2272 fill_color=colorp22
P20 2272 2308 fill_color=colorp12
P20 2308 2333 fill_color=colorp29
P20 2333 2348 fill_color=colorp17
P20 2348 2363 fill_color=colorp10
P20 2363 2377 fill_color=colorp18
P20 2377 2387 fill_color=colorp9
P20 2387 2388 fill_color=colorp13
P20 2388 2388 fill_color=colorp2
P20 2388 2388 fill_color=colorp25
P20 2388 2388 fill_color=colorp16
P20 2388 2388 fill_color=colorp30
P20 2388 2388 fill_color=colorp3
P20 2388 2388 fill_color=colorp5
P20 2388 2388 fill_color=colorp7
P20 2388 2388 fill_color=colorp14
P20 2388 2388 fill_color=colorp23
P20 2388 2388 fill_color=colorp4
P20 2388 2388 fill_color=colorp20
P20 2388 2388 fill_color=colorp1
P20 2388 2388 fill_color=colorp0
P20 2388 2388 fill_color=colorp6
P20 2388 2388 fill_color=colorp27
P20 2388 2388 fill_color=colorp15
P20 2388 2388 fill_color=colorp31
P20 2388 2388 fill_color=colorp28
P20 2388 2388 fill_color=colorp24
P20 2388 2388 fill_color=colorp8
P25 0 672 fill_color=colorp26
P25 672 1343 fill_color=colorp28
P25 1343 1703 fill_color=colorp27
P25 1703 2033 fill_color=colorp30
P25 2033 2322 fill_color=colorp24
P25 2322 2556 fill_color=colorp6
P25 2556 2660 fill_color=colorp21
P25 2660 2717 fill_color=colorp3
P25 2717 2762 fill_color=colorp4
P25 2762 2794 fill_color=colorp29
P25 2794 2807 fill_color=colorp5
P25 2807 2816 fill_color=colorp23
P25 2816 2824 fill_color=colorp22
P25 2824 2824 fill_color=colorp17
P25 2824 2824 fill_color=colorp2
P25 2824 2824 fill_color=colorp25
P25 2824 2824 fill_color=colorp12
P25 2824 2824 fill_color=colorp16
P25 2824 2824 fill_color=colorp9
P25 2824 2824 fill_color=colorp11
P25 2824 2824 fill_color=colorp7
P25 2824 2824 fill_color=colorp13
P25 2824 2824 fill_color=colorp14
P25 2824 2824 fill_color=colorp20
P25 2824 2824 fill_color=colorp1
P25 2824 2824 fill_color=colorp0
P25 2824 2824 fill_color=colorp10
P25 2824 2824 fill_color=colorp15
P25 2824 2824 fill_color=colorp18
P25 2824 2824 fill_color=colorp19
P25 2824 2824 fill_color=colorp31
P25 2824 2824 fill_color=colorp8
P12 0 527 fill_color=colorp13
P12 527 931 fill_color=colorp2
P12 931 1320 fill_color=colorp14
P12 1320 1553 fill_color=colorp11
P12 1553 1763 fill_color=colorp3
P12 1763 1973 fill_color=colorp19
P12 1973 2042 fill_color=colorp1
P12 2042 2059 fill_color=colorp5
P12 2059 2074 fill_color=colorp29
P12 2074 2088 fill_color=colorp10
P12 2088 2102 fill_color=colorp18
P12 2102 2110 fill_color=colorp20
P12 2110 2111 fill_color=colorp30
P12 2111 2112 fill_color=colorp21
P12 2112 2113 fill_color=colorp6
P12 2113 2114 fill_color=colorp26
P12 2114 2114 fill_color=colorp17
P12 2114 2114 fill_color=colorp25
P12 2114 2114 fill_color=colorp12
P12 2114 2114 fill_color=colorp16
P12 2114 2114 fill_color=colorp9
P12 2114 2114 fill_color=colorp22
P12 2114 2114 fill_color=colorp7
P12 2114 2114 fill_color=colorp23
P12 2114 2114 fill_color=colorp4
P12 2114 2114 fill_color=colorp0
P12 2114 2114 fill_color=colorp27
P12 2114 2114 fill_color=colorp15
P12 2114 2114 fill_color=colorp31
P12 2114 2114 fill_color=colorp28
P12 2114 2114 fill_color=colorp24
P12 2114 2114 fill_color=colorp8
P1 0 1157 fill_color=colorp0
P1 1157 1345 fill_color=colorp30
P1 1345 1531 fill_color=colorp13
P1 1531 1716 fill_color=colorp2
P1 1716 1853 fill_color=colorp4
P1 1853 1954 fill_color=colorp3
P1 1954 1985 fill_color=colorp15
P1 1985 2001 fill_color=colorp31
P1 2001 2015 fill_color=colorp12
P1 2015 2027 fill_color=colorp29
P1 2027 2037 fill_color=colorp28
P1 2037 2046 fill_color=colorp18
P1 2046 2054 fill_color=colorp14
P1 2054 2055 fill_color=colorp16
P1 2055 2056 fill_color=colorp19
P1 2056 2056 fill_color=colorp17
P1 2056 2056 fill_color=colorp25
P1 2056 2056 fill_color=colorp21
P1 2056 2056 fill_color=colorp9
P1 2056 2056 fill_color=colorp22
P1 2056 2056 fill_color=colorp11
P1 2056 2056 fill_color=colorp5
P1 2056 2056 fill_color=colorp7
P1 2056 2056 fill_color=colorp23
P1 2056 2056 fill_color=colorp20
P1 2056 2056 fill_color=colorp1
P1 2056 2056 fill_color=colorp6
P1 2056 2056 fill_color=colorp27
P1 2056 2056 fill_color=colorp10
P1 2056 2056 fill_color=colorp24
P1 2056 2056 fill_color=colorp8
P1 2056 2056 fill_color=colorp26
P16 0 851 fill_color=colorp17
P16 851 1652 fill_color=colorp31
P16 1652 2294 fill_color=colorp15
P16 2294 2693 fill_color=colorp18
P16 2693 2937 fill_color=colorp23
P16 2937 3143 fill_color=colorp30
P16 3143 3220 fill_color=colorp13
P16 3220 3259 fill_color=colorp21
P16 3259 3293 fill_color=colorp0
P16 3293 3305 fill_color=colorp8
P16 3305 3306 fill_color=colorp1
P16 3306 3307 fill_color=colorp10
P16 3307 3307 fill_color=colorp29
P16 3307 3307 fill_color=colorp2
P16 3307 3307 fill_color=colorp25
P16 3307 3307 fill_color=colorp12
P16 3307 3307 fill_color=colorp16
P16 3307 3307 fill_color=colorp9
P16 3307 3307 fill_color=colorp3
P16 3307 3307 fill_color=colorp22
P16 3307 3307 fill_color=colorp11
P16 3307 3307 fill_color=colorp5
P16 3307 3307 fill_color=colorp7
P16 3307 3307 fill_color=colorp14
P16 3307 3307 fill_color=colorp4
P16 3307 3307 fill_color=colorp20
P16 3307 3307 fill_color=colorp6
P16 3307 3307 fill_color=colorp27
P16 3307 3307 fill_color=colorp19
P16 3307 3307 fill_color=colorp28
P16 3307 3307 fill_color=colorp24
P16 3307 3307 fill_color=colorp26
P0 0 385 fill_color=colorp1
P0 385 617 fill_color=colorp15
P0 617 797 fill_color=colorp4
P0 797 918 fill_color=colorp31
P0 918 1029 fill_color=colorp3
P0 1029 1126 fill_color=colorp7
P0 1126 1210 fill_color=colorp2
P0 1210 1233 fill_color=colorp13
P0 1233 1248 fill_color=colorp30
P0 1248 1260 fill_color=colorp6
P0 1260 1269 fill_color=colorp16
P0 1269 1277 fill_color=colorp14
P0 1277 1283 fill_color=colorp28
P0 1283 1289 fill_color=colorp8
P0 1289 1290 fill_color=colorp10
P0 1290 1291 fill_color=colorp18
P0 1291 1291 fill_color=colorp29
P0 1291 1291 fill_color=colorp17
P0 1291 1291 fill_color=colorp25
P0 1291 1291 fill_color=colorp12
P0 1291 1291 fill_color=colorp21
P0 1291 1291 fill_color=colorp9
P0 1291 1291 fill_color=colorp22
P0 1291 1291 fill_color=colorp11
P0 1291 1291 fill_color=colorp5
P0 1291 1291 fill_color=colorp23
P0 1291 1291 fill_color=colorp20
P0 1291 1291 fill_color=colorp0
P0 1291 1291 fill_color=colorp27
P0 1291 1291 fill_color=colorp19
P0 1291 1291 fill_color=colorp24
P0 1291 1291 fill_color=colorp26
P30 0 918 fill_color=colorp31
P30 918 1657 fill_color=colorp28
P30 1657 2323 fill_color=colorp1
P30 2323 2794 fill_color=colorp29
P30 2794 2987 fill_color=colorp17
P30 2987 3112 fill_color=colorp25
P30 3112 3216 fill_color=colorp18
P30 3216 3284 fill_color=colorp0
P30 3284 3342 fill_color=colorp16
P30 3342 3372 fill_color=colorp19
P30 3372 3401 fill_color=colorp4
P30 3401 3415 fill_color=colorp2
P30 3415 3428 fill_color=colorp26
P30 3428 3440 fill_color=colorp13
P30 3440 3450 fill_color=colorp21
P30 3450 3459 fill_color=colorp3
P30 3459 3468 fill_color=colorp24
P30 3468 3469 fill_color=colorp12
P30 3469 3470 fill_color=colorp23
P30 3470 3471 fill_color=colorp20
P30 3471 3472 fill_color=colorp15
P30 3472 3472 fill_color=colorp30
P30 3472 3472 fill_color=colorp9
P30 3472 3472 fill_color=colorp22
P30 3472 3472 fill_color=colorp11
P30 3472 3472 fill_color=colorp5
P30 3472 3472 fill_color=colorp7
P30 3472 3472 fill_color=colorp14
P30 3472 3472 fill_color=colorp6
P30 3472 3472 fill_color=colorp27
P30 3472 3472 fill_color=colorp10
P30 3472 3472 fill_color=colorp8
P6 0 728 fill_color=colorp4
P6 728 1316 fill_color=colorp3
P6 1316 1825 fill_color=colorp7
P6 1825 2132 fill_color=colorp5
P6 2132 2395 fill_color=colorp2
P6 2395 2480 fill_color=colorp25
P6 2480 2540 fill_color=colorp10
P6 2540 2597 fill_color=colorp0
P6 2597 2615 fill_color=colorp27
P6 2615 2631 fill_color=colorp28
P6 2631 2643 fill_color=colorp11
P6 2643 2652 fill_color=colorp26
P6 2652 2659 fill_color=colorp9
P6 2659 2664 fill_color=colorp14
P6 2664 2665 fill_color=colorp29
P6 2665 2666 fill_color=colorp12
P6 2666 2666 fill_color=colorp17
P6 2666 2666 fill_color=colorp16
P6 2666 2666 fill_color=colorp30
P6 2666 2666 fill_color=colorp21
P6 2666 2666 fill_color=colorp22
P6 2666 2666 fill_color=colorp13
P6 2666 2666 fill_color=colorp23
P6 2666 2666 fill_color=colorp20
P6 2666 2666 fill_color=colorp1
P6 2666 2666 fill_color=colorp6
P6 2666 2666 fill_color=colorp15
P6 2666 2666 fill_color=colorp18
P6 2666 2666 fill_color=colorp19
P6 2666 2666 fill_color=colorp31
P6 2666 2666 fill_color=colorp24
P6 2666 2666 fill_color=colorp8
P9 0 754 fill_color=colorp8
P9 754 1344 fill_color=colorp10
P9 1344 1886 fill_color=colorp7
P9 1886 2292 fill_color=colorp11
P9 2292 2688 fill_color=colorp5
P9 2688 2796 fill_color=colorp22
P9 2796 2853 fill_color=colorp23
P9 2853 2888 fill_color=colorp6
P9 2888 2901 fill_color=colorp27
P9 2901 2910 fill_color=colorp24
P9 2910 2911 fill_color=colorp19
P9 2911 2912 fill_color=colorp26
P9 2912 2912 fill_color=colorp29
P9 2912 2912 fill_color=colorp17
P9 2912 2912 fill_color=colorp2
P9 2912 2912 fill_color=colorp25
P9 2912 2912 fill_color=colorp12
P9 2912 2912 fill_color=colorp16
P9 2912 2912 fill_color=colorp30
P9 2912 2912 fill_color=colorp21
P9 2912 2912 fill_color=colorp9
P9 2912 2912 fill_color=colorp3
P9 2912 2912 fill_color=colorp13
P9 2912 2912 fill_color=colorp14
P9 2912 2912 fill_color=colorp4
P9 2912 2912 fill_color=colorp20
P9 2912 2912 fill_color=colorp1
P9 2912 2912 fill_color=colorp0
P9 2912 2912 fill_color=colorp15
P9 2912 2912 fill_color=colorp18
P9 2912 2912 fill_color=colorp31
P9 2912 2912 fill_color=colorp28
P21 0 912 fill_color=colorp20
P21 912 1336 fill_color=colorp17
P21 1336 1657 fill_color=colorp25
P21 1657 1977 fill_color=colorp22
P21 1977 2293 fill_color=colorp18
P21 2293 2603 fill_color=colorp23
P21 2603 2911 fill_color=colorp10
P21 2911 3041 fill_color=colorp16
P21 3041 3148 fill_color=colorp19
P21 3148 3229 fill_color=colorp26
P21 3229 3277 fill_color=colorp30
P21 3277 3324 fill_color=colorp11
P21 3324 3363 fill_color=colorp13
P21 3363 3375 fill_color=colorp8
P21 3375 3382 fill_color=colorp29
P21 3382 3389 fill_color=colorp12
P21 3389 3391 fill_color=colorp9
P21 3391 3392 fill_color=colorp15
P21 3392 3392 fill_color=colorp2
P21 3392 3392 fill_color=colorp21
P21 3392 3392 fill_color=colorp3
P21 3392 3392 fill_color=colorp5
P21 3392 3392 fill_color=colorp7
P21 3392 3392 fill_color=colorp14
P21 3392 3392 fill_color=colorp4
P21 3392 3392 fill_color=colorp1
P21 3392 3392 fill_color=colorp0
P21 3392 3392 fill_color=colorp6
P21 3392 3392 fill_color=colorp27
P21 3392 3392 fill_color=colorp31
P21 3392 3392 fill_color=colorp28
P21 3392 3392 fill_color=colorp24
P3 0 938 fill_color=colorp2
P3 938 1341 fill_color=colorp4
P3 1341 1665 fill_color=colorp0
P3 1665 1939 fill_color=colorp1
P3 1939 2147 fill_color=colorp6
P3 2147 2319 fill_color=colorp5
P3 2319 2466 fill_color=colorp29
P3 2466 2597 fill_color=colorp28
P3 2597 2691 fill_color=colorp12
P3 2691 2706 fill_color=colorp26
P3 2706 2719 fill_color=colorp30
P3 2719 2731 fill_color=colorp7
P3 2731 2741 fill_color=colorp19
P3 2741 2750 fill_color=colorp25
P3 2750 2759 fill_color=colorp11
P3 2759 2759 fill_color=colorp17
P3 2759 2759 fill_color=colorp16
P3 2759 2759 fill_color=colorp21
P3 2759 2759 fill_color=colorp9
P3 2759 2759 fill_color=colorp3
P3 2759 2759 fill_color=colorp22
P3 2759 2759 fill_color=colorp13
P3 2759 2759 fill_color=colorp14
P3 2759 2759 fill_color=colorp23
P3 2759 2759 fill_color=colorp20
P3 2759 2759 fill_color=colorp27
P3 2759 2759 fill_color=colorp10
P3 2759 2759 fill_color=colorp15
P3 2759 2759 fill_color=colorp18
P3 2759 2759 fill_color=colorp31
P3 2759 2759 fill_color=colorp24
P3 2759 2759 fill_color=colorp8
P27 0 596 fill_color=colorp4
P27 596 1053 fill_color=colorp25
P27 1053 1443 fill_color=colorp24
P27 1443 1802 fill_color=colorp5
P27 1802 2138 fill_color=colorp26
P27 2138 2462 fill_color=colorp28
P27 2462 2647 fill_color=colorp31
P27 2647 2741 fill_color=colorp22
P27 2741 2794 fill_color=colorp6
P27 2794 2816 fill_color=colorp7
P27 2816 2830 fill_color=colorp9
P27 2830 2839 fill_color=colorp23
P27 2839 2846 fill_color=colorp20
P27 2846 2853 fill_color=colorp19
P27 2853 2854 fill_color=colorp21
P27 2854 2855 fill_color=colorp3
P27 2855 2856 fill_color=colorp11
P27 2856 2856 fill_color=colorp29
P27 2856 2856 fill_color=colorp17
P27 2856 2856 fill_color=colorp2
P27 2856 2856 fill_color=colorp12
P27 2856 2856 fill_color=colorp16
P27 2856 2856 fill_color=colorp30
P27 2856 2856 fill_color=colorp13
P27 2856 2856 fill_color=colorp14
P27 2856 2856 fill_color=colorp1
P27 2856 2856 fill_color=colorp0
P27 2856 2856 fill_color=colorp27
P27 2856 2856 fill_color=colorp10
P27 2856 2856 fill_color=colorp15
P27 2856 2856 fill_color=colorp18
P27 2856 2856 fill_color=colorp8
P22 0 792 fill_color=colorp21
P22 792 1265 fill_color=colorp23
P22 1265 1608 fill_color=colorp10
P22 1608 1937 fill_color=colorp20
P22 1937 2222 fill_color=colorp9
P22 2222 2464 fill_color=colorp27
P22 2464 2653 fill_color=colorp24
P22 2653 2767 fill_color=colorp19
P22 2767 2829 fill_color=colorp26
P22 2829 2888 fill_color=colorp11
P22 2888 2937 fill_color=colorp5
P22 2937 2984 fill_color=colorp25
P22 2984 3000 fill_color=colorp8
P22 3000 3001 fill_color=colorp7
P22 3001 3001 fill_color=colorp29
P22 3001 3001 fill_color=colorp17
P22 3001 3001 fill_color=colorp2
P22 3001 3001 fill_color=colorp12
P22 3001 3001 fill_color=colorp16
P22 3001 3001 fill_color=colorp30
P22 3001 3001 fill_color=colorp3
P22 3001 3001 fill_color=colorp22
P22 3001 3001 fill_color=colorp13
P22 3001 3001 fill_color=colorp14
P22 3001 3001 fill_color=colorp4
P22 3001 3001 fill_color=colorp1
P22 3001 3001 fill_color=colorp0
P22 3001 3001 fill_color=colorp6
P22 3001 3001 fill_color=colorp15
P22 3001 3001 fill_color=colorp18
P22 3001 3001 fill_color=colorp31
P22 3001 3001 fill_color=colorp28
P15 0 599 fill_color=colorp0
P15 599 1123 fill_color=colorp13
P15 1123 1535 fill_color=colorp14
P15 1535 1781 fill_color=colorp8
P15 1781 2014 fill_color=colorp16
P15 2014 2124 fill_color=colorp31
P15 2124 2155 fill_color=colorp10
P15 2155 2184 fill_color=colorp7
P15 2184 2213 fill_color=colorp18
P15 2213 2239 fill_color=colorp1
P15 2239 2249 fill_color=colorp23
P15 2249 2257 fill_color=colorp2
P15 2257 2258 fill_color=colorp30
P15 2258 2259 fill_color=colorp21
P15 2259 2259 fill_color=colorp29
P15 2259 2259 fill_color=colorp17
P15 2259 2259 fill_color=colorp25
P15 2259 2259 fill_color=colorp12
P15 2259 2259 fill_color=colorp9
P15 2259 2259 fill_color=colorp3
P15 2259 2259 fill_color=colorp22
P15 2259 2259 fill_color=colorp11
P15 2259 2259 fill_color=colorp5
P15 2259 2259 fill_color=colorp4
P15 2259 2259 fill_color=colorp20
P15 2259 2259 fill_color=colorp6
P15 2259 2259 fill_color=colorp27
P15 2259 2259 fill_color=colorp15
P15 2259 2259 fill_color=colorp19
P15 2259 2259 fill_color=colorp28
P15 2259 2259 fill_color=colorp24
P15 2259 2259 fill_color=colorp26
P10 0 667 fill_color=colorp9
P10 667 1283 fill_color=colorp14
P10 1283 1877 fill_color=colorp8
P10 1877 2391 fill_color=colorp11
P10 2391 2838 fill_color=colorp13
P10 2838 3075 fill_color=colorp7
P10 3075 3292 fill_color=colorp6
P10 3292 3404 fill_color=colorp22
P10 3404 3510 fill_color=colorp21
P10 3510 3582 fill_color=colorp15
P10 3582 3649 fill_color=colorp12
P10 3649 3688 fill_color=colorp2
P10 3688 3714 fill_color=colorp23
P10 3714 3733 fill_color=colorp5
P10 3733 3740 fill_color=colorp0
P10 3740 3740 fill_color=colorp29
P10 3740 3740 fill_color=colorp17
P10 3740 3740 fill_color=colorp25
P10 3740 3740 fill_color=colorp16
P10 3740 3740 fill_color=colorp30
P10 3740 3740 fill_color=colorp3
P10 3740 3740 fill_color=colorp4
P10 3740 3740 fill_color=colorp20
P10 3740 3740 fill_color=colorp1
P10 3740 3740 fill_color=colorp27
P10 3740 3740 fill_color=colorp10
P10 3740 3740 fill_color=colorp18
P10 3740 3740 fill_color=colorp19
P10 3740 3740 fill_color=colorp31
P10 3740 3740 fill_color=colorp28
P10 3740 3740 fill_color=colorp24
P10 3740 3740 fill_color=colorp26
P18 0 883 fill_color=colorp13
P18 883 1425 fill_color=colorp19
P18 1425 1782 fill_color=colorp16
P18 1782 2085 fill_color=colorp30
P18 2085 2299 fill_color=colorp17
P18 2299 2421 fill_color=colorp21
P18 2421 2506 fill_color=colorp12
P18 2506 2582 fill_color=colorp15
P18 2582 2629 fill_color=colorp1
P18 2629 2671 fill_color=colorp31
P18 2671 2681 fill_color=colorp10
P18 2681 2690 fill_color=colorp23
P18 2690 2696 fill_color=colorp0
P18 2696 2697 fill_color=colorp29
P18 2697 2698 fill_color=colorp2
P18 2698 2699 fill_color=colorp11
P18 2699 2700 fill_color=colorp20
P18 2700 2701 fill_color=colorp8
P18 2701 2701 fill_color=colorp25
P18 2701 2701 fill_color=colorp9
P18 2701 2701 fill_color=colorp3
P18 2701 2701 fill_color=colorp22
P18 2701 2701 fill_color=colorp5
P18 2701 2701 fill_color=colorp7
P18 2701 2701 fill_color=colorp14
P18 2701 2701 fill_color=colorp4
P18 2701 2701 fill_color=colorp6
P18 2701 2701 fill_color=colorp27
P18 2701 2701 fill_color=colorp18
P18 2701 2701 fill_color=colorp28
P18 2701 2701 fill_color=colorp24
P18 2701 2701 fill_color=colorp26
P11 0 621 fill_color=colorp5
P11 621 1179 fill_color=colorp12
P11 1179 1732 fill_color=colorp10
P11 1732 1890 fill_color=colorp9
P11 1890 2023 fill_color=colorp19
P11 2023 2148 fill_color=colorp20
P11 2148 2205 fill_color=colorp6
P11 2205 2261 fill_color=colorp14
P11 2261 2298 fill_color=colorp2
P11 2298 2322 fill_color=colorp3
P11 2322 2338 fill_color=colorp26
P11 2338 2352 fill_color=colorp22
P11 2352 2365 fill_color=colorp21
P11 2365 2366 fill_color=colorp29
P11 2366 2367 fill_color=colorp7
P11 2367 2368 fill_color=colorp27
P11 2368 2368 fill_color=colorp17
P11 2368 2368 fill_color=colorp25
P11 2368 2368 fill_color=colorp16
P11 2368 2368 fill_color=colorp30
P11 2368 2368 fill_color=colorp11
P11 2368 2368 fill_color=colorp13
P11 2368 2368 fill_color=colorp23
P11 2368 2368 fill_color=colorp4
P11 2368 2368 fill_color=colorp1
P11 2368 2368 fill_color=colorp0
P11 2368 2368 fill_color=colorp15
P11 2368 2368 fill_color=colorp18
P11 2368 2368 fill_color=colorp31
P11 2368 2368 fill_color=colorp28
P11 2368 2368 fill_color=colorp24
P11 2368 2368 fill_color=colorp8
P7 0 548 fill_color=colorp4
P7 548 1077 fill_color=colorp6
P7 1077 1365 fill_color=colorp5
P7 1365 1651 fill_color=colorp0
P7 1651 1866 fill_color=colorp8
P7 1866 2038 fill_color=colorp9
P7 2038 2144 fill_color=colorp24
P7 2144 2231 fill_color=colorp2
P7 2231 2309 fill_color=colorp31
P7 2309 2384 fill_color=colorp10
P7 2384 2449 fill_color=colorp15
P7 2449 2474 fill_color=colorp27
P7 2474 2485 fill_color=colorp23
P7 2485 2495 fill_color=colorp3
P7 2495 2504 fill_color=colorp14
P7 2504 2505 fill_color=colorp22
P7 2505 2506 fill_color=colorp11
P7 2506 2506 fill_color=colorp29
P7 2506 2506 fill_color=colorp17
P7 2506 2506 fill_color=colorp25
P7 2506 2506 fill_color=colorp12
P7 2506 2506 fill_color=colorp16
P7 2506 2506 fill_color=colorp30
P7 2506 2506 fill_color=colorp21
P7 2506 2506 fill_color=colorp7
P7 2506 2506 fill_color=colorp13
P7 2506 2506 fill_color=colorp20
P7 2506 2506 fill_color=colorp1
P7 2506 2506 fill_color=colorp18
P7 2506 2506 fill_color=colorp19
P7 2506 2506 fill_color=colorp28
P7 2506 2506 fill_color=colorp26
P5 0 877 fill_color=colorp6
P5 877 1287 fill_color=colorp3
P5 1287 1631 fill_color=colorp7
P5 1631 1878 fill_color=colorp11
P5 1878 2114 fill_color=colorp2
P5 2114 2308 fill_color=colorp4
P5 2308 2481 fill_color=colorp26
P5 2481 2601 fill_color=colorp9
P5 2601 2711 fill_color=colorp27
P5 2711 2728 fill_color=colorp12
P5 2728 2745 fill_color=colorp19
P5 2745 2761 fill_color=colorp29
P5 2761 2772 fill_color=colorp22
P5 2772 2781 fill_color=colorp24
P5 2781 2783 fill_color=colorp28
P5 2783 2784 fill_color=colorp25
P5 2784 2785 fill_color=colorp14
P5 2785 2786 fill_color=colorp23
P5 2786 2787 fill_color=colorp10
P5 2787 2787 fill_color=colorp17
P5 2787 2787 fill_color=colorp16
P5 2787 2787 fill_color=colorp30
P5 2787 2787 fill_color=colorp21
P5 2787 2787 fill_color=colorp5
P5 2787 2787 fill_color=colorp13
P5 2787 2787 fill_color=colorp20
P5 2787 2787 fill_color=colorp1
P5 2787 2787 fill_color=colorp0
P5 2787 2787 fill_color=colorp15
P5 2787 2787 fill_color=colorp18
P5 2787 2787 fill_color=colorp31
P5 2787 2787 fill_color=colorp8
P31 0 816 fill_color=colorp30
P31 816 1261 fill_color=colorp16
P31 1261 1663 fill_color=colorp0
P31 1663 1988 fill_color=colorp28
P31 1988 2274 fill_color=colorp23
P31 2274 2495 fill_color=colorp8
P31 2495 2710 fill_color=colorp27
P31 2710 2914 fill_color=colorp24
P31 2914 3090 fill_color=colorp15
P31 3090 3207 fill_color=colorp7
P31 3207 3265 fill_color=colorp4
P31 3265 3282 fill_color=colorp1
P31 3282 3298 fill_color=colorp17
P31 3298 3314 fill_color=colorp25
P31 3314 3322 fill_color=colorp18
P31 3322 3323 fill_color=colorp29
P31 3323 3324 fill_color=colorp21
P31 3324 3325 fill_color=colorp13
P31 3325 3325 fill_color=colorp2
P31 3325 3325 fill_color=colorp12
P31 3325 3325 fill_color=colorp9
P31 3325 3325 fill_color=colorp3
P31 3325 3325 fill_color=colorp22
P31 3325 3325 fill_color=colorp11
P31 3325 3325 fill_color=colorp5
P31 3325 3325 fill_color=colorp14
P31 3325 3325 fill_color=colorp20
P31 3325 3325 fill_color=colorp6
P31 3325 3325 fill_color=colorp10
P31 3325 3325 fill_color=colorp19
P31 3325 3325 fill_color=colorp31
P31 3325 3325 fill_color=colorp26
P19 0 647 fill_color=colorp18
P19 647 1230 fill_color=colorp12
P19 1230 1741 fill_color=colorp29
P19 1741 2099 fill_color=colorp20
P19 2099 2414 fill_color=colorp11
P19 2414 2690 fill_color=colorp26
P19 2690 2874 fill_color=colorp17
P19 2874 2950 fill_color=colorp5
P19 2950 3024 fill_color=colorp13
P19 3024 3084 fill_color=colorp30
P19 3084 3142 fill_color=colorp22
P19 3142 3171 fill_color=colorp2
P19 3171 3198 fill_color=colorp3
P19 3198 3221 fill_color=colorp21
P19 3221 3231 fill_color=colorp1
P19 3231 3239 fill_color=colorp9
P19 3239 3240 fill_color=colorp27
P19 3240 3241 fill_color=colorp10
P19 3241 3241 fill_color=colorp25
P19 3241 3241 fill_color=colorp16
P19 3241 3241 fill_color=colorp7
P19 3241 3241 fill_color=colorp14
P19 3241 3241 fill_color=colorp23
P19 3241 3241 fill_color=colorp4
P19 3241 3241 fill_color=colorp0
P19 3241 3241 fill_color=colorp6
P19 3241 3241 fill_color=colorp15
P19 3241 3241 fill_color=colorp19
P19 3241 3241 fill_color=colorp31
P19 3241 3241 fill_color=colorp28
P19 3241 3241 fill_color=colorp24
P19 3241 3241 fill_color=colorp8
P28 0 503 fill_color=colorp30
P28 503 906 fill_color=colorp29
P28 906 1285 fill_color=colorp3
P28 1285 1625 fill_color=colorp31
P28 1625 1945 fill_color=colorp4
P28 1945 2131 fill_color=colorp25
P28 2131 2264 fill_color=colorp27
P28 2264 2320 fill_color=colorp26
P28 2320 2373 fill_color=colorp1
P28 2373 2396 fill_color=colorp0
P28 2396 2405 fill_color=colorp6
P28 2405 2413 fill_color=colorp2
P28 2413 2419 fill_color=colorp24
P28 2419 2420 fill_color=colorp5
P28 2420 2420 fill_color=colorp17
P28 2420 2420 fill_color=colorp12
P28 2420 2420 fill_color=colorp16
P28 2420 2420 fill_color=colorp21
P28 2420 2420 fill_color=colorp9
P28 2420 2420 fill_color=colorp22
P28 2420 2420 fill_color=colorp11
P28 2420 2420 fill_color=colorp7
P28 2420 2420 fill_color=colorp13
P28 2420 2420 fill_color=colorp14
P28 2420 2420 fill_color=colorp23
P28 2420 2420 fill_color=colorp20
P28 2420 2420 fill_color=colorp10
P28 2420 2420 fill_color=colorp15
P28 2420 2420 fill_color=colorp18
P28 2420 2420 fill_color=colorp19
P28 2420 2420 fill_color=colorp28
P28 2420 2420 fill_color=colorp8
P13 0 748 fill_color=colorp15
P13 748 1418 fill_color=colorp14
P13 1418 2018 fill_color=colorp12
P13 2018 2520 fill_color=colorp1
P13 2520 2813 fill_color=colorp18
P13 2813 2961 fill_color=colorp10
P13 2961 3074 fill_color=colorp0
P13 3074 3103 fill_color=colorp19
P13 3103 3131 fill_color=colorp2
P13 3131 3148 fill_color=colorp11
P13 3148 3163 fill_color=colorp16
P13 3163 3174 fill_color=colorp30
P13 3174 3184 fill_color=colorp21
P13 3184 3192 fill_color=colorp8
P13 3192 3193 fill_color=colorp29
P13 3193 3194 fill_color=colorp23
P13 3194 3195 fill_color=colorp20
P13 3195 3196 fill_color=colorp31
P13 3196 3196 fill_color=colorp17
P13 3196 3196 fill_color=colorp25
P13 3196 3196 fill_color=colorp9
P13 3196 3196 fill_color=colorp3
P13 3196 3196 fill_color=colorp22
P13 3196 3196 fill_color=colorp5
P13 3196 3196 fill_color=colorp7
P13 3196 3196 fill_color=colorp13
P13 3196 3196 fill_color=colorp4
P13 3196 3196 fill_color=colorp6
P13 3196 3196 fill_color=colorp27
P13 3196 3196 fill_color=colorp28
P13 3196 3196 fill_color=colorp24
P13 3196 3196 fill_color=colorp26
P24 0 1119 fill_color=colorp27
P24 1119 2028 fill_color=colorp25
P24 2028 2399 fill_color=colorp31
P24 2399 2658 fill_color=colorp7
P24 2658 2903 fill_color=colorp23
P24 2903 2973 fill_color=colorp22
P24 2973 3036 fill_color=colorp4
P24 3036 3069 fill_color=colorp5
P24 3069 3100 fill_color=colorp28
P24 3100 3128 fill_color=colorp30
P24 3128 3149 fill_color=colorp26
P24 3149 3159 fill_color=colorp9
P24 3159 3163 fill_color=colorp8
P24 3163 3163 fill_color=colorp29
P24 3163 3163 fill_color=colorp17
P24 3163 3163 fill_color=colorp2
P24 3163 3163 fill_color=colorp12
P24 3163 3163 fill_color=colorp16
P24 3163 3163 fill_color=colorp21
P24 3163 3163 fill_color=colorp3
P24 3163 3163 fill_color=colorp11
P24 3163 3163 fill_color=colorp13
P24 3163 3163 fill_color=colorp14
P24 3163 3163 fill_color=colorp20
P24 3163 3163 fill_color=colorp1
P24 3163 3163 fill_color=colorp0
P24 3163 3163 fill_color=colorp6
P24 3163 3163 fill_color=colorp10
P24 3163 3163 fill_color=colorp15
P24 3163 3163 fill_color=colorp18
P24 3163 3163 fill_color=colorp19
P24 3163 3163 fill_color=colorp24
P14 0 656 fill_color=colorp13
P14 656 1297 fill_color=colorp15
P14 1297 1642 fill_color=colorp2
P14 1642 1835 fill_color=colorp10
P14 1835 1974 fill_color=colorp12
P14 1974 2019 fill_color=colorp0
P14 2019 2057 fill_color=colorp1
P14 2057 2069 fill_color=colorp11
P14 2069 2079 fill_color=colorp8
P14 2079 2088 fill_color=colorp7
P14 2088 2093 fill_color=colorp6
P14 2093 2094 fill_color=colorp5
P14 2094 2094 fill_color=colorp29
P14 2094 2094 fill_color=colorp17
P14 2094 2094 fill_color=colorp25
P14 2094 2094 fill_color=colorp16
P14 2094 2094 fill_color=colorp30
P14 2094 2094 fill_color=colorp21
P14 2094 2094 fill_color=colorp9
P14 2094 2094 fill_color=colorp3
P14 2094 2094 fill_color=colorp22
P14 2094 2094 fill_color=colorp14
P14 2094 2094 fill_color=colorp23
P14 2094 2094 fill_color=colorp4
P14 2094 2094 fill_color=colorp20
P14 2094 2094 fill_color=colorp27
P14 2094 2094 fill_color=colorp18
P14 2094 2094 fill_color=colorp19
P14 2094 2094 fill_color=colorp31
P14 2094 2094 fill_color=colorp28
P14 2094 2094 fill_color=colorp24
P14 2094 2094 fill_color=colorp26
P8 0 714 fill_color=colorp9
P8 714 1403 fill_color=colorp10
P8 1403 2086 fill_color=colorp15
P8 2086 2753 fill_color=colorp7
P8 2753 2984 fill_color=colorp23
P8 2984 3139 fill_color=colorp31
P8 3139 3174 fill_color=colorp13
P8 3174 3207 fill_color=colorp0
P8 3207 3239 fill_color=colorp14
P8 3239 3245 fill_color=colorp24
P8 3245 3246 fill_color=colorp2
P8 3246 3247 fill_color=colorp5
P8 3247 3247 fill_color=colorp29
P8 3247 3247 fill_color=colorp17
P8 3247 3247 fill_color=colorp25
P8 3247 3247 fill_color=colorp12
P8 3247 3247 fill_color=colorp16
P8 3247 3247 fill_color=colorp30
P8 3247 3247 fill_color=colorp21
P8 3247 3247 fill_color=colorp3
P8 3247 3247 fill_color=colorp22
P8 3247 3247 fill_color=colorp11
P8 3247 3247 fill_color=colorp4
P8 3247 3247 fill_color=colorp20
P8 3247 3247 fill_color=colorp1
P8 3247 3247 fill_color=colorp6
P8 3247 3247 fill_color=colorp27
P8 3247 3247 fill_color=colorp18
P8 3247 3247 fill_color=colorp19
P8 3247 3247 fill_color=colorp28
P8 3247 3247 fill_color=colorp8
P8 3247 3247 fill_color=colorp26
P23 0 1069 fill_color=colorp22
P23 1069 1860 fill_color=colorp21
P23 1860 2576 fill_color=colorp24
P23 2576 3186 fill_color=colorp16
P23 3186 3737 fill_color=colorp8
P23 3737 4045 fill_color=colorp31
P23 4045 4209 fill_color=colorp9
P23 4209 4302 fill_color=colorp10
P23 4302 4370 fill_color=colorp17
P23 4370 4421 fill_color=colorp25
P23 4421 4464 fill_color=colorp15
P23 4464 4505 fill_color=colorp7
P23 4505 4537 fill_color=colorp27
P23 4537 4561 fill_color=colorp18
P23 4561 4567 fill_color=colorp30
P23 4567 4573 fill_color=colorp5
P23 4573 4578 fill_color=colorp13
P23 4578 4578 fill_color=colorp29
P23 4578 4578 fill_color=colorp2
P23 4578 4578 fill_color=colorp12
P23 4578 4578 fill_color=colorp3
P23 4578 4578 fill_color=colorp11
P23 4578 4578 fill_color=colorp14
P23 4578 4578 fill_color=colorp23
P23 4578 4578 fill_color=colorp4
P23 4578 4578 fill_color=colorp20
P23 4578 4578 fill_color=colorp1
P23 4578 4578 fill_color=colorp0
P23 4578 4578 fill_color=colorp6
P23 4578 4578 fill_color=colorp19
P23 4578 4578 fill_color=colorp28
P23 4578 4578 fill_color=colorp26
P4 0 489 fill_color=colorp6
P4 489 808 fill_color=colorp7
P4 808 1016 fill_color=colorp27
P4 1016 1170 fill_color=colorp0
P4 1170 1295 fill_color=colorp3
P4 1295 1381 fill_color=colorp28
P4 1381 1463 fill_color=colorp5
P4 1463 1507 fill_color=colorp1
P4 1507 1551 fill_color=colorp31
P4 1551 1565 fill_color=colorp24
P4 1565 1573 fill_color=colorp25
P4 1573 1579 fill_color=colorp30
P4 1579 1579 fill_color=colorp29
P4 1579 1579 fill_color=colorp17
P4 1579 1579 fill_color=colorp2
P4 1579 1579 fill_color=colorp12
P4 1579 1579 fill_color=colorp16
P4 1579 1579 fill_color=colorp21
P4 1579 1579 fill_color=colorp9
P4 1579 1579 fill_color=colorp22
P4 1579 1579 fill_color=colorp11
P4 1579 1579 fill_color=colorp13
P4 1579 1579 fill_color=colorp14
P4 1579 1579 fill_color=colorp23
P4 1579 1579 fill_color=colorp4
P4 1579 1579 fill_color=colorp20
P4 1579 1579 fill_color=colorp10
P4 1579 1579 fill_color=colorp15
P4 1579 1579 fill_color=colorp18
P4 1579 1579 fill_color=colorp19
P4 1579 1579 fill_color=colorp8
P4 1579 1579 fill_color=colorp26
P26 0 629 fill_color=colorp25
P26 629 1147 fill_color=colorp5
P26 1147 1568 fill_color=colorp29
P26 1568 1735 fill_color=colorp28
P26 1735 1882 fill_color=colorp20
P26 1882 1994 fill_color=colorp19
P26 1994 2105 fill_color=colorp27
P26 2105 2177 fill_color=colorp3
P26 2177 2224 fill_color=colorp6
P26 2224 2240 fill_color=colorp11
P26 2240 2253 fill_color=colorp21
P26 2253 2264 fill_color=colorp22
P26 2264 2269 fill_color=colorp24
P26 2269 2270 fill_color=colorp12
P26 2270 2271 fill_color=colorp9
P26 2271 2272 fill_color=colorp4
P26 2272 2272 fill_color=colorp17
P26 2272 2272 fill_color=colorp2
P26 2272 2272 fill_color=colorp16
P26 2272 2272 fill_color=colorp30
P26 2272 2272 fill_color=colorp7
P26 2272 2272 fill_color=colorp13
P26 2272 2272 fill_color=colorp14
P26 2272 2272 fill_color=colorp23
P26 2272 2272 fill_color=colorp1
P26 2272 2272 fill_color=colorp0
P26 2272 2272 fill_color=colorp10
P26 2272 2272 fill_color=colorp15
P26 2272 2272 fill_color=colorp18
P26 2272 2272 fill_color=colorp31
P26 2272 2272 fill_color=colorp8
P26 2272 2272 fill_color=colorp26
