P29 0 511 fill_color=colorp19
P29 511 982 fill_color=colorp30
P29 982 1403 fill_color=colorp26
P29 1403 1806 fill_color=colorp28
P29 1806 1953 fill_color=colorp3
P29 1953 2060 fill_color=colorp2
P29 2060 2118 fill_color=colorp17
P29 2118 2150 fill_color=colorp25
P29 2150 2175 fill_color=colorp20
P29 2175 2191 fill_color=colorp5
P29 2191 2206 fill_color=colorp12
P29 2206 2218 fill_color=colorp1
P29 2218 2225 fill_color=colorp21
P29 2225 2226 fill_color=colorp11
P29 2226 2227 fill_color=colorp13
P29 2227 2228 fill_color=colorp6
P29 2228 2229 fill_color=colorp18
P29 2229 2230 fill_color=colorp31
P29 2230 2230 fill_color=colorp29
P29 2230 2230 fill_color=colorp16
P29 2230 2230 fill_color=colorp9
P29 2230 2230 fill_color=colorp22
P29 2230 2230 fill_color=colorp7
P29 2230 2230 fill_color=colorp14
P29 2230 2230 fill_color=colorp23
P29 2230 2230 fill_color=colorp4
P29 2230 2230 fill_color=colorp0
P29 2230 2230 fill_color=colorp27
P29 2230 2230 fill_color=colorp10
P29 2230 2230 fill_color=colorp15
P29 2230 2230 fill_color=colorp24
P29 2230 2230 fill_color=colorp8
P17 0 851 fill_color=colorp16
P17 851 1275 fill_color=colorp21
P17 1275 1489 fill_color=colorp18
P17 1489 1682 fill_color=colorp30
P17 1682 1866 fill_color=colorp19
P17 1866 1934 fill_color=colorp23
P17 1934 1950 fill_color=colorp31
P17 1950 1965 fill_color=colorp20
P17 1965 1979 fill_color=colorp29
P17 1979 1979 fill_color=colorp17
P17 1979 1979 fill_color=colorp2
P17 1979 1979 fill_color=colorp25
P17 1979 1979 fill_color=colorp12
P17 1979 1979 fill_color=colorp9
P17 1979 1979 fill_color=colorp3
P17 1979 1979 fill_color=colorp22
P17 1979 1979 fill_color=colorp11
P17 1979 1979 fill_color=colorp5
P17 1979 1979 fill_color=colorp7
P17 1979 1979 fill_color=colorp13
P17 1979 1979 fill_color=colorp14
P17 1979 1979 fill_color=colorp4
P17 1979 1979 fill_color=colorp1
P17 1979 1979 fill_color=colorp0
P17 1979 1979 fill_color=colorp6
P17 1979 1979 fill_color=colorp27
P17 1979 1979 fill_color=colorp10
P17 1979 1979 fill_color=colorp15
P17 1979 1979 fill_color=colorp28
P17 1979 1979 fill_color=colorp24
P17 1979 1979 fill_color=colorp8
P17 1979 1979 fill_color=colorp26
P2 0 938 fill_color=colorp3
P2 938 1342 fill_color=colorp12
P2 1342 1687 fill_color=colorp14
P2 1687 1950 fill_color=colorp6
P2 1950 2186 fill_color=colorp5
P2 2186 2420 fill_color=colorp29
P2 2420 2605 fill_color=colorp1
P2 2605 2692 fill_color=colorp7
P2 2692 2776 fill_color=colorp0
P2 2776 2815 fill_color=colorp10
P2 2815 2852 fill_color=colorp11
P2 2852 2881 fill_color=colorp19
P2 2881 2909 fill_color=colorp13
P2 2909 2923 fill_color=colorp30
P2 2923 2931 fill_color=colorp15
P2 2931 2939 fill_color=colorp28
P2 2939 2940 fill_color=colorp18
P2 2940 2941 fill_color=colorp8
P2 2941 2941 fill_color=colorp17
P2 2941 2941 fill_color=colorp2
P2 2941 2941 fill_color=colorp25
P2 2941 2941 fill_color=colorp16
P2 2941 2941 fill_color=colorp21
P2 2941 2941 fill_color=colorp9
P2 2941 2941 fill_color=colorp22
P2 2941 2941 fill_color=colorp23
P2 2941 2941 fill_color=colorp4
P2 2941 2941 fill_color=colorp20
P2 2941 2941 fill_color=colorp27
P2 2941 2941 fill_color=colorp31
P2 2941 2941 fill_color=colorp24
P2 2941 2941 fill_color=colorp26
P20 0 912 fill_color=colorp21
P20 912 1270 fill_color=colorp19
P20 1270 1599 fill_color=colorp22
P20 1599 1746 fill_color=colorp26
P20 1746 1871 fill_color=colorp11
P20 1871 1879 fill_color=colorp12
P20 1879 1886 fill_color=colorp27
P20 1886 1891 fill_color=colorp29
P20 1891 1892 fill_color=colorp30
P20 1892 1893 fill_color=colorp13
P20 1893 1894 fill_color=colorp18
P20 1894 1894 fill_color=colorp17
P20 1894 1894 fill_color=colorp2
P20 1894 1894 fill_color=colorp25
P20 1894 1894 fill_color=colorp16
P20 1894 1894 fill_color=colorp9
P20 1894 1894 fill_color=colorp3
P20 1894 1894 fill_color=colorp5
P20 1894 1894 fill_color=colorp7
P20 1894 1894 fill_color=colorp14
P20 1894 1894 fill_color=colorp23
P20 1894 1894 fill_color=colorp4
P20 1894 1894 fill_color=colorp20
P20 1894 1894 fill_color=colorp1
P20 1894 1894 fill_color=colorp0
P20 1894 1894 fill_color=colorp6
P20 1894 1894 fill_color=colorp10
P20 1894 1894 fill_color=colorp15
P20 1894 1894 fill_color=colorp31
P20 1894 1894 fill_color=colorp28
P20 1894 1894 fill_color=colorp24
P20 1894 1894 fill_color=colorp8
P25 0 909 fill_color=colorp24
P25 909 1538 fill_color=colorp26
P25 1538 1995 fill_color=colorp27
P25 1995 2316 fill_color=colorp21
P25 2316 2502 fill_color=colorp28
P25 2502 2627 fill_color=colorp30
P25 2627 2712 fill_color=colorp6
P25 2712 2763 fill_color=colorp23
P25 2763 2810 fill_color=colorp22
P25 2810 2827 fill_color=colorp29
P25 2827 2843 fill_color=colorp31
P25 2843 2852 fill_color=colorp3
P25 2852 2860 fill_color=colorp4
P25 2860 2861 fill_color=colorp5
P25 2861 2861 fill_color=colorp17
P25 2861 2861 fill_color=colorp2
P25 2861 2861 fill_color=colorp25
P25 2861 2861 fill_color=colorp12
P25 2861 2861 fill_color=colorp16
P25 2861 2861 fill_color=colorp9
P25 2861 2861 fill_color=colorp11
P25 2861 2861 fill_color=colorp7
P25 2861 2861 fill_color=colorp13
P25 2861 2861 fill_color=colorp14
P25 2861 2861 fill_color=colorp20
P25 2861 2861 fill_color=colorp1
P25 2861 2861 fill_color=colorp0
P25 2861 2861 fill_color=colorp10
P25 2861 2861 fill_color=colorp15
P25 2861 2861 fill_color=colorp18
P25 2861 2861 fill_color=colorp19
P25 2861 2861 fill_color=colorp8
P12 0 600 fill_color=colorp13
P12 600 1183 fill_color=colorp19
P12 1183 1741 fill_color=colorp11
P12 1741 1888 fill_color=colorp2
P12 1888 2027 fill_color=colorp14
P12 2027 2121 fill_color=colorp3
P12 2121 2206 fill_color=colorp18
P12 2206 2273 fill_color=colorp10
P12 2273 2309 fill_color=colorp20
P12 2309 2326 fill_color=colorp29
P12 2326 2343 fill_color=colorp5
P12 2343 2357 fill_color=colorp1
P12 2357 2364 fill_color=colorp21
P12 2364 2365 fill_color=colorp30
P12 2365 2366 fill_color=colorp6
P12 2366 2367 fill_color=colorp26
P12 2367 2367 fill_color=colorp17
P12 2367 2367 fill_color=colorp25
P12 2367 2367 fill_color=colorp12
P12 2367 2367 fill_color=colorp16
P12 2367 2367 fill_color=colorp9
P12 2367 2367 fill_color=colorp22
P12 2367 2367 fill_color=colorp7
P12 2367 2367 fill_color=colorp23
P12 2367 2367 fill_color=colorp4
P12 2367 2367 fill_color=colorp0
P12 2367 2367 fill_color=colorp27
P12 2367 2367 fill_color=colorp15
P12 2367 2367 fill_color=colorp31
P12 2367 2367 fill_color=colorp28
P12 2367 2367 fill_color=colorp24
P12 2367 2367 fill_color=colorp8
P1 0 677 fill_color=colorp2
P1 677 1343 fill_color=colorp30
P1 1343 1845 fill_color=colorp13
P1 1845 2230 fill_color=colorp0
P1 2230 2504 fill_color=colorp3
P1 2504 2573 fill_color=colorp12
P1 2573 2626 fill_color=colorp28
P1 2626 2675 fill_color=colorp29
P1 2675 2722 fill_color=colorp18
P1 2722 2766 fill_color=colorp4
P1 2766 2804 fill_color=colorp14
P1 2804 2830 fill_color=colorp15
P1 2830 2847 fill_color=colorp31
P1 2847 2857 fill_color=colorp19
P1 2857 2858 fill_color=colorp16
P1 2858 2858 fill_color=colorp17
P1 2858 2858 fill_color=colorp25
P1 2858 2858 fill_color=colorp21
P1 2858 2858 fill_color=colorp9
P1 2858 2858 fill_color=colorp22
P1 2858 2858 fill_color=colorp11
P1 2858 2858 fill_color=colorp5
P1 2858 2858 fill_color=colorp7
P1 2858 2858 fill_color=colorp23
P1 2858 2858 fill_color=colorp20
P1 2858 2858 fill_color=colorp1
P1 2858 2858 fill_color=colorp6
P1 2858 2858 fill_color=colorp27
P1 2858 2858 fill_color=colorp10
P1 2858 2858 fill_color=colorp24
P1 2858 2858 fill_color=colorp8
P1 2858 2858 fill_color=colorp26
P16 0 610 fill_color=colorp23
P16 610 1200 fill_color=colorp17
P16 1200 1645 fill_color=colorp31
P16 1645 2002 fill_color=colorp18
P16 2002 2235 fill_color=colorp15
P16 2235 2365 fill_color=colorp21
P16 2365 2423 fill_color=colorp30
P16 2423 2438 fill_color=colorp13
P16 2438 2447 fill_color=colorp0
P16 2447 2448 fill_color=colorp1
P16 2448 2448 fill_color=colorp29
P16 2448 2448 fill_color=colorp2
P16 2448 2448 fill_color=colorp25
P16 2448 2448 fill_color=colorp12
P16 2448 2448 fill_color=colorp16
P16 2448 2448 fill_color=colorp9
P16 2448 2448 fill_color=colorp3
P16 2448 2448 fill_color=colorp22
P16 2448 2448 fill_color=colorp11
P16 2448 2448 fill_color=colorp5
P16 2448 2448 fill_color=colorp7
P16 2448 2448 fill_color=colorp14
P16 2448 2448 fill_color=colorp4
P16 2448 2448 fill_color=colorp20
P16 2448 2448 fill_color=colorp6
P16 2448 2448 fill_color=colorp27
P16 2448 2448 fill_color=colorp10
P16 2448 2448 fill_color=colorp19
P16 2448 2448 fill_color=colorp28
P16 2448 2448 fill_color=colorp24
P16 2448 2448 fill_color=colorp8
P16 2448 2448 fill_color=colorp26
P0 0 1157 fill_color=colorp1
P0 1157 1756 fill_color=colorp15
P0 1756 2158 fill_color=colorp31
P0 2158 2482 fill_color=colorp3
P0 2482 2780 fill_color=colorp2
P0 2780 3066 fill_color=colorp7
P0 3066 3220 fill_color=colorp4
P0 3220 3333 fill_color=colorp13
P0 3333 3401 fill_color=colorp30
P0 3401 3458 fill_color=colorp6
P0 3458 3503 fill_color=colorp14
P0 3503 3537 fill_color=colorp16
P0 3537 3570 fill_color=colorp8
P0 3570 3593 fill_color=colorp28
P0 3593 3600 fill_color=colorp10
P0 3600 3606 fill_color=colorp18
P0 3606 3606 fill_color=colorp29
P0 3606 3606 fill_color=colorp17
P0 3606 3606 fill_color=colorp25
P0 3606 3606 fill_color=colorp12
P0 3606 3606 fill_color=colorp21
P0 3606 3606 fill_color=colorp9
P0 3606 3606 fill_color=colorp22
P0 3606 3606 fill_color=colorp11
P0 3606 3606 fill_color=colorp5
P0 3606 3606 fill_color=colorp23
P0 3606 3606 fill_color=colorp20
P0 3606 3606 fill_color=colorp0
P0 3606 3606 fill_color=colorp27
P0 3606 3606 fill_color=colorp19
P0 3606 3606 fill_color=colorp24
P0 3606 3606 fill_color=colorp26
P30 0 816 fill_color=colorp31
P30 816 1464 fill_color=colorp29
P30 1464 1997 fill_color=colorp17
P30 1997 2500 fill_color=colorp28
P30 2500 2830 fill_color=colorp25
P30 2830 3133 fill_color=colorp18
P30 3133 3339 fill_color=colorp16
P30 3339 3527 fill_color=colorp1
P30 3527 3587 fill_color=colorp19
P30 3587 3635 fill_color=colorp21
P30 3635 3663 fill_color=colorp24
P30 3663 3679 fill_color=colorp2
P30 3679 3694 fill_color=colorp0
P30 3694 3707 fill_color=colorp3
P30 3707 3718 fill_color=colorp13
P30 3718 3724 fill_color=colorp23
P30 3724 3730 fill_color=colorp4
P30 3730 3731 fill_color=colorp12
P30 3731 3732 fill_color=colorp15
P30 3732 3732 fill_color=colorp30
P30 3732 3732 fill_color=colorp9
P30 3732 3732 fill_color=colorp22
P30 3732 3732 fill_color=colorp11
P30 3732 3732 fill_color=colorp5
P30 3732 3732 fill_color=colorp7
P30 3732 3732 fill_color=colorp14
P30 3732 3732 fill_color=colorp20
P30 3732 3732 fill_color=colorp6
P30 3732 3732 fill_color=colorp27
P30 3732 3732 fill_color=colorp10
P30 3732 3732 fill_color=colorp8
P30 3732 3732 fill_color=colorp26
P6 0 877 fill_color=colorp5
P6 877 1406 fill_color=colorp7
P6 1406 1895 fill_color=colorp4
P6 1895 2129 fill_color=colorp25
P6 2129 2346 fill_color=colorp10
P6 2346 2554 fill_color=colorp3
P6 2554 2632 fill_color=colorp2
P6 2632 2689 fill_color=colorp11
P6 2689 2742 fill_color=colorp27
P6 2742 2789 fill_color=colorp26
P6 2789 2824 fill_color=colorp9
P6 2824 2836 fill_color=colorp0
P6 2836 2845 fill_color=colorp28
P6 2845 2850 fill_color=colorp14
P6 2850 2851 fill_color=colorp29
P6 2851 2852 fill_color=colorp12
P6 2852 2852 fill_color=colorp17
P6 2852 2852 fill_color=colorp16
P6 2852 2852 fill_color=colorp30
P6 2852 2852 fill_color=colorp21
P6 2852 2852 fill_color=colorp22
P6 2852 2852 fill_color=colorp13
P6 2852 2852 fill_color=colorp23
P6 2852 2852 fill_color=colorp20
P6 2852 2852 fill_color=colorp1
P6 2852 2852 fill_color=colorp6
P6 2852 2852 fill_color=colorp15
P6 2852 2852 fill_color=colorp18
P6 2852 2852 fill_color=colorp19
P6 2852 2852 fill_color=colorp31
P6 2852 2852 fill_color=colorp24
P6 2852 2852 fill_color=colorp8
P9 0 714 fill_color=colorp8
P9 714 1381 fill_color=colorp10
P9 1381 1666 fill_color=colorp22
P9 1666 1838 fill_color=colorp7
P9 1838 2002 fill_color=colorp23
P9 2002 2160 fill_color=colorp11
P9 2160 2280 fill_color=colorp5
P9 2280 2294 fill_color=colorp27
P9 2294 2304 fill_color=colorp20
P9 2304 2314 fill_color=colorp24
P9 2314 2322 fill_color=colorp19
P9 2322 2329 fill_color=colorp6
P9 2329 2331 fill_color=colorp21
P9 2331 2332 fill_color=colorp26
P9 2332 2332 fill_color=colorp29
P9 2332 2332 fill_color=colorp17
P9 2332 2332 fill_color=colorp2
P9 2332 2332 fill_color=colorp25
P9 2332 2332 fill_color=colorp12
P9 2332 2332 fill_color=colorp16
P9 2332 2332 fill_color=colorp30
P9 2332 2332 fill_color=colorp9
P9 2332 2332 fill_color=colorp3
P9 2332 2332 fill_color=colorp13
P9 2332 2332 fill_color=colorp14
P9 2332 2332 fill_color=colorp4
P9 2332 2332 fill_color=colorp1
P9 2332 2332 fill_color=colorp0
P9 2332 2332 fill_color=colorp15
P9 2332 2332 fill_color=colorp18
P9 2332 2332 fill_color=colorp31
P9 2332 2332 fill_color=colorp28
P21 0 792 fill_color=colorp22
P21 792 1583 fill_color=colorp23
P21 1583 1916 fill_color=colorp20
P21 1916 2087 fill_color=colorp17
P21 2087 2209 fill_color=colorp18
P21 2209 2315 fill_color=colorp10
P21 2315 2419 fill_color=colorp25
P21 2419 2458 fill_color=colorp16
P21 2458 2481 fill_color=colorp19
P21 2481 2494 fill_color=colorp11
P21 2494 2507 fill_color=colorp26
P21 2507 2517 fill_color=colorp30
P21 2517 2527 fill_color=colorp13
P21 2527 2528 fill_color=colorp29
P21 2528 2529 fill_color=colorp12
P21 2529 2530 fill_color=colorp27
P21 2530 2531 fill_color=colorp15
P21 2531 2532 fill_color=colorp31
P21 2532 2532 fill_color=colorp2
P21 2532 2532 fill_color=colorp21
P21 2532 2532 fill_color=colorp9
P21 2532 2532 fill_color=colorp3
P21 2532 2532 fill_color=colorp5
P21 2532 2532 fill_color=colorp7
P21 2532 2532 fill_color=colorp14
P21 2532 2532 fill_color=colorp4
P21 2532 2532 fill_color=colorp1
P21 2532 2532 fill_color=colorp0
P21 2532 2532 fill_color=colorp6
P21 2532 2532 fill_color=colorp28
P21 2532 2532 fill_color=colorp24
P21 2532 2532 fill_color=colorp8
P3 0 706 fill_color=colorp2
P3 706 1294 fill_color=colorp6
P3 1294 1704 fill_color=colorp5
P3 1704 2088 fill_color=colorp29
P3 2088 2467 fill_color=colorp28
P3 2467 2677 fill_color=colorp12
P3 2677 2802 fill_color=colorp4
P3 2802 2913 fill_color=colorp0
P3 2913 3014 fill_color=colorp1
P3 3014 3086 fill_color=colorp26
P3 3086 3143 fill_color=colorp25
P3 3143 3170 fill_color=colorp19
P3 3170 3194 fill_color=colorp11
P3 3194 3204 fill_color=colorp7
P3 3204 3213 fill_color=colorp30
P3 3213 3214 fill_color=colorp27
P3 3214 3214 fill_color=colorp17
P3 3214 3214 fill_color=colorp16
P3 3214 3214 fill_color=colorp21
P3 3214 3214 fill_color=colorp9
P3 3214 3214 fill_color=colorp3
P3 3214 3214 fill_color=colorp22
P3 3214 3214 fill_color=colorp13
P3 3214 3214 fill_color=colorp14
P3 3214 3214 fill_color=colorp23
P3 3214 3214 fill_color=colorp20
P3 3214 3214 fill_color=colorp10
P3 3214 3214 fill_color=colorp15
P3 3214 3214 fill_color=colorp18
P3 3214 3214 fill_color=colorp31
P3 3214 3214 fill_color=colorp24
P3 3214 3214 fill_color=colorp8
P27 0 1119 fill_color=colorp24
P27 1119 1479 fill_color=colorp25
P27 1479 1721 fill_color=colorp22
P27 1721 1936 fill_color=colorp31
P27 1936 2144 fill_color=colorp4
P27 2144 2277 fill_color=colorp28
P27 2277 2388 fill_color=colorp26
P27 2388 2498 fill_color=colorp5
P27 2498 2530 fill_color=colorp23
P27 2530 2555 fill_color=colorp7
P27 2555 2573 fill_color=colorp6
P27 2573 2586 fill_color=colorp9
P27 2586 2587 fill_color=colorp11
P27 2587 2588 fill_color=colorp19
P27 2588 2588 fill_color=colorp29
P27 2588 2588 fill_color=colorp17
P27 2588 2588 fill_color=colorp2
P27 2588 2588 fill_color=colorp12
P27 2588 2588 fill_color=colorp16
P27 2588 2588 fill_color=colorp30
P27 2588 2588 fill_color=colorp21
P27 2588 2588 fill_color=colorp3
P27 2588 2588 fill_color=colorp13
P27 2588 2588 fill_color=colorp14
P27 2588 2588 fill_color=colorp20
P27 2588 2588 fill_color=colorp1
P27 2588 2588 fill_color=colorp0
P27 2588 2588 fill_color=colorp27
P27 2588 2588 fill_color=colorp10
P27 2588 2588 fill_color=colorp15
P27 2588 2588 fill_color=colorp18
P27 2588 2588 fill_color=colorp8
P22 0 1069 fill_color=colorp23
P22 1069 1389 fill_color=colorp21
P22 1389 1553 fill_color=colorp20
P22 1553 1665 fill_color=colorp10
P22 1665 1773 fill_color=colorp9
P22 1773 1867 fill_color=colorp27
P22 1867 1937 fill_color=colorp24
P22 1937 1995 fill_color=colorp19
P22 1995 2009 fill_color=colorp11
P22 2009 2020 fill_color=colorp5
P22 2020 2031 fill_color=colorp26
P22 2031 2039 fill_color=colorp25
P22 2039 2040 fill_color=colorp7
P22 2040 2040 fill_color=colorp29
P22 2040 2040 fill_color=colorp17
P22 2040 2040 fill_color=colorp2
P22 2040 2040 fill_color=colorp12
P22 2040 2040 fill_color=colorp16
P22 2040 2040 fill_color=colorp30
P22 2040 2040 fill_color=colorp3
P22 2040 2040 fill_color=colorp22
P22 2040 2040 fill_color=colorp13
P22 2040 2040 fill_color=colorp14
P22 2040 2040 fill_color=colorp4
P22 2040 2040 fill_color=colorp1
P22 2040 2040 fill_color=colorp0
P22 2040 2040 fill_color=colorp6
P22 2040 2040 fill_color=colorp15
P22 2040 2040 fill_color=colorp18
P22 2040 2040 fill_color=colorp31
P22 2040 2040 fill_color=colorp28
P22 2040 2040 fill_color=colorp8
P15 0 748 fill_color=colorp13
P15 748 1431 fill_color=colorp8
P15 1431 2073 fill_color=colorp16
P15 2073 2714 fill_color=colorp14
P15 2714 2946 fill_color=colorp0
P15 2946 3122 fill_color=colorp31
P15 3122 3198 fill_color=colorp18
P15 3198 3270 fill_color=colorp10
P15 3270 3335 fill_color=colorp7
P15 3335 3378 fill_color=colorp23
P15 3378 3409 fill_color=colorp1
P15 3409 3418 fill_color=colorp2
P15 3418 3419 fill_color=colorp30
P15 3419 3420 fill_color=colorp21
P15 3420 3420 fill_color=colorp29
P15 3420 3420 fill_color=colorp17
P15 3420 3420 fill_color=colorp25
P15 3420 3420 fill_color=colorp12
P15 3420 3420 fill_color=colorp9
P15 3420 3420 fill_color=colorp3
P15 3420 3420 fill_color=colorp22
P15 3420 3420 fill_color=colorp11
P15 3420 3420 fill_color=colorp5
P15 3420 3420 fill_color=colorp4
P15 3420 3420 fill_color=colorp20
P15 3420 3420 fill_color=colorp6
P15 3420 3420 fill_color=colorp27
P15 3420 3420 fill_color=colorp15
P15 3420 3420 fill_color=colorp19
P15 3420 3420 fill_color=colorp28
P15 3420 3420 fill_color=colorp24
P15 3420 3420 fill_color=colorp26
P10 0 689 fill_color=colorp8
P10 689 1279 fill_color=colorp9
P10 1279 1832 fill_color=colorp11
P10 1832 2175 fill_color=colorp22
P10 2175 2483 fill_color=colorp21
P10 2483 2676 fill_color=colorp14
P10 2676 2824 fill_color=colorp13
P10 2824 2917 fill_color=colorp23
P10 2917 2992 fill_color=colorp7
P10 2992 3052 fill_color=colorp6
P10 3052 3083 fill_color=colorp15
P10 3083 3098 fill_color=colorp20
P10 3098 3112 fill_color=colorp12
P10 3112 3122 fill_color=colorp2
P10 3122 3132 fill_color=colorp18
P10 3132 3133 fill_color=colorp16
P10 3133 3134 fill_color=colorp5
P10 3134 3135 fill_color=colorp0
P10 3135 3136 fill_color=colorp19
P10 3136 3136 fill_color=colorp29
P10 3136 3136 fill_color=colorp17
P10 3136 3136 fill_color=colorp25
P10 3136 3136 fill_color=colorp30
P10 3136 3136 fill_color=colorp3
P10 3136 3136 fill_color=colorp4
P10 3136 3136 fill_color=colorp1
P10 3136 3136 fill_color=colorp27
P10 3136 3136 fill_color=colorp10
P10 3136 3136 fill_color=colorp31
P10 3136 3136 fill_color=colorp28
P10 3136 3136 fill_color=colorp24
P10 3136 3136 fill_color=colorp26
P18 0 647 fill_color=colorp19
P18 647 1222 fill_color=colorp17
P18 1222 1621 fill_color=colorp16
P18 1621 1937 fill_color=colorp21
P18 1937 2230 fill_color=colorp13
P18 2230 2334 fill_color=colorp30
P18 2334 2363 fill_color=colorp15
P18 2363 2387 fill_color=colorp23
P18 2387 2401 fill_color=colorp12
P18 2401 2415 fill_color=colorp20
P18 2415 2424 fill_color=colorp1
P18 2424 2432 fill_color=colorp31
P18 2432 2433 fill_color=colorp29
P18 2433 2434 fill_color=colorp2
P18 2434 2435 fill_color=colorp0
P18 2435 2435 fill_color=colorp25
P18 2435 2435 fill_color=colorp9
P18 2435 2435 fill_color=colorp3
P18 2435 2435 fill_color=colorp22
P18 2435 2435 fill_color=colorp11
P18 2435 2435 fill_color=colorp5
P18 2435 2435 fill_color=colorp7
P18 2435 2435 fill_color=colorp14
P18 2435 2435 fill_color=colorp4
P18 2435 2435 fill_color=colorp6
P18 2435 2435 fill_color=colorp27
P18 2435 2435 fill_color=colorp10
P18 2435 2435 fill_color=colorp18
P18 2435 2435 fill_color=colorp28
P18 2435 2435 fill_color=colorp24
P18 2435 2435 fill_color=colorp8
P18 2435 2435 fill_color=colorp26
P11 0 514 fill_color=colorp10
P11 514 920 fill_color=colorp9
P11 920 1284 fill_color=colorp20
P11 1284 1599 fill_color=colorp19
P11 1599 1846 fill_color=colorp5
P11 1846 2079 fill_color=colorp12
P11 2079 2138 fill_color=colorp22
P11 2138 2185 fill_color=colorp21
P11 2185 2202 fill_color=colorp13
P11 2202 2218 fill_color=colorp26
P11 2218 2230 fill_color=colorp14
P11 2230 2242 fill_color=colorp6
P11 2242 2251 fill_color=colorp2
P11 2251 2260 fill_color=colorp3
P11 2260 2261 fill_color=colorp29
P11 2261 2262 fill_color=colorp7
P11 2262 2263 fill_color=colorp27
P11 2263 2264 fill_color=colorp18
P11 2264 2264 fill_color=colorp17
P11 2264 2264 fill_color=colorp25
P11 2264 2264 fill_color=colorp16
P11 2264 2264 fill_color=colorp30
P11 2264 2264 fill_color=colorp11
P11 2264 2264 fill_color=colorp23
P11 2264 2264 fill_color=colorp4
P11 2264 2264 fill_color=colorp1
P11 2264 2264 fill_color=colorp0
P11 2264 2264 fill_color=colorp15
P11 2264 2264 fill_color=colorp31
P11 2264 2264 fill_color=colorp28
P11 2264 2264 fill_color=colorp24
P11 2264 2264 fill_color=colorp8
P5 0 621 fill_color=colorp11
P5 621 1139 fill_color=colorp26
P5 1139 1535 fill_color=colorp9
P5 1535 1894 fill_color=colorp27
P5 1894 2201 fill_color=colorp6
P5 2201 2489 fill_color=colorp7
P5 2489 2661 fill_color=colorp3
P5 2661 2743 fill_color=colorp4
P5 2743 2824 fill_color=colorp2
P5 2824 2900 fill_color=colorp19
P5 2900 2949 fill_color=colorp22
P5 2949 2982 fill_color=colorp24
P5 2982 3001 fill_color=colorp10
P5 3001 3018 fill_color=colorp12
P5 3018 3033 fill_color=colorp29
P5 3033 3046 fill_color=colorp25
P5 3046 3052 fill_color=colorp23
P5 3052 3053 fill_color=colorp14
P5 3053 3054 fill_color=colorp28
P5 3054 3055 fill_color=colorp8
P5 3055 3055 fill_color=colorp17
P5 3055 3055 fill_color=colorp16
P5 3055 3055 fill_color=colorp30
P5 3055 3055 fill_color=colorp21
P5 3055 3055 fill_color=colorp5
P5 3055 3055 fill_color=colorp13
P5 3055 3055 fill_color=colorp20
P5 3055 3055 fill_color=colorp1
P5 3055 3055 fill_color=colorp0
P5 3055 3055 fill_color=colorp15
P5 3055 3055 fill_color=colorp18
P5 3055 3055 fill_color=colorp31
P7 0 667 fill_color=colorp8
P7 667 1209 fill_color=colorp9
P7 1209 1718 fill_color=colorp6
P7 1718 2062 fill_color=colorp5
P7 2062 2381 fill_color=colorp4
P7 2381 2640 fill_color=colorp24
P7 2640 2877 fill_color=colorp10
P7 2877 2994 fill_color=colorp31
P7 2994 3091 fill_color=colorp0
P7 3091 3132 fill_color=colorp23
P7 3132 3166 fill_color=colorp2
P7 3166 3195 fill_color=colorp15
P7 3195 3217 fill_color=colorp27
P7 3217 3229 fill_color=colorp3
P7 3229 3238 fill_color=colorp14
P7 3238 3239 fill_color=colorp22
P7 3239 3240 fill_color=colorp11
P7 3240 3240 fill_color=colorp29
P7 3240 3240 fill_color=colorp17
P7 3240 3240 fill_color=colorp25
P7 3240 3240 fill_color=colorp12
P7 3240 3240 fill_color=colorp16
P7 3240 3240 fill_color=colorp30
P7 3240 3240 fill_color=colorp21
P7 3240 3240 fill_color=colorp7
P7 3240 3240 fill_color=colorp13
P7 3240 3240 fill_color=colorp20
P7 3240 3240 fill_color=colorp1
P7 3240 3240 fill_color=colorp18
P7 3240 3240 fill_color=colorp19
P7 3240 3240 fill_color=colorp28
P7 3240 3240 fill_color=colorp26
P31 0 918 fill_color=colorp30
P31 918 1719 fill_color=colorp16
P31 1719 2090 fill_color=colorp24
P31 2090 2430 fill_color=colorp28
P31 2430 2738 fill_color=colorp23
P31 2738 2923 fill_color=colorp27
P31 2923 3078 fill_color=colorp8
P31 3078 3199 fill_color=colorp0
P31 3199 3309 fill_color=colorp15
P31 3309 3387 fill_color=colorp7
P31 3387 3431 fill_color=colorp4
P31 3431 3473 fill_color=colorp18
P31 3473 3502 fill_color=colorp17
P31 3502 3518 fill_color=colorp1
P31 3518 3519 fill_color=colorp13
P31 3519 3519 fill_color=colorp29
P31 3519 3519 fill_color=colorp2
P31 3519 3519 fill_color=colorp25
P31 3519 3519 fill_color=colorp12
P31 3519 3519 fill_color=colorp21
P31 3519 3519 fill_color=colorp9
P31 3519 3519 fill_color=colorp3
P31 3519 3519 fill_color=colorp22
P31 3519 3519 fill_color=colorp11
P31 3519 3519 fill_color=colorp5
P31 3519 3519 fill_color=colorp14
P31 3519 3519 fill_color=colorp20
P31 3519 3519 fill_color=colorp6
P31 3519 3519 fill_color=colorp10
P31 3519 3519 fill_color=colorp19
P31 3519 3519 fill_color=colorp31
P31 3519 3519 fill_color=colorp26
P19 0 965 fill_color=colorp20
P19 965 1507 fill_color=colorp18
P19 1507 2003 fill_color=colorp17
P19 2003 2213 fill_color=colorp29
P19 2213 2423 fill_color=colorp12
P19 2423 2556 fill_color=colorp11
P19 2556 2670 fill_color=colorp22
P19 2670 2782 fill_color=colorp26
P19 2782 2889 fill_color=colorp21
P19 2889 2919 fill_color=colorp30
P19 2919 2948 fill_color=colorp13
P19 2948 2965 fill_color=colorp5
P19 2965 2975 fill_color=colorp3
P19 2975 2982 fill_color=colorp2
P19 2982 2989 fill_color=colorp27
P19 2989 2990 fill_color=colorp9
P19 2990 2991 fill_color=colorp1
P19 2991 2991 fill_color=colorp25
P19 2991 2991 fill_color=colorp16
P19 2991 2991 fill_color=colorp7
P19 2991 2991 fill_color=colorp14
P19 2991 2991 fill_color=colorp23
P19 2991 2991 fill_color=colorp4
P19 2991 2991 fill_color=colorp0
P19 2991 2991 fill_color=colorp6
P19 2991 2991 fill_color=colorp10
P19 2991 2991 fill_color=colorp15
P19 2991 2991 fill_color=colorp19
P19 2991 2991 fill_color=colorp31
P19 2991 2991 fill_color=colorp28
P19 2991 2991 fill_color=colorp24
P19 2991 2991 fill_color=colorp8
P28 0 739 fill_color=colorp30
P28 739 1410 fill_color=colorp25
P28 1410 1969 fill_color=colorp29
P28 1969 2294 fill_color=colorp31
P28 2294 2618 fill_color=colorp27
P28 2618 2785 fill_color=colorp26
P28 2785 2916 fill_color=colorp3
P28 2916 3002 fill_color=colorp4
P28 3002 3033 fill_color=colorp24
P28 3033 3049 fill_color=colorp6
P28 3049 3059 fill_color=colorp1
P28 3059 3065 fill_color=colorp0
P28 3065 3067 fill_color=colorp5
P28 3067 3068 fill_color=colorp2
P28 3068 3068 fill_color=colorp17
P28 3068 3068 fill_color=colorp12
P28 3068 3068 fill_color=colorp16
P28 3068 3068 fill_color=colorp21
P28 3068 3068 fill_color=colorp9
P28 3068 3068 fill_color=colorp22
P28 3068 3068 fill_color=colorp11
P28 3068 3068 fill_color=colorp7
P28 3068 3068 fill_color=colorp13
P28 3068 3068 fill_color=colorp14
P28 3068 3068 fill_color=colorp23
P28 3068 3068 fill_color=colorp20
P28 3068 3068 fill_color=colorp10
P28 3068 3068 fill_color=colorp15
P28 3068 3068 fill_color=colorp18
P28 3068 3068 fill_color=colorp19
P28 3068 3068 fill_color=colorp28
P28 3068 3068 fill_color=colorp8
P13 0 883 fill_color=colorp18
P13 883 1539 fill_color=colorp14
P13 1539 2066 fill_color=colorp12
P13 2066 2590 fill_color=colorp15
P13 2590 3037 fill_color=colorp10
P13 3037 3223 fill_color=colorp1
P13 3223 3300 fill_color=colorp16
P13 3300 3374 fill_color=colorp19
P13 3374 3413 fill_color=colorp21
P13 3413 3448 fill_color=colorp8
P13 3448 3479 fill_color=colorp2
P13 3479 3502 fill_color=colorp0
P13 3502 3514 fill_color=colorp30
P13 3514 3519 fill_color=colorp23
P13 3519 3520 fill_color=colorp29
P13 3520 3521 fill_color=colorp20
P13 3521 3522 fill_color=colorp31
P13 3522 3522 fill_color=colorp17
P13 3522 3522 fill_color=colorp25
P13 3522 3522 fill_color=colorp9
P13 3522 3522 fill_color=colorp3
P13 3522 3522 fill_color=colorp22
P13 3522 3522 fill_color=colorp11
P13 3522 3522 fill_color=colorp5
P13 3522 3522 fill_color=colorp7
P13 3522 3522 fill_color=colorp13
P13 3522 3522 fill_color=colorp4
P13 3522 3522 fill_color=colorp6
P13 3522 3522 fill_color=colorp27
P13 3522 3522 fill_color=colorp28
P13 3522 3522 fill_color=colorp24
P13 3522 3522 fill_color=colorp26
P24 0 716 fill_color=colorp23
P24 716 1106 fill_color=colorp27
P24 1106 1395 fill_color=colorp25
P24 1395 1599 fill_color=colorp31
P24 1599 1788 fill_color=colorp22
P24 1788 1894 fill_color=colorp7
P24 1894 1908 fill_color=colorp4
P24 1908 1917 fill_color=colorp30
P24 1917 1926 fill_color=colorp9
P24 1926 1935 fill_color=colorp5
P24 1935 1941 fill_color=colorp28
P24 1941 1947 fill_color=colorp8
P24 1947 1952 fill_color=colorp26
P24 1952 1952 fill_color=colorp29
P24 1952 1952 fill_color=colorp17
P24 1952 1952 fill_color=colorp2
P24 1952 1952 fill_color=colorp12
P24 1952 1952 fill_color=colorp16
P24 1952 1952 fill_color=colorp21
P24 1952 1952 fill_color=colorp3
P24 1952 1952 fill_color=colorp11
P24 1952 1952 fill_color=colorp13
P24 1952 1952 fill_color=colorp14
P24 1952 1952 fill_color=colorp20
P24 1952 1952 fill_color=colorp1
P24 1952 1952 fill_color=colorp0
P24 1952 1952 fill_color=colorp6
P24 1952 1952 fill_color=colorp10
P24 1952 1952 fill_color=colorp15
P24 1952 1952 fill_color=colorp18
P24 1952 1952 fill_color=colorp19
P24 1952 1952 fill_color=colorp24
P14 0 670 fill_color=colorp13
P14 670 1286 fill_color=colorp10
P14 1286 1698 fill_color=colorp15
P14 1698 2087 fill_color=colorp12
P14 2087 2201 fill_color=colorp2
P14 2201 2257 fill_color=colorp11
P14 2257 2289 fill_color=colorp8
P14 2289 2298 fill_color=colorp7
P14 2298 2306 fill_color=colorp1
P14 2306 2314 fill_color=colorp0
P14 2314 2319 fill_color=colorp6
P14 2319 2320 fill_color=colorp5
P14 2320 2320 fill_color=colorp29
P14 2320 2320 fill_color=colorp17
P14 2320 2320 fill_color=colorp25
P14 2320 2320 fill_color=colorp16
P14 2320 2320 fill_color=colorp30
P14 2320 2320 fill_color=colorp21
P14 2320 2320 fill_color=colorp9
P14 2320 2320 fill_color=colorp3
P14 2320 2320 fill_color=colorp22
P14 2320 2320 fill_color=colorp14
P14 2320 2320 fill_color=colorp23
P14 2320 2320 fill_color=colorp4
P14 2320 2320 fill_color=colorp20
P14 2320 2320 fill_color=colorp27
P14 2320 2320 fill_color=colorp18
P14 2320 2320 fill_color=colorp19
P14 2320 2320 fill_color=colorp31
P14 2320 2320 fill_color=colorp28
P14 2320 2320 fill_color=colorp24
P14 2320 2320 fill_color=colorp26
P8 0 754 fill_color=colorp9
P8 754 1348 fill_color=colorp10
P8 1348 1899 fill_color=colorp23
P8 1899 2145 fill_color=colorp15
P8 2145 2366 fill_color=colorp31
P8 2366 2581 fill_color=colorp7
P8 2581 2597 fill_color=colorp22
P8 2597 2609 fill_color=colorp16
P8 2609 2621 fill_color=colorp21
P8 2621 2631 fill_color=colorp14
P8 2631 2639 fill_color=colorp13
P8 2639 2645 fill_color=colorp0
P8 2645 2649 fill_color=colorp24
P8 2649 2650 fill_color=colorp2
P8 2650 2651 fill_color=colorp18
P8 2651 2651 fill_color=colorp29
P8 2651 2651 fill_color=colorp17
P8 2651 2651 fill_color=colorp25
P8 2651 2651 fill_color=colorp12
P8 2651 2651 fill_color=colorp30
P8 2651 2651 fill_color=colorp3
P8 2651 2651 fill_color=colorp11
P8 2651 2651 fill_color=colorp5
P8 2651 2651 fill_color=colorp4
P8 2651 2651 fill_color=colorp20
P8 2651 2651 fill_color=colorp1
P8 2651 2651 fill_color=colorp6
P8 2651 2651 fill_color=colorp27
P8 2651 2651 fill_color=colorp19
P8 2651 2651 fill_color=colorp28
P8 2651 2651 fill_color=colorp8
P8 2651 2651 fill_color=colorp26
P23 0 473 fill_color=colorp22
P23 473 783 fill_color=colorp21
P23 783 1069 fill_color=colorp31
P23 1069 1314 fill_color=colorp24
P23 1314 1558 fill_color=colorp16
P23 1558 1789 fill_color=colorp8
P23 1789 1846 fill_color=colorp9
P23 1846 1872 fill_color=colorp10
P23 1872 1892 fill_color=colorp17
P23 1892 1903 fill_color=colorp7
P23 1903 1913 fill_color=colorp15
P23 1913 1922 fill_color=colorp25
P23 1922 1931 fill_color=colorp27
P23 1931 1940 fill_color=colorp18
P23 1940 1941 fill_color=colorp30
P23 1941 1942 fill_color=colorp5
P23 1942 1943 fill_color=colorp13
P23 1943 1943 fill_color=colorp29
P23 1943 1943 fill_color=colorp2
P23 1943 1943 fill_color=colorp12
P23 1943 1943 fill_color=colorp3
P23 1943 1943 fill_color=colorp11
P23 1943 1943 fill_color=colorp14
P23 1943 1943 fill_color=colorp23
P23 1943 1943 fill_color=colorp4
P23 1943 1943 fill_color=colorp20
P23 1943 1943 fill_color=colorp1
P23 1943 1943 fill_color=colorp0
P23 1943 1943 fill_color=colorp6
P23 1943 1943 fill_color=colorp19
P23 1943 1943 fill_color=colorp28
P23 1943 1943 fill_color=colorp26
P4 0 728 fill_color=colorp6
P4 728 1324 fill_color=colorp27
P4 1324 1872 fill_color=colorp7
P4 1872 2275 fill_color=colorp3
P4 2275 2595 fill_color=colorp28
P4 2595 2789 fill_color=colorp5
P4 2789 2969 fill_color=colorp0
P4 2969 3106 fill_color=colorp1
P4 3106 3169 fill_color=colorp24
P4 3169 3227 fill_color=colorp31
P4 3227 3272 fill_color=colorp25
P4 3272 3301 fill_color=colorp30
P4 3301 3302 fill_color=colorp26
P4 3302 3302 fill_color=colorp29
P4 3302 3302 fill_color=colorp17
P4 3302 3302 fill_color=colorp2
P4 3302 3302 fill_color=colorp12
P4 3302 3302 fill_color=colorp16
P4 3302 3302 fill_color=colorp21
P4 3302 3302 fill_color=colorp9
P4 3302 3302 fill_color=colorp22
P4 3302 3302 fill_color=colorp11
P4 3302 3302 fill_color=colorp13
P4 3302 3302 fill_color=colorp14
P4 3302 3302 fill_color=colorp23
P4 3302 3302 fill_color=colorp4
P4 3302 3302 fill_color=colorp20
P4 3302 3302 fill_color=colorp10
P4 3302 3302 fill_color=colorp15
P4 3302 3302 fill_color=colorp18
P4 3302 3302 fill_color=colorp19
P4 3302 3302 fill_color=colorp8
P26 0 672 fill_color=colorp25
P26 672 1118 fill_color=colorp20
P26 1118 1454 fill_color=colorp27
P26 1454 1730 fill_color=colorp19
P26 1730 1926 fill_color=colorp29
P26 1926 2099 fill_color=colorp5
P26 2099 2180 fill_color=colorp21
P26 2180 2242 fill_color=colorp22
P26 2242 2298 fill_color=colorp28
P26 2298 2319 fill_color=colorp24
P26 2319 2335 fill_color=colorp11
P26 2335 2350 fill_color=colorp3
P26 2350 2363 fill_color=colorp30
P26 2363 2372 fill_color=colorp6
P26 2372 2373 fill_color=colorp12
P26 2373 2374 fill_color=colorp9
P26 2374 2374 fill_color=colorp17
P26 2374 2374 fill_color=colorp2
P26 2374 2374 fill_color=colorp16
P26 2374 2374 fill_color=colorp7
P26 2374 2374 fill_color=colorp13
P26 2374 2374 fill_color=colorp14
P26 2374 2374 fill_color=colorp23
P26 2374 2374 fill_color=colorp4
P26 2374 2374 fill_color=colorp1
P26 2374 2374 fill_color=colorp0
P26 2374 2374 fill_color=colorp10
P26 2374 2374 fill_color=colorp15
P26 2374 2374 fill_color=colorp18
P26 2374 2374 fill_color=colorp31
P26 2374 2374 fill_color=colorp8
P26 2374 2374 fill_color=colorp26
