npes	ts_spliter_min	ts_spliter_mean	ts_spliter_max	ss_spliter_min	ss_spliter_mean	ss_spliter_max	ts_all2all_min	ts_all2all_mean	ts_all2all_max	ss_all2all_min	ss_all2all_mean	ss_all2all_max	ts_local_min	ts_local_mean	ts_local_max	ss_local_min	ss_local_mean	ss_local_max	ts_send_min	ts_send_mean	ts_send_max	ts_recv_min	ts_recv_mean	ts_recv_max	ss_send_min	ss_send_mean	ss_send_max	ss_recv_min	ss_recv_mean	ss_recv_max	ts_lb_min	ts_lb_max	ss_lb_min	ss_lb_max	ts_min	ts_mean	ts_max	ss_min	ss_mean	ss_max
16	0.679	0.679	0.679	2.899	2.90281	2.911	1.104	1.25381	1.32	1.213	1.26587	1.292	1.743	1.97444	2.103	2.373	2.43831	2.56	4.66288e+06	4.68754e+06	4.71445e+06	4.28606e+06	4.68754e+06	5.05166e+06	4.68607e+06	4.68754e+06	4.68841e+06	4.67672e+06	4.68754e+06	4.7075e+06	4.57162e+06	5.38878e+06	4.98922e+06	5.02144e+06	3.67	3.90875	4.096	7.126	7.38069	7.782
32	0.752	0.752	0.752	2.915	2.92112	2.932	1.119	1.18672	1.226	1.116	1.16744	1.185	1.87	2.02106	2.127	2.349	2.43756	2.529	4.83641e+06	4.84382e+06	4.85477e+06	4.48626e+06	4.84382e+06	5.05854e+06	4.84293e+06	4.84383e+06	4.84458e+06	4.82234e+06	4.84383e+06	4.87196e+06	4.63148e+06	5.22213e+06	4.97783e+06	5.02854e+06	3.768	3.96072	4.081	7.068	7.24053	7.498
64	0.873	0.873	0.873	2.909	2.91702	2.931	1.183	1.28903	1.329	1.149	1.19597	1.216	1.912	2.07809	2.27	2.403	2.46577	2.555	4.91535e+06	4.92186e+06	4.92846e+06	4.51119e+06	4.92186e+06	5.35339e+06	4.92089e+06	4.92186e+06	4.92245e+06	4.91011e+06	4.92186e+06	4.97381e+06	4.58273e+06	5.43804e+06	4.98803e+06	5.05275e+06	3.98	4.24145	4.461	7.181	7.38261	7.704
128	0.956	0.956	0.956	2.915	2.92189	2.936	1.492	1.6081	1.667	1.259	1.30979	1.34	1.91	2.13339	2.343	2.427	2.50751	2.58	4.95726e+06	4.96093e+06	4.96441e+06	4.52874e+06	4.96093e+06	5.42924e+06	4.96041e+06	4.96093e+06	4.96139e+06	4.93388e+06	4.96093e+06	5.02386e+06	4.56445e+06	5.47176e+06	4.97259e+06	5.06327e+06	4.383	4.69827	4.953	7.331	7.5533	7.944
256	1.039	1.039	1.039	2.952	2.96226	2.979	1.778	1.98683	2.082	1.706	1.86884	1.899	1.951	2.18774	2.443	2.455	2.55059	2.621	4.97868e+06	4.98049e+06	4.9823e+06	4.49962e+06	4.98049e+06	5.40842e+06	4.97997e+06	4.98049e+06	4.98084e+06	4.95675e+06	4.98049e+06	5.08169e+06	4.51731e+06	5.42964e+06	4.97605e+06	5.10172e+06	4.925	5.21485	5.557	7.911	8.27792	8.658
512	1.135	1.135	1.135	3.078	3.09973	3.123	1.805	1.98897	2.109	1.795	1.96387	2.094	1.993	2.25105	2.531	2.497	2.59222	2.754	4.98928e+06	4.99024e+06	4.99118e+06	4.53389e+06	4.99024e+06	5.46734e+06	4.98998e+06	4.99024e+06	4.99052e+06	4.95528e+06	4.99024e+06	5.13897e+06	4.54278e+06	5.47797e+06	4.965e+06	5.149e+06	5.046	5.37628	5.664	8.099	8.48421	8.846
1024	1.242	1.242	1.242	3.097	3.11371	3.145	2.324	2.52205	2.684	2.109	2.28777	2.426	1.997	2.30056	2.647	2.525	2.62745	2.812	4.99453e+06	4.99512e+06	4.99563e+06	4.50453e+06	4.99512e+06	5.46373e+06	4.9947e+06	4.99512e+06	4.99534e+06	4.95332e+06	4.99512e+06	5.28621e+06	4.50904e+06	5.46907e+06	4.95811e+06	5.29151e+06	5.692	6.06596	6.424	8.574	8.96228	9.42
2048	1.343	1.34317	1.344	3.171	3.18939	3.219	3.046	3.29291	3.402	2.881	3.09694	3.192	2.023	2.34338	2.674	2.574	2.67632	2.811	4.99727e+06	4.99756e+06	4.99787e+06	4.50952e+06	4.99756e+06	5.4719e+06	4.99734e+06	4.99756e+06	4.99774e+06	4.93266e+06	4.99756e+06	5.31782e+06	4.51174e+06	5.47463e+06	4.93504e+06	5.32048e+06	6.584	6.98085	7.298	9.483	9.92229	10.421
4096	1.448	1.44883	1.449	3.031	3.09322	3.156	4.156	4.31252	4.429	4.103	4.21725	4.289	2.13	2.38285	2.697	2.614	2.72691	2.967	4.9986e+06	4.99878e+06	4.99898e+06	4.51204e+06	4.99878e+06	5.4964e+06	4.99864e+06	4.99878e+06	4.9989e+06	4.93262e+06	4.99878e+06	5.51726e+06	4.51313e+06	5.49777e+06	4.93381e+06	5.51862e+06	7.794	8.1452	8.474	10.663	11.0354	11.495
8192	2.666	2.66708	2.668	3.229	3.27683	3.348	4.895	5.07163	5.566	4.852	4.971	5.41	2.158	2.42225	2.746	2.634	2.76803	3.195	4.99927e+06	4.99939e+06	4.99951e+06	4.50046e+06	4.99939e+06	5.49691e+06	4.99927e+06	4.99939e+06	4.99949e+06	4.94859e+06	4.99939e+06	5.84062e+06	4.50103e+06	5.49763e+06	4.94921e+06	5.84132e+06	9.757	10.1622	10.92	11.738	12.4542	13.164
16384	2.832	2.83522	2.863	3.51	3.55132	3.618	9.941	10.1637	10.569	9.437	9.60587	9.867	2.15	2.46886	2.792	2.656	2.80593	3.449	4.9996e+06	4.99969e+06	4.99978e+06	4.508e+06	4.99969e+06	5.48791e+06	4.99961e+06	4.99969e+06	4.99977e+06	4.95828e+06	4.99969e+06	6.22456e+06	4.50826e+06	5.48827e+06	4.95857e+06	6.22492e+06	15.066	15.4871	16.146	16.544	17.2618	18.285
32768	3.095	3.1308	3.164	4.743	4.8209	4.904	9.594	10.0064	11.773	9.176	9.50988	11.142	2.209	2.51917	2.849	2.688	2.83744	3.859	4.99979e+06	4.99985e+06	4.9999e+06	4.50038e+06	4.99985e+06	5.49664e+06	4.99976e+06	4.99985e+06	4.9999e+06	4.97389e+06	4.99985e+06	6.82078e+06	4.50052e+06	5.49681e+06	4.97404e+06	6.82102e+06	15.098	15.681	17.608	17.826	19.7678	20.961
