numPts	morton_ts	morton_ss	hilbert_ts	hilbert_ss	zoltan_min	zoltan_mean	zoltan_max
1M	0.105	0.257	0.111	0.951	0.336	0.336	0.336
10M	1.346	3.324	1.279	11.207	4.188	4.188	4.188
100M	12.933	32.419	13.913	133.486	51.864	51.864	51.864
1B	144.091	368.295	154.086	1521.13			
