/var/spool/torque/mom_priv/jobs/2738083.SC: line 11: export: `1': not a valid identifier
Initialized Hcurves
finished generating points
======================================================================
     Warm Up run  (par)                                
======================================================================
Initialized Hcurves
starting full sort
finished generating points
finished generating nodes
finished copying inputs
======================================================================
     Tree Sort Begin                                  
======================================================================
======================================================================
     Tree Sort End                                  
======================================================================
======================================================================
     Sample Sort Begin                                  
======================================================================
======================================================================
     Sample Sort End                                  
======================================================================
finished full sort
finished generating points
finished generating points
finished generating points
finished generating points
finished generating points
finished generating points
finished generating points
finished generating points
finished generating points
finished generating points
finished generating points
finished generating points
finished generating points
finished generating points
finished generating points
finished generating nodes
finished generating nodes
finished generating nodes
finished generating nodes
finished generating nodes
finished generating nodes
finished generating nodes
finished generating nodes
finished generating nodes
finished generating nodes
finished generating nodes
finished copying inputs
======================================================================
     Tree Sort Begin  (seq)                                
======================================================================
finished generating nodes
finished generating nodes
finished copying inputs
======================================================================
     Tree Sort Begin  (seq)                                
======================================================================
finished copying inputs
======================================================================
     Tree Sort Begin                                  
======================================================================
finished copying inputs
======================================================================
     Tree Sort Begin                                  
======================================================================
finished copying inputs
======================================================================
     Tree Sort Begin                                  
======================================================================
finished copying inputs
======================================================================
     Tree Sort Begin                                  
======================================================================
finished copying inputs
======================================================================
     Tree Sort Begin                                  
======================================================================
finished copying inputs
======================================================================
     Tree Sort Begin                                  
======================================================================
finished copying inputs
======================================================================
     Tree Sort Begin                                  
======================================================================
finished copying inputs
======================================================================
     Tree Sort Begin                                  
======================================================================
finished copying inputs
======================================================================
     Tree Sort Begin                                  
======================================================================
finished copying inputs
======================================================================
     Tree Sort Begin                                  
======================================================================
finished generating nodes
finished copying inputs
======================================================================
     Tree Sort Begin                                  
======================================================================
finished generating nodes
finished copying inputs
======================================================================
     Tree Sort Begin                                  
======================================================================
finished copying inputs
======================================================================
     Tree Sort Begin                                  
======================================================================
======================================================================
     Tree Sort End  (seq)                                
======================================================================
======================================================================
     Tree Sort End  (seq)                                
======================================================================
======================================================================
     std::sort Begin                                
======================================================================
======================================================================
     std::sort Begin                                
======================================================================
======================================================================
     Tree Sort End                                  
======================================================================
======================================================================
     Sample Sort Begin                                  
======================================================================
======================================================================
     Tree Sort End                                  
======================================================================
======================================================================
     Sample Sort Begin                                  
======================================================================
======================================================================
     Tree Sort End                                  
======================================================================
======================================================================
     Sample Sort Begin                                  
======================================================================
======================================================================
     Tree Sort End                                  
======================================================================
======================================================================
     Sample Sort Begin                                  
======================================================================
======================================================================
     Tree Sort End                                  
======================================================================
======================================================================
     Sample Sort Begin                                  
======================================================================
======================================================================
     Tree Sort End                                  
======================================================================
======================================================================
     Sample Sort Begin                                  
======================================================================
======================================================================
     std::sort End                                
======================================================================
======================================================================
     std::sort End                                
======================================================================
======================================================================
     Tree Sort End                                  
======================================================================
======================================================================
     Sample Sort Begin                                  
======================================================================
======================================================================
     Tree Sort End                                  
======================================================================
======================================================================
     Sample Sort Begin                                  
======================================================================
======================================================================
     Tree Sort End                                  
======================================================================
======================================================================
     Sample Sort Begin                                  
======================================================================
======================================================================
     Tree Sort End                                  
======================================================================
======================================================================
     Sample Sort Begin                                  
======================================================================
======================================================================
     Tree Sort End                                  
======================================================================
======================================================================
     Sample Sort Begin                                  
======================================================================
======================================================================
     Sample Sort End                                  
======================================================================
======================================================================
     Tree Sort End                                  
======================================================================
======================================================================
     Sample Sort Begin                                  
======================================================================
======================================================================
     Sample Sort End                                  
======================================================================
======================================================================
     Sample Sort End                                  
======================================================================
======================================================================
     Sample Sort End                                  
======================================================================
======================================================================
     Sample Sort End                                  
======================================================================
======================================================================
     Sample Sort End                                  
======================================================================
======================================================================
     Sample Sort End                                  
======================================================================
======================================================================
     Sample Sort End                                  
======================================================================
======================================================================
     Sample Sort End                                  
======================================================================
======================================================================
     Sample Sort End                                  
======================================================================
======================================================================
     Sample Sort End                                  
======================================================================
======================================================================
     Tree Sort End                                  
======================================================================
======================================================================
     Sample Sort Begin                                  
======================================================================
======================================================================
     Sample Sort End                                  
======================================================================
======================================================================
     Sample Sort End                                  
======================================================================
======================================================================
                        TABLE FORMAT                                  
======================================================================
Using Normal distribution
Weak Scaling Results for : 1e+06
npes	ts_spliter_min	ts_spliter_mean	ts_spliter_max	ss_spliter_min	ss_spliter_mean	ss_spliter_max	ts_all2all_min	ts_all2all_mean	ts_all2all_max	ss_all2all_min	ss_all2all_mean	ss_all2all_max	ts_local_min	ts_local_mean	ts_local_max	ss_local_min	ss_local_mean	ss_local_max	ts_min	ts_mean	ts_max	ss_min	ss_mean	ss_max
1	0	0	0	0	0	0	0	0	0	0	0	0	0	0	0	0	0	0	0.496	0.496	0.496	0.572	0.572	0.572
2	0.069	0.069	0.069	0.518	0.5185	0.519	0.072	0.073	0.074	0.034	0.034	0.034	0.484	0.507	0.53	0.747	0.766	0.785	0.627	0.6505	0.674	1.394	1.3995	1.405
4	0.081	0.081	0.081	0.539	0.54	0.541	0.081	0.084	0.086	0.053	0.05375	0.054	0.484	0.5275	0.576	0.473	0.483	0.496	0.649	0.69275	0.744	1.138	1.2	1.246
8	0.125	0.125	0.125	0.536	0.541375	0.55	0.092	0.101375	0.117	0.069	0.07125	0.073	0.51	0.5485	0.609	0.439	0.464875	0.499	0.733	0.7765	0.853	1.178	1.23625	1.291
16	0.146	0.146937	0.147	0.539	0.541375	0.547	0.103	0.113562	0.127	0.079	0.0833125	0.086	0.498	0.571562	0.617	0.436	0.4585	0.487	0.755	0.833312	0.892	1.173	1.22138	1.318
32	0.162	0.162969	0.163	0.536	0.539125	0.551	0.116	0.121094	0.126	0.096	0.0975938	0.1	0.531	0.594688	0.643	0.447	0.464	0.494	0.812	0.879469	0.929	1.178	1.23434	1.31
64	0.189	0.189	0.189	0.552	0.556266	0.571	0.137	0.144187	0.158	0.117	0.118438	0.119	0.546	0.614187	0.689	0.453	0.468938	0.485	0.877	0.948844	1.024	1.221	1.29933	1.387
128	0.2	0.200992	0.201	0.549	0.553797	0.569	0.166	0.174633	0.189	0.153	0.153547	0.154	0.542	0.637828	0.716	0.454	0.477031	0.5	0.917	1.01477	1.095	1.272	1.34181	1.46
256	0.252	0.252	0.252	0.555	0.560695	0.578	0.2	0.209551	0.223	0.167	0.167426	0.168	0.581	0.659457	0.752	0.459	0.483254	0.499	1.037	1.12309	1.229	1.333	1.43083	1.535
512	0.245	0.245	0.245	0.573	0.579674	0.595	0.218	0.227834	0.242	0.224	0.224002	0.225	0.603	0.681838	0.766	0.465	0.490777	0.523	1.071	1.1565	1.254	1.385	1.47034	1.582
1024	0.266	0.266964	0.267	0.591	0.595749	0.614	0.296	0.304985	0.319	0.339	0.339109	0.34	0.61	0.704869	0.789	0.477	0.498572	0.541	1.177	1.27758	1.374	1.519	1.61939	1.758
2048	0.333	0.333	0.333	0.595	0.600601	0.618	0.488	0.498609	0.513	0.608	0.608974	0.609	0.612	0.727259	0.82	0.477	0.506185	0.593	1.436	1.56054	1.667	1.812	1.91109	2.084
4096	0.387	0.387929	0.388	0.66	0.666249	0.688	0.6	0.61029	0.627	0.511	0.513853	0.515	0.646	0.74995	0.861	0.486	0.512898	0.632	1.64	1.74915	1.872	1.812	1.9301	2.122
8192	0.906	0.906972	0.908	0.795	0.832288	0.853	1.721	1.73066	1.761	1.216	1.21805	1.219	0.667	0.773328	0.892	0.489	0.518008	0.748	3.297	3.41212	3.543	2.8	2.94109	3.26
16384	1.147	1.15571	1.187	1.218	1.27127	1.313	3.039	3.071	3.089	4.628	4.67751	4.725	0.67	0.796734	0.921	0.493	0.520222	0.825	4.89	5.02489	5.162	6.98	7.10766	7.471
Application 10575934 resources: utime ~752396s, stime ~30359s, Rss ~208352, inblocks ~15134506, outblocks ~3107279
Initialized Hcurves
finished generating points
======================================================================
     Warm Up run  (par)                                
======================================================================
Initialized Hcurves
starting full sort
finished generating points
finished generating nodes
finished copying inputs
======================================================================
     Tree Sort Begin                                  
======================================================================
======================================================================
     Tree Sort End                                  
======================================================================
======================================================================
     Sample Sort Begin                                  
======================================================================
======================================================================
     Sample Sort End                                  
======================================================================
finished full sort
finished generating points
finished generating points
finished generating points
finished generating points
finished generating points
finished generating points
finished generating points
finished generating points
finished generating points
finished generating points
finished generating points
finished generating points
finished generating points
finished generating points
finished generating points
finished generating nodes
finished generating nodes
finished generating nodes
finished generating nodes
finished generating nodes
finished generating nodes
finished generating nodes
finished generating nodes
finished generating nodes
finished generating nodes
finished copying inputs
======================================================================
     Tree Sort Begin  (seq)                                
======================================================================
finished generating nodes
finished copying inputs
======================================================================
     Tree Sort Begin                                  
======================================================================
finished copying inputs
======================================================================
     Tree Sort Begin  (seq)                                
======================================================================
finished copying inputs
======================================================================
     Tree Sort Begin                                  
======================================================================
finished copying inputs
======================================================================
     Tree Sort Begin                                  
======================================================================
finished copying inputs
======================================================================
     Tree Sort Begin                                  
======================================================================
finished copying inputs
======================================================================
     Tree Sort Begin                                  
======================================================================
finished copying inputs
======================================================================
     Tree Sort Begin                                  
======================================================================
finished copying inputs
======================================================================
     Tree Sort Begin                                  
======================================================================
finished copying inputs
======================================================================
     Tree Sort Begin                                  
======================================================================
finished generating nodes
finished generating nodes
finished copying inputs
======================================================================
     Tree Sort Begin                                  
======================================================================
finished copying inputs
======================================================================
     Tree Sort Begin                                  
======================================================================
finished generating nodes
finished generating nodes
finished copying inputs
======================================================================
     Tree Sort Begin                                  
======================================================================
finished copying inputs
======================================================================
     Tree Sort Begin                                  
======================================================================
finished copying inputs
======================================================================
     Tree Sort Begin                                  
======================================================================
======================================================================
     Tree Sort End  (seq)                                
======================================================================
======================================================================
     Tree Sort End  (seq)                                
======================================================================
======================================================================
     std::sort Begin                                
======================================================================
======================================================================
     std::sort Begin                                
======================================================================
======================================================================
     Tree Sort End                                  
======================================================================
======================================================================
     Sample Sort Begin                                  
======================================================================
======================================================================
     Tree Sort End                                  
======================================================================
======================================================================
     Sample Sort Begin                                  
======================================================================
======================================================================
     Tree Sort End                                  
======================================================================
======================================================================
     Sample Sort Begin                                  
======================================================================
======================================================================
     Tree Sort End                                  
======================================================================
======================================================================
     Sample Sort Begin                                  
======================================================================
======================================================================
     Tree Sort End                                  
======================================================================
======================================================================
     Sample Sort Begin                                  
======================================================================
======================================================================
     Tree Sort End                                  
======================================================================
======================================================================
     Sample Sort Begin                                  
======================================================================
======================================================================
     Tree Sort End                                  
======================================================================
======================================================================
     Sample Sort Begin                                  
======================================================================
======================================================================
     Tree Sort End                                  
======================================================================
======================================================================
     Sample Sort Begin                                  
======================================================================
======================================================================
     Tree Sort End                                  
======================================================================
======================================================================
     Sample Sort Begin                                  
======================================================================
======================================================================
     Tree Sort End                                  
======================================================================
======================================================================
     Sample Sort Begin                                  
======================================================================
======================================================================
     Tree Sort End                                  
======================================================================
======================================================================
     Sample Sort Begin                                  
======================================================================
======================================================================
     Tree Sort End                                  
======================================================================
======================================================================
     Sample Sort Begin                                  
======================================================================
======================================================================
     std::sort End                                
======================================================================
======================================================================
     std::sort End                                
======================================================================
======================================================================
     Tree Sort End                                  
======================================================================
======================================================================
     Sample Sort Begin                                  
======================================================================
======================================================================
     Sample Sort End                                  
======================================================================
======================================================================
     Sample Sort End                                  
======================================================================
======================================================================
     Sample Sort End                                  
======================================================================
======================================================================
     Sample Sort End                                  
======================================================================
======================================================================
     Sample Sort End                                  
======================================================================
======================================================================
     Sample Sort End                                  
======================================================================
======================================================================
     Sample Sort End                                  
======================================================================
======================================================================
     Sample Sort End                                  
======================================================================
======================================================================
     Sample Sort End                                  
======================================================================
======================================================================
     Sample Sort End                                  
======================================================================
======================================================================
     Sample Sort End                                  
======================================================================
======================================================================
     Sample Sort End                                  
======================================================================
======================================================================
     Sample Sort End                                  
======================================================================
======================================================================
                        TABLE FORMAT                                  
======================================================================
Using Normal distribution
Weak Scaling Results for : 1e+06
npes	ts_spliter_min	ts_spliter_mean	ts_spliter_max	ss_spliter_min	ss_spliter_mean	ss_spliter_max	ts_all2all_min	ts_all2all_mean	ts_all2all_max	ss_all2all_min	ss_all2all_mean	ss_all2all_max	ts_local_min	ts_local_mean	ts_local_max	ss_local_min	ss_local_mean	ss_local_max	ts_min	ts_mean	ts_max	ss_min	ss_mean	ss_max
1	0	0	0	0	0	0	0	0	0	0	0	0	0	0	0	0	0	0	0.496	0.496	0.496	2.103	2.103	2.103
2	0.07	0.07	0.07	2.11	2.1105	2.111	0.076	0.0775	0.079	0.063	0.063	0.063	0.475	0.5055	0.536	4.149	4.157	4.165	0.622	0.6535	0.685	6.405	6.4285	6.452
4	0.07	0.07	0.07	2.147	2.15075	2.157	0.081	0.088	0.101	0.096	0.096	0.096	0.487	0.528	0.574	2.83	2.902	3.007	0.639	0.687	0.731	5.154	5.26175	5.322
8	0.117	0.117	0.117	2.14	2.1445	2.151	0.093	0.1045	0.12	0.125	0.125875	0.126	0.494	0.5495	0.611	2.548	2.64463	2.78	0.707	0.772625	0.85	4.929	5.08137	5.276
16	0.146	0.146	0.146	2.161	2.16281	2.177	0.103	0.113187	0.132	0.136	0.140875	0.144	0.529	0.569875	0.62	2.37	2.49613	2.614	0.783	0.83175	0.9	4.806	4.95025	5.033
32	0.162	0.162969	0.163	2.16	2.16309	2.177	0.111	0.119562	0.136	0.157	0.158781	0.16	0.532	0.59175	0.64	2.333	2.45894	2.587	0.807	0.875625	0.937	4.795	4.9235	5.057
64	0.213	0.213984	0.214	2.173	2.17572	2.189	0.137	0.145281	0.161	0.182	0.182922	0.184	0.566	0.614406	0.683	2.367	2.48859	2.677	0.924	0.975156	1.057	4.868	5.00881	5.185
128	0.198	0.198992	0.199	2.157	2.15933	2.174	0.164	0.173656	0.187	0.217	0.217977	0.219	0.568	0.63768	0.706	2.37	2.50852	2.656	0.939	1.01143	1.092	4.886	5.03948	5.201
256	0.216	0.216996	0.217	2.224	2.2273	2.242	0.188	0.195965	0.21	0.228	0.228777	0.229	0.573	0.66073	0.737	2.366	2.51599	2.75	0.978	1.07473	1.16	4.977	5.13194	5.402
512	0.241	0.241998	0.242	2.218	2.22158	2.239	0.222	0.231174	0.245	0.305	0.305	0.305	0.596	0.682943	0.772	2.382	2.52549	2.826	1.064	1.15723	1.259	5.092	5.23214	5.471
1024	0.263	0.263999	0.264	2.273	2.27664	2.295	0.294	0.304447	0.319	0.357	0.357	0.357	0.606	0.706047	0.82	2.401	2.5455	2.861	1.171	1.27599	1.402	5.266	5.41696	5.835
2048	0.303	0.303	0.303	2.339	2.34374	2.362	0.664	0.673836	0.689	0.639	0.639	0.639	0.631	0.727639	0.82	2.416	2.56929	2.941	1.602	1.70626	1.812	5.586	5.74425	6.115
4096	0.3	0.33767	0.338	2.416	2.44164	2.461	0.732	0.74197	0.758	0.624	0.627824	0.628	0.639	0.752843	0.861	2.413	2.59261	3.341	1.741	1.85739	1.979	5.736	5.92941	6.735
8192	0.889	0.890032	0.891	2.627	2.66762	2.687	1.176	1.18652	1.203	1.117	1.11701	1.118	0.674	0.774357	0.885	2.445	2.61463	3.875	2.742	2.85215	2.975	6.577	6.7367	8.049
16384	1.022	1.02411	1.057	3.19	3.2328	3.255	4.127	4.16174	4.197	5.656	5.65687	5.658	0.679	0.79742	0.906	2.458	2.6346	4.062	5.863	5.98503	6.107	12.007	12.1723	13.69
Application 10575942 resources: utime ~1006972s, stime ~32199s, Rss ~213600, inblocks ~15178068, outblocks ~3103943
