/var/spool/torque/mom_priv/jobs/2738087.SC: line 11: export: `1': not a valid identifier
Initialized Hcurves
finished generating points
======================================================================
     Warm Up run  (par)                                
======================================================================
Initialized Hcurves
starting full sort
finished generating points
finished generating nodes
finished copying inputs
======================================================================
     Tree Sort Begin                                  
======================================================================
======================================================================
     Tree Sort End                                  
======================================================================
======================================================================
     Sample Sort Begin                                  
======================================================================
======================================================================
     Sample Sort End                                  
======================================================================
finished full sort
finished generating points
finished generating points
finished generating points
finished generating points
finished generating points
finished generating points
finished generating points
finished generating points
finished generating points
finished generating points
finished generating points
finished generating points
finished generating nodes
finished generating nodes
finished generating nodes
finished generating nodes
finished generating nodes
finished generating nodes
finished generating nodes
finished generating nodes
finished generating nodes
finished generating nodes
finished generating nodes
finished generating nodes
finished copying inputs
======================================================================
     Tree Sort Begin                                  
======================================================================
finished copying inputs
======================================================================
     Tree Sort Begin                                  
======================================================================
finished copying inputs
======================================================================
     Tree Sort Begin  (seq)                                
======================================================================
finished copying inputs
======================================================================
     Tree Sort Begin  (seq)                                
======================================================================
finished copying inputs
======================================================================
     Tree Sort Begin                                  
======================================================================
finished copying inputs
======================================================================
     Tree Sort Begin                                  
======================================================================
finished copying inputs
======================================================================
     Tree Sort Begin                                  
======================================================================
finished copying inputs
======================================================================
     Tree Sort Begin                                  
======================================================================
finished copying inputs
======================================================================
     Tree Sort Begin                                  
======================================================================
finished copying inputs
======================================================================
     Tree Sort Begin                                  
======================================================================
finished copying inputs
======================================================================
     Tree Sort Begin                                  
======================================================================
finished copying inputs
======================================================================
     Tree Sort Begin                                  
======================================================================
======================================================================
     Tree Sort End  (seq)                                
======================================================================
======================================================================
     Tree Sort End  (seq)                                
======================================================================
======================================================================
     std::sort Begin                                
======================================================================
======================================================================
     std::sort Begin                                
======================================================================
======================================================================
     Tree Sort End                                  
======================================================================
======================================================================
     Sample Sort Begin                                  
======================================================================
======================================================================
     Tree Sort End                                  
======================================================================
======================================================================
     Sample Sort Begin                                  
======================================================================
======================================================================
     Tree Sort End                                  
======================================================================
======================================================================
     Sample Sort Begin                                  
======================================================================
======================================================================
     Tree Sort End                                  
======================================================================
======================================================================
     Sample Sort Begin                                  
======================================================================
======================================================================
     Tree Sort End                                  
======================================================================
======================================================================
     Sample Sort Begin                                  
======================================================================
======================================================================
     Tree Sort End                                  
======================================================================
======================================================================
     Sample Sort Begin                                  
======================================================================
======================================================================
     Tree Sort End                                  
======================================================================
======================================================================
     Sample Sort Begin                                  
======================================================================
======================================================================
     std::sort End                                
======================================================================
======================================================================
     std::sort End                                
======================================================================
======================================================================
     Tree Sort End                                  
======================================================================
======================================================================
     Sample Sort Begin                                  
======================================================================
======================================================================
     Tree Sort End                                  
======================================================================
======================================================================
     Sample Sort Begin                                  
======================================================================
======================================================================
     Tree Sort End                                  
======================================================================
======================================================================
     Sample Sort Begin                                  
======================================================================
======================================================================
     Sample Sort End                                  
======================================================================
======================================================================
     Sample Sort End                                  
======================================================================
======================================================================
     Sample Sort End                                  
======================================================================
======================================================================
     Sample Sort End                                  
======================================================================
======================================================================
     Sample Sort End                                  
======================================================================
======================================================================
     Sample Sort End                                  
======================================================================
======================================================================
     Sample Sort End                                  
======================================================================
======================================================================
     Sample Sort End                                  
======================================================================
======================================================================
     Sample Sort End                                  
======================================================================
======================================================================
     Sample Sort End                                  
======================================================================
======================================================================
                        TABLE FORMAT                                  
======================================================================
Using Normal distribution
Weak Scaling Results for : 5e+06
npes	ts_spliter_min	ts_spliter_mean	ts_spliter_max	ss_spliter_min	ss_spliter_mean	ss_spliter_max	ts_all2all_min	ts_all2all_mean	ts_all2all_max	ss_all2all_min	ss_all2all_mean	ss_all2all_max	ts_local_min	ts_local_mean	ts_local_max	ss_local_min	ss_local_mean	ss_local_max	ts_min	ts_mean	ts_max	ss_min	ss_mean	ss_max
1	0	0	0	0	0	0	0	0	0	0	0	0	0	0	0	0	0	0	2.713	2.713	2.713	3.099	3.099	3.099
2	0.354	0.354	0.354	3.125	3.1255	3.126	0.349	0.3525	0.356	0.257	0.257	0.257	2.633	2.76	2.887	4.585	4.655	4.725	3.336	3.467	3.598	8.587	8.651	8.715
4	0.404	0.404	0.404	3.041	3.04375	3.045	0.395	0.415	0.427	0.284	0.3045	0.324	2.639	2.86375	3.113	2.851	2.9415	3.025	3.457	3.6835	3.945	6.932	7.1005	7.265
8	0.598	0.598	0.598	3.097	3.10462	3.127	0.441	0.488375	0.521	0.326	0.36025	0.396	2.766	2.974	3.302	2.634	2.70075	2.817	3.834	4.06187	4.423	6.933	7.21462	7.471
16	0.723	0.723938	0.724	3.044	3.06169	3.117	0.516	0.544063	0.57	0.365	0.39925	0.433	2.681	3.08281	3.34	2.538	2.65994	2.76	3.946	4.35219	4.626	6.707	7.05288	7.657
32	0.809	0.809969	0.81	3.111	3.13341	3.171	0.568	0.590844	0.605	0.55	0.555969	0.56	2.85	3.19659	3.439	2.556	2.64759	2.738	4.248	4.59863	4.846	6.919	7.18859	7.645
64	0.943	0.943984	0.944	3.099	3.11531	3.145	0.665	0.683891	0.702	0.735	0.740656	0.743	2.938	3.30409	3.685	2.587	2.67636	2.772	4.562	4.93311	5.321	7.09	7.49512	7.931
128	1.015	1.01599	1.016	3.153	3.16413	3.187	0.94	0.960711	0.982	0.978	0.98532	0.989	2.907	3.41541	3.73	2.616	2.71464	2.794	4.876	5.3933	5.719	7.421	7.75298	8.372
256	1.143	1.144	1.144	3.181	3.19018	3.207	1.013	1.03736	1.058	0.905	0.907215	0.91	3.135	3.52847	4.026	2.643	2.74433	2.866	5.31	5.71048	6.221	7.454	7.92356	8.439
512	1.245	1.246	1.246	3.327	3.3352	3.352	1.406	1.4252	1.444	1.294	1.29869	1.301	3.211	3.64103	4.066	2.684	2.77753	2.902	5.879	6.31339	6.751	8.012	8.42454	8.927
1024	1.361	1.36125	1.362	3.234	3.24479	3.27	1.575	1.59922	1.65	1.551	1.55231	1.554	3.253	3.75012	4.328	2.693	2.81607	2.952	6.197	6.71195	7.307	8.203	8.76143	9.38
2048	1.421	1.421	1.421	3.207	3.21724	3.235	2.203	2.22538	2.288	2.266	2.26801	2.269	3.275	3.86055	4.444	2.744	2.85519	3.023	6.91	7.509	8.111	8.95	9.48392	10.13
Application 10574897 resources: utime ~91621s, stime ~9417s, Rss ~550864, inblocks ~1452988, outblocks ~3215078
Initialized Hcurves
finished generating points
======================================================================
     Warm Up run  (par)                                
======================================================================
Initialized Hcurves
starting full sort
finished generating points
finished generating nodes
finished copying inputs
======================================================================
     Tree Sort Begin                                  
======================================================================
======================================================================
     Tree Sort End                                  
======================================================================
======================================================================
     Sample Sort Begin                                  
======================================================================
======================================================================
     Sample Sort End                                  
======================================================================
finished full sort
finished generating points
finished generating points
finished generating points
finished generating points
finished generating points
finished generating points
finished generating points
finished generating points
finished generating points
finished generating points
finished generating points
finished generating points
finished generating nodes
finished generating nodes
finished generating nodes
finished generating nodes
finished generating nodes
finished generating nodes
finished generating nodes
finished generating nodes
finished generating nodes
finished generating nodes
finished generating nodes
finished generating nodes
finished copying inputs
======================================================================
     Tree Sort Begin                                  
======================================================================
finished copying inputs
======================================================================
     Tree Sort Begin  (seq)                                
======================================================================
finished copying inputs
======================================================================
     Tree Sort Begin                                  
======================================================================
finished copying inputs
======================================================================
     Tree Sort Begin  (seq)                                
======================================================================
finished copying inputs
======================================================================
     Tree Sort Begin                                  
======================================================================
finished copying inputs
======================================================================
     Tree Sort Begin                                  
======================================================================
finished copying inputs
======================================================================
     Tree Sort Begin                                  
======================================================================
finished copying inputs
======================================================================
     Tree Sort Begin                                  
======================================================================
finished copying inputs
======================================================================
     Tree Sort Begin                                  
======================================================================
finished copying inputs
======================================================================
     Tree Sort Begin                                  
======================================================================
finished copying inputs
======================================================================
     Tree Sort Begin                                  
======================================================================
finished copying inputs
======================================================================
     Tree Sort Begin                                  
======================================================================
======================================================================
     Tree Sort End  (seq)                                
======================================================================
======================================================================
     Tree Sort End  (seq)                                
======================================================================
======================================================================
     std::sort Begin                                
======================================================================
======================================================================
     std::sort Begin                                
======================================================================
======================================================================
     Tree Sort End                                  
======================================================================
======================================================================
     Sample Sort Begin                                  
======================================================================
======================================================================
     Tree Sort End                                  
======================================================================
======================================================================
     Sample Sort Begin                                  
======================================================================
======================================================================
     Tree Sort End                                  
======================================================================
======================================================================
     Sample Sort Begin                                  
======================================================================
======================================================================
     Tree Sort End                                  
======================================================================
======================================================================
     Sample Sort Begin                                  
======================================================================
======================================================================
     Tree Sort End                                  
======================================================================
======================================================================
     Sample Sort Begin                                  
======================================================================
======================================================================
     Tree Sort End                                  
======================================================================
======================================================================
     Sample Sort Begin                                  
======================================================================
======================================================================
     Tree Sort End                                  
======================================================================
======================================================================
     Sample Sort Begin                                  
======================================================================
======================================================================
     Tree Sort End                                  
======================================================================
======================================================================
     Sample Sort Begin                                  
======================================================================
======================================================================
     Tree Sort End                                  
======================================================================
======================================================================
     Sample Sort Begin                                  
======================================================================
======================================================================
     Tree Sort End                                  
======================================================================
======================================================================
     Sample Sort Begin                                  
======================================================================
======================================================================
     std::sort End                                
======================================================================
======================================================================
     std::sort End                                
======================================================================
======================================================================
     Sample Sort End                                  
======================================================================
======================================================================
     Sample Sort End                                  
======================================================================
======================================================================
     Sample Sort End                                  
======================================================================
======================================================================
     Sample Sort End                                  
======================================================================
======================================================================
     Sample Sort End                                  
======================================================================
======================================================================
     Sample Sort End                                  
======================================================================
======================================================================
     Sample Sort End                                  
======================================================================
======================================================================
     Sample Sort End                                  
======================================================================
======================================================================
     Sample Sort End                                  
======================================================================
======================================================================
     Sample Sort End                                  
======================================================================
======================================================================
                        TABLE FORMAT                                  
======================================================================
Using Normal distribution
Weak Scaling Results for : 5e+06
npes	ts_spliter_min	ts_spliter_mean	ts_spliter_max	ss_spliter_min	ss_spliter_mean	ss_spliter_max	ts_all2all_min	ts_all2all_mean	ts_all2all_max	ss_all2all_min	ss_all2all_mean	ss_all2all_max	ts_local_min	ts_local_mean	ts_local_max	ss_local_min	ss_local_mean	ss_local_max	ts_min	ts_mean	ts_max	ss_min	ss_mean	ss_max
1	0	0	0	0	0	0	0	0	0	0	0	0	0	0	0	0	0	0	2.7	2.7	2.7	11.919	11.919	11.919
2	0.352	0.352	0.352	12.094	12.094	12.094	0.371	0.377	0.383	0.394	0.394	0.394	2.583	2.7505	2.918	24.458	24.4665	24.475	3.308	3.4815	3.655	37.424	37.6045	37.785
4	0.353	0.353	0.353	12.28	12.28	12.28	0.397	0.4225	0.443	0.508	0.52775	0.546	2.642	2.86875	3.112	16.104	17.1902	18.678	3.392	3.6445	3.906	29.525	30.7812	32.541
8	0.556	0.556	0.556	12.341	12.3468	12.356	0.464	0.500625	0.539	0.629	0.64925	0.662	2.687	2.97725	3.294	14.197	15.1476	15.884	3.717	4.03538	4.39	28.545	29.2358	30.301
16	0.724	0.724938	0.725	12.221	12.2377	12.307	0.486	0.53825	0.57	0.647	0.693875	0.716	2.875	3.07513	3.364	14.006	14.7209	16.033	4.088	4.33944	4.66	27.995	28.6164	29.784
32	0.818	0.818969	0.819	12.194	12.2222	12.277	0.555	0.5875	0.603	0.877	0.881906	0.886	2.836	3.19147	3.517	13.698	14.43	15.673	4.212	4.59906	4.939	27.62	28.4761	29.801
64	0.937	0.937984	0.938	12.337	12.3551	12.384	0.667	0.681734	0.7	1.059	1.06328	1.066	2.977	3.3093	3.648	13.573	14.3465	15.051	4.591	4.92964	5.286	27.897	28.6873	29.425
128	1.027	1.02799	1.028	12.582	12.5944	12.616	0.956	0.975539	0.996	1.305	1.31057	1.343	3.087	3.41486	3.771	13.814	14.4941	15.547	5.072	5.4196	5.787	28.547	29.297	30.182
256	1.145	1.146	1.146	12.598	12.6076	12.626	1.012	1.03176	1.056	1.242	1.24472	1.247	3.049	3.52708	4.049	13.724	14.515	15.474	5.214	5.70569	6.242	28.761	29.4526	30.474
512	1.221	1.22166	1.222	12.834	12.8423	12.862	1.358	1.37939	1.398	1.787	1.79044	1.793	3.184	3.64096	4.075	13.673	14.5648	15.582	5.786	6.243	6.684	29.275	30.1888	31.111
1024	1.337	1.338	1.338	12.618	12.6282	12.676	1.467	1.48674	1.507	1.917	1.91855	1.92	3.278	3.75174	4.265	13.809	14.6217	15.842	6.087	6.57738	7.104	29.35	30.2455	31.467
2048	1.405	1.40557	1.406	12.843	12.8643	12.885	2.166	2.1917	2.226	2.487	2.48975	2.491	3.329	3.86332	4.406	13.648	14.7258	15.806	6.91	7.46221	8.02	30.333	31.2025	32.492
Application 10574914 resources: utime ~189682s, stime ~9290s, Rss ~550836, inblocks ~1434700, outblocks ~3214891
