Morton 10%
Initialized Hcurves
finished generating points
======================================================================
     Warm Up run  (par)                                
======================================================================
======================================================================
     Warm Up run  End                                
======================================================================
======================================================================
                        TABLE FORMAT                                  
======================================================================
Using Normal distribution
Weak Scaling Results for : 5e+06
npes	ts_spliter_min	ts_spliter_mean	ts_spliter_max	ss_spliter_min	ss_spliter_mean	ss_spliter_max	ts_all2all_min	ts_all2all_mean	ts_all2all_max	ss_all2all_min	ss_all2all_mean	ss_all2all_max	ts_local_min	ts_local_mean	ts_local_max	ss_local_min	ss_local_mean	ss_local_max	ts_send_min	ts_send_mean	ts_send_max	ts_recv_min	ts_recv_mean	ts_recv_max	ss_send_min	ss_send_mean	ss_send_max	ss_recv_min	ss_recv_mean	ss_recv_max	ts_lb_min	ts_lb_max	ss_lb_min	ss_lb_max	ts_min	ts_mean	ts_max	ss_min	ss_mean	ss_max
1	0	0	0	0	0	0	0	0	0	0	0	0	0	0	0	0	0	0	0	0	0	0	0	0	0	0	0	0	0	0	0	0	0	0	1.81	1.81	1.81	2.82	2.82	2.82
2	0.325	0.325	0.325	2.858	2.8585	2.859	0.735	0.752	0.769	0.745	0.7455	0.746	1.778	1.855	1.932	4.031	4.0585	4.086	2.42755e+06	2.50016e+06	2.57276e+06	2.42755e+06	2.50016e+06	2.57276e+06	2.5e+06	2.50044e+06	2.50087e+06	2.5e+06	2.50044e+06	2.50087e+06	4.85479e+06	5.14521e+06	4.99913e+06	5.00087e+06	2.839	2.9325	3.026	8.104	8.2295	8.355
4	0.369	0.369	0.369	2.91	2.9115	2.913	0.87	0.9115	0.954	0.885	0.91	0.936	1.727	1.855	1.983	2.486	2.5925	2.852	3.70483e+06	3.74854e+06	3.80282e+06	3.59129e+06	3.74854e+06	3.87838e+06	3.74752e+06	3.74887e+06	3.75e+06	3.74232e+06	3.74887e+06	3.7541e+06	4.78847e+06	5.17355e+06	4.99232e+06	5.00527e+06	3.031	3.13625	3.241	6.826	7.029	7.417
8	0.544	0.544	0.544	2.928	2.93125	2.942	1.02	1.1755	1.256	1.077	1.15437	1.211	1.795	1.93012	2.089	2.408	2.46625	2.592	4.33314e+06	4.37517e+06	4.40803e+06	4.14423e+06	4.37517e+06	4.6706e+06	4.37405e+06	4.37516e+06	4.37618e+06	4.37005e+06	4.37516e+06	4.37816e+06	4.73621e+06	5.33746e+06	4.99505e+06	5.00375e+06	3.465	3.65037	3.889	7.148	7.39225	7.599
16	0.679	0.679	0.679	2.899	2.90281	2.911	1.104	1.25381	1.32	1.213	1.26587	1.292	1.743	1.97444	2.103	2.373	2.43831	2.56	4.66288e+06	4.68754e+06	4.71445e+06	4.28606e+06	4.68754e+06	5.05166e+06	4.68607e+06	4.68754e+06	4.68841e+06	4.67672e+06	4.68754e+06	4.7075e+06	4.57162e+06	5.38878e+06	4.98922e+06	5.02144e+06	3.67	3.90875	4.096	7.126	7.38069	7.782
32	0.752	0.752	0.752	2.915	2.92112	2.932	1.119	1.18672	1.226	1.116	1.16744	1.185	1.87	2.02106	2.127	2.349	2.43756	2.529	4.83641e+06	4.84382e+06	4.85477e+06	4.48626e+06	4.84382e+06	5.05854e+06	4.84293e+06	4.84383e+06	4.84458e+06	4.82234e+06	4.84383e+06	4.87196e+06	4.63148e+06	5.22213e+06	4.97783e+06	5.02854e+06	3.768	3.96072	4.081	7.068	7.24053	7.498
64	0.873	0.873	0.873	2.909	2.91702	2.931	1.183	1.28903	1.329	1.149	1.19597	1.216	1.912	2.07809	2.27	2.403	2.46577	2.555	4.91535e+06	4.92186e+06	4.92846e+06	4.51119e+06	4.92186e+06	5.35339e+06	4.92089e+06	4.92186e+06	4.92245e+06	4.91011e+06	4.92186e+06	4.97381e+06	4.58273e+06	5.43804e+06	4.98803e+06	5.05275e+06	3.98	4.24145	4.461	7.181	7.38261	7.704
128	0.956	0.956	0.956	2.915	2.92189	2.936	1.492	1.6081	1.667	1.259	1.30979	1.34	1.91	2.13339	2.343	2.427	2.50751	2.58	4.95726e+06	4.96093e+06	4.96441e+06	4.52874e+06	4.96093e+06	5.42924e+06	4.96041e+06	4.96093e+06	4.96139e+06	4.93388e+06	4.96093e+06	5.02386e+06	4.56445e+06	5.47176e+06	4.97259e+06	5.06327e+06	4.383	4.69827	4.953	7.331	7.5533	7.944
256	1.039	1.039	1.039	2.952	2.96226	2.979	1.778	1.98683	2.082	1.706	1.86884	1.899	1.951	2.18774	2.443	2.455	2.55059	2.621	4.97868e+06	4.98049e+06	4.9823e+06	4.49962e+06	4.98049e+06	5.40842e+06	4.97997e+06	4.98049e+06	4.98084e+06	4.95675e+06	4.98049e+06	5.08169e+06	4.51731e+06	5.42964e+06	4.97605e+06	5.10172e+06	4.925	5.21485	5.557	7.911	8.27792	8.658
512	1.135	1.135	1.135	3.078	3.09973	3.123	1.805	1.98897	2.109	1.795	1.96387	2.094	1.993	2.25105	2.531	2.497	2.59222	2.754	4.98928e+06	4.99024e+06	4.99118e+06	4.53389e+06	4.99024e+06	5.46734e+06	4.98998e+06	4.99024e+06	4.99052e+06	4.95528e+06	4.99024e+06	5.13897e+06	4.54278e+06	5.47797e+06	4.965e+06	5.149e+06	5.046	5.37628	5.664	8.099	8.48421	8.846
1024	1.242	1.242	1.242	3.097	3.11371	3.145	2.324	2.52205	2.684	2.109	2.28777	2.426	1.997	2.30056	2.647	2.525	2.62745	2.812	4.99453e+06	4.99512e+06	4.99563e+06	4.50453e+06	4.99512e+06	5.46373e+06	4.9947e+06	4.99512e+06	4.99534e+06	4.95332e+06	4.99512e+06	5.28621e+06	4.50904e+06	5.46907e+06	4.95811e+06	5.29151e+06	5.692	6.06596	6.424	8.574	8.96228	9.42
2048	1.343	1.34317	1.344	3.171	3.18939	3.219	3.046	3.29291	3.402	2.881	3.09694	3.192	2.023	2.34338	2.674	2.574	2.67632	2.811	4.99727e+06	4.99756e+06	4.99787e+06	4.50952e+06	4.99756e+06	5.4719e+06	4.99734e+06	4.99756e+06	4.99774e+06	4.93266e+06	4.99756e+06	5.31782e+06	4.51174e+06	5.47463e+06	4.93504e+06	5.32048e+06	6.584	6.98085	7.298	9.483	9.92229	10.421
4096	1.448	1.44883	1.449	3.031	3.09322	3.156	4.156	4.31252	4.429	4.103	4.21725	4.289	2.13	2.38285	2.697	2.614	2.72691	2.967	4.9986e+06	4.99878e+06	4.99898e+06	4.51204e+06	4.99878e+06	5.4964e+06	4.99864e+06	4.99878e+06	4.9989e+06	4.93262e+06	4.99878e+06	5.51726e+06	4.51313e+06	5.49777e+06	4.93381e+06	5.51862e+06	7.794	8.1452	8.474	10.663	11.0354	11.495
8192	2.666	2.66708	2.668	3.229	3.27683	3.348	4.895	5.07163	5.566	4.852	4.971	5.41	2.158	2.42225	2.746	2.634	2.76803	3.195	4.99927e+06	4.99939e+06	4.99951e+06	4.50046e+06	4.99939e+06	5.49691e+06	4.99927e+06	4.99939e+06	4.99949e+06	4.94859e+06	4.99939e+06	5.84062e+06	4.50103e+06	5.49763e+06	4.94921e+06	5.84132e+06	9.757	10.1622	10.92	11.738	12.4542	13.164
16384	2.832	2.83522	2.863	3.51	3.55132	3.618	9.941	10.1637	10.569	9.437	9.60587	9.867	2.15	2.46886	2.792	2.656	2.80593	3.449	4.9996e+06	4.99969e+06	4.99978e+06	4.508e+06	4.99969e+06	5.48791e+06	4.99961e+06	4.99969e+06	4.99977e+06	4.95828e+06	4.99969e+06	6.22456e+06	4.50826e+06	5.48827e+06	4.95857e+06	6.22492e+06	15.066	15.4871	16.146	16.544	17.2618	18.285
32768	3.095	3.1308	3.164	4.743	4.8209	4.904	9.594	10.0064	11.773	9.176	9.50988	11.142	2.209	2.51917	2.849	2.688	2.83744	3.859	4.99979e+06	4.99985e+06	4.9999e+06	4.50038e+06	4.99985e+06	5.49664e+06	4.99976e+06	4.99985e+06	4.9999e+06	4.97389e+06	4.99985e+06	6.82078e+06	4.50052e+06	5.49681e+06	4.97404e+06	6.82102e+06	15.098	15.681	17.608	17.826	19.7678	20.961
65536	115.91	115.943	115.988	7.048	7.10382	7.197	11.256	11.8177	13.983	11.112	11.6154	13.765	2.255	2.58456	2.964	2.717	2.85202	4.376	4.99988e+06	4.99992e+06	4.99996e+06	4.50168e+06	4.99992e+06	5.49485e+06	4.99988e+06	4.99992e+06	4.99996e+06	4.97092e+06	4.99992e+06	7.3636e+06	4.50175e+06	5.49493e+06	4.97101e+06	7.36372e+06	129.626	130.368	132.653	22.13	24.6345	26.588
Application 10898121 resources: utime ~21316759s, stime ~582996s, Rss ~731804, inblocks ~136610188, outblocks ~33227983
Hilbert 10%
Initialized Hcurves
finished generating points
======================================================================
     Warm Up run  (par)                                
======================================================================
======================================================================
     Warm Up run  End                                
======================================================================
======================================================================
                        TABLE FORMAT                                  
======================================================================
Using Normal distribution
Weak Scaling Results for : 5e+06
npes	ts_spliter_min	ts_spliter_mean	ts_spliter_max	ss_spliter_min	ss_spliter_mean	ss_spliter_max	ts_all2all_min	ts_all2all_mean	ts_all2all_max	ss_all2all_min	ss_all2all_mean	ss_all2all_max	ts_local_min	ts_local_mean	ts_local_max	ss_local_min	ss_local_mean	ss_local_max	ts_send_min	ts_send_mean	ts_send_max	ts_recv_min	ts_recv_mean	ts_recv_max	ss_send_min	ss_send_mean	ss_send_max	ss_recv_min	ss_recv_mean	ss_recv_max	ts_lb_min	ts_lb_max	ss_lb_min	ss_lb_max	ts_min	ts_mean	ts_max	ss_min	ss_mean	ss_max
1	0	0	0	0	0	0	0	0	0	0	0	0	0	0	0	0	0	0	0	0	0	0	0	0	0	0	0	0	0	0	0	0	0	0	1.816	1.816	1.816	13.646	13.646	13.646
2	0.318	0.318	0.318	13.811	13.8115	13.812	0.744	0.764	0.784	0.879	0.8805	0.882	1.737	1.838	1.939	27.509	27.608	27.707	2.39059e+06	2.50172e+06	2.61284e+06	2.39059e+06	2.50172e+06	2.61284e+06	2.5e+06	2.50171e+06	2.50342e+06	2.5e+06	2.50171e+06	2.50342e+06	4.77776e+06	5.22224e+06	4.99658e+06	5.00342e+06	2.8	2.9215	3.043	42.609	42.8285	43.048
4	0.318	0.318	0.318	14.016	14.0173	14.019	0.891	0.92675	0.972	1.129	1.15	1.171	1.682	1.84475	1.964	18.612	19.1175	19.864	3.68257e+06	3.75001e+06	3.84534e+06	3.46534e+06	3.75001e+06	3.95167e+06	3.74962e+06	3.75044e+06	3.75114e+06	3.74962e+06	3.75044e+06	3.752e+06	4.62e+06	5.26911e+06	4.99848e+06	5.002e+06	2.937	3.09075	3.221	34.242	34.8607	35.683
8	0.512	0.512	0.512	14.066	14.0753	14.087	0.995	1.11975	1.217	1.433	1.49475	1.54	1.794	1.93138	2.087	16.633	17.53	18.523	4.31626e+06	4.3746e+06	4.43636e+06	3.93754e+06	4.3746e+06	4.77782e+06	4.37309e+06	4.37467e+06	4.37603e+06	4.36928e+06	4.37467e+06	4.3815e+06	4.50118e+06	5.46156e+06	4.99325e+06	5.00715e+06	3.302	3.56388	3.813	33.032	33.9395	34.801
16	0.681	0.681	0.681	13.952	13.9623	13.979	1.167	1.25981	1.318	1.561	1.6235	1.643	1.883	1.9855	2.127	15.44	16.3559	17.54	4.6629e+06	4.68748e+06	4.70506e+06	4.43459e+06	4.68748e+06	5.05482e+06	4.68594e+06	4.68752e+06	4.68884e+06	4.6806e+06	4.68752e+06	4.70234e+06	4.72953e+06	5.39192e+06	4.99316e+06	5.0164e+06	3.763	3.92731	4.128	31.676	32.7034	33.95
32	0.762	0.762	0.762	14.127	14.1398	14.154	1.097	1.18138	1.242	1.534	1.57203	1.587	1.838	2.03103	2.187	14.987	16.0136	17.437	4.83058e+06	4.84391e+06	4.85807e+06	4.43709e+06	4.84391e+06	5.25039e+06	4.84311e+06	4.84391e+06	4.8452e+06	4.83382e+06	4.84391e+06	4.8827e+06	4.57902e+06	5.41981e+06	4.98977e+06	5.03895e+06	3.71	3.97553	4.177	31.374	32.4983	33.932
64	0.853	0.853	0.853	14.078	14.0912	14.109	1.22	1.29883	1.337	1.565	1.59811	1.613	1.956	2.08373	2.264	14.919	15.8413	17.192	4.91385e+06	4.92188e+06	4.92817e+06	4.53004e+06	4.92188e+06	5.40141e+06	4.92098e+06	4.92189e+06	4.92259e+06	4.90653e+06	4.92189e+06	4.96872e+06	4.60187e+06	5.48756e+06	4.9843e+06	5.04774e+06	4.039	4.23659	4.448	31.494	32.3408	33.812
128	0.945	0.945	0.945	14.186	14.2019	14.218	1.536	1.63213	1.688	1.672	1.7522	1.788	1.963	2.1401	2.334	15.029	15.7846	16.736	4.95686e+06	4.96091e+06	4.96468e+06	4.49978e+06	4.96091e+06	5.39736e+06	4.96029e+06	4.96092e+06	4.96144e+06	4.93905e+06	4.96092e+06	5.02605e+06	4.53511e+06	5.4405e+06	4.97799e+06	5.06571e+06	4.474	4.71862	4.916	31.817	32.5032	33.505
256	1.023	1.023	1.023	14.358	14.3776	14.409	1.808	1.98732	2.088	2.211	2.28538	2.306	1.979	2.19002	2.392	14.903	15.8068	16.962	4.97876e+06	4.98048e+06	4.98216e+06	4.55072e+06	4.98048e+06	5.36503e+06	4.98003e+06	4.98047e+06	4.98085e+06	4.95062e+06	4.98047e+06	5.08365e+06	4.56862e+06	5.38603e+06	4.96994e+06	5.10354e+06	4.892	5.20114	5.473	32.314	33.3312	34.395
512	1.119	1.119	1.119	14.326	14.3456	14.37	1.829	2.01672	2.14	2.222	2.38446	2.524	1.983	2.25078	2.531	14.896	15.758	16.971	4.98927e+06	4.99024e+06	4.99132e+06	4.52363e+06	4.99024e+06	5.44582e+06	4.98977e+06	4.99024e+06	4.9905e+06	4.9535e+06	4.99024e+06	5.16084e+06	4.53247e+06	5.4564e+06	4.96312e+06	5.17107e+06	5.059	5.38727	5.669	32.572	33.3759	34.728
1024	1.225	1.225	1.225	14.596	14.6145	14.64	2.302	2.53289	2.671	2.565	2.72782	2.844	2.034	2.29895	2.654	14.958	15.758	16.814	4.99455e+06	4.99512e+06	4.9957e+06	4.49862e+06	4.99512e+06	5.45805e+06	4.99481e+06	4.99512e+06	4.99544e+06	4.95069e+06	4.99512e+06	5.23451e+06	4.50296e+06	5.46336e+06	4.95547e+06	5.23954e+06	5.673	6.05802	6.438	33.189	34.0879	35.402
2048	1.331	1.33186	1.332	14.845	14.865	14.895	3.089	3.33284	3.445	3.286	3.49158	3.59	2.062	2.33858	2.61	15.061	15.7916	17.436	4.99725e+06	4.99756e+06	4.99789e+06	4.51097e+06	4.99756e+06	5.48676e+06	4.99733e+06	4.99756e+06	4.99772e+06	4.94395e+06	4.99756e+06	5.3832e+06	4.5132e+06	5.4894e+06	4.94638e+06	5.38587e+06	6.664	7.00409	7.348	34.32	35.0655	36.815
4096	1.451	1.45164	1.452	14.822	14.855	14.92	4.168	4.33083	4.449	4.478	4.60542	4.724	2.082	2.37296	2.658	14.961	15.8688	17.634	4.99858e+06	4.99878e+06	4.99896e+06	4.5072e+06	4.99878e+06	5.49616e+06	4.99864e+06	4.99878e+06	4.9989e+06	4.93935e+06	4.99878e+06	5.6009e+06	4.50828e+06	5.4975e+06	4.94057e+06	5.60225e+06	7.815	8.15646	8.485	35.376	36.3615	38.383
8192	2.659	2.65985	2.662	14.88	14.9329	15	4.942	5.09431	5.574	5.276	5.44488	5.873	2.152	2.40792	2.728	15.055	15.9465	18.703	4.99927e+06	4.99939e+06	4.99953e+06	4.50806e+06	4.99939e+06	5.49431e+06	4.9993e+06	4.99939e+06	4.99948e+06	4.93861e+06	4.99939e+06	5.8959e+06	4.50862e+06	5.49499e+06	4.93926e+06	5.89658e+06	9.808	10.1632	10.759	36.702	37.5512	40.426
16384	2.718	2.72751	2.755	15.856	15.9155	15.991	9.783	10.0021	10.443	9.24	9.44329	9.755	2.145	2.44998	2.779	15.204	16.0276	20.739	4.99962e+06	4.99969e+06	4.99977e+06	4.505e+06	4.99969e+06	5.48975e+06	4.99958e+06	4.99969e+06	4.99976e+06	4.96456e+06	4.99969e+06	6.32692e+06	4.50528e+06	5.49008e+06	4.96488e+06	6.32734e+06	14.71	15.1807	15.884	41.896	42.7332	47.785
32768	3.049	3.06082	3.081	16.784	16.8373	16.911	9.559	9.96219	11.74	9.478	9.81752	11.482	2.167	2.49868	2.82	15.276	16.1033	23.827	4.99979e+06	4.99985e+06	4.9999e+06	4.50525e+06	4.99985e+06	5.49749e+06	4.99977e+06	4.99985e+06	4.9999e+06	4.97449e+06	4.99985e+06	7.22009e+06	4.50538e+06	5.49766e+06	4.97465e+06	7.22031e+06	14.976	15.5482	17.456	43.441	45.4052	53.345
65536	115.258	115.278	115.322	19.997	20.0397	20.126	11.212	11.7368	13.933	11.663	12.1573	14.306	2.231	2.56441	2.942	15.264	16.1581	24.226	4.99988e+06	4.99992e+06	4.99996e+06	4.50558e+06	4.99992e+06	5.49718e+06	4.99988e+06	4.99992e+06	4.99996e+06	4.96365e+06	4.99992e+06	7.36021e+06	4.50564e+06	5.49725e+06	4.96372e+06	7.36032e+06	128.869	129.581	131.812	48.726	51.3437	59.825
Application 10898170 resources: utime ~25494627s, stime ~579497s, Rss ~731596, inblocks ~136722354, outblocks ~33223904
Morton 1%
Initialized Hcurves
finished generating points
======================================================================
     Warm Up run  (par)                                
======================================================================
======================================================================
     Warm Up run  End                                
======================================================================
======================================================================
                        TABLE FORMAT                                  
======================================================================
Using Normal distribution
Weak Scaling Results for : 5e+06
npes	ts_spliter_min	ts_spliter_mean	ts_spliter_max	ss_spliter_min	ss_spliter_mean	ss_spliter_max	ts_all2all_min	ts_all2all_mean	ts_all2all_max	ss_all2all_min	ss_all2all_mean	ss_all2all_max	ts_local_min	ts_local_mean	ts_local_max	ss_local_min	ss_local_mean	ss_local_max	ts_send_min	ts_send_mean	ts_send_max	ts_recv_min	ts_recv_mean	ts_recv_max	ss_send_min	ss_send_mean	ss_send_max	ss_recv_min	ss_recv_mean	ss_recv_max	ts_lb_min	ts_lb_max	ss_lb_min	ss_lb_max	ts_min	ts_mean	ts_max	ss_min	ss_mean	ss_max
1	0	0	0	0	0	0	0	0	0	0	0	0	0	0	0	0	0	0	0	0	0	0	0	0	0	0	0	0	0	0	0	0	0	0	1.8	1.8	1.8	2.796	2.796	2.796
2	0.334	0.334	0.334	2.902	2.904	2.906	0.721	0.7215	0.722	0.745	0.7465	0.748	1.835	1.8685	1.902	3.915	4.0145	4.114	2.49687e+06	2.49942e+06	2.50196e+06	2.49687e+06	2.49942e+06	2.50196e+06	2.49885e+06	2.49942e+06	2.5e+06	2.49885e+06	2.49942e+06	2.5e+06	4.99491e+06	5.00509e+06	4.99885e+06	5.00115e+06	2.891	2.9255	2.96	8.067	8.135	8.203
4	0.484	0.484	0.484	2.9	2.9015	2.904	0.865	0.8985	0.931	0.893	0.917	0.942	1.795	1.84475	1.892	2.563	2.645	2.719	3.74525e+06	3.75103e+06	3.75817e+06	3.72823e+06	3.75103e+06	3.76815e+06	3.75e+06	3.75109e+06	3.75249e+06	3.74715e+06	3.75109e+06	3.75412e+06	4.97005e+06	5.02208e+06	4.99597e+06	5.00344e+06	3.209	3.22875	3.249	6.865	6.9485	7.019
8	0.618	0.618	0.618	2.903	2.90625	2.917	1.089	1.16838	1.229	1.055	1.14987	1.226	1.866	1.92037	1.96	2.386	2.4645	2.6	4.36854e+06	4.37521e+06	4.38128e+06	4.33387e+06	4.37521e+06	4.41783e+06	4.37393e+06	4.37521e+06	4.37647e+06	4.37113e+06	4.37521e+06	4.38284e+06	4.95259e+06	5.0493e+06	4.99588e+06	5.00784e+06	3.625	3.70825	3.8	7.005	7.15512	7.287
16	0.719	0.719	0.719	2.939	2.95531	2.967	1.118	1.25487	1.298	1.184	1.25594	1.29	1.902	1.981	2.062	2.323	2.40531	2.479	4.68629e+06	4.68762e+06	4.68984e+06	4.65896e+06	4.68762e+06	4.71623e+06	4.68554e+06	4.68763e+06	4.68905e+06	4.68095e+06	4.68763e+06	4.70767e+06	4.97022e+06	5.02931e+06	4.99228e+06	5.02213e+06	3.82	3.956	4.015	7.085	7.28956	7.462
32	0.804	0.804	0.804	2.879	2.89366	2.911	1.141	1.19569	1.226	1.14	1.17878	1.2	1.899	2.01384	2.119	2.361	2.43888	2.542	4.8425e+06	4.84381e+06	4.84534e+06	4.81036e+06	4.84381e+06	4.87946e+06	4.84294e+06	4.84381e+06	4.84482e+06	4.83459e+06	4.84381e+06	4.87694e+06	4.96502e+06	5.03679e+06	4.99047e+06	5.03378e+06	3.927	4.01491	4.065	7	7.18138	7.382
64	0.905	0.905	0.905	2.909	2.9215	2.938	1.197	1.29922	1.337	1.091	1.19364	1.214	1.99	2.07361	2.179	2.369	2.46773	2.567	4.92084e+06	4.92185e+06	4.92287e+06	4.87961e+06	4.92185e+06	4.9656e+06	4.92097e+06	4.92184e+06	4.92257e+06	4.90376e+06	4.92184e+06	4.9726e+06	4.95751e+06	5.04382e+06	4.9814e+06	5.05159e+06	4.116	4.27895	4.375	7.124	7.26039	7.439
128	0.989	0.989	0.989	2.93	2.9477	2.965	1.528	1.63663	1.687	1.244	1.30967	1.341	2.006	2.12722	2.264	2.431	2.50909	2.589	4.96041e+06	4.96093e+06	4.96164e+06	4.91791e+06	4.96093e+06	5.00086e+06	4.96016e+06	4.96094e+06	4.96142e+06	4.93871e+06	4.96094e+06	5.03735e+06	4.9569e+06	5.04018e+06	4.97745e+06	5.07718e+06	4.625	4.75431	4.921	7.319	7.5317	7.703
256	1.075	1.075	1.075	2.95	2.96655	2.989	1.903	2.01406	2.062	1.817	1.86276	1.889	2.027	2.18136	2.317	2.46	2.55621	2.639	4.98e+06	4.98048e+06	4.98093e+06	4.9339e+06	4.98048e+06	5.02694e+06	4.9799e+06	4.98048e+06	4.98092e+06	4.95639e+06	4.98048e+06	5.0964e+06	4.9534e+06	5.04657e+06	4.97566e+06	5.11649e+06	5.101	5.27169	5.418	7.901	8.12932	8.436
512	1.174	1.174	1.174	3.075	3.09394	3.119	1.858	2.02793	2.153	1.766	1.96385	2.11	2.059	2.24631	2.444	2.494	2.5972	2.724	4.98992e+06	4.99023e+06	4.99057e+06	4.94183e+06	4.99023e+06	5.03864e+06	4.98984e+06	4.99023e+06	4.9905e+06	4.95806e+06	4.99023e+06	5.15556e+06	4.95165e+06	5.04853e+06	4.9678e+06	5.16572e+06	5.23	5.44912	5.661	8.102	8.43732	8.76
1024	1.282	1.28282	1.283	3.085	3.10678	3.147	2.334	2.529	2.692	2.121	2.2937	2.428	2.124	2.29682	2.5	2.535	2.62793	2.774	4.99486e+06	4.99512e+06	4.99536e+06	4.94703e+06	4.99512e+06	5.04266e+06	4.99478e+06	4.99512e+06	4.99537e+06	4.94822e+06	4.99512e+06	5.2493e+06	4.95185e+06	5.04741e+06	4.95309e+06	5.25452e+06	5.845	6.10953	6.289	8.489	8.82889	9.221
2048	1.369	1.369	1.369	3.143	3.16499	3.218	3.043	3.28345	3.405	2.846	3.03258	3.129	2.151	2.33886	2.53	2.578	2.67733	2.837	4.99739e+06	4.99756e+06	4.99772e+06	4.94856e+06	4.99756e+06	5.04667e+06	4.99733e+06	4.99756e+06	4.99771e+06	4.93661e+06	4.99756e+06	5.39924e+06	4.95096e+06	5.04915e+06	4.93905e+06	5.40182e+06	6.753	6.99273	7.157	9.36	9.66995	10.07
4096	1.505	1.505	1.505	3.045	3.08731	3.178	4.253	4.39399	4.513	3.945	4.09473	4.18	2.198	2.37542	2.552	2.611	2.72774	2.982	4.99866e+06	4.99878e+06	4.9989e+06	4.94927e+06	4.99878e+06	5.04855e+06	4.99866e+06	4.99878e+06	4.9989e+06	4.94375e+06	4.99878e+06	5.54649e+06	4.95045e+06	5.04982e+06	4.94492e+06	5.5478e+06	8.076	8.27554	8.449	10.53	10.8162	11.338
8192	2.697	2.70127	2.734	3.216	3.31602	3.395	5.042	5.20179	5.695	4.721	4.94681	5.406	2.231	2.41568	2.619	2.638	2.76932	3.214	4.99929e+06	4.99939e+06	4.99948e+06	4.95007e+06	4.99939e+06	5.04882e+06	4.9993e+06	4.99939e+06	4.99947e+06	4.9583e+06	4.99939e+06	5.87518e+06	4.95071e+06	5.04946e+06	4.9589e+06	5.87588e+06	10.104	10.3201	10.876	11.767	12.3338	12.937
16384	2.898	2.90187	2.943	3.506	3.54608	3.624	10.102	10.3172	10.723	8.696	8.88144	9.169	2.284	2.46321	2.647	2.666	2.80662	3.488	4.99962e+06	4.99969e+06	4.99977e+06	4.95014e+06	4.99969e+06	5.04905e+06	4.99959e+06	4.99969e+06	4.99976e+06	4.96243e+06	4.99969e+06	6.19675e+06	4.95044e+06	5.04937e+06	4.96271e+06	6.19716e+06	15.425	15.6835	16.179	16.029	16.4995	17.489
32768	3.458	3.46982	3.499	4.819	4.8666	4.953	9.647	10.0458	11.81	9.052	9.41278	11.077	2.336	2.51402	2.707	2.688	2.8366	3.873	4.99978e+06	4.99985e+06	4.99989e+06	4.95026e+06	4.99985e+06	5.04943e+06	4.99978e+06	4.99985e+06	4.99989e+06	4.96301e+06	4.99985e+06	6.79463e+06	4.95041e+06	5.04961e+06	4.96314e+06	6.79485e+06	15.632	16.0309	17.814	17.776	19.6413	20.76
65536	115.626	115.653	115.697	7.049	7.10205	7.168	11.02	11.585	13.716	10.908	11.4991	13.668	2.374	2.58308	2.807	2.717	2.85266	4.274	4.99988e+06	4.99992e+06	4.99996e+06	4.95028e+06	4.99992e+06	5.04986e+06	4.99988e+06	4.99992e+06	4.99996e+06	4.97239e+06	4.99992e+06	7.36057e+06	4.95035e+06	5.04994e+06	4.97246e+06	7.36069e+06	129.26	129.85	131.975	22.079	24.4021	26.228
Application 10898213 resources: utime ~21288954s, stime ~587015s, Rss ~736940, inblocks ~138795695, outblocks ~33406393
Hilbert 1%
Initialized Hcurves
finished generating points
======================================================================
     Warm Up run  (par)                                
======================================================================
======================================================================
     Warm Up run  End                                
======================================================================
======================================================================
                        TABLE FORMAT                                  
======================================================================
Using Normal distribution
Weak Scaling Results for : 5e+06
npes	ts_spliter_min	ts_spliter_mean	ts_spliter_max	ss_spliter_min	ss_spliter_mean	ss_spliter_max	ts_all2all_min	ts_all2all_mean	ts_all2all_max	ss_all2all_min	ss_all2all_mean	ss_all2all_max	ts_local_min	ts_local_mean	ts_local_max	ss_local_min	ss_local_mean	ss_local_max	ts_send_min	ts_send_mean	ts_send_max	ts_recv_min	ts_recv_mean	ts_recv_max	ss_send_min	ss_send_mean	ss_send_max	ss_recv_min	ss_recv_mean	ss_recv_max	ts_lb_min	ts_lb_max	ss_lb_min	ss_lb_max	ts_min	ts_mean	ts_max	ss_min	ss_mean	ss_max
1	0	0	0	0	0	0	0	0	0	0	0	0	0	0	0	0	0	0	0	0	0	0	0	0	0	0	0	0	0	0	0	0	0	0	1.793	1.793	1.793	13.591	13.591	13.591
2	0.329	0.329	0.329	13.535	13.539	13.543	0.726	0.727	0.728	0.863	0.8635	0.864	1.813	1.848	1.883	27.531	27.6365	27.742	2.49533e+06	2.49903e+06	2.50272e+06	2.49533e+06	2.49903e+06	2.50272e+06	2.49802e+06	2.49901e+06	2.5e+06	2.49802e+06	2.49901e+06	2.5e+06	4.99261e+06	5.00739e+06	4.99802e+06	5.00198e+06	2.87	2.9055	2.941	42.415	42.4855	42.556
4	0.424	0.424	0.424	13.717	13.7228	13.725	0.87	0.91275	0.954	1.114	1.135	1.156	1.802	1.83975	1.883	18.498	20.3455	21.767	3.74742e+06	3.75047e+06	3.75471e+06	3.73887e+06	3.75047e+06	3.76049e+06	3.74772e+06	3.75048e+06	3.75226e+06	3.74621e+06	3.75048e+06	3.75392e+06	4.98416e+06	5.01307e+06	4.99395e+06	5.0062e+06	3.129	3.178	3.262	33.935	35.7692	37.215
8	0.553	0.553	0.553	13.871	13.8811	13.895	0.968	1.1005	1.21	1.422	1.473	1.515	1.835	1.91962	1.993	16.15	16.9955	18.21	4.3725e+06	4.37513e+06	4.37965e+06	4.34374e+06	4.37513e+06	4.38838e+06	4.37442e+06	4.3751e+06	4.37586e+06	4.36945e+06	4.3751e+06	4.38715e+06	4.96409e+06	5.01589e+06	4.99359e+06	5.01215e+06	3.478	3.57375	3.711	32.203	33.047	34.164
16	0.703	0.703	0.703	13.938	13.9458	13.958	1.218	1.28444	1.329	1.533	1.64944	1.678	1.922	1.98025	2.088	15.723	16.314	16.819	4.68479e+06	4.6872e+06	4.68965e+06	4.65327e+06	4.6872e+06	4.71828e+06	4.68611e+06	4.68721e+06	4.68892e+06	4.67728e+06	4.68721e+06	4.70648e+06	4.96422e+06	5.03349e+06	4.98963e+06	5.02037e+06	3.904	3.96862	4.033	31.967	32.5408	33.123
32	0.796	0.796	0.796	14.135	14.15	14.167	1.164	1.21044	1.237	1.526	1.56444	1.581	1.947	2.03022	2.115	15.148	15.9913	17.321	4.8423e+06	4.84368e+06	4.84491e+06	4.80584e+06	4.84368e+06	4.88949e+06	4.84261e+06	4.8437e+06	4.84478e+06	4.83258e+06	4.8437e+06	4.86018e+06	4.96126e+06	5.0472e+06	4.98863e+06	5.01756e+06	3.928	4.03747	4.109	31.557	32.3878	33.7
64	0.892	0.892	0.892	14.401	14.4208	14.437	1.174	1.29661	1.337	1.563	1.60844	1.626	1.974	2.08233	2.207	15.13	15.8253	17.027	4.92107e+06	4.9219e+06	4.92299e+06	4.88046e+06	4.9219e+06	4.96552e+06	4.92114e+06	4.9219e+06	4.92259e+06	4.90402e+06	4.9219e+06	4.9764e+06	4.95778e+06	5.04446e+06	4.9818e+06	5.05526e+06	4.172	4.27236	4.397	31.891	32.5775	33.742
128	0.978	0.978	0.978	14.331	14.3473	14.369	1.561	1.64887	1.696	1.667	1.73444	1.769	2.021	2.13134	2.282	15.062	15.7513	16.554	4.96042e+06	4.96095e+06	4.96171e+06	4.91262e+06	4.96095e+06	4.99972e+06	4.9604e+06	4.96095e+06	4.9615e+06	4.94506e+06	4.96095e+06	5.0394e+06	4.95112e+06	5.03907e+06	4.98398e+06	5.07894e+06	4.636	4.75948	4.917	31.863	32.5819	33.379
256	1.065	1.065	1.065	14.135	14.1514	14.168	1.887	2.02528	2.073	2.13	2.27771	2.301	2.043	2.18477	2.387	14.813	15.7823	17.089	4.98007e+06	4.98048e+06	4.98111e+06	4.93366e+06	4.98048e+06	5.02576e+06	4.97994e+06	4.98048e+06	4.981e+06	4.94965e+06	4.98048e+06	5.10944e+06	4.95256e+06	5.04547e+06	4.96922e+06	5.12949e+06	5.103	5.2757	5.418	32.074	33.0083	34.299
512	1.16	1.16	1.16	14.428	14.4472	14.468	1.848	2.02307	2.141	2.25	2.38817	2.53	2.075	2.24629	2.409	14.751	15.7592	16.999	4.98991e+06	4.99022e+06	4.99051e+06	4.94307e+06	4.99022e+06	5.03519e+06	4.98972e+06	4.99023e+06	4.99055e+06	4.95431e+06	4.99023e+06	5.15449e+06	4.95259e+06	5.0452e+06	4.964e+06	5.16477e+06	5.204	5.43012	5.591	32.329	33.3656	34.742
1024	1.277	1.277	1.277	14.516	14.5349	14.557	2.316	2.52236	2.682	2.57	2.72229	2.839	2.107	2.29629	2.5	14.966	15.7538	16.993	4.99486e+06	4.99512e+06	4.99536e+06	4.94658e+06	4.99512e+06	5.04168e+06	4.99488e+06	4.99512e+06	4.99534e+06	4.958e+06	4.99512e+06	5.2496e+06	4.95143e+06	5.04663e+06	4.96295e+06	5.25472e+06	5.862	6.09643	6.298	33.054	33.8418	34.973
2048	1.405	1.405	1.405	14.71	14.7297	14.767	2.993	3.2531	3.353	3.288	3.47145	3.565	2.159	2.33183	2.528	14.825	15.7809	17.052	4.99739e+06	4.99756e+06	4.99773e+06	4.94888e+06	4.99756e+06	5.04622e+06	4.99734e+06	4.99756e+06	4.99772e+06	4.93602e+06	4.99756e+06	5.33236e+06	4.95132e+06	5.0487e+06	4.93841e+06	5.33491e+06	6.734	6.99095	7.175	33.944	34.7466	36.081
4096	1.51	1.51098	1.511	14.62	14.6714	14.735	4.386	4.51983	4.659	4.378	4.49536	4.578	2.21	2.36485	2.535	15.072	15.8798	18.041	4.99863e+06	4.99878e+06	4.9989e+06	4.94932e+06	4.99878e+06	5.04776e+06	4.99864e+06	4.99878e+06	4.9989e+06	4.93656e+06	4.99878e+06	5.59284e+06	4.95053e+06	5.04899e+06	4.93778e+06	5.59416e+06	8.172	8.39652	8.602	35.155	35.8778	38.196
8192	2.604	2.6049	2.634	15.003	15.0449	15.112	4.866	5.03433	5.51	5.22	5.43752	5.869	2.219	2.40113	2.592	15.16	15.9525	18.533	4.99929e+06	4.99939e+06	4.99949e+06	4.95008e+06	4.99939e+06	5.04894e+06	4.99928e+06	4.99939e+06	4.99949e+06	4.95268e+06	4.99939e+06	5.91514e+06	4.95073e+06	5.04954e+06	4.95329e+06	5.91581e+06	9.776	10.0413	10.522	36.778	37.618	40.197
16384	2.963	2.97183	2.992	15.484	15.5364	15.606	9.86	10.075	10.487	8.559	8.72172	9.005	2.26	2.44391	2.61	15.181	16.0282	20.069	4.99962e+06	4.99969e+06	4.99976e+06	4.9502e+06	4.99969e+06	5.04955e+06	4.99962e+06	4.99969e+06	4.99976e+06	4.94796e+06	4.99969e+06	6.20728e+06	4.95047e+06	5.04984e+06	4.94826e+06	6.20766e+06	15.191	15.4919	15.962	40.681	41.4795	45.144
32768	3.386	3.39466	3.426	16.962	17.0025	17.055	9.599	10.0105	11.772	9.712	10.0301	11.689	2.328	2.49313	2.694	15.111	16.1014	22.829	4.9998e+06	4.99985e+06	4.9999e+06	4.95036e+06	4.99985e+06	5.0494e+06	4.99977e+06	4.99985e+06	4.9999e+06	4.96915e+06	4.99985e+06	7.02236e+06	4.95051e+06	5.04956e+06	4.96932e+06	7.02256e+06	15.464	15.8996	17.651	43.671	45.6733	52.19
65536	116.341	116.376	116.418	20.159	20.2002	20.25	11.036	11.5699	13.787	11.479	11.9884	14.143	2.354	2.56329	2.8	15.224	16.1584	25.079	4.99988e+06	4.99992e+06	4.99996e+06	4.95011e+06	4.99992e+06	5.04958e+06	4.99988e+06	4.99992e+06	4.99996e+06	4.97583e+06	4.99992e+06	7.37922e+06	4.95018e+06	5.04965e+06	4.97592e+06	7.37931e+06	129.927	130.54	132.663	48.612	51.2991	60.372
Application 10898252 resources: utime ~25622853s, stime ~579761s, Rss ~737224, inblocks ~138839002, outblocks ~33403925
Morton 0.1%
Initialized Hcurves
finished generating points
======================================================================
     Warm Up run  (par)                                
======================================================================
======================================================================
     Warm Up run  End                                
======================================================================
======================================================================
                        TABLE FORMAT                                  
======================================================================
Using Normal distribution
Weak Scaling Results for : 5e+06
npes	ts_spliter_min	ts_spliter_mean	ts_spliter_max	ss_spliter_min	ss_spliter_mean	ss_spliter_max	ts_all2all_min	ts_all2all_mean	ts_all2all_max	ss_all2all_min	ss_all2all_mean	ss_all2all_max	ts_local_min	ts_local_mean	ts_local_max	ss_local_min	ss_local_mean	ss_local_max	ts_send_min	ts_send_mean	ts_send_max	ts_recv_min	ts_recv_mean	ts_recv_max	ss_send_min	ss_send_mean	ss_send_max	ss_recv_min	ss_recv_mean	ss_recv_max	ts_lb_min	ts_lb_max	ss_lb_min	ss_lb_max	ts_min	ts_mean	ts_max	ss_min	ss_mean	ss_max
1	0	0	0	0	0	0	0	0	0	0	0	0	0	0	0	0	0	0	0	0	0	0	0	0	0	0	0	0	0	0	0	0	0	0	1.797	1.797	1.797	2.885	2.885	2.885
2	0.332	0.332	0.332	2.846	2.856	2.866	0.733	0.734	0.735	0.742	0.743	0.744	1.838	1.8665	1.895	4.105	4.105	4.105	2.49906e+06	2.49936e+06	2.49967e+06	2.49906e+06	2.49936e+06	2.49967e+06	2.4987e+06	2.49935e+06	2.5e+06	2.4987e+06	2.49935e+06	2.5e+06	4.99939e+06	5.00061e+06	4.99871e+06	5.00129e+06	2.904	2.9335	2.963	8.158	8.186	8.214
4	0.481	0.481	0.481	2.886	2.89275	2.91	0.862	0.9	0.936	0.888	0.917	0.946	1.822	1.85	1.882	2.609	2.6795	2.756	3.74985e+06	3.75008e+06	3.75044e+06	3.74878e+06	3.75008e+06	3.75258e+06	3.74946e+06	3.75009e+06	3.75051e+06	3.74882e+06	3.75009e+06	3.75123e+06	4.99834e+06	5.00273e+06	4.99831e+06	5.00106e+06	3.173	3.23225	3.298	6.942	7.063	7.15
8	0.623	0.623	0.623	2.898	2.9215	2.939	1.008	1.13538	1.225	1.091	1.13275	1.177	1.881	1.93	1.997	2.389	2.50438	2.595	4.37429e+06	4.37516e+06	4.37652e+06	4.37301e+06	4.37516e+06	4.37733e+06	4.37321e+06	4.37515e+06	4.37666e+06	4.36697e+06	4.37515e+06	4.38432e+06	4.99799e+06	5.0025e+06	4.99132e+06	5.01111e+06	3.614	3.68962	3.782	7.018	7.196	7.352
16	0.721	0.721	0.721	2.86	2.87481	2.905	1.18	1.26456	1.303	1.151	1.25181	1.289	1.884	1.97819	2.073	2.348	2.4355	2.502	4.6868e+06	4.68778e+06	4.68862e+06	4.68359e+06	4.68778e+06	4.6905e+06	4.68676e+06	4.68778e+06	4.68852e+06	4.68176e+06	4.68778e+06	4.70038e+06	4.99619e+06	5.00218e+06	4.99428e+06	5.01303e+06	3.904	3.96475	4.038	7.155	7.23456	7.346
32	0.805	0.805	0.805	2.857	2.87725	2.897	1.178	1.23625	1.269	1.124	1.17475	1.193	1.949	2.0185	2.102	2.334	2.44506	2.504	4.84301e+06	4.84381e+06	4.84464e+06	4.84052e+06	4.84381e+06	4.84693e+06	4.84218e+06	4.84382e+06	4.84454e+06	4.82925e+06	4.84382e+06	4.8891e+06	4.99707e+06	5.00362e+06	4.98472e+06	5.04692e+06	3.982	4.06094	4.114	7.065	7.15278	7.299
64	0.933	0.933	0.933	2.911	2.93539	2.956	1.222	1.30069	1.335	1.135	1.18664	1.201	1.963	2.07136	2.174	2.373	2.47211	2.577	4.92118e+06	4.92189e+06	4.92248e+06	4.91791e+06	4.92189e+06	4.92615e+06	4.92125e+06	4.92189e+06	4.92247e+06	4.90553e+06	4.92189e+06	4.9705e+06	4.99612e+06	5.00418e+06	4.98351e+06	5.04923e+06	4.203	4.30642	4.427	7.132	7.29091	7.443
128	0.998	0.998	0.998	2.912	2.93853	2.959	1.525	1.62405	1.671	1.238	1.31997	1.346	2.014	2.12379	2.264	2.418	2.5061	2.594	4.96044e+06	4.96096e+06	4.96144e+06	4.95642e+06	4.96096e+06	4.96548e+06	4.96017e+06	4.96096e+06	4.9614e+06	4.93242e+06	4.96096e+06	5.0172e+06	4.99546e+06	5.00447e+06	4.97135e+06	5.05658e+06	4.629	4.74693	4.88	7.321	7.49599	7.694
256	1.117	1.117	1.117	2.923	2.94901	2.97	1.861	2.0068	2.055	1.781	1.86634	1.899	2.065	2.18172	2.315	2.443	2.54948	2.631	4.98011e+06	4.98046e+06	4.98085e+06	4.97603e+06	4.98046e+06	4.98506e+06	4.97983e+06	4.98046e+06	4.98079e+06	4.95535e+06	4.98046e+06	5.10012e+06	4.99562e+06	5.00472e+06	4.97474e+06	5.12029e+06	5.061	5.30656	5.44	7.955	8.11938	8.474
512	1.23	1.23	1.23	3.096	3.13174	3.172	1.871	2.05302	2.166	1.576	1.95115	2.077	2.079	2.24515	2.409	2.467	2.59548	2.72	4.98995e+06	4.99024e+06	4.99056e+06	4.98579e+06	4.99024e+06	4.99486e+06	4.98978e+06	4.99024e+06	4.99054e+06	4.95279e+06	4.99024e+06	5.18402e+06	4.99544e+06	5.00468e+06	4.96252e+06	5.19424e+06	5.32	5.52964	5.73	7.96	8.43731	8.76
1024	1.282	1.282	1.282	3.127	3.15751	3.195	2.362	2.5609	2.714	2.121	2.29765	2.426	2.135	2.29761	2.508	2.528	2.62324	2.758	4.99485e+06	4.99512e+06	4.99537e+06	4.99055e+06	4.99512e+06	5.00006e+06	4.99488e+06	4.99512e+06	4.99536e+06	4.93249e+06	4.99512e+06	5.2183e+06	4.99536e+06	5.00496e+06	4.93729e+06	5.22339e+06	5.934	6.14167	6.328	8.629	8.92317	9.231
2048	1.442	1.44294	1.444	3.154	3.17582	3.219	3.029	3.27101	3.391	2.659	3.03319	3.147	2.18	2.33813	2.535	2.506	2.6763	2.841	4.99739e+06	4.99756e+06	4.99772e+06	4.99261e+06	4.99756e+06	5.00241e+06	4.99738e+06	4.99756e+06	4.99771e+06	4.94346e+06	4.99756e+06	5.39593e+06	4.99507e+06	5.00491e+06	4.94594e+06	5.39852e+06	6.816	7.05329	7.239	9.209	9.76994	10.101
4096	1.563	1.56371	1.564	3.025	3.10404	3.191	4.232	4.37265	4.476	3.883	4.1539	4.232	2.202	2.37453	2.552	2.62	2.72733	2.974	4.99862e+06	4.99878e+06	4.9989e+06	4.99387e+06	4.99878e+06	5.00359e+06	4.99864e+06	4.99878e+06	4.9989e+06	4.93364e+06	4.99878e+06	5.52742e+06	4.9951e+06	5.0048e+06	4.93481e+06	5.52868e+06	8.128	8.31199	8.503	10.354	10.8532	11.314
8192	2.808	2.80982	2.811	3.184	3.22861	3.311	4.975	5.13921	5.628	4.726	4.97035	5.442	2.22	2.41465	2.598	2.631	2.76808	3.171	4.9993e+06	4.99939e+06	4.99948e+06	4.99446e+06	4.99939e+06	5.00434e+06	4.99929e+06	4.99939e+06	4.99948e+06	4.93215e+06	4.99939e+06	5.77394e+06	4.99506e+06	5.00492e+06	4.93277e+06	5.77465e+06	10.186	10.3892	10.948	11.634	12.2049	12.843
16384	3.229	3.26584	3.295	3.499	3.54056	3.623	10.163	10.3676	10.809	8.502	8.7643	9.05	2.279	2.46246	2.636	2.68	2.80539	3.654	4.99962e+06	4.99969e+06	4.99977e+06	4.99468e+06	4.99969e+06	5.00465e+06	4.99962e+06	4.99969e+06	4.99976e+06	4.95927e+06	4.99969e+06	6.45303e+06	4.995e+06	5.00499e+06	4.95958e+06	6.45341e+06	15.896	16.1223	16.647	15.956	16.4325	17.781
32768	3.886	3.8957	3.937	4.593	4.67082	4.757	9.782	10.1755	11.91	8.868	9.44251	11.128	2.334	2.51344	2.706	2.621	2.83611	3.897	4.9998e+06	4.99985e+06	4.9999e+06	4.99485e+06	4.99985e+06	5.00483e+06	4.99978e+06	4.99985e+06	4.9999e+06	4.96794e+06	4.99985e+06	6.85696e+06	4.99504e+06	5.00498e+06	4.9681e+06	6.85718e+06	16.207	16.598	18.36	17.704	19.5236	20.791
65536	118.073	118.198	118.276	7.19	7.24376	7.33	11.078	11.6546	13.927	11.018	11.6974	13.856	2.366	2.58327	2.804	2.709	2.85157	4.247	4.99989e+06	4.99992e+06	4.99996e+06	4.99494e+06	4.99992e+06	5.00489e+06	4.99988e+06	4.99992e+06	4.99996e+06	4.96717e+06	4.99992e+06	7.34918e+06	4.99504e+06	5.00498e+06	4.96725e+06	7.34928e+06	131.931	132.439	134.625	22.455	24.7888	26.477
Application 10898299 resources: utime ~21605481s, stime ~609258s, Rss ~830592, inblocks ~158887103, outblocks ~33563720
Hilbert 0.1%
Initialized Hcurves
finished generating points
======================================================================
     Warm Up run  (par)                                
======================================================================
======================================================================
     Warm Up run  End                                
======================================================================
======================================================================
                        TABLE FORMAT                                  
======================================================================
Using Normal distribution
Weak Scaling Results for : 5e+06
npes	ts_spliter_min	ts_spliter_mean	ts_spliter_max	ss_spliter_min	ss_spliter_mean	ss_spliter_max	ts_all2all_min	ts_all2all_mean	ts_all2all_max	ss_all2all_min	ss_all2all_mean	ss_all2all_max	ts_local_min	ts_local_mean	ts_local_max	ss_local_min	ss_local_mean	ss_local_max	ts_send_min	ts_send_mean	ts_send_max	ts_recv_min	ts_recv_mean	ts_recv_max	ss_send_min	ss_send_mean	ss_send_max	ss_recv_min	ss_recv_mean	ss_recv_max	ts_lb_min	ts_lb_max	ss_lb_min	ss_lb_max	ts_min	ts_mean	ts_max	ss_min	ss_mean	ss_max
1	0	0	0	0	0	0	0	0	0	0	0	0	0	0	0	0	0	0	0	0	0	0	0	0	0	0	0	0	0	0	0	0	0	0	1.804	1.804	1.804	13.565	13.565	13.565
2	0.327	0.327	0.327	13.622	13.628	13.634	0.731	0.732	0.733	0.894	0.8965	0.899	1.817	1.846	1.875	27.641	28.0825	28.524	2.49979e+06	2.50013e+06	2.50047e+06	2.49979e+06	2.50013e+06	2.50047e+06	2.5e+06	2.50016e+06	2.50032e+06	2.5e+06	2.50016e+06	2.50032e+06	4.99932e+06	5.00068e+06	4.99968e+06	5.00032e+06	2.877	2.9065	2.936	42.668	43.0835	43.499
4	0.429	0.429	0.429	13.73	13.734	13.738	0.863	0.8995	0.931	1.148	1.16775	1.188	1.808	1.8425	1.874	18.45	19.0433	19.812	3.74851e+06	3.74972e+06	3.75073e+06	3.74588e+06	3.74972e+06	3.75294e+06	3.74673e+06	3.74974e+06	3.75281e+06	3.74683e+06	3.74974e+06	3.75194e+06	4.99724e+06	5.00318e+06	4.99402e+06	5.0046e+06	3.132	3.1725	3.236	33.755	34.4278	35.233
8	0.557	0.557	0.557	13.88	13.8814	13.885	1.029	1.13675	1.206	1.4	1.44988	1.495	1.875	1.92888	1.996	16.335	17.4017	19.066	4.37371e+06	4.37497e+06	4.37588e+06	4.37138e+06	4.37497e+06	4.37782e+06	4.37425e+06	4.37496e+06	4.37583e+06	4.36961e+06	4.37496e+06	4.38503e+06	4.99554e+06	5.00384e+06	4.99444e+06	5.01067e+06	3.559	3.62387	3.677	32.272	33.3238	35.008
16	0.71	0.71	0.71	13.958	13.9756	13.989	1.161	1.26056	1.307	1.565	1.6385	1.67	1.913	1.98544	2.109	15.715	16.3059	17.321	4.68617e+06	4.68752e+06	4.68836e+06	4.68387e+06	4.68752e+06	4.69023e+06	4.68616e+06	4.68752e+06	4.6889e+06	4.68036e+06	4.68752e+06	4.69861e+06	4.99594e+06	5.00207e+06	4.99306e+06	5.0122e+06	3.884	3.95681	4.016	31.869	32.5793	33.704
32	0.802	0.802	0.802	13.948	13.9635	13.98	1.106	1.18813	1.226	1.551	1.58538	1.609	1.942	2.03072	2.12	15.124	15.9991	17.165	4.84288e+06	4.84388e+06	4.84479e+06	4.84058e+06	4.84388e+06	4.84786e+06	4.84279e+06	4.84388e+06	4.84483e+06	4.83001e+06	4.84388e+06	4.86654e+06	4.99613e+06	5.0042e+06	4.98552e+06	5.02373e+06	3.903	4.02219	4.094	31.307	32.2143	33.362
64	0.898	0.898	0.898	14.14	14.1622	14.182	1.175	1.28687	1.322	1.616	1.65766	1.675	1.969	2.08131	2.19	14.832	15.8212	17.111	4.92107e+06	4.92189e+06	4.92243e+06	4.91777e+06	4.92189e+06	4.926e+06	4.92068e+06	4.92189e+06	4.92247e+06	4.9024e+06	4.92189e+06	4.96313e+06	4.99573e+06	5.00445e+06	4.98026e+06	5.04245e+06	4.167	4.26761	4.383	31.502	32.3513	33.644
128	0.986	0.986	0.986	14.066	14.0938	14.116	1.532	1.61866	1.674	1.651	1.73241	1.764	2.022	2.13109	2.285	14.765	15.773	16.582	4.96058e+06	4.96096e+06	4.96164e+06	4.95742e+06	4.96096e+06	4.96544e+06	4.96025e+06	4.96096e+06	4.96159e+06	4.94011e+06	4.96096e+06	5.04245e+06	4.99646e+06	5.00467e+06	4.97888e+06	5.0822e+06	4.63	4.73727	4.876	31.311	32.3342	33.057
256	1.106	1.106	1.106	14.488	14.5156	14.539	1.909	2.06241	2.127	2.11	2.28996	2.317	2.065	2.18405	2.314	14.78	15.7935	16.978	4.98008e+06	4.98046e+06	4.98082e+06	4.97584e+06	4.98046e+06	4.98537e+06	4.97998e+06	4.98046e+06	4.98089e+06	4.94978e+06	4.98046e+06	5.07173e+06	4.99526e+06	5.00485e+06	4.96889e+06	5.09175e+06	5.203	5.38819	5.526	32.357	33.3474	34.542
512	1.17	1.17	1.17	14.501	14.531	14.564	1.844	2.01698	2.142	2.255	2.37241	2.483	2.098	2.24543	2.459	14.847	15.7681	17.107	4.98986e+06	4.99023e+06	4.9905e+06	4.98565e+06	4.99023e+06	4.99492e+06	4.98985e+06	4.99023e+06	4.99049e+06	4.94691e+06	4.99023e+06	5.14505e+06	4.99535e+06	5.00458e+06	4.95662e+06	5.1552e+06	5.253	5.43349	5.625	32.584	33.461	34.865
1024	1.344	1.344	1.344	14.567	14.595	14.636	2.264	2.46972	2.617	2.388	2.72253	2.838	2.099	2.29545	2.498	14.884	15.7505	16.882	4.99488e+06	4.99512e+06	4.99533e+06	4.99026e+06	4.99512e+06	4.99995e+06	4.99492e+06	4.99511e+06	4.99536e+06	4.94903e+06	4.99511e+06	5.24401e+06	4.99531e+06	5.00478e+06	4.9539e+06	5.24908e+06	5.915	6.14697	6.348	33.165	33.905	35.08
2048	1.432	1.4337	1.434	14.474	14.5021	14.552	3.125	3.35619	3.455	3.103	3.43798	3.514	2.155	2.3304	2.521	14.988	15.7788	17.141	4.99739e+06	4.99756e+06	4.99772e+06	4.99264e+06	4.99756e+06	5.0023e+06	4.99731e+06	4.99756e+06	4.99774e+06	4.94557e+06	4.99756e+06	5.34861e+06	4.99509e+06	5.00471e+06	4.94802e+06	5.3512e+06	6.864	7.1214	7.298	33.796	34.56	35.806
4096	1.598	1.6015	1.64	14.667	14.7078	14.785	4.275	4.4139	4.566	4.185	4.47629	4.557	2.205	2.36364	2.535	15.016	15.8642	17.711	4.99865e+06	4.99878e+06	4.9989e+06	4.99383e+06	4.99878e+06	5.00372e+06	4.9986e+06	4.99878e+06	4.99891e+06	4.93842e+06	4.99878e+06	5.52642e+06	4.99511e+06	5.00494e+06	4.93968e+06	5.52782e+06	8.19	8.38018	8.581	35.138	35.9809	37.727
8192	2.728	2.73007	2.731	14.956	14.9976	15.077	4.927	5.09541	5.569	5.202	5.45298	5.907	2.214	2.39973	2.582	15.08	15.9476	18.42	4.99929e+06	4.99939e+06	4.99948e+06	4.99446e+06	4.99939e+06	5.00433e+06	4.99929e+06	4.99939e+06	4.99948e+06	4.95399e+06	4.99939e+06	5.83867e+06	4.99506e+06	5.00494e+06	4.95461e+06	5.83938e+06	10.036	10.2671	10.735	36.704	37.5513	40.107
16384	2.959	3.00357	3.011	15.515	15.5591	15.64	10.264	10.4751	10.903	8.235	8.59881	8.972	2.28	2.44321	2.614	15.194	16.0276	20.003	4.99962e+06	4.99969e+06	4.99976e+06	4.99474e+06	4.99969e+06	5.0046e+06	4.99958e+06	4.99969e+06	4.99976e+06	4.96246e+06	4.99969e+06	6.32099e+06	4.99506e+06	5.0049e+06	4.96274e+06	6.3214e+06	15.679	15.9555	16.453	40.627	41.4633	45.853
32768	3.662	3.71871	3.749	16.893	16.952	17.042	9.713	10.0907	11.77	9.435	9.98011	11.629	2.331	2.49316	2.694	15.258	16.0997	22.91	4.9998e+06	4.99985e+06	4.9999e+06	4.99489e+06	4.99985e+06	5.00484e+06	4.99978e+06	4.99985e+06	4.9999e+06	4.97139e+06	4.99985e+06	6.81808e+06	4.99503e+06	5.005e+06	4.97155e+06	6.81827e+06	15.949	16.3374	17.996	43.308	45.4648	50.691
65536	117.035	117.168	117.238	20.013	20.0772	20.177	11.092	11.6579	14.008	11.331	11.9661	14.114	2.35	2.56278	2.8	15.244	16.156	24.36	4.99989e+06	4.99992e+06	4.99996e+06	4.99494e+06	4.99992e+06	5.0049e+06	4.99989e+06	4.99992e+06	4.99996e+06	4.97342e+06	4.99992e+06	7.38238e+06	4.99502e+06	5.00498e+06	4.9735e+06	7.38249e+06	130.816	131.415	133.582	48.527	51.1838	59.443
Application 10898334 resources: utime ~25729928s, stime ~603921s, Rss ~830652, inblocks ~159144300, outblocks ~33560097
