TACC: Starting up job 7024940
TACC: Starting parallel tasks...
Initialized Hcurves
finished generating points
======================================================================
     Warm Up run  (par)                                
======================================================================
All Reduction Time for : 4096  : 0.006
======================================================================
     Warm Up run  End                                
======================================================================
All Reduction Time for : 4096  : 0.006
All Reduction Time for : 2  : 0
All Reduction Time for : 4  : 0
All Reduction Time for : 8  : 0.001
All Reduction Time for : 16  : 0.001
All Reduction Time for : 32  : 0.001
All Reduction Time for : 64  : 0.001
All Reduction Time for : 128  : 0.001
All Reduction Time for : 256All Reduction Time for :   : 5120.004  : 
0.005
All Reduction Time for : 1024  : 0.005
All Reduction Time for : 2048  : 0.002
======================================================================
                        TABLE FORMAT                                  
======================================================================
Using Normal distribution
Weak Scaling Results for : 1e+06
npes	ts_spliter_min	ts_spliter_mean	ts_spliter_max	ss_spliter_min	ss_spliter_mean	ss_spliter_max	ts_all2all_min	ts_all2all_mean	ts_all2all_max	ss_all2all_min	ss_all2all_mean	ss_all2all_max	ts_local_min	ts_local_mean	ts_local_max	ss_local_min	ss_local_mean	ss_local_max	ts_send_min	ts_send_mean	ts_send_max	ts_recv_min	ts_recv_mean	ts_recv_max	ss_send_min	ss_send_mean	ss_send_max	ss_recv_min	ss_recv_mean	ss_recv_max	ts_lb_min	ts_lb_max	ss_lb_min	ss_lb_max	ts_min	ts_mean	ts_max	ss_min	ss_mean	ss_max
1	0	0	0	0	0	0	0	0	0	0	0	0	0	0	0	0	0	0	0	0	0	0	0	0	0	0	0	0	0	0	0	0	0	0	0.143	0.143	0.143	1.44	1.44	1.44
2	0.025	0.025	0.025	1.391	1.391	1.391	0.014	0.0145	0.015	0.03	0.03	0.03	0.138	0.1465	0.155	2.422	2.46	2.498	478368	500361	522355	478368	500361	522355	500001	500288	500576	500001	500288	500576	956013	1.04399e+06	999425	1.00058e+06	0.178	0.1865	0.195	3.891	3.92	3.949
4	0.024	0.024	0.024	1.392	1.392	1.392	0.021	0.0225	0.026	0.044	0.044	0.044	0.138	0.15075	0.161	1.776	1.79175	1.804	736487	749844	768742	693234	749844	790327	749664	749885	750001	749178	749885	750620	924492	1.05384e+06	999178	1.00062e+06	0.184	0.19825	0.21	3.245	3.26025	3.272
8	0.041	0.041	0.041	1.412	1.412	1.412	0.026	0.028	0.032	0.057	0.057	0.057	0.141	0.155375	0.173	1.584	1.667	1.778	863202	874920	885320	801969	874920	955738	874214	874910	875230	872294	874910	877757	916649	1.09225e+06	997281	1.00276e+06	0.21	0.225375	0.247	3.113	3.1855	3.308
16	0.052	0.052	0.052	1.424	1.42444	1.425	0.031	0.033	0.038	0.064	0.0649375	0.065	0.149	0.15975	0.175	1.549	1.61137	1.787	932979	937517	940942	887319	937517	1.01231e+06	936983	937519	937901	933113	937519	947970	946429	1.07933e+06	995460	1.01099e+06	0.235	0.245625	0.266	3.085	3.14912	3.326
32	0.059	0.059	0.059	1.418	1.41941	1.423	0.049	0.0533438	0.059	0.088	0.0884375	0.089	0.146	0.164594	0.179	1.527	1.59547	1.657	966182	968729	971381	887873	968729	1.04945e+06	968427	968741	969126	961556	968741	977873	916492	1.08326e+06	992430	1.00938e+06	0.257	0.279	0.299	3.084	3.15597	3.213
64	0.067	0.067	0.067	1.437	1.44091	1.451	0.071	0.0742187	0.081	0.111	0.111906	0.113	0.157	0.168922	0.187	1.53	1.60362	1.725	982798	984378	985748	905821	984378	1.07989e+06	984129	984383	984681	974286	984383	1.0002e+06	920073	1.09709e+06	989859	1.01607e+06	0.299	0.311531	0.336	3.14	3.21934	3.345
128	0.078	0.078	0.078	1.47	1.47116	1.473	0.077	0.0870078	0.094	0.118	0.122156	0.124	0.156	0.173539	0.192	1.543	1.61046	1.722	991571	992197	992827	913448	992197	1.07944e+06	991977	992197	992452	983956	992197	1.02208e+06	920639	1.08773e+06	991805	1.03004e+06	0.313	0.33993	0.365	3.188	3.25821	3.373
256	0.085	0.085	0.085	1.436	1.43678	1.438	0.097	0.104656	0.113	0.134	0.141223	0.146	0.157	0.178551	0.204	1.54	1.62468	1.733	995652	996091	996471	908438	996091	1.09382e+06	995851	996091	996266	984327	996091	1.04058e+06	911995	1.09812e+06	988205	1.04461e+06	0.346	0.369793	0.398	3.164	3.25436	3.372
512	0.094	0.094	0.094	1.479	1.47932	1.48	0.105	0.10892	0.115	0.138	0.139854	0.141	0.161	0.182836	0.204	1.536	1.63079	1.783	997790	998045	998362	902212	998045	1.09726e+06	997818	998044	998168	980537	998044	1.06407e+06	903970	1.09943e+06	982483	1.06625e+06	0.363	0.387277	0.413	3.204	3.30112	3.458
1024	0.102	0.102027	0.103	1.474	1.47435	1.475	0.128	0.133096	0.142	0.169	0.172624	0.175	0.164	0.187404	0.211	1.563	1.64562	1.836	998849	999024	999166	902694	999024	1.09225e+06	998931	999024	999108	979671	999024	1.09547e+06	903607	1.09329e+06	980620	1.09654e+06	0.398	0.424259	0.455	3.258	3.34527	3.539
2048	0.113	0.114	0.114	1.493	1.49816	1.499	0.169	0.17358	0.181	0.267	0.272028	0.276	0.168	0.192238	0.221	1.572	1.66218	1.993	999415	999512	999601	904276	999512	1.09368e+06	999429	999511	999586	983915	999511	1.16462e+06	904740	1.09419e+06	984371	1.16518e+06	0.453	0.481445	0.517	3.419	3.50887	3.835
4096	0.127	0.127	0.128	1.563	1.56331	1.564	0.306	0.312602	0.321	0.426	0.432102	0.44	0.171	0.196618	0.224	1.582	1.68026	2.121	999693	999755	999818	902026	999755	1.09616e+06	999680	999755	999805	983032	999755	1.27798e+06	902237	1.09641e+06	983295	1.2783e+06	0.608	0.63797	0.673	3.703	3.81928	4.244
 
TACC: Shutdown complete. Exiting.
