TACC: Starting up job 7045254
TACC: Starting parallel tasks...
Initialized Hcurves for dimention 3
finished generating 3 dimensional points
======================================================================
     Warm Up run  (par)                                
======================================================================
======================================================================
     Warm Up run  End                                
======================================================================
======================================================================
                        TABLE FORMAT                                  
======================================================================
Using Normal distribution
Weak Scaling Results for : 1e+06
npes	ts_spliter_min	ts_spliter_mean	ts_spliter_max	ss_spliter_min	ss_spliter_mean	ss_spliter_max	ts_all2all_min	ts_all2all_mean	ts_all2all_max	ss_all2all_min	ss_all2all_mean	ss_all2all_max	ts_local_min	ts_local_mean	ts_local_max	ss_local_min	ss_local_mean	ss_local_max	ts_send_min	ts_send_mean	ts_send_max	ts_recv_min	ts_recv_mean	ts_recv_max	ss_send_min	ss_send_mean	ss_send_max	ss_recv_min	ss_recv_mean	ss_recv_max	ts_lb_min	ts_lb_max	ss_lb_min	ss_lb_max	ts_min	ts_mean	ts_max	ss_min	ss_mean	ss_max
1	0	0	0	0	0	0	0	0	0	0	0	0	0	0	0	0	0	0	0	0	0	0	0	0	0	0	0	0	0	0	0	0	0	0	0.145	0.145	0.145	1.18	1.18	1.18
2	0.017	0.017	0.017	1.213	1.213	1.213	0.015	0.0155	0.016	0.025	0.025	0.025	0.138	0.147	0.156	2.076	2.1005	2.125	477351	499858	522365	477351	499858	522365	499644	499821	499999	499644	499821	499999	954986	1.04501e+06	999645	1.00036e+06	0.171	0.1805	0.19	3.362	3.3775	3.393
4	0.016	0.016	0.016	1.266	1.266	1.266	0.022	0.02325	0.027	0.037	0.037	0.037	0.139	0.15125	0.161	1.517	1.6145	1.716	736772	749909	768732	694082	749909	789181	749464	749896	750283	748821	749896	751401	925350	1.05241e+06	998538	1.00194e+06	0.178	0.1915	0.203	2.852	2.94975	3.051
8	0.027	0.027	0.027	1.229	1.229	1.229	0.025	0.0275	0.031	0.048	0.048875	0.049	0.141	0.155875	0.174	1.427	1.4505	1.489	862880	874779	887280	788259	874779	955564	874227	874807	875601	872946	874807	878098	900979	1.09253e+06	997946	1.00373e+06	0.194	0.211375	0.233	2.745	2.77738	2.81
16	0.035	0.035	0.035	1.221	1.22106	1.222	0.031	0.033125	0.038	0.056	0.056625	0.057	0.151	0.160687	0.177	1.334	1.39606	1.535	932789	937572	940900	887366	937572	1.01264e+06	936886	937582	938213	934245	937582	944090	946466	1.07985e+06	996281	1.0068e+06	0.22	0.229813	0.251	2.659	2.72281	2.863
32	0.041	0.041	0.041	1.261	1.26259	1.266	0.052	0.05375	0.059	0.077	0.0792188	0.08	0.146	0.165344	0.18	1.362	1.41712	1.476	966227	968786	971151	887578	968786	1.0484e+06	968189	968777	969152	965006	968777	979367	916427	1.08218e+06	996066	1.01118e+06	0.241	0.260938	0.282	2.752	2.80913	2.87
64	0.046	0.046	0.046	1.262	1.26508	1.276	0.072	0.0742656	0.082	0.102	0.102453	0.103	0.157	0.170047	0.188	1.342	1.42425	1.495	982836	984375	985119	929501	984375	1.0691e+06	984077	984377	984678	976671	984377	1.0043e+06	944382	1.08626e+06	992181	1.0202e+06	0.279	0.291937	0.317	2.767	2.86077	2.947
128	0.052	0.052125	0.053	1.261	1.26243	1.265	0.083	0.0948516	0.1	0.118	0.123906	0.129	0.158	0.174352	0.193	1.366	1.44638	1.546	991468	992193	992968	900280	992193	1.07927e+06	991804	992192	992375	981176	992192	1.02358e+06	907312	1.08771e+06	988946	1.03154e+06	0.3	0.322906	0.346	2.8	2.88587	2.989
256	0.057	0.0579375	0.058	1.287	1.28725	1.288	0.109	0.122297	0.134	0.135	0.140383	0.148	0.158	0.179254	0.205	1.39	1.46024	1.567	995725	996097	996592	902085	996097	1.09138e+06	995838	996098	996318	980474	996098	1.03938e+06	905628	1.09561e+06	984379	1.04354e+06	0.33	0.36059	0.394	2.864	2.94038	3.056
512	0.064	0.0647109	0.065	1.309	1.30966	1.31	0.119	0.128563	0.139	0.153	0.156158	0.161	0.161	0.183613	0.209	1.399	1.47624	1.592	997785	998045	998302	908752	998045	1.09304e+06	997901	998045	998188	983545	998045	1.07512e+06	910588	1.09521e+06	985480	1.07722e+06	0.354	0.378438	0.41	2.913	2.99304	3.107
1024	0.069	0.069	0.069	1.285	1.28602	1.287	0.134	0.138637	0.145	0.17	0.173274	0.177	0.168	0.188175	0.213	1.398	1.4938	1.632	998872	999021	999177	904070	999021	1.09369e+06	998922	999021	999119	978906	999021	1.10188e+06	904992	1.09475e+06	979888	1.10296e+06	0.373	0.397569	0.428	2.906	3.00537	3.145
2048	0.078	0.0790181	0.08	1.304	1.30514	1.306	0.177	0.181593	0.189	0.244	0.249081	0.254	0.166	0.19304	0.219	1.422	1.5164	1.746	999421	999511	999596	900574	999511	1.09607e+06	999439	999511	999590	980969	999511	1.15108e+06	901036	1.09659e+06	981453	1.15164e+06	0.427	0.455378	0.486	3.029	3.12779	3.361
4096	0.085	0.0855869	0.086	1.367	1.3672	1.368	0.378	0.385534	0.395	0.408	0.414226	0.42	0.17	0.197503	0.225	1.423	1.5392	1.971	999681	999755	999812	901093	999755	1.09569e+06	999695	999755	999808	988398	999755	1.26734e+06	901317	1.09594e+06	988618	1.26764e+06	0.645	0.670475	0.7	3.304	3.42745	3.849
 
TACC: Shutdown complete. Exiting.
