TACC: Starting up job 7045277
TACC: Starting parallel tasks...
Initialized Hcurves for dimention 3
finished generating 3 dimensional points
======================================================================
     Warm Up run  (par)                                
======================================================================
======================================================================
     Warm Up run  End                                
======================================================================
======================================================================
                        TABLE FORMAT                                  
======================================================================
Using Normal distribution
Weak Scaling Results for : 1e+06
npes	ts_spliter_min	ts_spliter_mean	ts_spliter_max	ss_spliter_min	ss_spliter_mean	ss_spliter_max	ts_all2all_min	ts_all2all_mean	ts_all2all_max	ss_all2all_min	ss_all2all_mean	ss_all2all_max	ts_local_min	ts_local_mean	ts_local_max	ss_local_min	ss_local_mean	ss_local_max	ts_send_min	ts_send_mean	ts_send_max	ts_recv_min	ts_recv_mean	ts_recv_max	ss_send_min	ss_send_mean	ss_send_max	ss_recv_min	ss_recv_mean	ss_recv_max	ts_lb_min	ts_lb_max	ss_lb_min	ss_lb_max	ts_min	ts_mean	ts_max	ss_min	ss_mean	ss_max
1	0	0	0	0	0	0	0	0	0	0	0	0	0	0	0	0	0	0	0	0	0	0	0	0	0	0	0	0	0	0	0	0	0	0	0.143	0.143	0.143	1.175	1.175	1.175
2	0.017	0.017	0.017	1.246	1.246	1.246	0.018	0.018	0.018	0.025	0.025	0.025	0.145	0.147	0.149	2.16	2.1665	2.173	499335	500011	500688	499335	500011	500688	500001	500009	500017	500001	500009	500017	998647	1.00135e+06	999984	1.00002e+06	0.182	0.184	0.186	3.466	3.4705	3.475
4	0.022	0.022	0.022	1.246	1.246	1.246	0.022	0.022	0.022	0.037	0.037	0.037	0.149	0.15125	0.156	1.473	1.60425	1.753	749822	750324	750555	749145	750324	751407	749750	750324	750919	749651	750324	751495	998590	1.00096e+06	999018	1.00174e+06	0.194	0.196	0.201	2.795	2.925	3.071
8	0.029	0.029	0.029	1.243	1.243	1.243	0.028	0.02875	0.029	0.048	0.048	0.048	0.152	0.15625	0.161	1.347	1.42538	1.536	874118	874793	875272	871470	874793	879478	874384	874789	875099	872594	874789	876969	996451	1.00497e+06	997495	1.00231e+06	0.211	0.214625	0.22	2.681	2.759	2.87
16	0.036	0.036	0.036	1.244	1.24463	1.245	0.03	0.0323125	0.034	0.055	0.0560625	0.057	0.156	0.161	0.168	1.36	1.41813	1.51	937012	937534	938141	930887	937534	943279	936947	937534	938111	933921	937534	944409	992956	1.00607e+06	996079	1.00746e+06	0.225	0.230688	0.239	2.703	2.76306	2.864
32	0.044	0.044	0.044	1.248	1.24906	1.25	0.053	0.05525	0.056	0.082	0.0829063	0.083	0.158	0.16575	0.175	1.345	1.41594	1.521	968389	968760	969233	960937	968760	975966	968365	968763	969234	962835	968763	979015	992103	1.00732e+06	993769	1.01064e+06	0.259	0.266219	0.276	2.727	2.80072	2.904
64	0.05	0.05	0.05	1.247	1.24839	1.251	0.074	0.0761094	0.077	0.102	0.102797	0.103	0.162	0.170078	0.181	1.376	1.42794	1.506	984102	984392	984702	974504	984392	992317	984088	984395	984659	975909	984395	999107	990015	1.00808e+06	991292	1.01484e+06	0.289	0.297672	0.309	2.788	2.84453	2.948
128	0.055	0.0555	0.056	1.254	1.25429	1.255	0.075	0.0791797	0.083	0.115	0.125164	0.132	0.166	0.174641	0.186	1.363	1.44748	1.572	991933	992202	992437	982588	992202	1.0008e+06	991938	992203	992432	980840	992203	1.03397e+06	990266	1.00861e+06	988483	1.04203e+06	0.301	0.310687	0.323	2.791	2.87623	3.01
256	0.063	0.063	0.063	1.268	1.26902	1.27	0.095	0.102691	0.107	0.136	0.145352	0.153	0.168	0.179609	0.191	1.393	1.46096	1.551	995935	996092	996289	986735	996092	1.00582e+06	995879	996090	996251	982567	996090	1.03904e+06	990615	1.00969e+06	986551	1.04316e+06	0.334	0.346543	0.36	2.861	2.92515	3.025
512	0.069	0.069	0.069	1.292	1.29292	1.294	0.116	0.123777	0.128	0.145	0.151273	0.155	0.172	0.184068	0.197	1.398	1.47556	1.598	997893	998045	998202	988877	998045	1.00752e+06	997872	998044	998191	980262	998044	1.0605e+06	990842	1.00949e+06	982071	1.06263e+06	0.368	0.378375	0.394	2.893	2.97059	3.092
1024	0.077	0.0771348	0.078	1.291	1.29108	1.292	0.144	0.146063	0.148	0.189	0.191347	0.195	0.176	0.188714	0.2	1.415	1.49413	1.642	998913	999023	999135	989537	999023	1.00884e+06	998888	999023	999135	982132	999023	1.09909e+06	990525	1.00983e+06	983094	1.10017e+06	0.4	0.413802	0.425	2.947	3.02846	3.184
2048	0.086	0.0860552	0.087	1.321	1.32164	1.323	0.171	0.176785	0.179	0.194	0.195721	0.198	0.18	0.193687	0.206	1.431	1.51685	1.773	999439	999512	999583	989634	999512	1.00928e+06	999405	999512	999591	978969	999512	1.17785e+06	990099	1.0098e+06	979454	1.17845e+06	0.443	0.45823	0.472	3.001	3.09115	3.34
4096	0.1	0.100926	0.101	1.373	1.37392	1.375	0.383	0.387385	0.394	0.409	0.416442	0.422	0.183	0.198173	0.211	1.45	1.53888	1.935	999692	999755	999813	989868	999755	1.00944e+06	999689	999755	999811	984689	999755	1.2785e+06	990124	1.00966e+06	984947	1.27881e+06	0.672	0.688017	0.703	3.345	3.43993	3.819
 
TACC: Shutdown complete. Exiting.
