TACC: Starting up job 7024944
TACC: Starting parallel tasks...
Initialized Hcurves
finished generating points
======================================================================
     Warm Up run  (par)                                
======================================================================
All Reduction Time for : 4096  : 0.005
======================================================================
     Warm Up run  End                                
======================================================================
All Reduction Time for : 4096  : 0.007
All Reduction Time for : 2  : 0
All Reduction Time for : 4  : 0
All Reduction Time for : 8  : 0
All Reduction Time for : 16  : 0
All Reduction Time for : 32  : 0.001
All Reduction Time for : 64  : 0.001
All Reduction Time for : 128  : 0.003
All Reduction Time for : 256  : 0.004
All Reduction Time for : 512  : 0.004
All Reduction Time for : 1024  : 0.006
All Reduction Time for : 2048  : 0.006
======================================================================
                        TABLE FORMAT                                  
======================================================================
Using Normal distribution
Weak Scaling Results for : 1e+06
npes	ts_spliter_min	ts_spliter_mean	ts_spliter_max	ss_spliter_min	ss_spliter_mean	ss_spliter_max	ts_all2all_min	ts_all2all_mean	ts_all2all_max	ss_all2all_min	ss_all2all_mean	ss_all2all_max	ts_local_min	ts_local_mean	ts_local_max	ss_local_min	ss_local_mean	ss_local_max	ts_send_min	ts_send_mean	ts_send_max	ts_recv_min	ts_recv_mean	ts_recv_max	ss_send_min	ss_send_mean	ss_send_max	ss_recv_min	ss_recv_mean	ss_recv_max	ts_lb_min	ts_lb_max	ss_lb_min	ss_lb_max	ts_min	ts_mean	ts_max	ss_min	ss_mean	ss_max
1	0	0	0	0	0	0	0	0	0	0	0	0	0	0	0	0	0	0	0	0	0	0	0	0	0	0	0	0	0	0	0	0	0	0	0.144	0.144	0.144	1.419	1.419	1.419
2	0.026	0.026	0.026	1.383	1.383	1.383	0.013	0.013	0.013	0.032	0.032	0.032	0.145	0.1475	0.15	2.52	2.5415	2.563	499535	500013	500492	499535	500013	500492	500001	500020	500039	500001	500020	500039	999043	1.00096e+06	999962	1.00004e+06	0.184	0.1865	0.189	3.971	3.99	4.009
4	0.032	0.032	0.032	1.391	1.391	1.391	0.021	0.021	0.021	0.044	0.044	0.044	0.149	0.15075	0.155	1.633	1.76925	1.901	749096	749697	750878	747932	749697	752005	748936	749695	750391	748790	749695	750453	997054	1.00252e+06	998983	1.00123e+06	0.203	0.20475	0.209	3.105	3.24075	3.37
8	0.042	0.042	0.042	1.44	1.4405	1.441	0.028	0.028375	0.029	0.056	0.056875	0.057	0.152	0.155625	0.162	1.587	1.64212	1.7	874116	875154	875526	873059	875154	877696	874416	875141	875599	872816	875141	879338	997751	1.00247e+06	997217	1.0047e+06	0.223	0.227375	0.234	3.125	3.18025	3.238
16	0.054	0.054	0.054	1.405	1.40506	1.406	0.032	0.0326875	0.034	0.064	0.064875	0.065	0.155	0.160125	0.167	1.53	1.60638	1.746	936676	937455	938290	931950	937455	943963	936936	937463	938084	933372	937463	945325	993660	1.00636e+06	995587	1.00831e+06	0.242	0.248062	0.256	3.045	3.12106	3.259
32	0.064	0.064	0.064	1.422	1.42266	1.425	0.047	0.05	0.052	0.089	0.0897812	0.09	0.158	0.164906	0.174	1.534	1.61184	1.705	968350	968754	969209	960369	968754	976122	968391	968747	969060	963914	968747	977863	991504	1.00776e+06	994990	1.00916e+06	0.273	0.280094	0.29	3.096	3.17725	3.27
64	0.073	0.073	0.073	1.448	1.44841	1.451	0.074	0.0791406	0.081	0.109	0.109688	0.11	0.16	0.169391	0.182	1.505	1.59986	1.687	983992	984359	984635	975907	984359	993260	983991	984358	984615	979571	984358	998728	991537	1.00909e+06	995113	1.01466e+06	0.315	0.322516	0.334	3.125	3.22594	3.322
128	0.081	0.081	0.081	1.434	1.43425	1.435	0.079	0.0848984	0.092	0.116	0.121898	0.128	0.165	0.174016	0.184	1.547	1.61322	1.772	991930	992181	992424	983709	992181	1.00103e+06	991808	992181	992447	982524	992181	1.02494e+06	991606	1.00891e+06	990239	1.03308e+06	0.331	0.341391	0.356	3.148	3.21843	3.376
256	0.091	0.0913281	0.092	1.461	1.46176	1.463	0.102	0.117461	0.128	0.145	0.154301	0.162	0.167	0.178906	0.191	1.549	1.62511	1.738	995910	996089	996240	987480	996089	1.00557e+06	995855	996089	996280	985376	996089	1.04248e+06	991315	1.00955e+06	989234	1.04663e+06	0.367	0.389277	0.406	3.221	3.29327	3.402
512	0.099	0.0998633	0.1	1.486	1.48646	1.487	0.107	0.109027	0.111	0.152	0.153938	0.155	0.171	0.183359	0.196	1.557	1.63204	1.756	997928	998046	998192	988350	998046	1.00756e+06	997887	998046	998177	980473	998046	1.0834e+06	990274	1.00947e+06	982349	1.08551e+06	0.38	0.393703	0.408	3.247	3.32379	3.446
1024	0.109	0.10934	0.114	1.471	1.47105	1.472	0.17	0.175256	0.177	0.19	0.192541	0.197	0.177	0.187999	0.199	1.565	1.64668	1.815	998903	999022	999120	989060	999022	1.00893e+06	998856	999022	999119	976287	999022	1.09122e+06	990056	1.00988e+06	977249	1.09229e+06	0.464	0.47432	0.486	3.279	3.36263	3.526
2048	0.122	0.122802	0.123	1.532	1.53298	1.534	0.226	0.230372	0.235	0.271	0.274693	0.277	0.181	0.192944	0.205	1.567	1.6631	1.918	999438	999512	999581	989779	999512	1.00936e+06	999402	999511	999593	984648	999511	1.13971e+06	990259	1.00987e+06	985126	1.14031e+06	0.532	0.547546	0.559	3.431	3.52893	3.783
4096	0.141	0.14178	0.142	1.66	1.66364	1.665	0.289	0.295689	0.302	0.47	0.478196	0.485	0.183	0.197456	0.214	1.585	1.68002	2.17	999693	999755	999811	989868	999755	1.0095e+06	999695	999756	999811	986501	999756	1.25922e+06	990129	1.00973e+06	986742	1.2595e+06	0.618	0.636604	0.655	3.828	3.93006	4.409
 
TACC: Shutdown complete. Exiting.
