TACC: Starting up job 7045369
TACC: Starting parallel tasks...
Initialized Hcurves for dimention 3
finished generating 3 dimensional points
======================================================================
     Warm Up run  (par)                                
======================================================================
======================================================================
     Warm Up run  End                                
======================================================================
======================================================================
                        TABLE FORMAT                                  
======================================================================
Using Normal distribution
Weak Scaling Results for : 1e+06
npes	ts_spliter_min	ts_spliter_mean	ts_spliter_max	ss_spliter_min	ss_spliter_mean	ss_spliter_max	ts_all2all_min	ts_all2all_mean	ts_all2all_max	ss_all2all_min	ss_all2all_mean	ss_all2all_max	ts_local_min	ts_local_mean	ts_local_max	ss_local_min	ss_local_mean	ss_local_max	ts_send_min	ts_send_mean	ts_send_max	ts_recv_min	ts_recv_mean	ts_recv_max	ss_send_min	ss_send_mean	ss_send_max	ss_recv_min	ss_recv_mean	ss_recv_max	ts_lb_min	ts_lb_max	ss_lb_min	ss_lb_max	ts_min	ts_mean	ts_max	ss_min	ss_mean	ss_max
1	0	0	0	0	0	0	0	0	0	0	0	0	0	0	0	0	0	0	0	0	0	0	0	0	0	0	0	0	0	0	0	0	0	0	0.143	0.143	0.143	1.19	1.19	1.19
2	0.016	0.016	0.016	1.209	1.2105	1.212	0.019	0.024	0.029	0.025	0.025	0.025	0.105	0.1465	0.188	2.091	2.1195	2.148	362576	500077	637579	362576	500077	637579	498948	499473	499999	498948	499473	499999	724997	1.275e+06	998949	1.00105e+06	0.141	0.1875	0.234	3.414	3.432	3.45
4	0.014	0.014	0.014	1.211	1.21175	1.212	0.021	0.02625	0.035	0.037	0.037	0.037	0.078	0.15125	0.228	1.546	1.598	1.697	620963	749489	868040	394178	749489	1.13476e+06	748833	749391	749754	747555	749391	751090	526138	1.5138e+06	997825	1.00226e+06	0.114	0.1925	0.278	2.827	2.88	2.98
8	0.021	0.021	0.021	1.245	1.245	1.245	0.024	0.028625	0.033	0.049	0.049	0.049	0.103	0.155875	0.184	1.376	1.45975	1.517	852563	875063	916092	588067	875063	1.03233e+06	874609	874990	875361	872854	874990	880108	671975	1.17884e+06	997835	1.00511e+06	0.149	0.2065	0.238	2.711	2.7995	2.866
16	0.03	0.03	0.03	1.243	1.24581	1.246	0.032	0.0354375	0.042	0.056	0.0565625	0.057	0.131	0.160375	0.215	1.356	1.42306	1.492	915584	937486	948115	778561	937486	1.26223e+06	936904	937490	938052	933255	937490	946293	830822	1.34665e+06	995795	1.00939e+06	0.195	0.227	0.288	2.699	2.7885	2.862
32	0.031	0.031	0.031	1.241	1.24181	1.244	0.047	0.05625	0.065	0.078	0.0792813	0.08	0.108	0.165313	0.265	1.34	1.4095	1.507	950696	968756	980346	618386	968756	1.53148e+06	968375	968772	969207	962320	968772	980062	638281	1.58078e+06	993479	1.01149e+06	0.188	0.254469	0.362	2.711	2.79844	2.947
64	0.037	0.037	0.037	1.236	1.23981	1.244	0.066	0.0761094	0.086	0.107	0.108969	0.11	0.022	0.169484	0.29	1.371	1.42188	1.487	973489	984394	998054	126502	984394	1.68549e+06	984125	984387	984685	978795	984387	999649	128448	1.712e+06	994355	1.01549e+06	0.128	0.28375	0.414	2.771	2.8468	2.959
128	0.047	0.047	0.047	1.258	1.26172	1.267	0.084	0.0934766	0.106	0.11	0.119773	0.127	0.032	0.174187	0.346	1.38	1.44664	1.535	985108	992187	998689	170881	992187	1.89892e+06	991833	992189	992478	982683	992189	1.02558e+06	172192	1.91382e+06	990447	1.03375e+06	0.168	0.315922	0.5	2.822	2.90521	3.143
256	0.07	0.07	0.07	2.404	2.40712	2.408	0.09	0.10175	0.119	0.175	0.183793	0.192	0.023	0.17982	0.379	1.382	1.46422	2.156	993710	996094	999499	124090	996094	1.60386e+06	995924	996089	996274	986168	996089	1.04818e+06	124591	1.6101e+06	990071	1.05222e+06	0.184	0.352977	0.57	4.073	4.2178	4.816
512	0.101	0.101297	0.104	1.522	1.52508	1.529	0.152	0.164141	0.178	0.186	0.191039	0.196	0.023	0.183502	0.342	1.398	1.47754	1.949	996309	998044	999795	120045	998044	1.87696e+06	997889	998045	998181	980582	998045	1.06538e+06	120250	1.88062e+06	982574	1.06749e+06	0.284	0.450471	0.621	3.188	3.27589	3.74
1024	0.124	0.131015	0.135	2.139	2.14459	2.15	0.184	0.193708	0.206	0.239	0.244516	0.248	0.029	0.188904	0.372	1.418	1.50196	2.058	998175	999023	999859	145166	999023	1.87034e+06	998909	999022	999111	981655	999022	1.13394e+06	145319	1.87216e+06	982592	1.13503e+06	0.354	0.523394	0.713	3.901	4.0034	4.546
2048	0.13	0.135174	0.14	1.832	1.83878	1.846	0.287	0.304725	0.332	0.361	0.37228	0.379	0.024	0.193944	0.381	1.425	1.52547	2.791	999015	999512	999948	122682	999512	1.92094e+06	999413	999512	999594	974001	999512	1.1629e+06	122742	1.92179e+06	974497	1.16347e+06	0.461	0.64222	0.842	3.728	3.85285	5.094
4096	0.138	0.148553	0.15	2.119	2.12423	2.133	0.514	0.53075	0.551	0.566	0.580628	0.594	0.025	0.198016	0.419	1.443	1.54465	3.082	999507	999755	999975	127227	999755	1.94658e+06	999676	999755	999805	984098	999755	1.2485e+06	127263	1.94705e+06	984326	1.24882e+06	0.701	0.886145	1.126	4.303	4.44256	6.016
 
TACC: Shutdown complete. Exiting.
