TACC: Starting up job 7024980
TACC: Starting parallel tasks...
Initialized Hcurves
finished generating points
======================================================================
     Warm Up run  (par)                                
======================================================================
All Reduction Time for : 4096  : 0.004
======================================================================
     Warm Up run  End                                
======================================================================
All Reduction Time for : 4096  : 0.006
All Reduction Time for : 2  : 0
All Reduction Time for : 4  : 0
All Reduction Time for : 8  : 0
All Reduction Time for : 16  : 0
All Reduction Time for : 32  : 0
All Reduction Time for : 64  : 0.001
All Reduction Time for : 128  : 0.004
All Reduction Time for : 512  : 0.004
All Reduction Time for : 256  : 0.005
All Reduction Time for : 1024  : 0.005
All Reduction Time for : 2048  : 0.006
======================================================================
                        TABLE FORMAT                                  
======================================================================
Using Normal distribution
Weak Scaling Results for : 1e+06
npes	ts_spliter_min	ts_spliter_mean	ts_spliter_max	ss_spliter_min	ss_spliter_mean	ss_spliter_max	ts_all2all_min	ts_all2all_mean	ts_all2all_max	ss_all2all_min	ss_all2all_mean	ss_all2all_max	ts_local_min	ts_local_mean	ts_local_max	ss_local_min	ss_local_mean	ss_local_max	ts_send_min	ts_send_mean	ts_send_max	ts_recv_min	ts_recv_mean	ts_recv_max	ss_send_min	ss_send_mean	ss_send_max	ss_recv_min	ss_recv_mean	ss_recv_max	ts_lb_min	ts_lb_max	ss_lb_min	ss_lb_max	ts_min	ts_mean	ts_max	ss_min	ss_mean	ss_max
1	0	0	0	0	0	0	0	0	0	0	0	0	0	0	0	0	0	0	0	0	0	0	0	0	0	0	0	0	0	0	0	0	0	0	0.143	0.143	0.143	1.405	1.405	1.405
2	0.022	0.022	0.022	1.399	1.4005	1.402	0.019	0.0235	0.028	0.032	0.032	0.032	0.104	0.146	0.188	2.429	2.433	2.437	362322	500094	637866	362322	500094	637866	500001	500339	500677	500001	500339	500677	724456	1.27554e+06	999324	1.00068e+06	0.145	0.192	0.239	3.891	3.9415	3.992
4	0.021	0.021	0.021	1.44	1.441	1.442	0.022	0.02625	0.035	0.044	0.044	0.044	0.077	0.1505	0.227	1.758	1.85225	1.908	622081	750357	869415	395647	750357	1.13576e+06	749640	750224	750997	749781	750224	751028	526232	1.51368e+06	998784	1.00103e+06	0.121	0.19825	0.283	3.277	3.3705	3.425
8	0.031	0.031	0.031	1.423	1.423	1.423	0.023	0.028125	0.032	0.057	0.057	0.057	0.103	0.15525	0.183	1.579	1.623	1.737	852705	874973	915699	586642	874973	1.03184e+06	874458	874945	875806	872675	874945	879791	670943	1.17914e+06	997222	1.00531e+06	0.158	0.215375	0.247	3.1	3.14875	3.295
16	0.043	0.0430625	0.044	1.473	1.47581	1.476	0.031	0.0346875	0.042	0.064	0.0648125	0.065	0.13	0.159812	0.214	1.529	1.62481	1.747	915580	937492	948054	779386	937492	1.26231e+06	936995	937468	938023	933633	937468	942370	831406	1.34673e+06	996261	1.00516e+06	0.207	0.238937	0.3	3.11	3.229	3.328
32	0.046	0.0460313	0.047	1.418	1.41987	1.422	0.049	0.0574688	0.066	0.089	0.089	0.089	0.107	0.164531	0.263	1.52	1.60381	1.732	950387	968732	980252	616398	968732	1.53099e+06	968034	968716	969084	965144	968716	980714	636146	1.5806e+06	996340	1.01268e+06	0.204	0.269656	0.376	3.075	3.17969	3.318
64	0.054	0.054	0.054	1.429	1.4333	1.438	0.065	0.0754687	0.085	0.111	0.112063	0.113	0.022	0.1685	0.289	1.532	1.60038	1.71	973090	984359	997915	125624	984359	1.68702e+06	984043	984363	984708	979245	984363	1.00068e+06	127709	1.71393e+06	994899	1.01647e+06	0.143	0.299484	0.429	3.128	3.22186	3.377
128	0.07	0.07	0.07	1.449	1.45387	1.459	0.081	0.0892422	0.1	0.117	0.118281	0.121	0.032	0.173344	0.344	1.523	1.6182	1.74	985166	992196	998670	170997	992196	1.89685e+06	991943	992196	992435	982825	992196	1.02443e+06	172327	1.91168e+06	990578	1.03248e+06	0.185	0.333984	0.515	3.156	3.26608	3.449
256	0.072	0.0721445	0.073	1.442	1.44462	1.446	0.091	0.105684	0.121	0.137	0.140605	0.145	0.023	0.178078	0.293	1.538	1.62254	1.745	993662	996096	999504	123714	996096	1.60455e+06	995868	996093	996284	985567	996093	1.03888e+06	124210	1.61084e+06	989484	1.04301e+06	0.199	0.35773	0.487	3.17	3.26159	3.41
512	0.08	0.0803437	0.081	1.453	1.45622	1.458	0.111	0.119795	0.131	0.147	0.148439	0.15	0.023	0.182377	0.342	1.546	1.63481	1.793	996361	998048	999776	119862	998048	1.87976e+06	997901	998048	998172	979996	998048	1.07314e+06	120086	1.88327e+06	981894	1.07522e+06	0.216	0.38418	0.554	3.211	3.30539	3.518
1024	0.093	0.0934521	0.094	1.481	1.48387	1.485	0.121	0.128623	0.14	0.179	0.182668	0.186	0.029	0.18716	0.365	1.552	1.64543	1.806	998208	999022	999859	145305	999022	1.86988e+06	998897	999022	999146	982182	999022	1.11094e+06	145446	1.87167e+06	983145	1.11199e+06	0.245	0.410833	0.6	3.266	3.37312	3.627
2048	0.098	0.0989092	0.099	1.52	1.52348	1.525	0.152	0.1606	0.172	0.226	0.228799	0.233	0.024	0.191924	0.376	1.575	1.66254	1.932	999045	999511	999946	122902	999511	1.9205e+06	999417	999511	999583	982591	999511	1.15675e+06	122959	1.92145e+06	983083	1.1573e+06	0.278	0.453134	0.647	3.381	3.4758	3.832
4096	0.106	0.107223	0.108	1.581	1.58498	1.586	0.351	0.365029	0.382	0.42	0.427272	0.434	0.025	0.196197	0.387	1.576	1.68048	2.097	999499	999755	999976	127724	999755	1.98318e+06	999689	999756	999806	985607	999756	1.24229e+06	127754	1.98368e+06	985873	1.2426e+06	0.487	0.670458	0.871	3.689	3.80492	4.205
 
TACC: Shutdown complete. Exiting.
