TACC: Starting up job 7142904
TACC: Starting parallel tasks...
Initialized Hcurves for dimention 3
finished generating 3 dimensional points
======================================================================
     Warm Up run  (par)                                
======================================================================
======================================================================
     Warm Up run  End                                
======================================================================
======================================================================
                        TABLE FORMAT                                  
======================================================================
Using Normal distribution
Weak Scaling Results for : 1e+06
npes	ts_spliter_min	ts_spliter_mean	ts_spliter_max	ss_spliter_min	ss_spliter_mean	ss_spliter_max	ts_all2all_min	ts_all2all_mean	ts_all2all_max	ss_all2all_min	ss_all2all_mean	ss_all2all_max	ts_local_min	ts_local_mean	ts_local_max	ss_local_min	ss_local_mean	ss_local_max	ts_send_min	ts_send_mean	ts_send_max	ts_recv_min	ts_recv_mean	ts_recv_max	ss_send_min	ss_send_mean	ss_send_max	ss_recv_min	ss_recv_mean	ss_recv_max	ts_lb_min	ts_lb_max	ss_lb_min	ss_lb_max	ts_min	ts_mean	ts_max	ss_min	ss_mean	ss_max
1	0	0	0	0	0	0	0	0	0	0	0	0	0	0	0	0	0	0	0	0	0	0	0	0	0	0	0	0	0	0	0	0	0	0	0.145	0.145	0.145	0.495	0.495	0.495
2	0.016	0.016	0.016	1.399	1.3995	1.4	0.016	0.0165	0.017	0.03	0.03	0.03	0.139	0.1475	0.156	2.471	2.492	2.513	478107	499806	521506	478107	499806	521506	499512	499755	499999	499512	499755	499999	956601	1.0434e+06	999513	1.00049e+06	0.172	0.181	0.19	3.93	3.9515	3.973
4	0.016	0.016	0.016	1.382	1.38225	1.383	0.018	0.02	0.024	0.044	0.044	0.044	0.139	0.151	0.16	1.734	1.7855	1.857	736236	749737	768822	694300	749737	789817	749219	749652	750001	747490	749652	750916	925478	1.05358e+06	997490	1.00092e+06	0.174	0.18775	0.199	3.188	3.23975	3.311
8	0.027	0.027	0.027	1.407	1.407	1.407	0.024	0.025625	0.03	0.057	0.057375	0.058	0.142	0.15575	0.173	1.558	1.69212	1.886	863110	875147	885246	803105	875147	956356	874709	875108	875700	873066	875108	877454	917859	1.09325e+06	997366	1.00246e+06	0.194	0.209375	0.227	3.064	3.19812	3.392
16	0.035	0.035	0.035	1.426	1.426	1.426	0.028	0.0313125	0.034	0.067	0.06825	0.069	0.15	0.160437	0.176	1.53	1.61025	1.737	932436	937517	940962	885605	937517	1.01241e+06	937062	937511	938068	933497	937511	942552	944643	1.07998e+06	996046	1.00549e+06	0.218	0.227875	0.246	3.067	3.14606	3.273
32	0.028	0.038375	0.047	1.429	1.43009	1.432	0.012	0.0208438	0.025	0.09	0.0904688	0.091	0.133	0.165625	0.187	1.543	1.60687	1.69	55894	308521	673424	35392	308521	686849	968220	968736	969223	962190	968736	981173	819229	1.12823e+06	993203	1.01295e+06	0.275	0.316594	0.351	3.109	3.17172	3.255
64	0.036	0.043375	0.048	1.435	1.44167	1.447	0.02	0.0248594	0.03	0.111	0.111922	0.113	0.144	0.169625	0.197	1.528	1.60439	1.728	0	519034	889089	0	519034	935765	984014	984379	984804	976764	984379	998362	861465	1.18614e+06	992283	1.01435e+06	0.336	0.371188	0.407	3.132	3.20927	3.333
128	0.045	0.0495	0.06	1.458	1.46044	1.462	0.019	0.0247109	0.031	0.116	0.117297	0.119	0.154	0.174102	0.198	1.542	1.61026	1.703	0	411913	792722	0	411913	806688	991897	992188	992398	982059	992188	1.01661e+06	866388	1.1469e+06	989911	1.0247e+06	0.352	0.378891	0.43	3.166	3.23571	3.329
256	0.048	0.055625	0.065	1.45	1.45406	1.455	0.018	0.0258359	0.031	0.156	0.163953	0.173	0.155	0.179207	0.211	1.552	1.62148	1.754	17331	601070	953242	0	601070	1.00074e+06	995888	996091	996241	985698	996091	1.05205e+06	862406	1.16146e+06	989541	1.05616e+06	0.4	0.429863	0.476	3.215	3.2908	3.429
512	0.047	0.0590938	0.065	1.469	1.47399	1.475	0.017	0.0257441	0.031	0.148	0.150504	0.153	0.155	0.183572	0.213	1.553	1.63229	1.773	0	624806	960478	3003	624806	1.00008e+06	997852	998045	998190	980608	998045	1.0723e+06	853543	1.15184e+06	982525	1.07441e+06	0.386	0.429494	0.467	3.229	3.30892	3.452
1024	0.056	0.0658281	0.077	1.462	1.46499	1.466	0.018	0.0293174	0.038	0.18	0.1822	0.186	0.158	0.188191	0.223	1.558	1.64676	1.878	1942	776729	1.00894e+06	3026	776729	1.07133e+06	998834	999023	999125	980462	999023	1.1346e+06	855154	1.17172e+06	981386	1.13576e+06	0.42	0.464935	0.507	3.263	3.35393	3.585
2048	0.061	0.0705937	0.083	1.508	1.51185	1.513	0.018	0.0302139	0.056	0.239	0.243833	0.249	0.166	0.193063	0.234	1.565	1.66366	1.961	248	791602	1.03926e+06	32203	791602	1.12212e+06	999428	999511	999589	984471	999511	1.163e+06	838747	1.19e+06	984941	1.16357e+06	0.497	0.5375	0.593	3.378	3.47727	3.777
4096	0.067	0.076573	0.087	1.545	1.55482	1.557	0.019	0.0425466	0.089	0.476	0.486263	0.493	0.171	0.197464	0.24	1.594	1.6822	2.16	2046	885698	1.05958e+06	42843	885698	1.13932e+06	999648	999755	999809	985741	999755	1.26962e+06	866784	1.19158e+06	985993	1.26998e+06	0.802	0.857223	0.939	3.8	3.89356	4.37
 
TACC: Shutdown complete. Exiting.
