alltoall fix on 64
splitter fix off 64
allto all fix off
hilbert
TACC: Starting up job 6862542
TACC: Starting parallel tasks...
Initialized Hcurves
finished generating points
======================================================================
     Warm Up run  (par)                                
======================================================================
======================================================================
     Warm Up run  End                                
======================================================================
======================================================================
                        TABLE FORMAT                                  
======================================================================
Using Normal distribution
Weak Scaling Results for : 1e+06
npes	ts_spliter_min	ts_spliter_mean	ts_spliter_max	ss_spliter_min	ss_spliter_mean	ss_spliter_max	ts_all2all_min	ts_all2all_mean	ts_all2all_max	ss_all2all_min	ss_all2all_mean	ss_all2all_max	ts_local_min	ts_local_mean	ts_local_max	ss_local_min	ss_local_mean	ss_local_max	ts_send_min	ts_send_mean	ts_send_max	ts_recv_min	ts_recv_mean	ts_recv_max	ss_send_min	ss_send_mean	ss_send_max	ss_recv_min	ss_recv_mean	ss_recv_max	ts_lb_min	ts_lb_max	ss_lb_min	ss_lb_max	ts_min	ts_mean	ts_max	ss_min	ss_mean	ss_max
1	0	0	0	0	0	0	0	0	0	0	0	0	0	0	0	0	0	0	0	0	0	0	0	0	0	0	0	0	0	0	0	0	0	0	0.144	0.144	0.144	1.419	1.419	1.419
2	0.025	0.025	0.025	1.437	1.4385	1.44	0.032	0.035	0.038	0.044	0.044	0.044	0.137	0.1455	0.154	2.545	2.5585	2.572	477691	499896	522102	477691	499896	522102	499902	499950	499999	499902	499950	499999	955589	1.04441e+06	999903	1.0001e+06	0.195	0.2065	0.218	4.076	4.0785	4.081
4	0.024	0.024	0.024	1.433	1.436	1.437	0.043	0.04925	0.058	0.059	0.059	0.059	0.138	0.14975	0.159	1.819	1.84125	1.888	736426	749633	768466	692669	749633	791346	749062	750004	751126	748916	750004	750954	924203	1.05492e+06	997790	1.00167e+06	0.206	0.2235	0.239	3.342	3.36425	3.411
8	0.039	0.039	0.039	1.602	1.606	1.607	0.049	0.05825	0.069	0.088	0.089125	0.094	0.142	0.157625	0.179	1.639	1.74412	1.906	863723	875166	887793	787959	875166	956513	874420	875165	875519	872636	875165	878910	900166	1.09251e+06	997250	1.00391e+06	0.233	0.25575	0.278	3.381	3.48937	3.644
16	0.051	0.051	0.051	1.445	1.4475	1.449	0.058	0.0643125	0.075	0.092	0.09325	0.097	0.142	0.15975	0.176	1.579	1.65325	1.722	931735	937556	943673	843949	937556	1.02592e+06	937100	937537	937949	934910	937537	942989	900276	1.09418e+06	997361	1.00544e+06	0.252	0.276125	0.303	3.165	3.24212	3.307
32	0.057	0.057	0.057	1.559	1.56122	1.565	0.072	0.0847813	0.097	0.113	0.122344	0.128	0.147	0.164062	0.18	1.552	1.63525	1.711	966277	968742	971168	886908	968742	1.05082e+06	968336	968742	969261	960714	968742	978737	915740	1.08454e+06	991555	1.01019e+06	0.282	0.30675	0.334	3.283	3.36334	3.458
64	0.065	0.065	0.065	1.503	1.5062	1.508	0.107	0.122469	0.134	0.151	0.161531	0.168	0.157	0.168922	0.186	1.577	1.64052	1.768	982968	984369	985697	904951	984369	1.06993e+06	983988	984368	984684	978116	984368	1.00653e+06	919254	1.08696e+06	993847	1.02254e+06	0.336	0.3575	0.381	3.286	3.35097	3.468
128	0.071	0.071	0.071	1.516	1.5202	1.525	0.504	0.518492	0.531	0.171	0.197477	0.207	0.156	0.174055	0.199	1.574	1.64998	1.751	991450	992186	992930	899555	992186	1.07913e+06	991928	992190	992432	983856	992190	1.02003e+06	906710	1.08768e+06	991460	1.02805e+06	0.741	0.764852	0.799	3.336	3.41662	3.53
256	0.082	0.082	0.082	1.462	1.46585	1.471	1.278	1.29722	1.312	0.193	0.201801	0.211	0.156	0.177863	0.197	1.581	1.66166	1.756	995736	996094	996563	909741	996094	1.09332e+06	995914	996092	996247	982119	996092	1.04288e+06	913178	1.09758e+06	985975	1.04685e+06	1.525	1.55851	1.589	3.289	3.37268	3.501
512	0.088	0.088	0.088	1.49	1.49344	1.499	2.004	2.01697	2.031	0.206	0.215969	0.224	0.161	0.181939	0.204	1.577	1.66831	1.81	997752	998050	998263	905098	998050	1.09435e+06	997875	998049	998172	979292	998049	1.06344e+06	906838	1.0966e+06	981166	1.06552e+06	2.26	2.28748	2.322	3.327	3.42069	3.569
1024	0.098	0.098	0.098	1.5	1.50346	1.509	2.18	2.19459	2.208	0.222	0.22772	0.236	0.166	0.186439	0.212	1.582	1.68299	1.88	998853	999021	999165	901915	999021	1.09637e+06	998884	999021	999135	981967	999021	1.12954e+06	902789	1.09742e+06	982908	1.13066e+06	2.45	2.47979	2.514	3.355	3.45832	3.652
2048	0.106	0.106	0.106	1.536	1.54061	1.548	1.517	1.53741	1.558	0.247	0.262123	0.28	0.166	0.191391	0.217	1.592	1.69864	1.985	999420	999511	999607	904856	999511	1.09563e+06	999431	999511	999583	975563	999511	1.15076e+06	905311	1.09615e+06	976094	1.15129e+06	1.804	1.83648	1.872	3.441	3.55142	3.844
4096	0.118	0.118003	0.119	1.617	1.62261	1.63	0.23	0.250993	0.27	0.295	0.31161	0.326	0.167	0.195804	0.223	1.628	1.72768	2.28	999696	999755	999816	902728	999755	1.09592e+06	999655	999755	999812	988172	999755	1.30097e+06	902951	1.09619e+06	988408	1.30131e+06	0.531	0.566348	0.605	3.615	3.71733	4.268
 
TACC: Shutdown complete. Exiting.
morton
TACC: Starting up job 6862542
TACC: Starting parallel tasks...
Initialized Hcurves
finished generating points
======================================================================
     Warm Up run  (par)                                
======================================================================
======================================================================
     Warm Up run  End                                
======================================================================
======================================================================
                        TABLE FORMAT                                  
======================================================================
Using Normal distribution
Weak Scaling Results for : 1e+06
npes	ts_spliter_min	ts_spliter_mean	ts_spliter_max	ss_spliter_min	ss_spliter_mean	ss_spliter_max	ts_all2all_min	ts_all2all_mean	ts_all2all_max	ss_all2all_min	ss_all2all_mean	ss_all2all_max	ts_local_min	ts_local_mean	ts_local_max	ss_local_min	ss_local_mean	ss_local_max	ts_send_min	ts_send_mean	ts_send_max	ts_recv_min	ts_recv_mean	ts_recv_max	ss_send_min	ss_send_mean	ss_send_max	ss_recv_min	ss_recv_mean	ss_recv_max	ts_lb_min	ts_lb_max	ss_lb_min	ss_lb_max	ts_min	ts_mean	ts_max	ss_min	ss_mean	ss_max
1	0	0	0	0	0	0	0	0	0	0	0	0	0	0	0	0	0	0	0	0	0	0	0	0	0	0	0	0	0	0	0	0	0	0	0.142	0.142	0.142	0.296	0.296	0.296
2	0.026	0.026	0.026	0.312	0.3145	0.317	0.033	0.0355	0.038	0.023	0.0235	0.024	0.14	0.1465	0.153	0.353	0.354	0.355	485549	500349	515149	485549	500349	515149	500001	500382	500763	500001	500382	500763	970400	1.0296e+06	999238	1.00076e+06	0.2	0.2095	0.219	0.721	0.7305	0.74
4	0.027	0.027	0.027	0.302	0.3045	0.306	0.043	0.0475	0.052	0.032	0.03275	0.033	0.139	0.149	0.158	0.235	0.24225	0.253	741158	750241	760504	718831	750241	777170	749576	750099	750594	749416	750099	750989	958327	1.03601e+06	999011	1.00141e+06	0.211	0.22525	0.239	0.606	0.61175	0.619
8	0.041	0.041	0.041	0.332	0.33375	0.335	0.052	0.059375	0.07	0.049	0.052	0.059	0.147	0.1575	0.172	0.231	0.26375	0.303	862888	875082	881651	825722	875082	961679	874574	875051	875713	872173	875051	878633	944071	1.09879e+06	996460	1.00368e+06	0.243	0.258125	0.283	0.657	0.691875	0.737
16	0.05	0.05	0.05	0.319	0.321188	0.323	0.059	0.0640625	0.074	0.055	0.055875	0.057	0.142	0.15875	0.173	0.226	0.2355	0.244	932805	937550	942861	859735	937550	1.01116e+06	936708	937553	938177	933290	937553	944888	916874	1.07836e+06	995414	1.00777e+06	0.253	0.273813	0.296	0.644	0.654438	0.685
32	0.055	0.055	0.055	0.313	0.318094	0.324	0.071	0.0828125	0.092	0.072	0.0798437	0.086	0.15	0.164469	0.174	0.234	0.240969	0.254	967003	968737	970907	898180	968737	1.01124e+06	968432	968736	969117	962754	968736	978420	927273	1.04424e+06	993949	1.00994e+06	0.286	0.303781	0.317	0.668	0.679281	0.691
64	0.066	0.066	0.066	0.307	0.310344	0.315	0.109	0.124953	0.138	0.106	0.117938	0.123	0.154	0.1685	0.188	0.239	0.247422	0.259	982818	984352	985826	890406	984352	1.07855e+06	983874	984357	984666	977193	984357	1.00483e+06	904580	1.09573e+06	992577	1.02095e+06	0.335	0.36025	0.39	0.702	0.717781	0.752
128	0.073	0.073	0.073	0.345	0.347805	0.354	0.508	0.528477	0.542	0.137	0.152961	0.164	0.155	0.17368	0.194	0.247	0.256031	0.282	991350	992195	992968	910471	992195	1.08436e+06	991821	992196	992412	982041	992196	1.02929e+06	917703	1.09301e+06	989733	1.03747e+06	0.741	0.77625	0.806	0.786	0.80393	0.846
256	0.08	0.08	0.08	0.319	0.322383	0.329	1.289	1.30689	1.32	0.145	0.154004	0.164	0.158	0.177848	0.196	0.251	0.261141	0.272	995681	996090	996515	905100	996090	1.07675e+06	995802	996090	996275	985881	996090	1.05295e+06	908585	1.081e+06	989813	1.05715e+06	1.538	1.56577	1.598	0.768	0.781738	0.82
512	0.088	0.088	0.088	0.318	0.322826	0.329	2.112	2.12655	2.141	0.161	0.169922	0.179	0.162	0.181879	0.206	0.256	0.266984	0.289	997819	998049	998270	905056	998049	1.0973e+06	997912	998047	998190	981338	998047	1.07305e+06	906862	1.0994e+06	983200	1.07511e+06	2.37	2.39771	2.436	0.786	0.804832	0.84
1024	0.098	0.098	0.098	0.325	0.327964	0.335	1.959	1.97147	1.986	0.169	0.176905	0.187	0.165	0.186363	0.209	0.263	0.273079	0.301	998878	999022	999158	903533	999022	1.09078e+06	998867	999022	999106	980915	999022	1.10658e+06	904421	1.09189e+06	981884	1.10767e+06	2.227	2.257	2.292	0.809	0.822757	0.886
2048	0.106	0.106	0.107	0.331	0.335731	0.343	1.485	1.50881	1.532	0.198	0.210444	0.226	0.165	0.191253	0.215	0.268	0.279262	0.335	999409	999511	999614	901172	999511	1.09575e+06	999427	999512	999589	981732	999512	1.17563e+06	901640	1.09632e+06	982215	1.17616e+06	1.772	1.80778	1.845	0.855	0.874633	0.939
4096	0.118	0.118993	0.119	0.355	0.360057	0.368	0.231	0.252591	0.27	0.236	0.252163	0.268	0.17	0.195674	0.224	0.273	0.284591	0.379	999692	999755	999831	901361	999755	1.09953e+06	999695	999755	999808	977948	999755	1.27758e+06	901587	1.09977e+06	978196	1.27788e+06	0.533	0.568082	0.605	0.922	0.952589	1.033
 
TACC: Shutdown complete. Exiting.
