alltoall fix on 128
splitter fix off 64
allto all fix off
hilbert
TACC: Starting up job 6862637
TACC: Starting parallel tasks...
Initialized Hcurves
finished generating points
======================================================================
     Warm Up run  (par)                                
======================================================================
======================================================================
     Warm Up run  End                                
======================================================================
======================================================================
                        TABLE FORMAT                                  
======================================================================
Using Normal distribution
Weak Scaling Results for : 1e+06
npes	ts_spliter_min	ts_spliter_mean	ts_spliter_max	ss_spliter_min	ss_spliter_mean	ss_spliter_max	ts_all2all_min	ts_all2all_mean	ts_all2all_max	ss_all2all_min	ss_all2all_mean	ss_all2all_max	ts_local_min	ts_local_mean	ts_local_max	ss_local_min	ss_local_mean	ss_local_max	ts_send_min	ts_send_mean	ts_send_max	ts_recv_min	ts_recv_mean	ts_recv_max	ss_send_min	ss_send_mean	ss_send_max	ss_recv_min	ss_recv_mean	ss_recv_max	ts_lb_min	ts_lb_max	ss_lb_min	ss_lb_max	ts_min	ts_mean	ts_max	ss_min	ss_mean	ss_max
1	0	0	0	0	0	0	0	0	0	0	0	0	0	0	0	0	0	0	0	0	0	0	0	0	0	0	0	0	0	0	0	0	0	0	0.143	0.143	0.143	1.4	1.4	1.4
2	0.024	0.024	0.024	1.428	1.43	1.432	0.033	0.04	0.047	0.04	0.04	0.04	0.138	0.146	0.154	2.488	2.503	2.518	477720	499565	521411	477720	499565	521411	499196	499597	499999	499196	499597	499999	956309	1.04369e+06	999197	1.0008e+06	0.196	0.211	0.226	4.018	4.018	4.018
4	0.024	0.024	0.024	1.435	1.438	1.439	0.046	0.05225	0.061	0.059	0.0595	0.06	0.138	0.1495	0.158	1.739	1.8755	1.993	735926	749700	768741	692858	749700	790850	749421	749648	750000	747765	749648	750914	924117	1.05492e+06	997765	1.00149e+06	0.209	0.22675	0.243	3.265	3.40125	3.519
8	0.04	0.04	0.04	1.462	1.4635	1.466	0.05	0.059625	0.071	0.09	0.0915	0.093	0.144	0.155	0.17	1.656	1.73762	1.819	864050	875156	885609	804279	875156	954846	874826	875120	875432	873449	875120	879767	918670	1.0908e+06	998490	1.00494e+06	0.235	0.25525	0.282	3.25	3.34625	3.428
16	0.052	0.052	0.052	1.458	1.45962	1.461	0.059	0.064125	0.075	0.096	0.0973125	0.102	0.15	0.158812	0.174	1.571	1.65656	1.794	932548	937553	940849	886844	937553	1.01075e+06	937136	937581	938096	933289	937581	942245	946340	1.0782e+06	995462	1.00491e+06	0.262	0.275312	0.302	3.178	3.26337	3.402
32	0.058	0.058	0.058	1.448	1.45228	1.456	0.07	0.081375	0.094	0.113	0.118406	0.122	0.145	0.16425	0.179	1.561	1.64525	1.733	965929	968786	971114	887276	968786	1.04988e+06	968259	968778	969375	964684	968778	976801	916162	1.08395e+06	995683	1.00854e+06	0.281	0.304531	0.332	3.171	3.25956	3.374
64	0.064	0.064	0.064	1.479	1.48292	1.484	0.424	0.439672	0.453	0.152	0.162469	0.171	0.154	0.168437	0.185	1.57	1.64878	1.814	983053	984375	985467	905378	984375	1.069e+06	984029	984377	984754	976730	984377	1.00474e+06	919911	1.08567e+06	992534	1.02056e+06	0.652	0.672734	0.703	3.255	3.34066	3.488
128	0.072	0.0729609	0.073	1.507	1.5083	1.51	2.479	2.49316	2.506	0.149	0.154906	0.16	0.157	0.173383	0.192	1.577	1.65239	1.828	991367	992177	992835	901180	992177	1.08143e+06	991894	992180	992382	984086	992180	1.01915e+06	908347	1.08977e+06	991878	1.02726e+06	2.716	2.7401	2.762	3.286	3.36186	3.536
256	0.08	0.08	0.08	1.487	1.48886	1.493	4.294	4.3147	4.329	0.175	0.181914	0.189	0.156	0.17809	0.197	1.588	1.663	1.771	995709	996099	996529	902534	996099	1.08425e+06	995941	996100	996315	984459	996100	1.03262e+06	906016	1.08845e+06	988249	1.03659e+06	4.539	4.5735	4.604	3.308	3.3847	3.492
512	0.167	0.167	0.167	1.928	1.9355	1.945	6.258	6.27802	6.302	0.204	0.221104	0.232	0.162	0.182539	0.22	1.573	1.66986	1.932	997801	998049	998294	898999	998049	1.09341e+06	997841	998047	998167	983917	998047	1.07443e+06	900725	1.0955e+06	985819	1.07659e+06	6.595	6.62824	6.671	3.787	3.89571	4.156
1024	0.098	0.098	0.098	1.497	1.4993	1.504	6.513	6.52644	6.542	0.191	0.197552	0.206	0.166	0.186648	0.212	1.599	1.68062	1.971	998890	999023	999160	902665	999023	1.09633e+06	998918	999023	999130	975141	999023	1.12412e+06	903508	1.09741e+06	976106	1.1252e+06	6.781	6.81188	6.848	3.343	3.42872	3.729
2048	0.106	0.106	0.106	1.525	1.52974	1.537	4.015	4.03035	4.045	0.21	0.217651	0.226	0.169	0.19139	0.216	1.597	1.69954	2.028	999408	999512	999593	904964	999512	1.0968e+06	999432	999511	999593	979183	999511	1.17479e+06	905416	1.09735e+06	979671	1.17536e+06	4.293	4.3291	4.366	3.389	3.49633	3.825
4096	0.129	0.129008	0.133	1.568	1.57367	1.582	0.18	0.19887	0.22	0.233	0.245847	0.263	0.169	0.195755	0.22	1.623	1.71663	2.18	999678	999756	999817	905727	999756	1.09862e+06	999671	999756	999815	985061	999756	1.24521e+06	905974	1.09888e+06	985308	1.24551e+06	0.491	0.524989	0.562	3.486	3.58662	4.055
 
TACC: Shutdown complete. Exiting.
morton
TACC: Starting up job 6862637
TACC: Starting parallel tasks...
Initialized Hcurves
finished generating points
======================================================================
     Warm Up run  (par)                                
======================================================================
======================================================================
     Warm Up run  End                                
======================================================================
======================================================================
                        TABLE FORMAT                                  
======================================================================
Using Normal distribution
Weak Scaling Results for : 1e+06
npes	ts_spliter_min	ts_spliter_mean	ts_spliter_max	ss_spliter_min	ss_spliter_mean	ss_spliter_max	ts_all2all_min	ts_all2all_mean	ts_all2all_max	ss_all2all_min	ss_all2all_mean	ss_all2all_max	ts_local_min	ts_local_mean	ts_local_max	ss_local_min	ss_local_mean	ss_local_max	ts_send_min	ts_send_mean	ts_send_max	ts_recv_min	ts_recv_mean	ts_recv_max	ss_send_min	ss_send_mean	ss_send_max	ss_recv_min	ss_recv_mean	ss_recv_max	ts_lb_min	ts_lb_max	ss_lb_min	ss_lb_max	ts_min	ts_mean	ts_max	ss_min	ss_mean	ss_max
1	0	0	0	0	0	0	0	0	0	0	0	0	0	0	0	0	0	0	0	0	0	0	0	0	0	0	0	0	0	0	0	0	0	0	0.143	0.143	0.143	0.289	0.289	0.289
2	0.025	0.025	0.025	0.301	0.304	0.307	0.032	0.0375	0.043	0.02	0.0205	0.021	0.139	0.146	0.153	0.339	0.343	0.347	486370	500995	515620	486370	500995	515620	500001	500860	501719	500001	500860	501719	970750	1.02925e+06	998282	1.00172e+06	0.197	0.209	0.221	0.692	0.708	0.724
4	0.027	0.027	0.027	0.309	0.31125	0.312	0.045	0.04925	0.054	0.033	0.034	0.035	0.139	0.149	0.158	0.236	0.24175	0.246	741259	750126	760663	717548	750126	776472	749567	750070	750475	748823	750070	751288	956885	1.03521e+06	998581	1.00172e+06	0.212	0.2265	0.24	0.615	0.62075	0.627
8	0.04	0.04	0.04	0.304	0.306375	0.307	0.053	0.06	0.07	0.047	0.04975	0.055	0.144	0.154125	0.172	0.222	0.238875	0.258	866779	875009	881379	829253	875009	932585	874224	874985	875299	872169	874985	878515	947874	1.06581e+06	997106	1.00352e+06	0.241	0.255625	0.283	0.614	0.633625	0.658
16	0.051	0.051	0.051	0.306	0.30825	0.31	0.058	0.0635625	0.074	0.055	0.0555625	0.056	0.14	0.158375	0.173	0.229	0.234125	0.24	934335	937622	942869	859288	937622	989481	937182	937621	938028	933972	937621	946133	916419	1.05515e+06	996279	1.00895e+06	0.25	0.274188	0.298	0.63	0.638187	0.67
32	0.057	0.057	0.057	0.313	0.315844	0.318	0.068	0.0829375	0.089	0.071	0.0792813	0.083	0.149	0.164156	0.174	0.237	0.242156	0.249	967376	968758	970833	896553	968758	1.01095e+06	968376	968767	969175	963550	968767	978517	925774	1.04348e+06	994527	1.01e+06	0.285	0.304563	0.319	0.667	0.678594	0.695
64	0.066	0.066	0.066	0.307	0.311062	0.314	0.398	0.412641	0.426	0.11	0.122266	0.13	0.153	0.168641	0.189	0.24	0.248281	0.256	983022	984396	985708	902749	984396	1.06454e+06	983995	984392	984673	976567	984392	1.0099e+06	917041	1.08151e+06	992175	1.02591e+06	0.624	0.648234	0.671	0.707	0.726703	0.757
128	0.073	0.073	0.073	0.315	0.316617	0.319	2.489	2.5	2.515	0.104	0.109672	0.116	0.152	0.173242	0.192	0.247	0.254367	0.271	991508	992188	992976	906343	992188	1.08585e+06	991847	992189	992461	980722	992189	1.01694e+06	913496	1.09426e+06	988301	1.02481e+06	2.722	2.74723	2.78	0.715	0.727781	0.774
256	0.08	0.08	0.08	0.316	0.317605	0.321	4.28	4.29981	4.314	0.125	0.131547	0.139	0.16	0.177883	0.201	0.253	0.260359	0.279	995726	996100	996502	914019	996100	1.08269e+06	995901	996099	996304	986854	996099	1.04522e+06	917611	1.08692e+06	990639	1.04931e+06	4.534	4.55875	4.592	0.742	0.754793	0.805
512	0.142	0.142	0.142	0.387	0.399027	0.405	5.993	6.01107	6.028	0.137	0.145291	0.157	0.165	0.182461	0.227	0.257	0.266877	0.418	997818	998044	998276	903432	998044	1.09512e+06	997796	998044	998171	981943	998044	1.0778e+06	905205	1.09717e+06	983848	1.08001e+06	6.314	6.34684	6.389	0.846	0.866807	1.026
1024	0.098	0.098	0.098	0.323	0.324829	0.33	6.723	6.73711	6.752	0.147	0.154149	0.163	0.164	0.186431	0.212	0.263	0.272604	0.304	998880	999023	999182	901379	999023	1.09425e+06	998869	999023	999120	977026	999023	1.11471e+06	902248	1.0953e+06	977934	1.11574e+06	6.99	7.02283	7.056	0.784	0.797976	0.844
2048	0.11	0.110073	0.111	0.333	0.336715	0.344	4.046	4.05963	4.073	0.163	0.169595	0.179	0.165	0.191089	0.213	0.268	0.279183	0.333	999410	999512	999600	907894	999512	1.09795e+06	999417	999511	999607	982807	999511	1.19018e+06	908353	1.09847e+06	983266	1.19074e+06	4.329	4.36226	4.397	0.821	0.837479	0.901
4096	0.222	0.222017	0.227	0.458	0.465957	0.474	0.181	0.200928	0.271	0.181	0.195613	0.241	0.17	0.195527	0.234	0.273	0.284795	0.369	999690	999755	999817	902261	999755	1.09789e+06	999696	999755	999804	979660	999755	1.23553e+06	902485	1.09816e+06	979895	1.23582e+06	0.596	0.629274	0.701	0.976	1.00924	1.143
 
TACC: Shutdown complete. Exiting.
