alltoall fix off
splitter fix off 64
allto all fix off
hilbert
TACC: Starting up job 6862656
TACC: Starting parallel tasks...
Initialized Hcurves
finished generating points
======================================================================
     Warm Up run  (par)                                
======================================================================
======================================================================
     Warm Up run  End                                
======================================================================
======================================================================
                        TABLE FORMAT                                  
======================================================================
Using Normal distribution
Weak Scaling Results for : 1e+06
npes	ts_spliter_min	ts_spliter_mean	ts_spliter_max	ss_spliter_min	ss_spliter_mean	ss_spliter_max	ts_all2all_min	ts_all2all_mean	ts_all2all_max	ss_all2all_min	ss_all2all_mean	ss_all2all_max	ts_local_min	ts_local_mean	ts_local_max	ss_local_min	ss_local_mean	ss_local_max	ts_send_min	ts_send_mean	ts_send_max	ts_recv_min	ts_recv_mean	ts_recv_max	ss_send_min	ss_send_mean	ss_send_max	ss_recv_min	ss_recv_mean	ss_recv_max	ts_lb_min	ts_lb_max	ss_lb_min	ss_lb_max	ts_min	ts_mean	ts_max	ss_min	ss_mean	ss_max
1	0	0	0	0	0	0	0	0	0	0	0	0	0	0	0	0	0	0	0	0	0	0	0	0	0	0	0	0	0	0	0	0	0	0	0.145	0.145	0.145	1.399	1.399	1.399
2	0.024	0.024	0.024	1.378	1.378	1.378	0.014	0.0145	0.015	0.03	0.03	0.03	0.138	0.1465	0.155	2.451	2.451	2.451	476497	499603	522710	476497	499603	522710	499626	499812	499999	499626	499812	499999	953787	1.04621e+06	999627	1.00037e+06	0.177	0.186	0.195	3.89	3.899	3.908
4	0.024	0.024	0.024	1.388	1.38825	1.389	0.021	0.02275	0.027	0.044	0.044	0.044	0.139	0.15075	0.16	1.726	1.788	1.849	736846	749886	768916	693770	749886	789539	749419	749831	750141	748743	749831	750886	924854	1.05269e+06	999324	1.00112e+06	0.185	0.19825	0.21	3.191	3.253	3.314
8	0.039	0.039	0.039	1.385	1.385	1.385	0.026	0.0275	0.032	0.057	0.057	0.057	0.141	0.15525	0.172	1.535	1.67162	1.786	863321	874707	884735	801168	874707	956755	874206	874714	875203	872146	874714	877270	916433	1.09343e+06	997142	1.00239e+06	0.207	0.223125	0.244	3.036	3.162	3.268
16	0.052	0.052	0.052	1.427	1.42719	1.428	0.032	0.0336875	0.038	0.065	0.0658125	0.066	0.15	0.16	0.175	1.554	1.59681	1.651	932439	937429	940738	886493	937429	1.01168e+06	937035	937407	937760	934274	937407	944216	945755	1.07924e+06	996573	1.00718e+06	0.237	0.246938	0.267	3.093	3.13706	3.192
32	0.058	0.0585	0.059	1.416	1.41738	1.421	0.047	0.05425	0.061	0.09	0.0910625	0.092	0.146	0.164781	0.18	1.518	1.59844	1.758	966136	968736	971502	888107	968736	1.0511e+06	968348	968744	969090	962474	968744	982056	916605	1.08497e+06	993835	1.01358e+06	0.259	0.279094	0.3	3.076	3.16066	3.326
64	0.067	0.0675	0.068	1.422	1.42527	1.436	0.069	0.0736563	0.081	0.111	0.111391	0.112	0.155	0.169109	0.186	1.536	1.6035	1.662	983174	984373	985263	929545	984373	1.06268e+06	983919	984370	984728	976190	984370	1.00932e+06	944359	1.07951e+06	991862	1.02526e+06	0.296	0.311734	0.335	3.131	3.20566	3.297
128	0.076	0.07675	0.077	1.446	1.4479	1.451	0.077	0.082	0.088	0.118	0.12107	0.123	0.157	0.173586	0.193	1.536	1.61359	1.733	991382	992177	992842	899703	992177	1.08114e+06	991818	992177	992436	981884	992177	1.02025e+06	906861	1.08976e+06	989647	1.02843e+06	0.314	0.333688	0.358	3.158	3.23674	3.359
256	0.085	0.085	0.085	1.441	1.44208	1.443	0.086	0.0937656	0.104	0.133	0.144055	0.153	0.158	0.178445	0.197	1.54	1.62345	1.8	995702	996099	996482	906907	996099	1.07496e+06	995840	996098	996369	981888	996098	1.03783e+06	910425	1.07926e+06	985729	1.04188e+06	0.333	0.358465	0.386	3.167	3.26133	3.441
512	0.139	0.139668	0.14	1.57	1.57104	1.572	0.105	0.112832	0.123	0.219	0.224672	0.229	0.161	0.183215	0.236	1.539	1.63373	2.34	997797	998048	998288	902134	998048	1.09171e+06	997925	998047	998179	979884	998047	1.07048e+06	903943	1.09391e+06	981780	1.07254e+06	0.415	0.437295	0.491	3.407	3.50583	4.219
1024	0.102	0.10207	0.103	1.476	1.47699	1.478	0.15	0.153645	0.161	0.189	0.190939	0.193	0.167	0.187437	0.212	1.555	1.6473	1.858	998886	999022	999181	904941	999022	1.0951e+06	998914	999023	999117	977641	999023	1.09728e+06	905839	1.09616e+06	978587	1.09837e+06	0.422	0.444982	0.474	3.282	3.37623	3.589
2048	0.113	0.113829	0.114	1.511	1.51129	1.512	0.219	0.22598	0.234	0.195	0.195759	0.197	0.165	0.192276	0.218	1.553	1.66372	1.969	999416	999512	999603	901869	999512	1.09731e+06	999429	999512	999599	984574	999512	1.1681e+06	902297	1.09785e+06	985081	1.16867e+06	0.504	0.533781	0.561	3.319	3.4311	3.731
4096	0.175	0.176682	0.181	1.768	1.76889	1.775	0.438	0.449711	0.46	0.481	0.493901	0.499	0.168	0.196666	0.315	1.561	1.68124	2.099	999678	999755	999822	901469	999755	1.09699e+06	999674	999755	999816	985563	999755	1.25683e+06	901716	1.09726e+06	985784	1.25711e+06	0.804	0.83373	0.95	3.958	4.0933	4.487
