splitter fix on
allto all fix off
hilbert
TACC: Starting up job 6861303
TACC: Starting parallel tasks...
Initialized Hcurves
finished generating points
======================================================================
     Warm Up run  (par)                                
======================================================================
TACC: MPI job exited with code: 255
 
TACC: Shutdown complete. Exiting.
morton
TACC: Starting up job 6861303
TACC: Starting parallel tasks...
Initialized Hcurves
finished generating points
======================================================================
     Warm Up run  (par)                                
======================================================================
TACC: MPI job exited with code: 255
 
TACC: Shutdown complete. Exiting.
