splitter fix on 64
allto all fix off
hilbert
TACC: Starting up job 6861674
TACC: Starting parallel tasks...
Initialized Hcurves
finished generating points
======================================================================
     Warm Up run  (par)                                
======================================================================
======================================================================
     Warm Up run  End                                
======================================================================
APPLICATION TERMINATED WITH THE EXIT STRING: Killed (signal 9)
TACC: MPI job exited with code: 9
 
TACC: Shutdown complete. Exiting.
morton
TACC: Starting up job 6861674
TACC: Starting parallel tasks...
Initialized Hcurves
finished generating points
======================================================================
     Warm Up run  (par)                                
======================================================================
======================================================================
     Warm Up run  End                                
======================================================================
APPLICATION TERMINATED WITH THE EXIT STRING: Killed (signal 9)
TACC: MPI job exited with code: 9
 
TACC: Shutdown complete. Exiting.
