npes	grainSz	option	tolerance	splitterFix_min	splitterFix_mean	splitterFix_max	splitterTime_min	splitterTime_mean	splitterTime_max	alltoall1_min	alltoall1_mean	alltoall1_max	alltoall2_min	alltoall2_mean	alltoall2_max	localSort_min	localSort_mean	localSort_max	rd_seq_min	rd_seq_mean	rd_seq_max	auxBalOctCreation_min	auxBalOctCreation_mean	auxBalOctCreation_max	rd_par_min	rd_par_mean	rd_par_max
2	100000	2	0.1	0	0	0	0.00485587	0.00517547	0.00549507	0.00808406	0.00853753	0.008991	0.00384402	0.00384855	0.00385308	0.053925	0.0539545	0.0539839	0.01052	0.010674	0.010828	0	0	0	0.000652075	0.000685573	0.00071907	0.0633621	0.0636936	0.0640252	0.0920191	0.0926031	0.0931871	
4	100000	2	0.1	0.013598	0.0145251	0.0171762	0.00707507	0.00707555	0.00707603	0.00393796	0.00393844	0.00393891	0.00345302	0.00345492	0.00345683	0.053823	0.0541168	0.054554	0.0102448	0.0103067	0.01038	0	0	0	0.000780106	0.00121576	0.001508	0.0795279	0.0804445	0.0830622	0.111081	0.111783	0.112105	
8	100000	2	0.1	0.0191851	0.0231643	0.026901	0.00987411	0.0132954	0.0173941	0.00582504	0.00583327	0.00584602	0.00329685	0.00345463	0.0036509	0.050431	0.0568502	0.0617721	0.00949097	0.010444	0.0109	0	0	0	0.00110483	0.00887772	0.0125129	0.101744	0.105719	0.109461	0.139363	0.139984	0.140424	
16	100000	2	0.1	0.0149109	0.0178654	0.02266	0.016979	0.0196275	0.022156	0.00587296	0.00598764	0.00612402	0.00355697	0.00391686	0.00429893	0.0531089	0.0582497	0.06354	0.00940299	0.0103777	0.011425	0	0	0	0.00119185	0.00668566	0.0148311	0.103515	0.106431	0.111264	0.142416	0.143487	0.143803	
32	100000	2	0.1	0.0323648	0.0356145	0.040462	0.0207331	0.0216683	0.0224519	0.00644612	0.00683301	0.00699091	0.00387812	0.00457846	0.00542998	0.0519021	0.0598171	0.0662291	0.00929499	0.0105249	0.0112641	0	0	0	0.00137281	0.00777911	0.0143502	0.126367	0.129556	0.134434	0.191392	0.192821	0.193855	
64	100000	2	0.1	0.035603	0.0395252	0.0440509	0.023325	0.0249615	0.026895	0.00630498	0.00674132	0.00689483	0.00558805	0.00578086	0.00597405	0.0530932	0.061964	0.069133	0.00889397	0.0104916	0.0115631	0	0	0	0.00143099	0.00947829	0.0201559	0.13775	0.141869	0.146453	0.204555	0.205802	0.206928	
128	100000	2	0.1	0.038389	0.0431668	0.05004	0.0230789	0.0263908	0.0289209	0.00580502	0.00636498	0.00677514	0.00532508	0.00572286	0.00613093	0.050277	0.0635067	0.0721419	0.00845194	0.0104404	0.0120821	0	0	0	0.00149322	0.0127792	0.0274739	0.14695	0.151746	0.158506	0.229095	0.230174	0.231174	
256	100000	2	0.1	0.036319	0.0415513	0.0464661	0.026593	0.0293174	0.0386112	0.00764012	0.00821669	0.00890994	0.00500989	0.00633136	0.00745893	0.0514531	0.0649719	0.0762959	0.00753808	0.0104146	0.0120678	0	0	0	0.00151682	0.019734	0.0366471	0.15683	0.162309	0.167288	0.21396	0.238729	0.354958	
