npes	grainSz	option	tolerance	splitterFix_min	splitterFix_mean	splitterFix_max	splitterTime_min	splitterTime_mean	splitterTime_max	alltoall1_min	alltoall1_mean	alltoall1_max	alltoall2_min	alltoall2_mean	alltoall2_max	localSort_min	localSort_mean	localSort_max	rd_seq_min	rd_seq_mean	rd_seq_max	auxBalOctCreation_min	auxBalOctCreation_mean	auxBalOctCreation_max	rd_par_min	rd_par_mean	rd_par_max
2	1000000	2	0.1	0	0	0	0.048171	0.048945	0.0497189	0.15305	0.157778	0.162506	0.045279	0.045279	0.045279	0.59899	0.600147	0.601305	0.105088	0.105443	0.105798	0	0	0	0.00692797	0.00808549	0.00924301	0.70572	0.706475	0.70723	1.01644	1.02364	1.03084	
4	1000000	2	0.1	0.143689	0.145961	0.149426	0.0715392	0.0716608	0.071768	0.047343	0.0474297	0.0475159	0.0435028	0.0439341	0.0443668	0.60817	0.611502	0.616842	0.099993	0.102249	0.103388	0	0	0	0.00705695	0.012849	0.0166149	0.887985	0.890082	0.893444	1.24089	1.24771	1.25594	
8	1000000	2	0.1	0.150292	0.215245	0.245435	0.0490968	0.0901557	0.164071	0.0561779	0.0568225	0.0573468	0.041172	0.0420928	0.043617	0.615706	0.629594	0.636931	0.096627	0.10177	0.105191	0	0	0	0.00910306	0.0892759	0.131081	1.00917	1.0738	1.10387	1.48155	1.48993	1.49752	
16	1000000	2	0.1	0.201925	0.240647	0.26617	0.183261	0.192234	0.202739	0.0561371	0.0573131	0.0596809	0.0454969	0.0484567	0.05193	0.565548	0.64391	0.706654	0.0875649	0.102223	0.112668	0	0	0	0.0105	0.0792821	0.151354	1.1742	1.21223	1.23878	1.62802	1.6401	1.64643	
32	1000000	2	0.1	0.199986	0.227229	0.25472	0.201763	0.210886	0.220593	0.0541899	0.0559386	0.0565469	0.0459359	0.0510396	0.0538909	0.577758	0.66096	0.719685	0.0894799	0.10378	0.114253	0	0	0	0.010468	0.0760278	0.151552	1.20724	1.23408	1.26211	1.68796	1.69837	1.70585	
64	1000000	2	0.1	0.345691	0.496286	0.543058	0.226819	0.256049	0.373655	0.0825241	0.0882871	0.10989	0.052778	0.0562808	0.0709882	0.583521	0.684897	0.805072	0.087292	0.102529	0.128138	0	0	0	0.010293	0.262025	0.385454	1.6088	1.76911	1.82004	2.27611	2.32693	2.34308	
128	1000000	2	0.1	0.379921	0.434168	0.484828	0.21031	0.255778	0.292157	0.0550308	0.0612502	0.066077	0.05018	0.0542377	0.0594239	0.560348	0.69204	0.82211	0.0829802	0.101254	0.115984	0	0	0	0.0113711	0.182212	0.353882	1.57289	1.62698	1.67806	2.20122	2.21746	2.22965	
256	1000000	2	0.1	0.382117	0.442794	0.522319	0.240648	0.277419	0.305667	0.0583689	0.061524	0.066669	0.0495579	0.0548227	0.0604839	0.522946	0.709502	0.857453	0.0798728	0.1021	0.120338	0	0	0	0.0114851	0.190966	0.419781	1.62411	1.68443	1.76392	2.29235	2.30885	2.31947	
512	1000000	2	0.1	0.578575	0.773736	0.857873	0.254573	0.308707	0.501756	0.082643	0.0914824	0.11529	0.0503571	0.0557726	0.075038	0.527985	0.732495	0.906686	0.0790739	0.10325	0.159561	0	0	0	0.021585	0.396384	0.657417	2.09002	2.28306	2.37091	3.00276	3.07605	3.09132	
1024	1000000	2	0.1	0.471555	0.542391	0.622543	0.284782	0.352944	0.615455	0.0775819	0.08726	0.119104	0.044765	0.0566982	0.0783288	0.56153	0.744282	0.877674	0.082186	0.102635	0.119173	0	0	0	0.0107889	0.356428	0.605579	1.99397	2.06229	2.14303	2.79203	2.85049	2.86656	
2048	1000000	2	0.1	0.630426	0.794846	0.885474	0.270112	0.352004	0.600852	0.090452	0.0974918	0.134441	0.040678	0.0567606	0.0930619	0.572583	0.761001	1.08007	0.0824509	0.102563	0.162229	0	0	0	0.0222712	0.459973	0.721242	2.28086	2.44265	2.54019	3.32188	3.44457	3.46624	
4096	1000000	2	0.1	0.769869	1.01504	1.10764	0.314187	0.407712	0.663295	0.0971491	0.103957	0.181444	0.0431149	0.0612311	0.126282	0.576351	0.783347	1.10938	0.0802648	0.103483	0.208887	0	0	0	0.016201	0.493129	0.792017	2.5438	2.78507	2.88474	3.60938	4.06802	6.14177	
