npes	grainSz	option	tolerance	splitterFix_min	splitterFix_mean	splitterFix_max	splitterTime_min	splitterTime_mean	splitterTime_max	alltoall1_min	alltoall1_mean	alltoall1_max	alltoall2_min	alltoall2_mean	alltoall2_max	localSort_min	localSort_mean	localSort_max	rd_seq_min	rd_seq_mean	rd_seq_max	auxBalOctCreation_min	auxBalOctCreation_mean	auxBalOctCreation_max	rd_par_min	rd_par_mean	rd_par_max	ts2_min	ts2_mean	ts2_max	total_min	total_mean	total_max
2	1000000	2	0.1	0	4.76837e-07	9.53674e-07	0.0482709	0.049032	0.049793	0.131839	0.132347	0.132854	0.0445821	0.0445821	0.0445821	0.59165	0.592276	0.592901	0.10483	0.105927	0.107023	0	0	0	0.00694704	0.00757205	0.00819707	0.696843	0.697618	0.698392	1.00812	1.00872	1.00933	
4	1000000	2	0.1	0.144225	0.145927	0.147759	0.0714111	0.0715588	0.071717	0.0463989	0.0464205	0.0464411	0.0452619	0.0456167	0.0459721	0.599305	0.602125	0.604978	0.105066	0.105715	0.106127	0	0	0	0.00703788	0.0102987	0.013495	0.878337	0.879915	0.88162	1.23023	1.23242	1.23437	
8	1000000	2	0.1	0.197263	0.228174	0.251105	0.0962811	0.127429	0.158783	0.054189	0.055417	0.0566459	0.045166	0.0481485	0.0512319	0.558096	0.623819	0.678754	0.097703	0.10597	0.110645	0	0	0	0.009552	0.0972406	0.134395	1.10158	1.13244	1.15521	1.53853	1.54928	1.55353	
16	1000000	2	0.1	0.200215	0.218271	0.234255	0.185082	0.197425	0.205129	0.0542419	0.0550874	0.0567	0.0467529	0.0504692	0.053313	0.598929	0.636023	0.687671	0.0961521	0.106157	0.115613	0	0	0	0.008605	0.0614923	0.114487	1.15462	1.17157	1.18789	1.59679	1.6072	1.61269	
32	1000000	2	0.1	0.318012	0.34712	0.381912	0.204925	0.211194	0.218006	0.0510221	0.0562518	0.0576782	0.046051	0.0514795	0.056643	0.571498	0.649362	0.736448	0.091893	0.103562	0.115548	0	0	0	0.00953507	0.103094	0.189236	1.34164	1.3704	1.40488	1.83628	1.84822	1.85477	
64	1000000	2	0.1	0.152649	0.181266	0.210077	0.233653	0.247028	0.258408	0.0549841	0.0558996	0.0596251	0.0537379	0.0553609	0.0564699	0.577655	0.671605	0.734989	0.092133	0.106284	0.113626	0	0	0	0.0104771	0.0710528	0.17366	1.20597	1.23442	1.26378	1.71614	1.72793	1.73738	
128	1000000	2	0.1	0.441915	0.540532	0.591807	0.222549	0.26383	0.382268	0.0605061	0.0676783	0.076756	0.0494361	0.0573389	0.0915148	0.555386	0.686323	0.807999	0.086633	0.10563	0.182838	0	0	0	0.0137448	0.287859	0.451882	1.75468	1.84842	1.90488	2.47372	2.49717	2.51325	
256	1000000	2	0.1	0.329319	0.411694	0.46472	0.250184	0.273654	0.294019	0.0567861	0.0602034	0.062367	0.050647	0.0557564	0.061516	0.563502	0.701087	0.818817	0.0879409	0.106276	0.12087	0	0	0	0.0104089	0.152938	0.308473	1.52134	1.60407	1.6567	2.20065	2.21761	2.23092	
512	1000000	2	0.1	0.452	0.516871	0.588667	0.243655	0.309879	0.461644	0.0743208	0.0819608	0.103391	0.0481799	0.0571643	0.0748432	0.557686	0.72195	0.828536	0.087569	0.106563	0.124766	0	0	0	0.019336	0.292293	0.528417	1.84439	1.90764	1.97901	2.56431	2.58581	2.60176	
1024	1000000	2	0.1	0.519477	0.698316	0.785698	0.272701	0.376774	0.622764	0.0815639	0.0902875	0.122675	0.0442481	0.0596166	0.100103	0.559177	0.73457	1.02456	0.0853491	0.105719	0.148206	0	0	0	0.010839	0.449832	0.735088	2.14524	2.33514	2.42552	3.1104	3.22151	3.24096	
2048	1000000	2	0.1	0.790132	1.07248	1.17471	0.290381	0.358409	0.587949	0.084023	0.0951778	0.119681	0.0490949	0.0586431	0.106904	0.533151	0.751166	1.10403	0.081876	0.106314	0.150056	0	0	0	0.016093	0.611643	0.903865	2.58755	2.8681	2.97474	3.76777	3.88393	3.9143	
4096	1000000	2	0.1	0.665901	1.00335	1.11154	0.308821	0.405075	0.702647	0.087276	0.0977707	0.14029	0.046459	0.0627707	0.10566	0.552939	0.772973	1.188	0.0843809	0.10715	0.217539	0	0	0	0.0165601	0.672824	0.995038	2.58655	2.94479	3.05921	3.78365	4.44896	6.77587	
