debuggroup summary 0.32s welcome to circos v0.68-pre1 7 Apr 2015 on Perl 5.010000
debuggroup summary 0.32s current working directory /home/martink/www/htdocs/tableviewer/tmp/xhmtelx
debuggroup summary 0.32s command /home/martink/work/circos/svn-tags/circos-tableviewer//bin/circos -param random_string=xhmtelx -conf /home/martink/www/htdocs/tableviewer/tmp/xhmtelx/etc/circos.conf
debuggroup summary 0.32s guessing configuration file
debuggroup summary 0.32s found conf file /home/martink/www/htdocs/tableviewer/tmp/xhmtelx/etc/circos.conf
debuggroup summary 0.93s debug will appear for these features: output,summary
debuggroup summary 0.94s bitmap output image results/circos-table-xhmtelx-large.png
debuggroup summary 0.94s SVG output image results/circos-table-xhmtelx-large.svg
debuggroup summary 0.94s parsing karyotype and organizing ideograms
debuggroup summary 0.97s karyotype has 64 chromosomes of total size 1,749,330
debuggroup summary 1.05s applying global and local scaling
debuggroup summary 1.12s allocating image, colors and brushes
debuggroup summary 2.27s drawing 64 ideograms of total size 1,749,330
debuggroup summary 2.27s drawing highlights and ideograms
debuggroup summary 2.27s found conf file /home/martink/work/circos/svn-tags/circos-0.68-pre1/bin/../etc/tracks/highlight.bg.conf
debuggroup summary 2.27s found conf file /home/martink/work/circos/svn-tags/circos-0.68-pre1/bin/../etc/tracks/highlight.bg.conf
debuggroup summary 2.27s found conf file /home/martink/work/circos/svn-tags/circos-0.68-pre1/bin/../etc/tracks/highlight.bg.conf
debuggroup summary 2.28s found conf file /home/martink/work/circos/svn-tags/circos-0.68-pre1/bin/../etc/tracks/highlight.bg.conf
debuggroup summary 2.28s found conf file /home/martink/work/circos/svn-tags/circos-0.68-pre1/bin/../etc/tracks/highlight.bg.conf
debuggroup summary 2.28s process track_0 highlight /home/martink/www/htdocs/tableviewer/tmp/xhmtelx/data/row.txt
debuggroup summary 2.95s process track_1 highlight /home/martink/www/htdocs/tableviewer/tmp/xhmtelx/data/col.txt
debuggroup summary 3.63s process track_2 highlight /home/martink/www/htdocs/tableviewer/tmp/xhmtelx/data/all.txt
debuggroup summary 4.40s process track_3 highlight /home/martink/www/htdocs/tableviewer/tmp/xhmtelx/data/cap.col.txt
debuggroup summary 4.64s process track_4 highlight /home/martink/www/htdocs/tableviewer/tmp/xhmtelx/data/cap.row.txt
debuggroup summary 25.12s found conf file /home/martink/work/circos/svn-tags/circos-0.68-pre1/bin/../etc/tracks/link.conf
debuggroup summary 25.12s process flow link /home/martink/www/htdocs/tableviewer/tmp/xhmtelx/data/cells.txt
debuggroup summary 25.88s drawing link flow z 0
debuggroup summary 31.29s found conf file /home/martink/work/circos/svn-tags/circos-0.68-pre1/bin/../etc/tracks/text.conf
debuggroup output 31.29s generating output
debuggroup output 31.87s created PNG image results/circos-table-xhmtelx-large.png (3775 kb)
debuggroup output 31.88s created SVG image results/circos-table-xhmtelx-large.svg (4701 kb)
debuggroup timer 31.89s report circos 31.569 s
debuggroup timer 31.89s report color 0.945 s
debuggroup timer 31.89s report colordefinitions 0.419 s
debuggroup timer 31.89s report colorfetch 0.351 s
debuggroup timer 31.89s report colorlookups 0.018 s
debuggroup timer 31.89s report colortransparency 0.420 s
debuggroup timer 31.89s report dataparams 0.751 s
debuggroup timer 31.89s report datarules 0.335 s
debuggroup timer 31.89s report graphic_png_polygon 2.689 s
debuggroup timer 31.89s report graphic_slice 7.008 s
debuggroup timer 31.89s report graphic_slice_polygon_coord 0.582 s
debuggroup timer 31.89s report graphic_slice_polygon_svg 2.479 s
debuggroup timer 31.89s report graphic_slice_preprocess 0.914 s
debuggroup timer 31.89s report highlights 2.606 s
debuggroup timer 31.89s report ideograms_draw 20.243 s
debuggroup timer 31.89s report ideograms_processing 0.079 s
debuggroup timer 31.89s report ideograms_ticks_draw 5.006 s
debuggroup timer 31.89s report ideograms_zoom 0.058 s
debuggroup timer 31.89s report io 1.719 s
debuggroup timer 31.89s report karyotype 0.035 s
debuggroup timer 31.89s report parameter_seek 2.432 s
debuggroup timer 31.89s report unitconvert 0.006 s
debuggroup timer 31.89s report unitconvert_decision 0.000 s
debuggroup timer 31.89s report unitconvert_delegate 0.003 s
debuggroup timer 31.89s report unitparse 0.116 s
debuggroup summary,timer 31.89s image took more than 30 s to generate. Component timings are shown above. To always show them, use -debug_group timer. To adjust the time cutoff, change debug_auto_timer_report in etc/housekeeping.conf.
