npes	numPts	option	tol	1_sf_min	1_sf_mean	1_sf_max	1_split_min	1_split_mean	1_split_max	1_a2a1_min	1_a2a1_mean	1_a2a1_max	1_a2a2_min	1_a2a2_mean	1_a2a2_max	1_ls_min	1_ls_mean	1_ls_max	1_sq::rd_min	1_sq::rd_mean	1_sq::rd_max	1_auxBal_min	1_auxBal_mean	1_auxBal_max	1_par::rd_min	1_par::rd_mean	1_par::rd_max	1_totRD_min	1_totRD_mean	1_totRD_max	2_sf_min	2_sf_mean	2_sf_max	2_split_min	2_split_mean	2_split_max	2_a2a1_min	2_a2a1_mean	2_a2a1_max	2_a2a2_min	2_a2a2_mean	2_a2a2_max	2_ls_min	2_ls_mean	2_ls_max	2_sq::rd_min	2_sq::rd_mean	2_sq::rd_max	2_auxBal_min	2_auxBal_mean	2_auxBal_max	2_par::rd_min	2_par::rd_mean	2_par::rd_max	2_totRD_min	2_totRD_mean	2_totRD_max	2_tot_min	2_tot_mean	2_tot_max
2	1000000	4	0.1	0	0	0	39	39.5	40	0	0	0	11	11	11	18049	18979.5	19910	0	0	0	16705	17554.5	18404	0	0	0	18101	19031	19961	0	0	0	239	239.5	240	0	0	0	71	71	71	932	998	1064	161	170	179	0	0	0	10	76	142	1385	1385	1385	1602	2532.5	3463
4	1000000	4	0.1	54	59.5	70	32	39.5	47	14	14	14	9	9	9	16161	19206.2	21991	0	0	0	14938	17730.8	20320	0	0	0	16257	19315.8	22109	334	336	339	195	237.5	280	78	79	80	69	74.75	80	861	1059.25	1221	146	173.5	196	0	0	0	11	220.25	465	1929	1930.25	1932	2173	4113	5060
8	1000000	4	0.1	100	112.875	135	35	45	56	11	11.75	13	8	9.625	11	16261	19739.8	23436	0	0	0	14990	18231.6	21697	0	0	0	16405	19908.9	23639	671	712.5	755	252	289.75	358	77	86.5	97	69	76.75	85	915	1084.75	1251	149	172	193	0	0	0	15	294.875	542	2458	2460.75	2466	2741	3807.88	3961
16	1000000	4	0.1	158	181.25	205	28	45.375	61	11	13.125	15	8	11.4375	16	16037	19161.2	23478	0	0	0	14766	17652.6	21680	0	0	0	16261	19400.9	23761	1081	1203.69	1364	166	277.188	391	70	82.125	100	66	77.75	88	901	1100.75	1315	142	170.375	201	0	0	0	14	516.062	950	3171	3177.69	3190	3473	5608.44	6527
32	1000000	4	0.1	232	273.594	320	31	55.8125	73	10	14.25	18	8	12.3125	18	14599	19712	24761	0	0	0	13415	18133.7	22839	0	0	0	14891	20055.1	25162	1455	1910.28	2526	203	361.531	493	73	92.5938	124	64	84.0312	99	848	1173.5	1458	133	179.375	220	0	0	0	17	1058.81	1948	4577	4590.12	4608	4900	5395.66	5797
64	1000000	4	0.1	294	372.078	429	41	59.3438	76	10	13.8906	17	7	12.0781	18	13501	20110.5	27633	0	0	0	12414	18501.8	25473	0	0	0	13882	20555.5	28151	1876	2523.56	3430	278	377.25	513	73	92.875	123	63	80.0156	107	823	1178.3	1583	127	174.078	229	0	0	0	16	1475.62	2502	5624	5636.72	5658	5954	6986.66	9512
128	1000000	4	0.1	379	478.391	572	31	63.5	87	10	14.0078	19	8	11.1562	16	15191	19506.3	29282	0	0	0	13917	17896.5	27011	0	0	0	15661	20060.8	29955	2421	3230.32	4300	188	394.391	561	72	87.8203	126	56	78.6094	104	772	1193.2	1675	119	172.164	229	0	0	0	17	1705.87	2928	6559	6604.41	6632	6931	10255.4	12618
256	1000000	4	0.1	460	597.738	712	38	70.082	106	9	13.0547	22	7	11.0664	19	13848	19911.2	29502	0	0	0	12688	18238.5	27079	0	0	0	14372	20591.6	30327	3237	4633.83	6085	249	448.074	680	69	93.2266	145	61	81.168	116	781	1262.6	1796	122	178.023	251	0	0	0	19	2188.48	4271	8543	8616.05	8738	9051	9474.59	12185
512	1000000	4	0.1	560	731.326	895	33	74.002	112	9	13.5664	21	7	11.3711	18	13081	20298	33688	0	0	0	11936	18591.8	30895	0	0	0	13721	21116.2	34708	4256	5757.05	7547	247	465.904	808	68	90.3242	145	58	81.1777	117	782	1267.24	1891	120	174.604	251	0	0	0	22	2569.72	4908	10034	10143.1	10335	10685	14142.1	14163
1024	1000000	4	0.1	664	891.828	1112	13	78.7676	127	9	13.7979	26	6	11.5889	23	12560	19670.2	34525	0	0	0	11610	17971.2	31667	0	0	0	13295	20653.9	35788	5354	7202.14	9336	117	489.524	889	66	89.4014	165	52	80.0361	126	674	1279.99	2044	106	172.525	269	0	0	0	22	2992.78	6091	11907	12046.5	12322	12701	13229.2	13239
2048	1000000	4	0.1	766	1058.11	1354	16	84.4067	145	8	13.9917	25	6	11.4351	25	11442	20052	34820	0	0	0	10542	18292	31838	0	0	0	12253	21207.5	36333	6000	8960.49	11799	154	545.74	938	68	93.3677	161	53	82.7778	137	684	1351.11	2214	107	178.39	294	0	0	0	25	3896.42	7886	14556	14838.6	15169	15527	16055.8	20949
4096	1000000	4	0.1	977	1377.04	2032	10	88.9939	153	7	13.9292	36	6	11.6033	24	11089	20423.4	37582	0	0	0	10211	18627.7	34339	0	0	0	12111	21902.6	39456	7348	10300.2	13371	62	561.271	994	67	91.5322	165	32	81.1514	151	684	1353.2	2197	99	174.773	282	0	0	0	25	4170.88	8652	16040	16468.7	16859	17284	17834.7	17849
