npes	ts_spliter_min	ts_spliter_mean	ts_spliter_max	ss_spliter_min	ss_spliter_mean	ss_spliter_max	ts_all2all_min	ts_all2all_mean	ts_all2all_max	ss_all2all_min	ss_all2all_mean	ss_all2all_max	ts_local_min	ts_local_mean	ts_local_max	ss_local_min	ss_local_mean	ss_local_max	ts_send_min	ts_send_mean	ts_send_max	ts_recv_min	ts_recv_mean	ts_recv_max	ss_send_min	ss_send_mean	ss_send_max	ss_recv_min	ss_recv_mean	ss_recv_max	ts_lb_min	ts_lb_max	ss_lb_min	ss_lb_max	ts_min	ts_mean	ts_max	ss_min	ss_mean	ss_max
2	0.329	0.329	0.329	13.695	13.6955	13.696	0.719	0.7195	0.72	0.904	0.9045	0.905	1.814	1.839	1.864	27.742	28.144	28.546	2.49934e+06	2.50037e+06	2.50139e+06	2.49934e+06	2.50037e+06	2.50139e+06	2.5e+06	2.50036e+06	2.50071e+06	2.5e+06	2.50036e+06	2.50071e+06	4.99795e+06	5.00205e+06	4.99929e+06	5.00071e+06	2.863	2.8885	2.914	42.815	43.194	43.573
4	0.427	0.427	0.427	13.712	13.7157	13.719	0.872	0.90575	0.939	1.144	1.16575	1.188	1.789	1.82175	1.857	18.574	19.1785	19.718	3.74932e+06	3.74967e+06	3.74996e+06	3.74615e+06	3.74967e+06	3.75402e+06	3.74814e+06	3.74966e+06	3.7505e+06	3.74545e+06	3.74966e+06	3.75323e+06	4.99632e+06	5.0047e+06	4.99545e+06	5.00509e+06	3.122	3.15575	3.223	33.934	34.5643	35.158
8	0.558	0.558	0.558	13.819	13.8287	13.841	0.982	1.1505	1.224	1.384	1.444	1.483	1.858	1.90925	1.964	16.089	17.0951	17.808	4.37388e+06	4.37485e+06	4.37638e+06	4.37176e+06	4.37485e+06	4.37888e+06	4.37234e+06	4.37484e+06	4.37627e+06	4.36781e+06	4.37484e+06	4.38719e+06	4.99694e+06	5.00468e+06	4.99208e+06	5.01485e+06	3.505	3.61875	3.72	32.035	33.0628	33.787
16	0.707	0.707	0.707	14.174	14.1816	14.193	1.089	1.22713	1.281	1.511	1.608	1.633	1.918	1.97044	2.063	15.581	16.2477	16.867	4.68642e+06	4.68737e+06	4.68796e+06	4.68284e+06	4.68737e+06	4.69179e+06	4.68562e+06	4.68739e+06	4.6882e+06	4.67803e+06	4.68739e+06	4.7012e+06	4.99508e+06	5.00467e+06	4.99064e+06	5.01533e+06	3.796	3.90594	3.976	31.893	32.6827	33.3
32	0.803	0.803	0.803	13.881	13.8941	13.91	1.096	1.18156	1.224	1.517	1.57475	1.593	1.935	2.02275	2.135	14.731	15.9644	17.412	4.84316e+06	4.84386e+06	4.84486e+06	4.84091e+06	4.84386e+06	4.84681e+06	4.84309e+06	4.84385e+06	4.84488e+06	4.83646e+06	4.84385e+06	4.86064e+06	4.99644e+06	5.00304e+06	4.99204e+06	5.01755e+06	3.897	4.00794	4.091	31.023	32.1361	33.497
64	0.901	0.901	0.901	14.048	14.0601	14.078	1.126	1.23109	1.276	1.51	1.60491	1.619	1.965	2.06898	2.182	14.797	15.7204	16.769	4.9212e+06	4.92188e+06	4.92256e+06	4.91834e+06	4.92188e+06	4.92482e+06	4.92113e+06	4.92188e+06	4.92259e+06	4.90648e+06	4.92188e+06	4.95867e+06	4.99665e+06	5.00308e+06	4.98452e+06	5.03743e+06	4.088	4.20258	4.31	31.271	32.0763	33.144
128	1.027	1.027	1.027	14.243	14.2623	14.287	1.41	1.49939	1.551	1.759	1.80341	1.831	2.013	2.12204	2.251	15.107	15.7575	16.799	4.96038e+06	4.96095e+06	4.96146e+06	4.95603e+06	4.96095e+06	4.9654e+06	4.96029e+06	4.96094e+06	4.96152e+06	4.93834e+06	4.96094e+06	5.01995e+06	4.99565e+06	5.00411e+06	4.97716e+06	5.05965e+06	4.536	4.6499	4.792	31.877	32.5671	33.712
256	1.073	1.07373	1.074	14.46	14.4772	14.501	1.834	1.92753	1.977	2.28	2.35069	2.376	2.055	2.17454	2.32	15.057	15.7614	16.936	4.9801e+06	4.98046e+06	4.98085e+06	4.97622e+06	4.98046e+06	4.98476e+06	4.97988e+06	4.98046e+06	4.98093e+06	4.94928e+06	4.98046e+06	5.08553e+06	4.99585e+06	5.0043e+06	4.96873e+06	5.10565e+06	5.052	5.17678	5.302	32.619	33.3404	34.4
512	1.17	1.17	1.17	14.615	14.6325	14.654	2.184	2.3692	2.485	2.453	2.5812	2.692	2.083	2.23747	2.392	14.967	15.7367	16.905	4.98992e+06	4.99023e+06	4.99056e+06	4.9855e+06	4.99023e+06	4.99496e+06	4.98992e+06	4.99023e+06	4.99057e+06	4.95685e+06	4.99023e+06	5.16697e+06	4.9953e+06	5.00466e+06	4.96651e+06	5.17694e+06	5.594	5.77758	5.935	32.981	33.7233	34.845
1024	1.268	1.26895	1.269	14.488	14.5061	14.528	2.315	2.5254	2.672	2.623	2.7758	2.895	2.102	2.28956	2.479	14.954	15.7489	16.715	4.99491e+06	4.99512e+06	4.99534e+06	4.99032e+06	4.99512e+06	4.99982e+06	4.99475e+06	4.99512e+06	4.99531e+06	4.95143e+06	4.99512e+06	5.19196e+06	4.99514e+06	5.00475e+06	4.9564e+06	5.1972e+06	5.889	6.08476	6.278	33.027	33.8677	34.838
2048	1.48	1.48042	1.481	14.603	14.6245	14.661	3.579	3.80156	3.906	4.03	4.21125	4.315	2.152	2.32807	2.524	15.063	15.7828	17.241	4.99739e+06	4.99756e+06	4.9977e+06	4.99282e+06	4.99756e+06	5.00242e+06	4.9974e+06	4.99756e+06	4.99771e+06	4.94674e+06	4.99756e+06	5.35727e+06	4.99529e+06	5.00485e+06	4.94916e+06	5.35986e+06	7.404	7.61446	7.817	34.699	35.4627	36.791
4096	1.613	1.61395	1.614	14.708	14.7509	14.824	5.106	5.26239	5.455	5.644	5.76337	5.94	2.199	2.36408	2.558	15.117	15.87	18.394	4.99865e+06	4.99878e+06	4.99889e+06	4.99379e+06	4.99878e+06	5.0036e+06	4.99864e+06	4.99878e+06	4.99891e+06	4.93666e+06	4.99878e+06	5.56774e+06	4.99504e+06	5.00481e+06	4.93785e+06	5.56909e+06	9.047	9.24133	9.444	36.602	37.3509	39.918
8192	2.674	2.6818	2.707	15.108	15.145	15.216	6.583	6.75096	7.211	6.629	6.76217	7.218	2.213	2.40402	2.577	15.025	15.9451	18.467	4.9993e+06	4.99939e+06	4.99948e+06	4.99447e+06	4.99939e+06	5.00438e+06	4.99928e+06	4.99939e+06	4.99948e+06	4.94751e+06	4.99939e+06	5.74901e+06	4.99507e+06	5.00498e+06	4.9481e+06	5.74968e+06	11.622	11.8422	12.269	38.063	38.9611	41.554
16384	2.988	3.02141	3.049	15.484	15.5582	15.643	5.377	5.5913	6.092	5.73	5.89523	6.394	2.283	2.45304	2.623	15.156	16.0256	20.783	4.99963e+06	4.99969e+06	4.99976e+06	4.99475e+06	4.99969e+06	5.00466e+06	4.99962e+06	4.99969e+06	4.99977e+06	4.96549e+06	4.99969e+06	6.38568e+06	4.99505e+06	5.00496e+06	4.96582e+06	6.38606e+06	10.837	11.0857	11.629	37.984	38.8025	43.679
32768	3.768	3.79698	3.839	16.805	16.8557	16.924	6.687	7.04371	8.156	7.299	7.62805	8.726	2.325	2.50309	2.696	15.206	16.0947	22.863	4.9998e+06	4.99985e+06	4.99989e+06	4.99488e+06	4.99985e+06	5.00484e+06	4.99978e+06	4.99985e+06	4.99989e+06	4.97268e+06	4.99985e+06	6.91249e+06	4.99505e+06	5.00497e+06	4.97284e+06	6.91271e+06	13.006	13.3661	14.552	41.26	42.5823	49.293
