\relax 
\providecommand\hyper@newdestlabel[2]{}
\providecommand\HyperFirstAtBeginDocument{\AtBeginDocument}
\HyperFirstAtBeginDocument{\ifx\hyper@anchor\@undefined
\global\let\oldcontentsline\contentsline
\gdef\contentsline#1#2#3#4{\oldcontentsline{#1}{#2}{#3}}
\global\let\oldnewlabel\newlabel
\gdef\newlabel#1#2{\newlabelxx{#1}#2}
\gdef\newlabelxx#1#2#3#4#5#6{\oldnewlabel{#1}{{#2}{#3}}}
\AtEndDocument{\ifx\hyper@anchor\@undefined
\let\contentsline\oldcontentsline
\let\newlabel\oldnewlabel
\fi}
\fi}
\global\let\hyper@last\relax 
\gdef\HyperFirstAtBeginDocument#1{#1}
\providecommand\HyField@AuxAddToFields[1]{}
\providecommand\HyField@AuxAddToCoFields[2]{}
\citation{campbell2003}
\citation{devine2005}
\citation{sundar2007}
\citation{bender51}
\citation{slurm}
\citation{campbell2003}
\citation{bader2012}
\citation{sundar2007}
\select@language{english}
\@writefile{toc}{\select@language{english}}
\@writefile{lof}{\select@language{english}}
\@writefile{lot}{\select@language{english}}
\@writefile{toc}{\contentsline {section}{\numberline {1}Introduction}{\thepage }{section.1}}
\@writefile{toc}{\contentsline {section}{\numberline {2}Nearest Common Ancestor (NCA) based ordering}{\thepage }{section.2}}
\@writefile{toc}{\contentsline {subsection}{\numberline {2.1}Flexibile load balancing}{\thepage }{subsection.2.1}}
\bibstyle{abbrv}
\bibdata{hilbert}
\bibcite{bader2012}{1}
\bibcite{bender51}{2}
\bibcite{campbell2003}{3}
\bibcite{devine2005}{4}
\bibcite{slurm}{5}
\bibcite{sundar2007}{6}
\@writefile{lof}{\contentsline {figure}{\numberline {1}{\ignorespaces Ordering of points based on the Rotation pattern inside the NCA \relax }}{\thepage }{figure.caption.3}}
\providecommand*\caption@xref[2]{\@setref\relax\@undefined{#1}}
\newlabel{hilbertcell}{{1}{\thepage }{Ordering of points based on the Rotation pattern inside the NCA \relax }{figure.caption.3}{}}
\@writefile{toc}{\contentsline {section}{\numberline {3}Results}{\thepage }{section.3}}
\@writefile{lof}{\contentsline {figure}{\numberline {2}{\ignorespaces 3d ordering of points for Hilbert and Morton baseline, Hilbert and Morton NCA approaches.\relax }}{\thepage }{figure.caption.4}}
\newlabel{3d_NCA}{{2}{\thepage }{3d ordering of points for Hilbert and Morton baseline, Hilbert and Morton NCA approaches.\relax }{figure.caption.4}{}}
\@writefile{lof}{\contentsline {figure}{\numberline {3}{\ignorespaces  Flexible partitioning results using Hilbert and Morton ordering \relax }}{\thepage }{figure.caption.5}}
\newlabel{flexibility}{{3}{\thepage }{Flexible partitioning results using Hilbert and Morton ordering \relax }{figure.caption.5}{}}
\@writefile{toc}{\contentsline {section}{\numberline {4}References}{\thepage }{section.4}}
