\begin{thebibliography}{1}

\bibitem{bender51}
M.~A. Bender.
\newblock Compute process allocator (cpa).
\newblock {\em Urbana}, 51:61801.

\bibitem{campbell2003}
P.~M. Campbell, K.~D. Devine, J.~E. Flaherty, L.~G. Gervasio, and J.~D.
  Teresco.
\newblock Dynamic octree load balancing using space-filling curves.
\newblock {\em Williams College Department of Computer Science Technical Report
  CS-03}, 1:68, 2003.

\bibitem{devine2005}
K.~D. Devine, E.~G. Boman, R.~T. Heaphy, B.~A. Hendrickson, J.~D. Teresco,
  J.~Faik, J.~E. Flaherty, and L.~G. Gervasio.
\newblock New challenges in dynamic load balancing.
\newblock {\em Applied Numerical Mathematics}, 52(2):133--152, 2005.

\bibitem{slurm}
L.~Sliwko and V.~Getov.
\newblock Workload schedulers-genesis, algorithms and comparisons.
\newblock {\em International Journal of Computer Science and Software
  Engineering}, 4(6):141--155, 2015.

\bibitem{sundar2007}
H.~Sundar, R.~S. Sampath, S.~S. Adavani, C.~Davatzikos, and G.~Biros.
\newblock Low-constant parallel algorithms for finite element simulations using
  linear octrees.
\newblock In {\em Proceedings of the 2007 ACM/IEEE Conference on
  Supercomputing}, SC '07, pages 25:1--25:12, New York, NY, USA, 2007. ACM.

\end{thebibliography}
