npes	numPts	option	tol	1_sf_min	1_sf_mean	1_sf_max	1_split_min	1_split_mean	1_split_max	1_a2a1_min	1_a2a1_mean	1_a2a1_max	1_a2a2_min	1_a2a2_mean	1_a2a2_max	1_ls_min	1_ls_mean	1_ls_max	1_sq::rd_min	1_sq::rd_mean	1_sq::rd_max	1_auxBal_min	1_auxBal_mean	1_auxBal_max	1_par::rd_min	1_par::rd_mean	1_par::rd_max	1_totRD_min	1_totRD_mean	1_totRD_max
2	1000000	1	0.1	0	0	0	39	40	41	0	0	0	14	14	14	183	200.5	218	17	21.5	26	0	0	0	2	19.5	37	274	275	276
4	1000000	1	0.1	0	0	0	43	44.5	47	0	0	0	15	15	15	191	205.25	213	17	21.75	25	0	0	0	2	10.25	25	275	276	278
8	1000000	1	0.1	0	0	0	48	48.625	49	0	0	0	16	17	18	192	239.375	291	18	22.125	31	0	0	0	3	56	102	362	362.75	363
16	1000000	1	0.1	0	0	0	57	58.4375	61	0	0	0	20	21.8125	23	188	221.875	269	16	23.4375	33	0	0	0	4	51.625	85	353	354.875	357
32	1000000	1	0.1	0	0	0	62	62.625	65	0	0	0	40	40.6562	41	206	229.406	299	16	23.8125	34	0	0	0	3	72.0625	95	405	406	408
64	1000000	1	0.1	0	0	0	68	68.5	71	0	0	0	59	62.7656	65	205	230.391	296	16	22.7188	31	0	0	0	3	65.2969	89	427	428.469	431
128	1000000	1	0.1	0	0	0	77	78.1719	79	0	0	0	75	77.1641	79	195	235.852	270	15	24.6328	32	0	0	0	3	34.9688	77	427	427.633	429
256	1000000	1	0.1	0	0	0	84	85.0273	86	0	0	0	854	862.637	869	203	241.809	267	24	28.4609	32	0	0	0	3	28.5703	67	1219	1219.52	1221
512	1000000	1	0.1	0	0	0	84	85.2852	87	0	0	0	2013	2018.84	2023	204	247.424	271	23	28.6367	36	0	0	0	3	28.7324	75	2380	2381.79	2384
1024	1000000	1	0.1	316	317.537	320	77	91.3525	106	191	231.592	244	35	40.7559	46	185	247.04	296	14	24.0645	35	0	0	0	5	69.9053	142	767	768.693	772
2048	1000000	1	0.1	365	366.363	370	84	95.604	111	238	265.537	283	53	60.3159	72	192	252.898	308	14	24.6523	34	0	0	0	4	78.9082	148	854	856.106	859
4096	1000000	1	0.1	180	189.658	201	88	99.6106	112	79	91.7026	100	59	78.3259	102	194	257.47	311	14	23.8762	36	0	0	0	4	92.7588	166	709	719.831	731
