npes	numPts	option	tol	1_sf_min	1_sf_mean	1_sf_max	1_split_min	1_split_mean	1_split_max	1_a2a1_min	1_a2a1_mean	1_a2a1_max	1_a2a2_min	1_a2a2_mean	1_a2a2_max	1_ls_min	1_ls_mean	1_ls_max	1_sq::rd_min	1_sq::rd_mean	1_sq::rd_max	1_auxBal_min	1_auxBal_mean	1_auxBal_max	1_par::rd_min	1_par::rd_mean	1_par::rd_max	1_totRD_min	1_totRD_mean	1_totRD_max
2	1000000	1	0.1	0	0	0	40	40	40	0	0	0	12	12	12	182	201.5	221	16	22.5	29	0	0	0	2	21.5	41	276	276	276
4	1000000	1	0.1	0	0	0	44	44	44	0	0	0	13	13	13	188	206.25	216	17	23	29	0	0	0	2	11	29	276	276.25	277
8	1000000	1	0.1	0	0	0	48	53.75	59	0	0	0	16	16.25	17	187	234.875	284	15	22.5	29	0	0	0	4	51.75	98	352	358.125	363
16	1000000	1	0.1	0	0	0	57	61	71	0	0	0	19	20.625	21	193	219.125	236	16	24.8125	31	0	0	0	3	20.5625	47	319	322.625	333
32	1000000	1	0.1	0	0	0	62	67.2188	77	0	0	0	139	146.469	152	204	226.875	254	21	26.125	31	0	0	0	3	28.75	50	465	470.812	481
64	1000000	1	0.1	0	0	0	73	79.5156	88	0	0	0	251	256.094	257	211	234.016	279	20	25.7031	30	0	0	0	3	42.7969	65	607	613.859	622
128	1000000	1	0.1	0	0	0	80	86.5781	95	0	0	0	625	633.258	637	200	236.617	260	24	28.4766	35	0	0	0	3	28.6953	70	980	986.633	995
256	1000000	1	0.1	134	142.137	153	78	95.2539	104	58	67.4883	71	18	21.5469	25	200	242.289	285	16	25.25	32	0	0	0	3	46.5273	104	541	549.707	561
512	1000000	1	0.1	238	245.746	254	73	83.2188	90	93	147.203	170	126	144.529	153	191	242.648	284	15	24.293	31	0	0	0	3	46.457	108	757	764.717	773
1024	1000000	1	0.1	304	314.104	323	78	89.9629	98	174	220.244	236	213	221.093	226	185	246.834	286	15	23.9619	31	0	0	0	5	51.4395	122	915	925.326	934
2048	1000000	1	0.1	299	311.497	323	83	94.5239	102	167	209.116	236	436	452.821	464	187	255.151	294	19	27.0049	33	0	0	0	4	53.8506	142	1157	1169.86	1181
4096	1000000	1	0.1	315	338.292	363	69	97.7732	112	54	73.6235	90	17	21.5063	26	180	258.336	318	14	24.5593	35	0	0	0	4	84.7285	217	792	802.648	814
