npes	numPts	option	tol	1_sf_min	1_sf_mean	1_sf_max	1_split_min	1_split_mean	1_split_max	1_a2a1_min	1_a2a1_mean	1_a2a1_max	1_a2a2_min	1_a2a2_mean	1_a2a2_max	1_ls_min	1_ls_mean	1_ls_max	1_sq::rd_min	1_sq::rd_mean	1_sq::rd_max	1_auxBal_min	1_auxBal_mean	1_auxBal_max	1_par::rd_min	1_par::rd_mean	1_par::rd_max	1_totRD_min	1_totRD_mean	1_totRD_max
2	1000000	1	0.1	0	0	0	39	39.5	40	0	0	0	16	16	16	190	203	216	21	22.5	24	0	0	0	1	14.5	28	274	274	274
4	1000000	1	0.1	55	55.5	56	32	39.5	47	15	15.75	16	8	8.5	9	170	202.75	233	16	19.5	23	0	0	0	2	39	79	347	347.5	348
8	1000000	1	0.1	100	113	133	35	45	56	11	11.875	13	8	9.75	11	173	209.5	249	15	19.75	27	0	0	0	3	63.25	120	438	442.75	454
16	1000000	1	0.1	157	177.375	198	28	45.375	61	11	13	15	8	11.6875	16	171	213.812	271	14	20.125	32	0	0	0	3	100.875	186	551	551.125	552
32	1000000	1	0.1	223	271.219	314	31	55.4375	74	9	14.125	18	8	12.125	16	174	219.625	282	15	20.5625	32	0	0	0	3	126.906	244	682	687.406	693
64	1000000	1	0.1	293	369.141	437	41	59.5625	76	9	13.5	17	8	12	18	166	224.438	305	13	20.1094	34	0	0	0	3	164.234	315	825	831.359	843
128	1000000	1	0.1	381	475.57	563	31	63.7344	87	10	13.7656	19	7	10.9141	16	145	228.805	339	11	20.2344	37	0	0	0	4	225.477	407	999	1006.51	1018
256	1000000	1	0.1	468	603.449	736	38	69.9492	105	9	13.1016	22	7	10.9453	18	160	234.336	365	12	20.6562	41	0	0	0	3	285.926	522	1198	1206.59	1220
512	1000000	1	0.1	565	736.799	892	33	74.1738	112	8	13.5625	20	6	11.2793	18	131	239.902	399	11	20.8027	44	0	0	0	6	365.92	679	1423	1430.13	1445
1024	1000000	1	0.1	651	883.831	1117	13	78.7852	127	7	13.7188	25	6	11.5166	23	123	245.781	415	10	22.5918	44	0	0	0	4	459.83	855	1672	1681.78	1694
2048	1000000	1	0.1	772	1060.46	1364	16	84.439	146	8	13.9087	25	6	11.4697	24	130	251.368	450	11	22.9194	47	0	0	0	7	566.188	1039	1967	1975.94	1988
4096	1000000	1	0.1	885	1225.06	1586	18	89.0449	154	7	13.9023	26	6	11.656	24	130	256.36	458	10	22.5002	46	0	0	0	5	630.28	1166	2204	2214.4	2227
