npes	tol	localSz_min	localSz_max	ld_imb	bdy_min	bdy_mean	bdy_max	com_imb
1792	0	553504	553525	1.00004	34920	44472.6	51894	1.4860824742
1792	5e-2	510841	592441	1.15974	32278	43078.1	51154	1.5847945969
1792	1e-1	479415	636885	1.3284	30784	42365.7	53506	1.7381107069
1792	1.5e-1	417588	691794	1.65664	29538	41730.8	54537	1.8463335365
1792	2e-1	376975	750177	1.98999	27102	41225.5	55424	2.045015128
1792	2.5e-1	346180	823419	2.37859	26777	40811.1	56614	2.1142771782
1792	3e-1	314442	835249	2.65629	25011	40356.1	57604	2.3031466155
1792	3.5e-1	263084	877705	3.33622	22962	39903.5	62114	2.7050779549
1792	4e-1	238768	950395	3.98041	21447	39381.7	60824	2.836014361
1792	4.5e-1	190599	1028520	5.39625	18746	39069.7	60824	3.2446388563
1792	5e-1	187820	1134808	6.042	17493	38738.7	65384	3.7377236609
