npes	numPts	option	tol	1_sf_min	1_sf_mean	1_sf_max	1_split_min	1_split_mean	1_split_max	1_a2a1_min	1_a2a1_mean	1_a2a1_max	1_a2a2_min	1_a2a2_mean	1_a2a2_max	1_ls_min	1_ls_mean	1_ls_max	1_sq::rd_min	1_sq::rd_mean	1_sq::rd_max	1_auxBal_min	1_auxBal_mean	1_auxBal_max	1_par::rd_min	1_par::rd_mean	1_par::rd_max	1_totRD_min	1_totRD_mean	1_totRD_max	sf1_full_min	sf1_full_mean	sf1_full_max	sf1_all2all_min	sf1_all2all_mean	sf1_all2all_max	sf1_split_min	sf1_split_mean	sf1_split_max
16	1000000	1	0.1	0	0	0	123	126.812	135	0	0	0	54	55.5625	58	407	475.25	530	35	59.5	81	0	0	0	7	63.75	133	719	722.688	731
32	500000	1	0.1	0	0	0	63	64.2812	69	0	0	0	42	42.9062	44	202	239.562	254	22	33.125	46	0	0	0	4	18.8125	57	364	367	372
64	250000	1	0.1	0	0	0	35	36.3281	39	0	0	0	26	26.7188	27	105	119.594	130	10	16.5625	22	0	0	0	3	13.3438	28	196	197.344	200
128	125000	1	0.1	0	0	0	17	18.4375	20	0	0	0	89	89.9922	90	49	57.8672	65	5	8.1875	11	0	0	0	1	8.24219	17	174	175.773	177
256	62500	1	0.1	0	0	0	9	9.86328	10	0	0	0	10	10	10	23	27.9883	31	2	3.80078	5	0	0	0	1	3.82812	9	52	52.9883	53
512	31250	1	0.1	12	12.2285	13	1	3.22656	5	5	5.46289	6	0	0.00390625	1	10	13.1602	16	0	1.10352	2	0	0	0	0	3.97266	8	34	34.4512	35	12	12.2266	13	5	5.46289	6	6	6.76367	8
1024	15625	1	0.1	14	14	14	1	1.77734	2	4	4.29004	5	0	0	0	4	6.31738	8	0	0.326172	1	0	0	0	0	1.91992	4	26	26	26	14	14	14	4	4.29004	5	9	9.70996	10
