npes	numPts	option	tol	1_sf_min	1_sf_mean	1_sf_max	1_split_min	1_split_mean	1_split_max	1_a2a1_min	1_a2a1_mean	1_a2a1_max	1_a2a2_min	1_a2a2_mean	1_a2a2_max	1_ls_min	1_ls_mean	1_ls_max	1_sq::rd_min	1_sq::rd_mean	1_sq::rd_max	1_auxBal_min	1_auxBal_mean	1_auxBal_max	1_par::rd_min	1_par::rd_mean	1_par::rd_max	1_totRD_min	1_totRD_mean	1_totRD_max	2_sf_min	2_sf_mean	2_sf_max	2_split_min	2_split_mean	2_split_max	2_a2a1_min	2_a2a1_mean	2_a2a1_max	2_a2a2_min	2_a2a2_mean	2_a2a2_max	2_ls_min	2_ls_mean	2_ls_max	2_sq::rd_min	2_sq::rd_mean	2_sq::rd_max	2_auxBal_min	2_auxBal_mean	2_auxBal_max	2_par::rd_min	2_par::rd_mean	2_par::rd_max	2_totRD_min	2_totRD_mean	2_totRD_max	2_tot_min	2_tot_mean	2_tot_max
2	1000000	4	0.1	0	0	0	39	46	53	0	0	0	39	39.5	40	17536	18450.5	19365	0	0	0	16186	17030.5	17875	0	0	0	17629	18537	19445	0	0	0	237	237	237	0	0	0	246	248.5	251	938	998	1058	159	165	171	0	0	0	10	72.5	135	1557	1557.5	1558	1762	2677.5	3593
4	1000000	4	0.1	62	74	79	33	40.5	48	16	16.75	17	26	31.75	42	15753	18733.2	21579	0	0	0	14535	17264	19912	0	0	0	15890	18881	21749	390	391.5	394	194	236.75	279	69	73	77	229	256.25	279	861	1060.25	1223	144	169	192	0	0	0	11	239	507	2184	2185.5	2186	2440	4486	5445
8	1000000	4	0.1	72	84.25	87	39	52.25	64	15	15.75	16	34	42.125	53	16226	19295.8	23299	0	0	0	14927	17789.5	21535	0	0	0	16399	19475.9	23501	453	456.125	461	164	238.625	311	95	98.875	103	247	277.125	308	943	1083.38	1204	151	169	181	0	0	0	15	237.875	432	2293	2295.5	2301	2584	3201.75	7523
16	1000000	4	0.1	74	76.9375	80	51	57.75	67	19	19.75	21	38	44.125	50	16924	18897.1	20621	0	0	0	15571	17363.1	18993	0	0	0	17095	19077.6	20815	501	503.562	508	266	327.75	401	95	103.125	125	270	290.875	335	938	1106.44	1288	150	169.812	190	0	0	0	15	314.438	533	2542	2544.94	2550	2832	3351.75	4691
32	1000000	4	0.1	99	108.031	117	49	62.8438	79	35	36	37	32	43.9375	58	15334	19219.2	22154	0	0	0	14076	17644.4	20368	0	0	0	15557	19435.7	22390	544	550.438	563	322	369.031	475	100	105.781	117	267	301.438	365	996	1171.59	1355	153	176.312	200	0	0	0	15	369.875	594	2756	2764.28	2777	3076	3953.16	6640
64	1000000	4	0.1	119	129.891	140	61	69.3594	80	52	57.3594	58	41	50.0312	62	15274	19668.5	22462	0	0	0	14012	18041	20647	0	0	0	15515	19919.2	22717	566	573.062	589	358	433.281	573	99	107.016	144	281	326.609	384	981	1184.12	1355	142	177.469	202	0	0	0	15	384.766	708	2896	2903.78	2920	3211	3247.27	4110
128	1000000	4	0.1	179	191.18	196	64	72.2891	81	92	100.641	103	42	52.3672	65	16196	19112.2	22236	0	0	0	14812	17492.5	20446	0	0	0	16501	19429.6	22552	651	660.047	669	375	465.141	633	98	106.75	163	276	325.547	405	981	1197.47	1445	142	174.297	200	0	0	0	18	504.68	844	3148	3154.85	3164	3450	4310.16	7057
256	1000000	4	0.1	207	219.016	224	67	78.1211	85	107	130.262	134	48	56.7578	67	16639	19492.4	22152	0	0	0	15232	17805.3	20364	0	0	0	16980	19847.8	22505	685	709.465	728	444	556.137	766	99	108.949	176	296	361.145	442	978	1268.63	1469	147	182.812	206	0	0	0	18	499.16	945	3371	3396.53	3415	3691	3924.55	6133
512	1000000	4	0.1	333	344.916	356	71	82.1719	98	164	220.818	250	44	55.3691	68	16059	19842.6	23858	0	0	0	14606	18119.2	21885	0	0	0	16524	20326.7	24358	673	689.57	715	445	545.654	829	97	107.178	176	283	336.066	430	1029	1272.46	1496	146	178.086	204	0	0	0	18	584.395	921	3414	3430.15	3456	3745	3978.97	6716
1024	1000000	4	0.1	281	292.377	305	76	88.8682	102	152	186.332	194	57	73.9473	91	15660	19269	23280	0	0	0	14197	17556.4	21338	0	0	0	16096	19725.8	23758	697	741.972	774	474	594.107	910	98	105.652	177	291	359.366	490	997	1284.21	1465	143	175.14	199	0	0	0	17	592.177	1019	3529	3573.86	3607	3880	4549.54	6865
2048	1000000	4	0.1	496	507.442	521	77	93.5347	108	253	333.119	396	55	73.3345	89	15962	19623.3	23675	0	0	0	14505	17843.1	21613	0	0	0	16623	20299.1	24375	826	1034.61	1233	500	690.861	1056	94	111.1	190	312	401.784	536	954	1357	1582	149	182.328	210	0	0	0	19	686.051	1272	3962	4172.31	4364	4656	5134.85	8513
4096	1000000	4	0.1	277	287.544	301	82	98.8059	110	89	147.215	165	91	110.859	140	15981	19962.3	23923	0	0	0	14498	18149.7	21856	0	0	0	16452	20461	24435	755	948.227	1090	522	753.295	1111	87	108.689	201	317	443.608	582	975	1359.39	1599	145	178.566	203	0	0	0	19	727.934	1369	4044	4234.45	4376	4671	5177.47	9966
