\relax 
\providecommand\hyper@newdestlabel[2]{}
\providecommand\HyperFirstAtBeginDocument{\AtBeginDocument}
\HyperFirstAtBeginDocument{\ifx\hyper@anchor\@undefined
\global\let\oldcontentsline\contentsline
\gdef\contentsline#1#2#3#4{\oldcontentsline{#1}{#2}{#3}}
\global\let\oldnewlabel\newlabel
\gdef\newlabel#1#2{\newlabelxx{#1}#2}
\gdef\newlabelxx#1#2#3#4#5#6{\oldnewlabel{#1}{{#2}{#3}}}
\AtEndDocument{\ifx\hyper@anchor\@undefined
\let\contentsline\oldcontentsline
\let\newlabel\oldnewlabel
\fi}
\fi}
\global\let\hyper@last\relax 
\gdef\HyperFirstAtBeginDocument#1{#1}
\providecommand\HyField@AuxAddToFields[1]{}
\providecommand\HyField@AuxAddToCoFields[2]{}
\citation{doe10}
\citation{shalf2011}
\citation{shalf2011}
\citation{campbell2003}
\citation{devine2005}
\citation{sundar2007}
\citation{bender51}
\citation{slurm}
\citation{samplesort}
\citation{campbell2003}
\citation{devine2005}
\citation{sundar2007}
\citation{zoltan}
\citation{chaco}
\citation{metis}
\citation{parmetis}
\citation{scotch}
\citation{jostle}
\citation{bader2012}
\citation{BonkiMoon}
\citation{abel1990}
\citation{gunther2006}
\citation{butz1971alternative}
\citation{campbell2003}
\citation{bader2012}
\citation{Hamilton2008}
\citation{jin2005using}
\citation{yzelman2012}
\citation{luitjens2007parallel}
\citation{zoltan}
\citation{sundar2007}
\citation{p4est}
\citation{bader2012}
\@writefile{toc}{\contentsline {section}{\numberline {I}Introduction}{1}{section.1}}
\newlabel{sec:intro}{{I}{1}{Introduction}{section.1}{}}
\citation{knuth3}
\citation{zoltan}
\citation{SampathSundarAdavaniEtAl08}
\citation{bader2012}
\citation{bender51}
\citation{slurm}
\citation{zoltan}
\citation{sundar2007}
\citation{hyksort}
\@writefile{toc}{\contentsline {section}{\numberline {II}Background}{2}{section.2}}
\newlabel{sec:bg}{{II}{2}{Background}{section.2}{}}
\@writefile{lot}{\contentsline {table}{\numberline {I}{\ignorespaces {\em  \relax \fontsize  {10}{12.00pt}\selectfont  Here we summarize the notation used in this paper. }\relax }}{2}{table.caption.5}}
\providecommand*\caption@xref[2]{\@setref\relax\@undefined{#1}}
\newlabel{t:notation}{{I}{2}{{\em \normalsize Here we summarize the notation used in this paper. }\relax }{table.caption.5}{}}
\@writefile{toc}{\contentsline {section}{\numberline {III}Fast ordering for space filling curves}{2}{section.3}}
\newlabel{sec:sort}{{III}{2}{Fast ordering for space filling curves}{section.3}{}}
\citation{bern99}
\citation{tropf81}
\citation{solomonik10}
\citation{hyksort}
\citation{knuth3}
\citation{samplesort}
\citation{solomonik10}
\citation{hyksort}
\@writefile{loa}{\contentsline {algorithm}{\numberline {1}{\ignorespaces \textsc  {TreeSort}\nobreakspace  {}(Sequential)\relax }}{3}{algorithm.1}}
\newlabel{alg:tsort}{{1}{3}{\tsort ~(Sequential)\relax }{algorithm.1}{}}
\@writefile{toc}{\contentsline {subsection}{\numberline {\unhbox \voidb@x \hbox {III-A}}Sequential TreeSort}{3}{subsection.3.1}}
\newlabel{sec:tsort}{{\unhbox \voidb@x \hbox {III-A}}{3}{Sequential TreeSort}{subsection.3.1}{}}
\@writefile{loa}{\contentsline {algorithm}{\numberline {2}{\ignorespaces \textsc  {DistTreeSort}\relax }}{3}{algorithm.2}}
\newlabel{alg:dsort}{{2}{3}{\dsort \relax }{algorithm.2}{}}
\citation{hyksort}
\citation{hyksort}
\citation{bruck97}
\citation{kale93}
\citation{hyksort}
\citation{solomonik10}
\@writefile{lof}{\contentsline {figure}{\numberline {1}{\ignorespaces  Illustration of the increase in communication costs with increasing levels of \textsc  {TreeSort}. Partitions for the case of $p=3$ are drawn with the boundary of the partition ($s$) and the load-imbalance ($\lambda $) given along with the level ($l$) at which the partition is defined. At each level, the orange partition (\leavevmode {\color  {orange!50}$\blacksquare $}) gets the extra load that is progressively reduced. The green partition (\leavevmode {\color  {green!40}$\blacksquare $}) gets the largest boundary that progressively increases. \relax }}{4}{figure.caption.7}}
\newlabel{fig:flex}{{1}{4}{Illustration of the increase in communication costs with increasing levels of \tsort . Partitions for the case of $p=3$ are drawn with the boundary of the partition ($s$) and the load-imbalance ($\lambda $) given along with the level ($l$) at which the partition is defined. At each level, the orange partition (\textcolor {orange!50}{$\blacksquare $}) gets the extra load that is progressively reduced. The green partition (\textcolor {green!40}{$\blacksquare $}) gets the largest boundary that progressively increases. \relax }{figure.caption.7}{}}
\@writefile{lof}{\contentsline {subfigure}{\numberline{(a)}{\ignorespaces {$\scriptstyle l=1,\nobreakspace {}\lambda =2,\nobreakspace {}s=16$}}}{4}{subfigure.1.1}}
\@writefile{lof}{\contentsline {subfigure}{\numberline{(b)}{\ignorespaces {$\scriptstyle l=2,\nobreakspace {}\lambda =1.2,\nobreakspace {}s=24$}}}{4}{subfigure.1.2}}
\@writefile{lof}{\contentsline {subfigure}{\numberline{(c)}{\ignorespaces {$\scriptstyle l=3,\nobreakspace {}\lambda =1.05,\nobreakspace {}s=28$}}}{4}{subfigure.1.3}}
\@writefile{lof}{\contentsline {subfigure}{\numberline{(d)}{\ignorespaces {$\scriptstyle l=4,\nobreakspace {}\lambda =1.01,\nobreakspace {}s=30$}}}{4}{subfigure.1.4}}
\@writefile{toc}{\contentsline {subsection}{\numberline {\unhbox \voidb@x \hbox {III-B}}Distributed Memory TreeSort}{4}{subsection.3.2}}
\newlabel{sec:dsort}{{\unhbox \voidb@x \hbox {III-B}}{4}{Distributed Memory TreeSort}{subsection.3.2}{}}
\@writefile{lof}{\contentsline {figure}{\numberline {2}{\ignorespaces  Demonstration that the communication costs are non-decreasing with increasing levels of \textsc  {TreeSort}\nobreakspace  {}for most refinements and identification of the pathological case where the surface area decreases (bottom-right). The left column corresponds to initial boundaries (blue line) sharing 1, 2, and 3 faces of the quadrant (rows) that will be refined at level $l$. The remaining columns illustrate the change in surface area for the cases where 1-3 child nodes get added to the blue partition. The numbers represent the surface area of each case.\relax }}{4}{figure.caption.8}}
\newlabel{fig:flexProof}{{2}{4}{Demonstration that the communication costs are non-decreasing with increasing levels of \tsort ~for most refinements and identification of the pathological case where the surface area decreases (bottom-right). The left column corresponds to initial boundaries (blue line) sharing 1, 2, and 3 faces of the quadrant (rows) that will be refined at level $l$. The remaining columns illustrate the change in surface area for the cases where 1-3 child nodes get added to the blue partition. The numbers represent the surface area of each case.\relax }{figure.caption.8}{}}
\@writefile{toc}{\contentsline {subsection}{\numberline {\unhbox \voidb@x \hbox {III-C}}Flexible Partitioning}{4}{subsection.3.3}}
\newlabel{sec:flexPart}{{\unhbox \voidb@x \hbox {III-C}}{4}{Flexible Partitioning}{subsection.3.3}{}}
\citation{pothen90}
\citation{sundar2007}
\citation{SampathAdavaniSundarEtAl08}
\citation{sundar2007}
\citation{bader2012}
\citation{p4est}
\@writefile{lof}{\contentsline {figure}{\numberline {3}{\ignorespaces  Illustration of the list of rotations being kept track of for a quadtree. Only the leaf nodes (\color@box {}{green!30}{$a-m$}) are stored. During traversal, the rotation pattern of the current node (\color@fb@x {}{red}{}{green!30}{d}) as well as all its ancestors (path marked in red) is accessible from the rotation list, $\mathcal  {R}$, indexed by the level of the current node or the ancestor. During traversal, $\mathcal  {R}$ is updated only while moving to a deeper level, using the current node's rotation.\relax }}{5}{figure.caption.9}}
\newlabel{fig:rStack}{{3}{5}{Illustration of the list of rotations being kept track of for a quadtree. Only the leaf nodes (\colorbox {green!30}{$a-m$}) are stored. During traversal, the rotation pattern of the current node (\fcolorbox {red}{green!30}{d}) as well as all its ancestors (path marked in red) is accessible from the rotation list, $\mathcal {R}$, indexed by the level of the current node or the ancestor. During traversal, $\mathcal {R}$ is updated only while moving to a deeper level, using the current node's rotation.\relax }{figure.caption.9}{}}
\@writefile{toc}{\contentsline {section}{\numberline {IV}Efficient Traversals on SFCs}{5}{section.4}}
\newlabel{sec:getNext}{{IV}{5}{Efficient Traversals on SFCs}{section.4}{}}
\@writefile{toc}{\contentsline {subsection}{\numberline {\unhbox \voidb@x \hbox {IV-A}}Octree Meshing and Compression}{5}{subsection.4.1}}
\newlabel{sec-3-3}{{\unhbox \voidb@x \hbox {IV-A}}{5}{Octree Meshing and Compression}{subsection.4.1}{}}
\@writefile{toc}{\contentsline {subsection}{\numberline {\unhbox \voidb@x \hbox {IV-B}}Finite Element Computations and MatVec}{5}{subsection.4.2}}
\citation{SampathSundarAdavaniEtAl08}
\citation{zoltan}
\@writefile{lof}{\contentsline {figure}{\numberline {4}{\ignorespaces Single-core execution times for \textsc  {TreeSort}\nobreakspace  {} and \texttt  {std::sort} for Hilbert (H) and Morton (M) curves for input size ($n$) varying form $10^6$ to $10^9$.\relax }}{6}{figure.caption.10}}
\newlabel{fig::fsm::seq}{{4}{6}{Single-core execution times for \tsort ~ and \texttt {std::sort} for Hilbert (H) and Morton (M) curves for input size ($n$) varying form $10^6$ to $10^9$.\relax }{figure.caption.10}{}}
\@writefile{toc}{\contentsline {section}{\numberline {V}Performance Evaluation}{6}{section.5}}
\newlabel{sec:results}{{V}{6}{Performance Evaluation}{section.5}{}}
\@writefile{toc}{\contentsline {subsection}{\numberline {\unhbox \voidb@x \hbox {V-A}}Implementation details}{6}{subsection.5.1}}
\@writefile{toc}{\contentsline {subsection}{\numberline {\unhbox \voidb@x \hbox {V-B}}Shared Memory Performance}{6}{subsection.5.2}}
\newlabel{sec:shMem}{{\unhbox \voidb@x \hbox {V-B}}{6}{Shared Memory Performance}{subsection.5.2}{}}
\@writefile{lof}{\contentsline {figure}{\numberline {5}{\ignorespaces  Strong (fixed-size) and Weak (isogranular) scaling results with breakdown into the major stages(local sort, all to all, splitter calculation) for \textsc  {TreeSort}(Hilbert), \textsc  {SampleSort}(Morton) and \textsc  {SampleSort}(Hilbert). The strong scaling experiment is performed using an octree withh $10^9$ octants and the weak scaling with a grain size of $10^7$ octants per process.\relax }}{7}{figure.caption.11}}
\newlabel{fig:shMem}{{5}{7}{Strong (fixed-size) and Weak (isogranular) scaling results with breakdown into the major stages(local sort, all to all, splitter calculation) for \tsort (Hilbert), \ssort (Morton) and \ssort (Hilbert). The strong scaling experiment is performed using an octree withh $10^9$ octants and the weak scaling with a grain size of $10^7$ octants per process.\relax }{figure.caption.11}{}}
\@writefile{toc}{\contentsline {subsection}{\numberline {\unhbox \voidb@x \hbox {V-C}}Distributed Memory Scalability}{7}{subsection.5.3}}
\@writefile{toc}{\contentsline {subsection}{\numberline {\unhbox \voidb@x \hbox {V-D}}Quality of SFC-induced partitions}{7}{subsection.5.4}}
\newlabel{sec-4-1}{{\unhbox \voidb@x \hbox {V-D}}{7}{Quality of SFC-induced partitions}{subsection.5.4}{}}
\@writefile{toc}{\contentsline {paragraph}{\numberline {\unhbox \voidb@x \hbox {V-D}0a}Number of processors communicated with.}{7}{paragraph.5.4.0.1}}
\@writefile{lof}{\contentsline {figure}{\numberline {6}{\ignorespaces Weak scaling results for \textsc  {TreeSort}(Hilbert), \textsc  {SampleSort}(Morton) , \textsc  {SampleSort}(Hilbert) and Zoltan(Hilbert) with a grain size of $10^6$ octants on \href  {https://www.tacc.utexas.edu/stampede/}{Stampede}. \textit  {Note: We were unable to run Zoltan(Hilbert) for $p>256$.}\relax }}{8}{figure.caption.12}}
\newlabel{Stampede::par::weak_scaling}{{6}{8}{Weak scaling results for \tsort (Hilbert), \ssort (Morton) , \ssort (Hilbert) and Zoltan(Hilbert) with a grain size of $10^6$ octants on \Stampede . \textit {Note: We were unable to run Zoltan(Hilbert) for $p>256$.}\relax }{figure.caption.12}{}}
\@writefile{toc}{\contentsline {paragraph}{\numberline {\unhbox \voidb@x \hbox {V-D}0b}Total data communicated.}{8}{paragraph.5.4.0.2}}
\@writefile{toc}{\contentsline {paragraph}{\numberline {\unhbox \voidb@x \hbox {V-D}0c}Maximum communication to/from any processor.}{8}{paragraph.5.4.0.3}}
\@writefile{toc}{\contentsline {subsection}{\numberline {\unhbox \voidb@x \hbox {V-E}}Matrix Vector Multiplication (\textsc  {matvec})}{8}{subsection.5.5}}
\newlabel{sec-4-2}{{\unhbox \voidb@x \hbox {V-E}}{8}{Matrix Vector Multiplication (\mvec )}{subsection.5.5}{}}
\@writefile{toc}{\contentsline {section}{\numberline {VI}Conclusions \& Future Work}{8}{section.6}}
\newlabel{sec:conclude}{{VI}{8}{Conclusions \& Future Work}{section.6}{}}
\@writefile{lof}{\contentsline {figure}{\numberline {7}{\ignorespaces Weak scaling results breakdown (local sort , all to all , splitter calculation) for \textsc  {TreeSort}(Hilbert), \textsc  {SampleSort}(Morton) and \textsc  {SampleSort}(Hilbert) with a grain size of $10^6$ octants on \href  {https://www.tacc.utexas.edu/stampede/}{Stampede}\nobreakspace  {} (top) and on \href  {https://www.olcf.ornl.gov/titan/}{Titan}\nobreakspace  {}(bottom) with a grain size of $5 \times 10^6$ octants. The scalability of \textsc  {TreeSort}\nobreakspace  {}is better than \textsc  {SampleSort}\nobreakspace  {} for both the Hilbert as well as the Morton ordering.\relax }}{9}{figure.caption.13}}
\newlabel{Stampede::par::weak_scaling_breakdown}{{7}{9}{Weak scaling results breakdown (local sort , all to all , splitter calculation) for \tsort (Hilbert), \textsc {SampleSort}(Morton) and \textsc {SampleSort}(Hilbert) with a grain size of $10^6$ octants on \Stampede ~ (top) and on \Titan ~(bottom) with a grain size of $5 \times 10^6$ octants. The scalability of \tsort ~is better than \ssort ~ for both the Hilbert as well as the Morton ordering.\relax }{figure.caption.13}{}}
\@writefile{lof}{\contentsline {figure}{\numberline {8}{\ignorespaces  Average number of processors that each process communicates with while using Hilbert and Morton partitioning. The results correspond a weak scaling experiment on Titan with a grain size of $100K$ points/process. The average for Hilbert stabilizes at 20 for $p>256$, while it continues to increase for Morton.\relax }}{9}{figure.caption.14}}
\newlabel{fig:pCnt}{{8}{9}{Average number of processors that each process communicates with while using Hilbert and Morton partitioning. The results correspond a weak scaling experiment on Titan with a grain size of $100K$ points/process. The average for Hilbert stabilizes at 20 for $p>256$, while it continues to increase for Morton.\relax }{figure.caption.14}{}}
\@writefile{lof}{\contentsline {figure}{\numberline {9}{\ignorespaces  Total data communicated for weak scaling experiment on Titan with a grain size of $100K$ points/process. The kinks in data communicated at $p=2^6,2^9$ and $2^{12}$, correspond to cases where we have a simple cubic partition, i.e., partitions corresponding to a lower level of the octree.\relax }}{9}{figure.caption.15}}
\newlabel{fig:total_data}{{9}{9}{Total data communicated for weak scaling experiment on Titan with a grain size of $100K$ points/process. The kinks in data communicated at $p=2^6,2^9$ and $2^{12}$, correspond to cases where we have a simple cubic partition, i.e., partitions corresponding to a lower level of the octree.\relax }{figure.caption.15}{}}
\citation{merrill11}
\citation{thrust}
\citation{niedermeier97}
\bibstyle{IEEEtran}
\bibdata{IEEEfull,references,hari}
\bibcite{doe10}{1}
\bibcite{shalf2011}{2}
\bibcite{campbell2003}{3}
\bibcite{devine2005}{4}
\bibcite{sundar2007}{5}
\bibcite{bender51}{6}
\bibcite{slurm}{7}
\bibcite{samplesort}{8}
\bibcite{zoltan}{9}
\bibcite{chaco}{10}
\@writefile{lof}{\contentsline {figure}{\numberline {10}{\ignorespaces   Statistics for the maximum communication ($\mathcal  {C}_i$) to/from any process for weak scaling with a grain size of $100K$ octants per process on \href  {https://www.olcf.ornl.gov/titan/}{Titan}. $\mathcal  {C}_i$ is lower for Hilbert in both the mean (indicative of point-to-point communications) as well as max (indicative of collective communications) sense.\relax }}{10}{figure.caption.16}}
\newlabel{fig:CCIMB}{{10}{10}{Statistics for the maximum communication ($\mathcal {C}_i$) to/from any process for weak scaling with a grain size of $100K$ octants per process on \Titan . $\mathcal {C}_i$ is lower for Hilbert in both the mean (indicative of point-to-point communications) as well as max (indicative of collective communications) sense.\relax }{figure.caption.16}{}}
\@writefile{lof}{\contentsline {figure}{\numberline {11}{\ignorespaces  Maximum \textsc  {matvec}\ execution time across all processes for weak scaling experiment with a grain size of $100K$ octants per process on \href  {https://www.olcf.ornl.gov/titan/}{Titan}. Hilbert is faster for all cases. The fluctuations are due to the \textsc  {matvec}\nobreakspace  {}code overlapping communication with computation. \relax }}{10}{figure.caption.17}}
\newlabel{fig:matvec}{{11}{10}{Maximum \mvec \ execution time across all processes for weak scaling experiment with a grain size of $100K$ octants per process on \Titan . Hilbert is faster for all cases. The fluctuations are due to the \mvec ~code overlapping communication with computation. \relax }{figure.caption.17}{}}
\@writefile{toc}{\contentsline {section}{References}{10}{section*.18}}
\bibcite{metis}{11}
\bibcite{parmetis}{12}
\bibcite{scotch}{13}
\bibcite{jostle}{14}
\bibcite{bader2012}{15}
\bibcite{BonkiMoon}{16}
\bibcite{abel1990}{17}
\bibcite{gunther2006}{18}
\bibcite{butz1971alternative}{19}
\bibcite{Hamilton2008}{20}
\bibcite{jin2005using}{21}
\bibcite{yzelman2012}{22}
\bibcite{luitjens2007parallel}{23}
\bibcite{p4est}{24}
\bibcite{knuth3}{25}
\bibcite{SampathSundarAdavaniEtAl08}{26}
\bibcite{hyksort}{27}
\bibcite{bern99}{28}
\bibcite{tropf81}{29}
\bibcite{solomonik10}{30}
\bibcite{bruck97}{31}
\bibcite{kale93}{32}
\bibcite{pothen90}{33}
\bibcite{SampathAdavaniSundarEtAl08}{34}
\bibcite{merrill11}{35}
\bibcite{thrust}{36}
\bibcite{niedermeier97}{37}
