,JobID,BENCH-Start,BENCH-End,Runtime,ENERGY-PerNode,ENERGY-NSamples,ENERGY-Total
0,78,2016-07-07 20:32:01,2016-07-07 20:59:02,1621.0,"[364203.57599999959, 378390.95199999999, 378472.41599999944, 367738.05599999963, 377154.48799999995, 374929.08800000022, 355003.36800000007, 386331.33599999984]","[1400, 1347, 1353, 1357, 1363, 1335, 1334, 1351]",2982223.28
1,76,2016-07-07 16:20:08,2016-07-07 16:31:53,705.0,"[162286.46400000015, 166640.88799999989, 167147.23199999999, 163125.21599999984, 165619.58399999989, 165176.99199999985, 159800.06400000016, 172603.59199999986]","[698, 654, 660, 655, 663, 663, 655, 664]",1322400.032
2,74,2016-07-07 15:56:40,2016-07-07 16:08:26,706.0,"[157945.18399999978, 164219.32799999992, 165310.37600000008, 161328.07200000007, 164791.70400000006, 162526.264, 155613.23200000011, 169606.01600000024]","[701, 654, 659, 660, 648, 671, 642, 642]",1301340.176
3,75,2016-07-07 16:08:26,2016-07-07 16:20:08,702.0,"[161793.14399999994, 167301.73599999995, 166468.91999999993, 161391.89599999986, 164887.30399999986, 165211.63999999996, 157857.54400000005, 169558.88799999992]","[689, 640, 663, 656, 644, 651, 637, 659]",1314471.072
