P9 0 3977 P9
P8 0 6208 P8
P7 0 6466 P7
P63 0 7653 P63
P62 0 6585 P62
P61 0 6965 P61
P60 0 5848 P60
P6 0 6921 P6
P59 0 5246 P59
P58 0 7390 P58
P57 0 6362 P57
P56 0 5605 P56
P55 0 5915 P55
P54 0 7351 P54
P53 0 4908 P53
P52 0 6760 P52
P51 0 8126 P51
P50 0 6256 P50
P5 0 6709 P5
P49 0 6211 P49
P48 0 6527 P48
P47 0 6433 P47
P46 0 7382 P46
P45 0 6399 P45
P44 0 7046 P44
P43 0 7490 P43
P42 0 7049 P42
P41 0 4380 P41
P40 0 6295 P40
P4 0 7669 P4
P39 0 6725 P39
P38 0 6070 P38
P37 0 7031 P37
P36 0 6805 P36
P35 0 6152 P35
P34 0 5983 P34
P33 0 5683 P33
P32 0 6559 P32
P31 0 6972 P31
P30 0 6905 P30
P3 0 5907 P3
P29 0 7090 P29
P28 0 6829 P28
P27 0 4451 P27
P26 0 6730 P26
P25 0 4155 P25
P24 0 5469 P24
P23 0 7170 P23
P22 0 5442 P22
P21 0 6278 P21
P20 0 6840 P20
P2 0 7828 P2
P19 0 6802 P19
P18 0 6744 P18
P17 0 7305 P17
P16 0 5837 P16
P15 0 6647 P15
P14 0 6094 P14
P13 0 6070 P13
P12 0 5469 P12
P11 0 7773 P11
P10 0 6501 P10
P1 0 6194 P1
P0 0 4964 P0
