npes	tol	localSz_min	localSz_max	ld_imb	bdy_min	bdy_mean	bdy_max	com_imb
256	0.00001	552412	552428	1.00003	36345	43776.3	51715	1.422891732
256	0.0001	552318	552507	1.00034	36301	43761	51725	1.4248918763
256	0.001	551727	553288	1.00283	36050	43638	51154	1.4189736477
256	0.01	543508	559953	1.03026	35118	43077.6	50059	1.4254513355
256	0.1	453929	636035	1.40118	31957	41272.1	52438	1.6408924492
256	0.2	374959	751415	2.00399	29556	40568.3	53740	1.8182433347
256	0.3	337630	787388	2.3321	26703	39523.7	55299	2.0708909111
256	0.4	323396	831503	2.57116	26210	38889.6	55299	2.1098435712
256	0.5	213097	1052963	4.94124	18434	38249.6	64440	3.4957144407
