JobID,SFC,GrainSize,Dim,MaxDepth,Tolerance,Iterations,BENCH-Start,BENCH-End,Runtime,ENERGY-PerNode,ENERGY-NSamples,ENERGY-Total
74,Morton,1000000.0,3.0,30.0,0.1,100.0,2016-07-07 15:56:40,2016-07-07 16:08:26,706.0,"[157945.18399999978, 164219.32799999992, 165310.37600000008, 161328.07200000007, 164791.70400000006, 162526.264, 155613.23200000011, 169606.01600000024]","[701, 654, 659, 660, 648, 671, 642, 642]",1301340.176
75,Morton,1000000.0,3.0,30.0,0.01,100.0,2016-07-07 16:08:26,2016-07-07 16:20:08,702.0,"[161793.14399999994, 167301.73599999995, 166468.91999999993, 161391.89599999986, 164887.30399999986, 165211.63999999996, 157857.54400000005, 169558.88799999992]","[689, 640, 663, 656, 644, 651, 637, 659]",1314471.072
76,Morton,1000000.0,3.0,30.0,0.001,100.0,2016-07-07 16:20:08,2016-07-07 16:31:53,705.0,"[162286.46400000015, 166640.88799999989, 167147.23199999999, 163125.21599999984, 165619.58399999989, 165176.99199999985, 159800.06400000016, 172603.59199999986]","[698, 654, 660, 655, 663, 663, 655, 664]",1322400.032
78,,,,,,,2016-07-07 20:32:01,2016-07-07 20:59:02,1621.0,"[364203.57599999959, 378390.95199999999, 378472.41599999944, 367738.05599999963, 377154.48799999995, 374929.08800000022, 355003.36800000007, 386331.33599999984]","[1400, 1347, 1353, 1357, 1363, 1335, 1334, 1351]",2982223.28
82,Morton,1000000.0,3.0,30.0,0.1,400.0,2016-07-09 23:23:57,2016-07-10 00:00:13,2176.0,"[513173.16800000006, 534562.34400000027, 530453.81600000011, 523091.08800000028, 530061.49599999981, 529162.46399999934, 499635.38400000008, 541551.29600000056]","[1959, 1815, 1799, 1856, 1829, 1813, 1786, 1820]",4201691.056
83,Morton,1000000.0,3.0,30.0,0.01,400.0,2016-07-10 00:00:13,2016-07-10 00:36:16,2163.0,"[518668.94399999914, 535015.41600000008, 530797.00800000015, 524296.2000000003, 529585.90399999951, 527384.81600000081, 497121.35999999964, 540415.87200000056]","[1881, 1780, 1823, 1820, 1830, 1794, 1776, 1810]",4203285.52
84,Morton,1000000.0,3.0,30.0,0.001,400.0,2016-07-10 00:36:16,2016-07-10 01:12:22,2166.0,"[518255.18400000088, 536107.95199999935, 533539.11999999953, 521851.7280000007, 534051.83200000029, 529764.60799999919, 497903.98400000087, 539969.10399999958]","[1943, 1797, 1818, 1833, 1818, 1818, 1801, 1812]",4211443.512
85,Morton,1000000.0,3.0,30.0,0.1,20.0,2016-07-10 01:12:22,2016-07-10 01:17:31,309.0,"[67192.304000000018, 68778.49599999997, 68063.815999999977, 65422.48000000001, 69568.047999999922, 68425.695999999967, 63859.167999999932, 67630.48000000001]","[357, 347, 358, 345, 347, 352, 361, 359]",538940.488
86,Morton,1000000.0,3.0,30.0,0.01,20.0,2016-07-10 01:17:31,2016-07-10 01:22:41,310.0,"[67813.288, 67466.351999999941, 68144.711999999985, 65786.855999999971, 67395.167999999961, 66691.703999999998, 64413.631999999925, 67791.25600000011]","[368, 342, 347, 347, 342, 346, 337, 350]",535502.968
87,Morton,1000000.0,3.0,30.0,0.001,20.0,2016-07-10 01:22:41,2016-07-10 01:27:49,308.0,"[66092.448000000048, 67024.455999999962, 66505.583999999988, 66601.59199999999, 66401.088000000047, 66653.263999999923, 63819.455999999976, 69368.87199999993]","[357, 335, 341, 352, 344, 342, 341, 340]",532466.76
92,Morton,1000000.0,3.0,30.0,0.1,400.0,2016-07-10 13:22:58,2016-07-10 13:37:47,889.0,"[122549.087999999, 122132.79999999973, 124041.11199999996, 119939.44799999993, 120491.5359999996, 120687.02399999989, 119625.56799999969, 125337.73600000056]","[2355, 2239, 2248, 2273, 2252, 2243, 2225, 2269]",974804.312
96,Morton,1000000.0,3.0,30.0,0.01,400.0,2016-07-10 13:37:47,2016-07-10 13:52:30,883.0,"[121438.90399999908, 123149.84800000009, 122367.19200000005, 119853.99999999977, 120345.19999999944, 122580.06399999994, 119424.2799999999, 124812.04000000017]","[2327, 2249, 2250, 2265, 2219, 2235, 2235, 2244]",973971.528
97,Morton,1000000.0,3.0,30.0,0.01,400.0,2016-07-10 13:52:30,2016-07-10 14:07:24,894.0,"[123494.75199999851, 123795.43200000036, 124310.72799999962, 121584.81600000011, 122061.45599999999, 123212.32799999989, 120964.47999999972, 126565.10400000056]","[2345, 2276, 2265, 2252, 2248, 2274, 2264, 2253]",985989.096
98,Morton,1000000.0,3.0,30.0,0.1,20.0,2016-07-10 14:07:24,2016-07-10 14:09:54,150.0,"[19192.248000000011, 18769.439999999995, 19364.775999999998, 18864.791999999987, 18702.640000000021, 18332.008000000009, 18668.031999999988, 18795.823999999993]","[392, 380, 376, 377, 376, 375, 379, 373]",150689.76
99,Morton,1000000.0,3.0,30.0,0.01,20.0,2016-07-10 14:09:54,2016-07-10 14:12:25,151.0,"[19891.51999999999, 19114.335999999996, 19412.67200000001, 18742.848000000009, 19154.911999999986, 18727.80799999999, 19001.176000000003, 19600.671999999999]","[389, 383, 374, 381, 378, 382, 382, 381]",153645.944
100,Morton,1000000.0,3.0,30.0,0.001,20.0,2016-07-10 14:12:25,2016-07-10 14:14:55,150.0,"[19595.792000000001, 18642.303999999975, 18336.464, 19664.343999999997, 19353.456000000006, 19288.007999999994, 19332.35200000001, 19405.671999999988]","[397, 374, 380, 371, 373, 373, 370, 373]",153618.392
