JobID,AllocCPUS,AveCPU,AvePages,AveRSS,AveVMSize,BATCH,BENCH-End,BENCH-Start,ENERGY-NSamples,ENERGY-PerNode,ENERGY-Total,Elapsed,End,ExitCode,FREQ,JobName,MaxPages,MaxPagesNode,MaxPagesTask,MaxRSS,MaxRSSNode,MaxRSSTask,MaxVMSize,MaxVMSizeNode,MaxVMSizeTask,MinCPU,MinCPUNode,MinCPUTask,NTasks,NodeList,Partition,Runtime,SITE,Start,State,SFC,GrainSize,Dim,MaxDepth,Tolerance,Iterations
74,256,,,,,74-79,2016-07-07 16:08:26,2016-07-07 15:56:40,"[701, 654, 659, 660, 648, 671, 642, 642]","[157945.18399999978, 164219.32799999992, 165310.37600000008, 161328.07200000007, 164791.70400000006, 162526.264, 155613.23200000011, 169606.01600000024]",1301340.176,00:11:46,2016-07-07T16:08:26,0:0,0.0,sc16_flexPart_single.pbs,,,,30185.084,,,,,,,,,,"['c220g1-030811.wisc.cloudlab.us', 'c220g1-030805.wisc.cloudlab.us', 'c220g1-030809.wisc.cloudlab.us', 'c220g1-030803.wisc.cloudlab.us', 'c220g1-030806.wisc.cloudlab.us', 'c220g1-030804.wisc.cloudlab.us', 'c220g1-030820.wisc.cloudlab.us', 'c220g1-030801.wisc.cloudlab.us']",all,706.0,wisc,2016-07-07T15:56:40,COMPLETED,Morton,1000000.0,3.0,30.0,0.1,100.0
75,256,,,,,74-79,2016-07-07 16:20:08,2016-07-07 16:08:26,"[689, 640, 663, 656, 644, 651, 637, 659]","[161793.14399999994, 167301.73599999995, 166468.91999999993, 161391.89599999986, 164887.30399999986, 165211.63999999996, 157857.54400000005, 169558.88799999992]",1314471.072,00:11:42,2016-07-07T16:20:08,0:0,0.0,sc16_flexPart_single.pbs,,,,31228.032,,,,,,,,,,"['c220g1-030811.wisc.cloudlab.us', 'c220g1-030805.wisc.cloudlab.us', 'c220g1-030809.wisc.cloudlab.us', 'c220g1-030803.wisc.cloudlab.us', 'c220g1-030806.wisc.cloudlab.us', 'c220g1-030804.wisc.cloudlab.us', 'c220g1-030820.wisc.cloudlab.us', 'c220g1-030801.wisc.cloudlab.us']",all,702.0,wisc,2016-07-07T16:08:26,COMPLETED,Morton,1000000.0,3.0,30.0,0.01,100.0
76,256,,,,,74-79,2016-07-07 16:31:53,2016-07-07 16:20:08,"[698, 654, 660, 655, 663, 663, 655, 664]","[162286.46400000015, 166640.88799999989, 167147.23199999999, 163125.21599999984, 165619.58399999989, 165176.99199999985, 159800.06400000016, 172603.59199999986]",1322400.032,00:11:45,2016-07-07T16:31:53,0:0,0.0,sc16_flexPart_single.pbs,,,,32186.548,,,,,,,,,,"['c220g1-030811.wisc.cloudlab.us', 'c220g1-030805.wisc.cloudlab.us', 'c220g1-030809.wisc.cloudlab.us', 'c220g1-030803.wisc.cloudlab.us', 'c220g1-030806.wisc.cloudlab.us', 'c220g1-030804.wisc.cloudlab.us', 'c220g1-030820.wisc.cloudlab.us', 'c220g1-030801.wisc.cloudlab.us']",all,705.0,wisc,2016-07-07T16:20:08,COMPLETED,Morton,1000000.0,3.0,30.0,0.001,100.0
78,256,,,,,74-79,2016-07-07 20:59:02,2016-07-07 20:32:01,"[1400, 1347, 1353, 1357, 1363, 1335, 1334, 1351]","[364203.57599999959, 378390.95199999999, 378472.41599999944, 367738.05599999963, 377154.48799999995, 374929.08800000022, 355003.36800000007, 386331.33599999984]",2982223.28,00:27:01,2016-07-07T20:59:02,0:0,0.0,sc16_flexPart_single.pbs,,,,32760.124,,,,,,,,,,"['c220g1-030811.wisc.cloudlab.us', 'c220g1-030805.wisc.cloudlab.us', 'c220g1-030809.wisc.cloudlab.us', 'c220g1-030803.wisc.cloudlab.us', 'c220g1-030806.wisc.cloudlab.us', 'c220g1-030804.wisc.cloudlab.us', 'c220g1-030820.wisc.cloudlab.us', 'c220g1-030801.wisc.cloudlab.us']",all,1621.0,wisc,2016-07-07T20:32:01,COMPLETED,,,,,,
82,256,,,,,82-87,2016-07-10 00:00:13,2016-07-09 23:23:57,"[1959, 1815, 1799, 1856, 1829, 1813, 1786, 1820]","[513173.16800000006, 534562.34400000027, 530453.81600000011, 523091.08800000028, 530061.49599999981, 529162.46399999934, 499635.38400000008, 541551.29600000056]",4201691.056,00:36:16,2016-07-10T00:00:13,0:0,0.0,sc16_flexPart_single.pbs,,,,28230.388,,,,,,,,,,"['c220g1-030811.wisc.cloudlab.us', 'c220g1-030805.wisc.cloudlab.us', 'c220g1-030809.wisc.cloudlab.us', 'c220g1-030803.wisc.cloudlab.us', 'c220g1-030806.wisc.cloudlab.us', 'c220g1-030804.wisc.cloudlab.us', 'c220g1-030820.wisc.cloudlab.us', 'c220g1-030801.wisc.cloudlab.us']",all,2176.0,wisc,2016-07-09T23:23:57,COMPLETED,Morton,1000000.0,3.0,30.0,0.1,400.0
83,256,,,,,82-87,2016-07-10 00:36:16,2016-07-10 00:00:13,"[1881, 1780, 1823, 1820, 1830, 1794, 1776, 1810]","[518668.94399999914, 535015.41600000008, 530797.00800000015, 524296.2000000003, 529585.90399999951, 527384.81600000081, 497121.35999999964, 540415.87200000056]",4203285.52,00:36:03,2016-07-10T00:36:16,0:0,0.0,sc16_flexPart_single.pbs,,,,21954.036,,,,,,,,,,"['c220g1-030811.wisc.cloudlab.us', 'c220g1-030805.wisc.cloudlab.us', 'c220g1-030809.wisc.cloudlab.us', 'c220g1-030803.wisc.cloudlab.us', 'c220g1-030806.wisc.cloudlab.us', 'c220g1-030804.wisc.cloudlab.us', 'c220g1-030820.wisc.cloudlab.us', 'c220g1-030801.wisc.cloudlab.us']",all,2163.0,wisc,2016-07-10T00:00:13,COMPLETED,Morton,1000000.0,3.0,30.0,0.01,400.0
84,256,,,,,82-87,2016-07-10 01:12:22,2016-07-10 00:36:16,"[1943, 1797, 1818, 1833, 1818, 1818, 1801, 1812]","[518255.18400000088, 536107.95199999935, 533539.11999999953, 521851.7280000007, 534051.83200000029, 529764.60799999919, 497903.98400000087, 539969.10399999958]",4211443.512,00:36:06,2016-07-10T01:12:22,0:0,0.0,sc16_flexPart_single.pbs,,,,22290.172,,,,,,,,,,"['c220g1-030811.wisc.cloudlab.us', 'c220g1-030805.wisc.cloudlab.us', 'c220g1-030809.wisc.cloudlab.us', 'c220g1-030803.wisc.cloudlab.us', 'c220g1-030806.wisc.cloudlab.us', 'c220g1-030804.wisc.cloudlab.us', 'c220g1-030820.wisc.cloudlab.us', 'c220g1-030801.wisc.cloudlab.us']",all,2166.0,wisc,2016-07-10T00:36:16,COMPLETED,Morton,1000000.0,3.0,30.0,0.001,400.0
85,256,,,,,82-87,2016-07-10 01:17:31,2016-07-10 01:12:22,"[357, 347, 358, 345, 347, 352, 361, 359]","[67192.304000000018, 68778.49599999997, 68063.815999999977, 65422.48000000001, 69568.047999999922, 68425.695999999967, 63859.167999999932, 67630.48000000001]",538940.488,00:05:09,2016-07-10T01:17:31,0:0,0.0,sc16_flexPart_single.pbs,,,,21839.88,,,,,,,,,,"['c220g1-030811.wisc.cloudlab.us', 'c220g1-030805.wisc.cloudlab.us', 'c220g1-030809.wisc.cloudlab.us', 'c220g1-030803.wisc.cloudlab.us', 'c220g1-030806.wisc.cloudlab.us', 'c220g1-030804.wisc.cloudlab.us', 'c220g1-030820.wisc.cloudlab.us', 'c220g1-030801.wisc.cloudlab.us']",all,309.0,wisc,2016-07-10T01:12:22,COMPLETED,Morton,1000000.0,3.0,30.0,0.1,20.0
86,256,,,,,82-87,2016-07-10 01:22:41,2016-07-10 01:17:31,"[368, 342, 347, 347, 342, 346, 337, 350]","[67813.288, 67466.351999999941, 68144.711999999985, 65786.855999999971, 67395.167999999961, 66691.703999999998, 64413.631999999925, 67791.25600000011]",535502.968,00:05:10,2016-07-10T01:22:41,0:0,0.0,sc16_flexPart_single.pbs,,,,21885.372,,,,,,,,,,"['c220g1-030811.wisc.cloudlab.us', 'c220g1-030805.wisc.cloudlab.us', 'c220g1-030809.wisc.cloudlab.us', 'c220g1-030803.wisc.cloudlab.us', 'c220g1-030806.wisc.cloudlab.us', 'c220g1-030804.wisc.cloudlab.us', 'c220g1-030820.wisc.cloudlab.us', 'c220g1-030801.wisc.cloudlab.us']",all,310.0,wisc,2016-07-10T01:17:31,COMPLETED,Morton,1000000.0,3.0,30.0,0.01,20.0
87,256,,,,,82-87,2016-07-10 01:27:49,2016-07-10 01:22:41,"[357, 335, 341, 352, 344, 342, 341, 340]","[66092.448000000048, 67024.455999999962, 66505.583999999988, 66601.59199999999, 66401.088000000047, 66653.263999999923, 63819.455999999976, 69368.87199999993]",532466.76,00:05:08,2016-07-10T01:27:49,0:0,0.0,sc16_flexPart_single.pbs,,,,21992.172,,,,,,,,,,"['c220g1-030811.wisc.cloudlab.us', 'c220g1-030805.wisc.cloudlab.us', 'c220g1-030809.wisc.cloudlab.us', 'c220g1-030803.wisc.cloudlab.us', 'c220g1-030806.wisc.cloudlab.us', 'c220g1-030804.wisc.cloudlab.us', 'c220g1-030820.wisc.cloudlab.us', 'c220g1-030801.wisc.cloudlab.us']",all,308.0,wisc,2016-07-10T01:22:41,COMPLETED,Morton,1000000.0,3.0,30.0,0.001,20.0
