Zoltan_Malloc (from ../.././src/Utilities/DDirectory/DD_Update.c,192) No space on proc 0 - number of bytes requested = 12262510944
[0] Zoltan ERROR in Zoltan_DD_Update (line 194 of ../.././src/Utilities/DDirectory/DD_Update.c):  Receive buffer malloc failed

[0] Trace:
[0] (0) Zoltan_Order
slurmstepd: *** JOB 6833121 CANCELLED AT 2016-04-03T13:53:30 DUE TO TIME LIMIT on c435-003 ***
