npes	numPts	option	tol	1_sf_min	1_sf_mean	1_sf_max	1_split_min	1_split_mean	1_split_max	1_a2a1_min	1_a2a1_mean	1_a2a1_max	1_a2a2_min	1_a2a2_mean	1_a2a2_max	1_ls_min	1_ls_mean	1_ls_max	1_sq::rd_min	1_sq::rd_mean	1_sq::rd_max	1_auxBal_min	1_auxBal_mean	1_auxBal_max	1_par::rd_min	1_par::rd_mean	1_par::rd_max	1_totRD_min	1_totRD_mean	1_totRD_max
2	1000000	1	0.1	0	0	0	40	40	40	0	0	0	12	12	12	185	198	211	18	18	18	0	0	0	2	15	28	266	266	266
4	1000000	1	0.1	43	43	43	28	42.5	57	13	13	13	7	8.5	10	152	201.5	247	14	17.5	21	0	0	0	2	63	128	361	361	361
8	1000000	1	0.1	46	46.75	47	36	51	66	16	16	16	13	18	20	151	215.25	258	12	18.375	24	0	0	0	3	60.5	137	393	393.5	394
16	1000000	1	0.1	62	62	62	32	53.5	63	20	21.125	22	8	13.625	17	129	211.5	283	11	17.3125	22	0	0	0	3	84.5625	193	426	426.688	427
32	1000000	1	0.1	81	81.4062	82	40	63.0938	73	38	40.2188	41	10	16.5938	21	123	221.812	288	10	22.6875	31	0	0	0	4	82.6562	210	466	467.219	468
64	1000000	1	0.1	104	104.453	106	56	74.3594	104	46	54.2969	56	12	16.5156	20	169	229.781	304	14	25.0156	40	0	0	0	4	110.297	195	536	537.281	539
128	1000000	1	0.1	139	141.102	143	60	75.9922	96	77	87.3281	92	16	22.2422	27	171	233.914	307	14	25.2578	37	0	0	0	4	98.9453	180	572	573.984	576
256	1000000	1	0.1	175	182.863	186	52	77.7031	102	91	112.949	119	12	22.3398	31	138	238.906	350	10	24.9375	39	0	0	0	4	143.812	276	660	667.707	672
512	1000000	1	0.1	182	184.932	187	58	83.0625	107	84	116.295	127	25	41.3633	56	142	244.256	355	10	24.7441	41	0	0	0	4	152.791	294	706	708.406	710
1024	1000000	1	0.1	218	226.919	229	69	88.9873	114	115	140.865	150	32	41.5215	53	152	248.195	351	12	24.7256	39	0	0	0	4	135.89	258	734	743.489	746
2048	1000000	1	0.1	228	274.825	278	75	96.5547	176	97	113.205	127	47	61.1006	77	155	253.157	359	12	24.3711	40	0	0	0	13	176.254	305	816	863.91	874
4096	1000000	1	0.1	278	342.529	355	61	101.809	177	99	113.827	125	37	61.7952	90	135	259.175	399	9	24.7312	43	0	0	0	10	217.934	400	921	985.241	998
